\relax 
\providecommand\hyper@newdestlabel[2]{}
\providecommand\zref@newlabel[2]{}
\@writefile{toc}{\contentsline {chapter}{\numberline {23}Homomorphismes d'espaces vectoriels}{527}{chapter.4884}\protected@file@percent }
\@writefile{lof}{\addvspace {10\p@ }}
\@writefile{lot}{\addvspace {10\p@ }}
\@writefile{lof}{\contentsline {xchapter}{Homomorphismes d'espaces vectoriels}{528}{chapter.4884}\protected@file@percent }
\@writefile{lot}{\contentsline {xchapter}{Homomorphismes d'espaces vectoriels}{528}{chapter.4884}\protected@file@percent }
\@writefile{toc}{\contentsline {section}{\numberline {23.1}Conservation de la structure}{528}{section.4885}\protected@file@percent }
\@writefile{toc}{\contentsline {subsection}{\numberline {23.1.1}D\IeC {\'e}finition}{528}{subsection.4886}\protected@file@percent }
\@writefile{toc}{\contentsline {subsection}{\numberline {23.1.2}Conservation du neutre}{528}{subsection.4890}\protected@file@percent }
\@writefile{toc}{\contentsline {subsection}{\numberline {23.1.3}Caract\IeC {\'e}risation des applications lin\IeC {\'e}aires}{529}{subsection.4894}\protected@file@percent }
\@writefile{toc}{\contentsline {subsection}{\numberline {23.1.4}Espace vectoriel des applications lin\IeC {\'e}aires}{529}{subsection.4901}\protected@file@percent }
\@writefile{toc}{\contentsline {subsection}{\numberline {23.1.5}Composition des applications lin\IeC {\'e}aires}{530}{subsection.4904}\protected@file@percent }
\@writefile{toc}{\contentsline {subsection}{\numberline {23.1.6}Noyau d'un homomorphisme}{530}{subsection.4907}\protected@file@percent }
\@writefile{toc}{\contentsline {subsubsection}{\numberline {23.1.6.1}D\IeC {\'e}finition}{530}{subsubsection.4908}\protected@file@percent }
\@writefile{toc}{\contentsline {subsubsection}{\numberline {23.1.6.2}Avec Python}{531}{subsubsection.4912}\protected@file@percent }
\@writefile{toc}{\contentsline {paragraph}{\numberline {23.1.6.2.1}Avec SymPy}{531}{paragraph.4913}\protected@file@percent }
\@writefile{toc}{\contentsline {paragraph}{\numberline {23.1.6.2.2}Avec SciPy}{532}{paragraph.4914}\protected@file@percent }
\@writefile{toc}{\contentsline {subsubsection}{\numberline {23.1.6.3}Noyau et injectivit\IeC {\'e}}{532}{subsubsection.4915}\protected@file@percent }
\@writefile{toc}{\contentsline {subsection}{\numberline {23.1.7}Image d'un homomorphisme}{532}{subsection.4920}\protected@file@percent }
\@writefile{toc}{\contentsline {subsubsection}{\numberline {23.1.7.1}D\IeC {\'e}finition}{532}{subsubsection.4921}\protected@file@percent }
\newlabel{thm::vectim}{{23-10}{532}{Définition}{theoreme.4924}{}}
\@writefile{toc}{\contentsline {subsubsection}{\numberline {23.1.7.2}Avec Python}{533}{subsubsection.4925}\protected@file@percent }
\@writefile{toc}{\contentsline {subsubsection}{\numberline {23.1.7.3}Image et surjectivit\IeC {\'e}}{533}{subsubsection.4926}\protected@file@percent }
\@writefile{toc}{\contentsline {section}{\numberline {23.2}Homomorphismes particuliers}{533}{section.4930}\protected@file@percent }
\@writefile{toc}{\contentsline {subsection}{\numberline {23.2.1}{\LARGE  \bfseries  \begingroup \fontencoding  {LGR}\selectfont  \<isos\endgroup  (\IeC {\'e}gal)}}{533}{subsection.4931}\protected@file@percent }
\newlabel{def::iso}{{23-6}{534}{{\LARGE \bfseries \textgreek {\<isos} (égal)}}{definition.4933}{}}
\@writefile{toc}{\contentsline {subsection}{\numberline {23.2.2}{\LARGE  \bfseries  \begingroup \fontencoding  {LGR}\selectfont  \<endov\endgroup  (dans)}}{534}{subsection.4934}\protected@file@percent }
\@writefile{toc}{\contentsline {subsection}{\numberline {23.2.3}{\LARGE  \bfseries  \begingroup \fontencoding  {LGR}\selectfont  a\<utos\endgroup  (lui-m\IeC {\^e}me)}}{534}{subsection.4939}\protected@file@percent }
\@writefile{toc}{\contentsline {subsection}{\numberline {23.2.4}Morphismes, libert\IeC {\'e}, g\IeC {\'e}n\IeC {\'e}ration}{534}{subsection.4941}\protected@file@percent }
\newlabel{thm::morlib}{{23-14}{534}{Morphismes, liberté, génération}{theoreme.4942}{}}
\@writefile{toc}{\contentsline {section}{\numberline {23.3}Cas de la dimension finie}{534}{section.4946}\protected@file@percent }
\@writefile{toc}{\contentsline {subsection}{\numberline {23.3.1}D\IeC {\'e}termination d'une application lin\IeC {\'e}aire \IeC {\`a} l'aide d'une base}{534}{subsection.4947}\protected@file@percent }
\newlabel{41@xvr}{{}{535}}
\newlabel{41@vr}{{}{535}}
\newlabel{exo::im}{{23.12}{535}{Détermination d'une application linéaire à l'aide d'une base}{recherche.4949}{}}
\@writefile{toc}{\contentsline {subsection}{\numberline {23.3.2}Espaces isomorphes et dimension}{535}{subsection.4950}\protected@file@percent }
\newlabel{42@xvr}{{}{535}}
\newlabel{42@vr}{{}{535}}
\newlabel{43@xvr}{{}{536}}
\newlabel{43@vr}{{}{536}}
\@writefile{toc}{\contentsline {subsection}{\numberline {23.3.3}Rang d'une application lin\IeC {\'e}aire}{536}{subsection.4956}\protected@file@percent }
\newlabel{44@xvr}{{}{536}}
\newlabel{44@vr}{{}{536}}
\@writefile{toc}{\contentsline {subsection}{\numberline {23.3.4}Injectivit\IeC {\'e} et surjectivit\IeC {\'e} en dimension finie}{537}{subsection.4959}\protected@file@percent }
\@writefile{toc}{\contentsline {section}{\numberline {23.4}Apart\IeC {\'e}: l'hyperplan, le noyau et la forme lin\IeC {\'e}aire}{537}{section.4961}\protected@file@percent }
\@writefile{toc}{\contentsline {section}{\numberline {23.5}Matrices et applications lin\IeC {\'e}aires}{538}{section.4964}\protected@file@percent }
\@writefile{toc}{\contentsline {subsection}{\numberline {23.5.1}Matrice d'une famille}{538}{subsection.4965}\protected@file@percent }
\@writefile{toc}{\contentsline {subsection}{\numberline {23.5.2}Matrice d'une application lin\IeC {\'e}aire}{539}{subsection.4968}\protected@file@percent }
\@writefile{toc}{\contentsline {subsubsection}{\numberline {23.5.2.1}d\IeC {\'e}finition}{539}{subsubsection.4969}\protected@file@percent }
\@writefile{toc}{\contentsline {subsubsection}{\numberline {23.5.2.2}Comprendre un \IeC {\'e}nonc\IeC {\'e}}{539}{subsubsection.4972}\protected@file@percent }
\@writefile{toc}{\contentsline {subsection}{\numberline {23.5.3}Calcul de l'image d'un vecteur et produit matriciel]}{539}{subsection.4974}\protected@file@percent }
\@writefile{toc}{\contentsline {subsubsection}{\numberline {23.5.3.1}Cas particulier}{539}{subsubsection.4975}\protected@file@percent }
\@writefile{toc}{\contentsline {subsubsection}{\numberline {23.5.3.2}Cas g\IeC {\'e}n\IeC {\'e}ral}{540}{subsubsection.4976}\protected@file@percent }
\@writefile{toc}{\contentsline {subsection}{\numberline {23.5.4}Application canoniquement associ\IeC {\'e}e \IeC {\`a} une matrice}{541}{subsection.4979}\protected@file@percent }
\@writefile{toc}{\contentsline {subsection}{\numberline {23.5.5}Correspondance entre points de vue vectoriel et matriciel sur les homomorphismes}{542}{subsection.4985}\protected@file@percent }
\@writefile{toc}{\contentsline {subsection}{\numberline {23.5.6}Rang d'une matrice}{543}{subsection.4994}\protected@file@percent }
\@writefile{toc}{\contentsline {subsection}{\numberline {23.5.7}Cas particulier des matrices d'endomorphismes}{544}{subsection.4998}\protected@file@percent }
\@writefile{toc}{\contentsline {subsubsection}{\numberline {23.5.7.1}Adaptation du cas g\IeC {\'e}n\IeC {\'e}ral \IeC {\`a} ce cas particulier}{544}{subsubsection.4999}\protected@file@percent }
\@writefile{toc}{\contentsline {subsubsection}{\numberline {23.5.7.2}Polyn\IeC {\^o}mes d'endomorphismes}{544}{subsubsection.5003}\protected@file@percent }
\@writefile{toc}{\contentsline {section}{\numberline {23.6}Entra\IeC {\^\i }nement}{546}{section.5010}\protected@file@percent }
\@writefile{toc}{\contentsline {subsection}{\numberline {23.6.1}Pour celles et ceux qui pensaient pouvoir survoler le cours ]:->}{546}{subsection.5011}\protected@file@percent }
\@writefile{toc}{\contentsline {subsection}{\numberline {23.6.2}Exercices classiques}{546}{subsection.5016}\protected@file@percent }
\@writefile{toc}{\contentsline {subsection}{\numberline {23.6.3}Matrices}{548}{subsection.5087}\protected@file@percent }
\@writefile{toc}{\contentsline {subsection}{\numberline {23.6.4}Aux concours}{550}{subsection.5119}\protected@file@percent }
\@setckpt{applin21}{
\setcounter{page}{553}
\setcounter{equation}{0}
\setcounter{enumi}{9}
\setcounter{enumii}{2}
\setcounter{enumiii}{2}
\setcounter{enumiv}{0}
\setcounter{footnote}{0}
\setcounter{mpfootnote}{0}
\setcounter{part}{0}
\setcounter{chapter}{23}
\setcounter{section}{6}
\setcounter{subsection}{4}
\setcounter{subsubsection}{0}
\setcounter{paragraph}{0}
\setcounter{subparagraph}{0}
\setcounter{figure}{0}
\setcounter{table}{0}
\setcounter{chapterstar}{1}
\setcounter{@stackindex}{0}
\setcounter{ROWcellindex@}{0}
\setcounter{tcbbreakpart}{0}
\setcounter{tcblayer}{0}
\setcounter{tcolorbox@number}{0}
\setcounter{parentequation}{0}
\setcounter{ifsymcnt}{0}
\setcounter{lstnumber}{1}
\setcounter{vrcnt}{44}
\setcounter{tw@hyphen@char@num}{0}
\setcounter{float@type}{64}
\setcounter{subfigure}{0}
\setcounter{lofdepth}{1}
\setcounter{subtable}{0}
\setcounter{lotdepth}{1}
\setcounter{Item}{2795}
\setcounter{Hfootnote}{21}
\setcounter{bookmark@seq@number}{511}
\setcounter{mdf@globalstyle@cnt}{1}
\setcounter{mdfcountframes}{0}
\setcounter{mdf@env@i}{0}
\setcounter{mdf@env@ii}{0}
\setcounter{mdf@zref@counter}{0}
\setcounter{bclogocompteur}{0}
\setcounter{BAenumi}{0}
\setcounter{caption@flags}{0}
\setcounter{continuedfloat}{0}
\setcounter{tabularnote}{0}
\setcounter{num}{0}
\setcounter{qcm}{0}
\setcounter{FancyVerbLine}{6}
\setcounter{linenumber}{3}
\setcounter{LN@truepage}{558}
\setcounter{minted@FancyVerbLineTemp}{0}
\setcounter{listing}{0}
\setcounter{numquestion}{0}
\setcounter{qcm@numb}{0}
\setcounter{numprop}{0}
\setcounter{LT@tables}{0}
\setcounter{LT@chunks}{0}
\setcounter{@LCDdotx}{0}
\setcounter{@LCDdoty}{0}
\setcounter{@LCDchrx}{0}
\setcounter{@LCDlines}{0}
\setcounter{@LCDlower}{0}
\setcounter{nprt@mantissa@digitsbefore}{0}
\setcounter{nprt@mantissa@digitsafter}{0}
\setcounter{nprt@exponent@digitsbefore}{0}
\setcounter{nprt@exponent@digitsafter}{0}
\setcounter{nprt@digitsfirstblock}{1}
\setcounter{nprt@blockcnt}{1}
\setcounter{nprt@cntprint}{0}
\setcounter{tkz@gr@a}{0}
\setcounter{tkz@gr@b}{0}
\setcounter{tkz@gr@c}{0}
\setcounter{tkz@gr@e}{0}
\setcounter{tkz@gr@d}{0}
\setcounter{tkz@gr@p}{1}
\setcounter{tkz@gr@i}{0}
\setcounter{tkz@gr@n}{0}
\setcounter{tkz@gr@ta}{0}
\setcounter{tkz@gr@tb}{0}
\setcounter{tkz@cnt@line}{3}
\setcounter{tkz@cnt@lg}{2}
\setcounter{tkz@cnt@cl}{2}
\setcounter{tkz@cnt@pred}{1}
\setcounter{tkz@cnt@temp}{0}
\setcounter{tkz@cnt@arrow}{2}
\setcounter{tkz@cnt@zone}{0}
\setcounter{tkz@cnt@lgnext}{3}
\setcounter{tkz@cnt@clnext}{2}
\setcounter{tkz@cnt@pair}{2}
\setcounter{tkz@cnt@impair}{2}
\setcounter{tkz@cnt@aw}{2}
\setcounter{C@NumTab}{0}
\setcounter{C@NumGroup}{0}
\setcounter{C@NextNode}{0}
\setcounter{NumC@Node}{0}
\setcounter{NumC@Stop}{0}
\setcounter{C@CurrentStop}{0}
\setcounter{C@CurrentNode}{0}
\setcounter{C@CurrentGroup}{0}
\setcounter{r@tfl@t}{0}
\setcounter{c@imbrication}{-1}
\setcounter{c@indentation}{0}
\setcounter{c@instruction}{20}
\setcounter{c@algo}{2}
\setcounter{c@tabdim}{0}
\setcounter{c@chaineouverte}{0}
\setcounter{floatalgo}{0}
\setcounter{aide}{0}
\setcounter{sol}{0}
\setcounter{mtc}{24}
\setcounter{minitocdepth}{3}
\setcounter{ptc}{0}
\setcounter{parttocdepth}{2}
\setcounter{asy}{0}
\setcounter{theoreme}{30}
\setcounter{lemme}{0}
\setcounter{corollaire}{0}
\setcounter{propriete}{0}
\setcounter{definition}{16}
\setcounter{exemple}{0}
\setcounter{remarque}{80}
\setcounter{recherche}{49}
\setcounter{exercicea}{0}
\setcounter{exerciceb}{0}
\setcounter{exercicec}{0}
\setcounter{pyquestions}{0}
\setcounter{pyxercice}{0}
\setcounter{lstlisting}{0}
\setcounter{section@level}{0}
\setcounter{tabularnotesi}{0}
\setcounter{tabularnotes*i}{0}
\setcounter{minilofdepth}{2}
\setcounter{minilotdepth}{2}
\setcounter{partlofdepth}{2}
\setcounter{partlotdepth}{2}
\setcounter{sectlofdepth}{2}
\setcounter{sectlotdepth}{2}
}
