\relax 
\providecommand\hyper@newdestlabel[2]{}
\providecommand\zref@newlabel[2]{}
\@writefile{toc}{\contentsline {chapter}{\numberline {6}Nombres complexes}{123}{chapter.990}\protected@file@percent }
\@writefile{lof}{\addvspace {10\p@ }}
\@writefile{lot}{\addvspace {10\p@ }}
\@writefile{lof}{\contentsline {xchapter}{Nombres complexes}{124}{chapter.990}\protected@file@percent }
\@writefile{lot}{\contentsline {xchapter}{Nombres complexes}{124}{chapter.990}\protected@file@percent }
\@writefile{toc}{\contentsline {section}{\numberline {6.1}Br\IeC {\`e}ve introduction historique}{124}{section.991}\protected@file@percent }
\@writefile{toc}{\contentsline {subsection}{\numberline {6.1.1}Calculer avec des d\IeC {\'e}placements}{125}{subsection.992}\protected@file@percent }
\@writefile{toc}{\contentsline {subsection}{\numberline {6.1.2}Somme de d\IeC {\'e}placements}{125}{subsection.996}\protected@file@percent }
\@writefile{toc}{\contentsline {subsection}{\numberline {6.1.3}Produit de d\IeC {\'e}placements}{125}{subsection.999}\protected@file@percent }
\@writefile{toc}{\contentsline {section}{\numberline {6.2}Vocabulaire et premi\IeC {\`e}res propri\IeC {\'e}t\IeC {\'e}s}{127}{section.1003}\protected@file@percent }
\@writefile{toc}{\contentsline {subsection}{\numberline {6.2.1}Forme alg\IeC {\'e}brique}{127}{subsection.1005}\protected@file@percent }
\@writefile{toc}{\contentsline {subsection}{\numberline {6.2.2}Le plan complexe}{127}{subsection.1006}\protected@file@percent }
\@writefile{toc}{\contentsline {subsection}{\numberline {6.2.3}Premiers calculs g\IeC {\'e}om\IeC {\'e}triques}{128}{subsection.1008}\protected@file@percent }
\@writefile{toc}{\contentsline {subsection}{\numberline {6.2.4}Conjugu\IeC {\'e} d'un complexe}{128}{subsection.1013}\protected@file@percent }
\@writefile{toc}{\contentsline {subsection}{\numberline {6.2.5}\`A quoi servent les conjugu\IeC {\'e}s ?}{129}{subsection.1017}\protected@file@percent }
\@writefile{toc}{\contentsline {subsubsection}{\numberline {6.2.5.1}\`A montrer qu'un complexe est un r\IeC {\'e}el}{129}{subsubsection.1018}\protected@file@percent }
\@writefile{toc}{\contentsline {subsubsection}{\numberline {6.2.5.2}\`A rendre r\IeC {\'e}el des d\IeC {\'e}nominateurs pour obtenir des formes alg\IeC {\'e}briques}{129}{subsubsection.1019}\protected@file@percent }
\@writefile{toc}{\contentsline {subsection}{\numberline {6.2.6}Conjugu\IeC {\'e} de l'inverse}{129}{subsection.1021}\protected@file@percent }
\@writefile{toc}{\contentsline {subsection}{\numberline {6.2.7}Module d'un nombre complexe}{129}{subsection.1022}\protected@file@percent }
\@writefile{toc}{\contentsline {subsubsection}{\numberline {6.2.7.1}Interpr\IeC {\'e}tation g\IeC {\'e}om\IeC {\'e}trique}{130}{subsubsection.1025}\protected@file@percent }
\@writefile{toc}{\contentsline {subsubsection}{\numberline {6.2.7.2}Propri\IeC {\'e}t\IeC {\'e}s des modules}{130}{subsubsection.1029}\protected@file@percent }
\@writefile{toc}{\contentsline {section}{\numberline {6.3}R\'esolution d'\'equations du second degr\'e}{130}{section.1032}\protected@file@percent }
\@writefile{toc}{\contentsline {subsection}{\numberline {6.3.1}Racine carr\IeC {\'e}e d'un nombre complexe}{130}{subsection.1033}\protected@file@percent }
\@writefile{toc}{\contentsline {subsubsection}{\numberline {6.3.1.1}Racine carr\IeC {\'e}e d'un nombre r\IeC {\'e}el}{131}{subsubsection.1034}\protected@file@percent }
\@writefile{toc}{\contentsline {subsubsection}{\numberline {6.3.1.2}Racine carr\IeC {\'e}e d'un complexe non r\IeC {\'e}el}{131}{subsubsection.1038}\protected@file@percent }
\@writefile{toc}{\contentsline {subsection}{\numberline {6.3.2}R\IeC {\'e}solution de ax\up  {2}+bx+c=0 avec a, b et c des r\IeC {\'e}els}{131}{subsection.1040}\protected@file@percent }
\@writefile{toc}{\contentsline {section}{\numberline {6.4}Forme trigonom\'etrique}{132}{section.1042}\protected@file@percent }
\@writefile{toc}{\contentsline {subsection}{\numberline {6.4.1}Argument d'un complexe non nul}{132}{subsection.1043}\protected@file@percent }
\@writefile{toc}{\contentsline {subsubsection}{\numberline {6.4.1.1}Forme trigonom\IeC {\'e}trique}{132}{subsubsection.1044}\protected@file@percent }
\@writefile{toc}{\contentsline {subsubsection}{\numberline {6.4.1.2}Congruence }{132}{subsubsection.1048}\protected@file@percent }
\@writefile{toc}{\contentsline {subsubsection}{\numberline {6.4.1.3}Mesure d'un angle de vecteurs}{133}{subsubsection.1050}\protected@file@percent }
\@writefile{toc}{\contentsline {subsubsection}{\numberline {6.4.1.4}Des formes trigonom\IeC {\'e}triques de r\IeC {\'e}f\IeC {\'e}rence}{133}{subsubsection.1052}\protected@file@percent }
\@writefile{toc}{\contentsline {subsection}{\numberline {6.4.2}Correspondance forme alg\IeC {\'e}brique - forme trigonom\IeC {\'e}trique}{133}{subsection.1053}\protected@file@percent }
\@writefile{toc}{\contentsline {subsection}{\numberline {6.4.3}Op\IeC {\'e}rations sur les formes trigonom\IeC {\'e}triques}{134}{subsection.1058}\protected@file@percent }
\@writefile{toc}{\contentsline {subsection}{\numberline {6.4.4}Coh\IeC {\'e}rence avec l'essai de Wessel}{135}{subsection.1063}\protected@file@percent }
\@writefile{toc}{\contentsline {section}{\numberline {6.5}Forme exponentielle d'un nombre complexe}{135}{section.1065}\protected@file@percent }
\@writefile{toc}{\contentsline {subsection}{\numberline {6.5.1}Formules d'Euler}{136}{subsection.1067}\protected@file@percent }
\@writefile{toc}{\contentsline {subsection}{\numberline {6.5.2}Racines n-i\IeC {\`e}mes de l'unit\IeC {\'e}}{136}{subsection.1069}\protected@file@percent }
\@writefile{toc}{\contentsline {subsection}{\numberline {6.5.3}Factorisation utile}{137}{subsection.1070}\protected@file@percent }
\@writefile{toc}{\contentsline {section}{\numberline {6.6}Formulaire de trigonom\IeC {\'e}trie }{137}{section.1071}\protected@file@percent }
\@writefile{toc}{\contentsline {section}{\numberline {6.7}Exercices}{138}{section.1072}\protected@file@percent }
\@writefile{toc}{\contentsline {subsection}{\numberline {6.7.1}De l'importance de savoir calculer...}{138}{subsection.1073}\protected@file@percent }
\@writefile{toc}{\contentsline {subsection}{\numberline {6.7.2}Calculs stakhanovistes de Terminale}{138}{subsection.1074}\protected@file@percent }
\newlabel{coeffrac}{{6.7.2}{141}{Calculs stakhanovistes de Terminale}{Item.1192}{}}
\@writefile{toc}{\contentsline {subsection}{\numberline {6.7.3}Aux concours}{142}{subsection.1225}\protected@file@percent }
\@writefile{toc}{\contentsline {subsection}{\numberline {6.7.4}Plus costaud}{143}{subsection.1231}\protected@file@percent }
\@writefile{toc}{\contentsline {subsection}{\numberline {6.7.5}Melting pot}{143}{subsection.1247}\protected@file@percent }
\@writefile{toc}{\contentsline {subsection}{\numberline {6.7.6}TD 2}{145}{subsection.1272}\protected@file@percent }
\@writefile{toc}{\contentsline {subsubsection}{\numberline {6.7.6.1}COURS AU BAC}{145}{subsubsection.1273}\protected@file@percent }
\@writefile{toc}{\contentsline {subsubsection}{\numberline {6.7.6.2}CALCULS}{146}{subsubsection.1283}\protected@file@percent }
\@writefile{toc}{\contentsline {subsubsection}{\numberline {6.7.6.3}COMPLEXES ET \IeC {\'E}LECTRONIQUE}{146}{subsubsection.1299}\protected@file@percent }
\@writefile{toc}{\contentsline {subsubsection}{\numberline {6.7.6.4}COMPLEXES POUR V\IeC {\'E}T\IeC {\'E}RINAIRES}{147}{subsubsection.1309}\protected@file@percent }
\newlabel{croco}{{6.50}{147}{COMPLEXES POUR VÉTÉRINAIRES}{recherche.1310}{}}
\@setckpt{complecs}{
\setcounter{page}{149}
\setcounter{equation}{0}
\setcounter{enumi}{5}
\setcounter{enumii}{2}
\setcounter{enumiii}{4}
\setcounter{enumiv}{0}
\setcounter{footnote}{5}
\setcounter{mpfootnote}{0}
\setcounter{part}{0}
\setcounter{chapter}{6}
\setcounter{section}{7}
\setcounter{subsection}{6}
\setcounter{subsubsection}{4}
\setcounter{paragraph}{0}
\setcounter{subparagraph}{0}
\setcounter{figure}{0}
\setcounter{table}{0}
\setcounter{chapterstar}{1}
\setcounter{@stackindex}{0}
\setcounter{ROWcellindex@}{0}
\setcounter{tcbbreakpart}{0}
\setcounter{tcblayer}{0}
\setcounter{tcolorbox@number}{0}
\setcounter{parentequation}{0}
\setcounter{ifsymcnt}{0}
\setcounter{lstnumber}{1}
\setcounter{vrcnt}{9}
\setcounter{tw@hyphen@char@num}{0}
\setcounter{float@type}{64}
\setcounter{subfigure}{0}
\setcounter{lofdepth}{1}
\setcounter{subtable}{0}
\setcounter{lotdepth}{1}
\setcounter{Item}{712}
\setcounter{Hfootnote}{8}
\setcounter{bookmark@seq@number}{145}
\setcounter{mdf@globalstyle@cnt}{1}
\setcounter{mdfcountframes}{0}
\setcounter{mdf@env@i}{0}
\setcounter{mdf@env@ii}{0}
\setcounter{mdf@zref@counter}{0}
\setcounter{bclogocompteur}{0}
\setcounter{BAenumi}{0}
\setcounter{caption@flags}{0}
\setcounter{continuedfloat}{0}
\setcounter{tabularnote}{0}
\setcounter{num}{0}
\setcounter{qcm}{0}
\setcounter{FancyVerbLine}{19}
\setcounter{linenumber}{3}
\setcounter{LN@truepage}{148}
\setcounter{minted@FancyVerbLineTemp}{0}
\setcounter{listing}{0}
\setcounter{numquestion}{0}
\setcounter{qcm@numb}{0}
\setcounter{numprop}{0}
\setcounter{LT@tables}{0}
\setcounter{LT@chunks}{0}
\setcounter{@LCDdotx}{0}
\setcounter{@LCDdoty}{0}
\setcounter{@LCDchrx}{0}
\setcounter{@LCDlines}{0}
\setcounter{@LCDlower}{0}
\setcounter{nprt@mantissa@digitsbefore}{0}
\setcounter{nprt@mantissa@digitsafter}{0}
\setcounter{nprt@exponent@digitsbefore}{0}
\setcounter{nprt@exponent@digitsafter}{0}
\setcounter{nprt@digitsfirstblock}{0}
\setcounter{nprt@blockcnt}{0}
\setcounter{nprt@cntprint}{0}
\setcounter{tkz@gr@a}{0}
\setcounter{tkz@gr@b}{0}
\setcounter{tkz@gr@c}{0}
\setcounter{tkz@gr@e}{0}
\setcounter{tkz@gr@d}{0}
\setcounter{tkz@gr@p}{1}
\setcounter{tkz@gr@i}{0}
\setcounter{tkz@gr@n}{0}
\setcounter{tkz@gr@ta}{0}
\setcounter{tkz@gr@tb}{0}
\setcounter{tkz@cnt@line}{3}
\setcounter{tkz@cnt@lg}{2}
\setcounter{tkz@cnt@cl}{2}
\setcounter{tkz@cnt@pred}{1}
\setcounter{tkz@cnt@temp}{0}
\setcounter{tkz@cnt@arrow}{2}
\setcounter{tkz@cnt@zone}{0}
\setcounter{tkz@cnt@lgnext}{3}
\setcounter{tkz@cnt@clnext}{2}
\setcounter{tkz@cnt@pair}{2}
\setcounter{tkz@cnt@impair}{2}
\setcounter{tkz@cnt@aw}{2}
\setcounter{C@NumTab}{0}
\setcounter{C@NumGroup}{0}
\setcounter{C@NextNode}{0}
\setcounter{NumC@Node}{0}
\setcounter{NumC@Stop}{0}
\setcounter{C@CurrentStop}{0}
\setcounter{C@CurrentNode}{0}
\setcounter{C@CurrentGroup}{0}
\setcounter{r@tfl@t}{0}
\setcounter{c@imbrication}{-1}
\setcounter{c@indentation}{0}
\setcounter{c@instruction}{20}
\setcounter{c@algo}{2}
\setcounter{c@tabdim}{0}
\setcounter{c@chaineouverte}{0}
\setcounter{floatalgo}{0}
\setcounter{aide}{0}
\setcounter{sol}{0}
\setcounter{mtc}{7}
\setcounter{minitocdepth}{3}
\setcounter{ptc}{0}
\setcounter{parttocdepth}{2}
\setcounter{asy}{0}
\setcounter{theoreme}{5}
\setcounter{lemme}{0}
\setcounter{corollaire}{0}
\setcounter{propriete}{15}
\setcounter{definition}{3}
\setcounter{exemple}{4}
\setcounter{remarque}{17}
\setcounter{recherche}{50}
\setcounter{exercicea}{0}
\setcounter{exerciceb}{0}
\setcounter{exercicec}{0}
\setcounter{pyquestions}{0}
\setcounter{pyxercice}{0}
\setcounter{lstlisting}{0}
\setcounter{section@level}{0}
\setcounter{tabularnotesi}{0}
\setcounter{tabularnotes*i}{0}
\setcounter{minilofdepth}{2}
\setcounter{minilotdepth}{2}
\setcounter{partlofdepth}{2}
\setcounter{partlotdepth}{2}
\setcounter{sectlofdepth}{2}
\setcounter{sectlotdepth}{2}
}
