\relax 
\providecommand\hyper@newdestlabel[2]{}
\providecommand\zref@newlabel[2]{}
\@writefile{toc}{\contentsline {chapter}{\numberline {7}D\IeC {\'e}nombrements}{149}{chapter.1316}\protected@file@percent }
\@writefile{lof}{\addvspace {10\p@ }}
\@writefile{lot}{\addvspace {10\p@ }}
\@writefile{lof}{\contentsline {xchapter}{D\IeC {\'e}nombrements}{150}{chapter.1316}\protected@file@percent }
\@writefile{lot}{\contentsline {xchapter}{D\IeC {\'e}nombrements}{150}{chapter.1316}\protected@file@percent }
\@writefile{toc}{\contentsline {section}{\numberline {7.1}Sommes et produits}{150}{section.1317}\protected@file@percent }
\@writefile{toc}{\contentsline {subsection}{\numberline {7.1.1}notation $\DOTSB \sum@ \slimits@ $}{151}{subsection.1319}\protected@file@percent }
\@writefile{toc}{\contentsline {subsection}{\numberline {7.1.2}Sommes et puissances enti\IeC {\`e}res}{151}{subsection.1325}\protected@file@percent }
\@writefile{toc}{\contentsline {subsubsection}{\numberline {7.1.2.1}Sommes de puissances d'entiers successifs}{151}{subsubsection.1326}\protected@file@percent }
\@writefile{toc}{\contentsline {subsubsection}{\numberline {7.1.2.2}Somme des puissances successives d'un nombre quelconque}{152}{subsubsection.1328}\protected@file@percent }
\@writefile{toc}{\contentsline {subsection}{\numberline {7.1.3}Lin\IeC {\'e}arit\IeC {\'e} de la somme}{152}{subsection.1330}\protected@file@percent }
\@writefile{toc}{\contentsline {subsection}{\numberline {7.1.4}Changement d'indice (r\IeC {\'e}-indexation)}{152}{subsection.1336}\protected@file@percent }
\@writefile{toc}{\contentsline {subsection}{\numberline {7.1.5}Quelques applications utiles}{153}{subsection.1342}\protected@file@percent }
\@writefile{toc}{\contentsline {subsubsection}{\numberline {7.1.5.1}Sommes t\IeC {\'e}lescopiques}{153}{subsubsection.1343}\protected@file@percent }
\@writefile{toc}{\contentsline {subsubsection}{\numberline {7.1.5.2}Factorisation de Bernoulli}{153}{subsubsection.1346}\protected@file@percent }
\@writefile{toc}{\contentsline {subsection}{\numberline {7.1.6}Sommes doubles}{153}{subsection.1348}\protected@file@percent }
\@writefile{toc}{\contentsline {subsection}{\numberline {7.1.7}Produits}{154}{subsection.1351}\protected@file@percent }
\@writefile{toc}{\contentsline {subsubsection}{\numberline {7.1.7.1}D\IeC {\'e}finitions}{154}{subsubsection.1352}\protected@file@percent }
\@writefile{toc}{\contentsline {subsubsection}{\numberline {7.1.7.2}Transformation de produits en sommes}{155}{subsubsection.1361}\protected@file@percent }
\@writefile{toc}{\contentsline {subsubsection}{\numberline {7.1.7.3}Produit t\IeC {\'e}lescopique}{155}{subsubsection.1362}\protected@file@percent }
\@writefile{toc}{\contentsline {section}{\numberline {7.2}Quelques r\IeC {\'e}sultats sur les cardinaux}{156}{section.1364}\protected@file@percent }
\@writefile{toc}{\contentsline {subsection}{\numberline {7.2.1}Cardinal de $ \IeC {\ensuremath  {\mathfrak  P}}(E)$}{156}{subsection.1365}\protected@file@percent }
\@writefile{toc}{\contentsline {subsection}{\numberline {7.2.2}Cardinal d'une partition}{156}{subsection.1367}\protected@file@percent }
\newlabel{cardpart}{{7-11}{156}{Cardinal d'une partition}{theoreme.1368}{}}
\@writefile{toc}{\contentsline {subsection}{\numberline {7.2.3}Cardinaux et inclusion}{156}{subsection.1369}\protected@file@percent }
\newlabel{cardinc}{{7-12}{156}{Cardinaux et inclusion}{theoreme.1370}{}}
\newlabel{10@xvr}{{}{156}}
\newlabel{10@vr}{{}{156}}
\@writefile{toc}{\contentsline {subsection}{\numberline {7.2.4}Formule du crible de Poincar\IeC {\'e}}{156}{subsection.1371}\protected@file@percent }
\newlabel{crible}{{7-13}{156}{Formule du crible de Poincaré}{theoreme.1372}{}}
\@writefile{toc}{\contentsline {subsection}{\numberline {7.2.5}Cardinal d'un produit cart\IeC {\'e}sien}{157}{subsection.1373}\protected@file@percent }
\newlabel{cardprod}{{7-14}{157}{Cardinal d'un produit cartésien}{theoreme.1374}{}}
\@writefile{toc}{\contentsline {section}{\numberline {7.3}D\IeC {\'e}nombrement des ensembles}{157}{section.1375}\protected@file@percent }
\@writefile{toc}{\contentsline {subsection}{\numberline {7.3.1}Nombre de p-listes}{157}{subsection.1376}\protected@file@percent }
\newlabel{11@xvr}{{}{158}}
\newlabel{11@vr}{{}{158}}
\@writefile{toc}{\contentsline {subsection}{\numberline {7.3.2}Nombre de p-listes SANS R\IeC {\'E}P\IeC {\'E}TITION}{158}{subsection.1378}\protected@file@percent }
\@writefile{toc}{\contentsline {subsection}{\numberline {7.3.3}Nombre de permutations}{159}{subsection.1383}\protected@file@percent }
\@writefile{toc}{\contentsline {subsection}{\numberline {7.3.4}Nombre de sous-ensembles}{160}{subsection.1387}\protected@file@percent }
\@writefile{toc}{\contentsline {subsection}{\numberline {7.3.5}Exemple de r\IeC {\'e}f\IeC {\'e}rence: les anagrammes}{161}{subsection.1392}\protected@file@percent }
\@writefile{toc}{\contentsline {section}{\numberline {7.4}Triangle de Pascal - Bin\IeC {\^o}me de Newton}{161}{section.1393}\protected@file@percent }
\@writefile{toc}{\contentsline {subsection}{\numberline {7.4.1}D\IeC {\'e}finition des coefficients binomiaux}{161}{subsection.1394}\protected@file@percent }
\@writefile{toc}{\contentsline {subsubsection}{\numberline {7.4.1.1}Avec Python}{161}{subsubsection.1398}\protected@file@percent }
\@writefile{toc}{\contentsline {subsection}{\numberline {7.4.2}Relation de Pascal}{162}{subsection.1399}\protected@file@percent }
\newlabel{fpascal}{{7-20}{162}{Relation de Pascal}{theoreme.1400}{}}
\@writefile{toc}{\contentsline {subsection}{\numberline {7.4.3}Et pour quelques formules de plus}{164}{subsection.1405}\protected@file@percent }
\@writefile{toc}{\contentsline {section}{\numberline {7.5}Des m\IeC {\'e}thodes-miracle}{164}{section.1408}\protected@file@percent }
\@writefile{toc}{\contentsline {section}{\numberline {7.6}Entra\IeC {\^\i }nement}{165}{section.1409}\protected@file@percent }
\@writefile{toc}{\contentsline {subsection}{\numberline {7.6.1}Sommes et produits}{165}{subsection.1410}\protected@file@percent }
\@writefile{toc}{\contentsline {subsection}{\numberline {7.6.2}Des jeux}{167}{subsection.1462}\protected@file@percent }
\@writefile{toc}{\contentsline {subsection}{\numberline {7.6.3}Le retour des sommes}{169}{subsection.1513}\protected@file@percent }
\@setckpt{denomb21}{
\setcounter{page}{171}
\setcounter{equation}{0}
\setcounter{enumi}{2}
\setcounter{enumii}{3}
\setcounter{enumiii}{4}
\setcounter{enumiv}{0}
\setcounter{footnote}{0}
\setcounter{mpfootnote}{0}
\setcounter{part}{0}
\setcounter{chapter}{7}
\setcounter{section}{6}
\setcounter{subsection}{3}
\setcounter{subsubsection}{0}
\setcounter{paragraph}{0}
\setcounter{subparagraph}{0}
\setcounter{figure}{0}
\setcounter{table}{0}
\setcounter{chapterstar}{1}
\setcounter{@stackindex}{0}
\setcounter{ROWcellindex@}{0}
\setcounter{tcbbreakpart}{0}
\setcounter{tcblayer}{0}
\setcounter{tcolorbox@number}{0}
\setcounter{parentequation}{0}
\setcounter{ifsymcnt}{0}
\setcounter{lstnumber}{1}
\setcounter{vrcnt}{11}
\setcounter{tw@hyphen@char@num}{0}
\setcounter{float@type}{64}
\setcounter{subfigure}{0}
\setcounter{lofdepth}{1}
\setcounter{subtable}{0}
\setcounter{lotdepth}{1}
\setcounter{Item}{793}
\setcounter{Hfootnote}{8}
\setcounter{bookmark@seq@number}{175}
\setcounter{mdf@globalstyle@cnt}{1}
\setcounter{mdfcountframes}{0}
\setcounter{mdf@env@i}{0}
\setcounter{mdf@env@ii}{0}
\setcounter{mdf@zref@counter}{0}
\setcounter{bclogocompteur}{0}
\setcounter{BAenumi}{0}
\setcounter{caption@flags}{0}
\setcounter{continuedfloat}{0}
\setcounter{tabularnote}{0}
\setcounter{num}{0}
\setcounter{qcm}{0}
\setcounter{FancyVerbLine}{1}
\setcounter{linenumber}{3}
\setcounter{LN@truepage}{170}
\setcounter{minted@FancyVerbLineTemp}{0}
\setcounter{listing}{0}
\setcounter{numquestion}{0}
\setcounter{qcm@numb}{0}
\setcounter{numprop}{0}
\setcounter{LT@tables}{0}
\setcounter{LT@chunks}{0}
\setcounter{@LCDdotx}{0}
\setcounter{@LCDdoty}{0}
\setcounter{@LCDchrx}{0}
\setcounter{@LCDlines}{0}
\setcounter{@LCDlower}{0}
\setcounter{nprt@mantissa@digitsbefore}{0}
\setcounter{nprt@mantissa@digitsafter}{0}
\setcounter{nprt@exponent@digitsbefore}{0}
\setcounter{nprt@exponent@digitsafter}{0}
\setcounter{nprt@digitsfirstblock}{7}
\setcounter{nprt@blockcnt}{7}
\setcounter{nprt@cntprint}{2}
\setcounter{tkz@gr@a}{0}
\setcounter{tkz@gr@b}{0}
\setcounter{tkz@gr@c}{0}
\setcounter{tkz@gr@e}{0}
\setcounter{tkz@gr@d}{0}
\setcounter{tkz@gr@p}{1}
\setcounter{tkz@gr@i}{0}
\setcounter{tkz@gr@n}{0}
\setcounter{tkz@gr@ta}{0}
\setcounter{tkz@gr@tb}{0}
\setcounter{tkz@cnt@line}{3}
\setcounter{tkz@cnt@lg}{2}
\setcounter{tkz@cnt@cl}{2}
\setcounter{tkz@cnt@pred}{1}
\setcounter{tkz@cnt@temp}{0}
\setcounter{tkz@cnt@arrow}{2}
\setcounter{tkz@cnt@zone}{0}
\setcounter{tkz@cnt@lgnext}{3}
\setcounter{tkz@cnt@clnext}{2}
\setcounter{tkz@cnt@pair}{2}
\setcounter{tkz@cnt@impair}{2}
\setcounter{tkz@cnt@aw}{2}
\setcounter{C@NumTab}{0}
\setcounter{C@NumGroup}{0}
\setcounter{C@NextNode}{0}
\setcounter{NumC@Node}{0}
\setcounter{NumC@Stop}{0}
\setcounter{C@CurrentStop}{0}
\setcounter{C@CurrentNode}{0}
\setcounter{C@CurrentGroup}{0}
\setcounter{r@tfl@t}{0}
\setcounter{c@imbrication}{-1}
\setcounter{c@indentation}{0}
\setcounter{c@instruction}{20}
\setcounter{c@algo}{2}
\setcounter{c@tabdim}{0}
\setcounter{c@chaineouverte}{0}
\setcounter{floatalgo}{0}
\setcounter{aide}{0}
\setcounter{sol}{0}
\setcounter{mtc}{8}
\setcounter{minitocdepth}{3}
\setcounter{ptc}{0}
\setcounter{parttocdepth}{2}
\setcounter{asy}{0}
\setcounter{theoreme}{23}
\setcounter{lemme}{0}
\setcounter{corollaire}{0}
\setcounter{propriete}{0}
\setcounter{definition}{9}
\setcounter{exemple}{2}
\setcounter{remarque}{28}
\setcounter{recherche}{50}
\setcounter{exercicea}{0}
\setcounter{exerciceb}{0}
\setcounter{exercicec}{0}
\setcounter{pyquestions}{0}
\setcounter{pyxercice}{0}
\setcounter{lstlisting}{0}
\setcounter{section@level}{0}
\setcounter{tabularnotesi}{0}
\setcounter{tabularnotes*i}{0}
\setcounter{minilofdepth}{2}
\setcounter{minilotdepth}{2}
\setcounter{partlofdepth}{2}
\setcounter{partlotdepth}{2}
\setcounter{sectlofdepth}{2}
\setcounter{sectlotdepth}{2}
}
