\relax 
\providecommand\hyper@newdestlabel[2]{}
\providecommand\zref@newlabel[2]{}
\@writefile{toc}{\contentsline {chapter}{\numberline {20}D\IeC {\'e}rivation : approfondissements}{481}{chapter.4385}\protected@file@percent }
\@writefile{lof}{\addvspace {10\p@ }}
\@writefile{lot}{\addvspace {10\p@ }}
\@writefile{lof}{\contentsline {xchapter}{D\IeC {\'e}rivation : approfondissements}{482}{chapter.4385}\protected@file@percent }
\@writefile{lot}{\contentsline {xchapter}{D\IeC {\'e}rivation : approfondissements}{482}{chapter.4385}\protected@file@percent }
\@writefile{toc}{\contentsline {section}{\numberline {20.1}D\IeC {\'e}riv\IeC {\'e}es successives}{482}{section.4386}\protected@file@percent }
\@writefile{toc}{\contentsline {subsection}{\numberline {20.1.1}Pr\IeC {\'e}liminaire : variation des variations}{482}{subsection.4387}\protected@file@percent }
\@writefile{toc}{\contentsline {subsection}{\numberline {20.1.2}Fonction de classe $C^p$ sur un intervalle}{482}{subsection.4389}\protected@file@percent }
\@writefile{toc}{\contentsline {subsection}{\numberline {20.1.3}Un nouveau tableau}{483}{subsection.4397}\protected@file@percent }
\@writefile{toc}{\contentsline {subsection}{\numberline {20.1.4}Lin\IeC {\'e}arit\IeC {\'e}}{483}{subsection.4398}\protected@file@percent }
\@writefile{toc}{\contentsline {subsection}{\numberline {20.1.5}Formule de Leibniz}{483}{subsection.4401}\protected@file@percent }
\newlabel{th::leibniz}{{20-3}{483}{Formule de Leibniz}{theoreme.4402}{}}
\@writefile{toc}{\contentsline {subsection}{\numberline {20.1.6}Th\IeC {\'e}or\IeC {\`e}me de composition}{484}{subsection.4407}\protected@file@percent }
\newlabel{39@xvr}{{}{484}}
\newlabel{39@vr}{{}{484}}
\@writefile{toc}{\contentsline {section}{\numberline {20.2}Les grands th\IeC {\'e}or\IeC {\`e}mes}{484}{section.4409}\protected@file@percent }
\@writefile{toc}{\contentsline {subsection}{\numberline {20.2.1} Que dire de la d\IeC {\'e}riv\IeC {\'e}e en un extremum local?}{484}{subsection.4410}\protected@file@percent }
\newlabel{extreloc}{{20-5}{484}{ Que dire de la dérivée en un extremum local?}{theoreme.4412}{}}
\@writefile{toc}{\contentsline {subsection}{\numberline {20.2.2}Th\IeC {\'e}or\IeC {\`e}me de Rolle}{485}{subsection.4419}\protected@file@percent }
\@writefile{toc}{\contentsline {subsection}{\numberline {20.2.3}Accroissements finis}{486}{subsection.4422}\protected@file@percent }
\@writefile{toc}{\contentsline {subsection}{\numberline {20.2.4}Exemple d'application aux suites d\IeC {\'e}finies par $u_{n+1}=f(u_n)$}{487}{subsection.4426}\protected@file@percent }
\@writefile{toc}{\contentsline {section}{\numberline {20.3}Annexe: de nouvelles m\IeC {\'e}thodes en Analyse}{488}{section.4431}\protected@file@percent }
\newlabel{met3:inegder}{{20.3}{488}{Annexe: de nouvelles méthodes en Analyse}{section.4431}{}}
\newlabel{met3:bijprat}{{20.3}{488}{Annexe: de nouvelles méthodes en Analyse}{section.4431}{}}
\newlabel{met3:bijth}{{20.3}{489}{Annexe: de nouvelles méthodes en Analyse}{section.4431}{}}
\newlabel{met13:derivabilite}{{20.3}{489}{Annexe: de nouvelles méthodes en Analyse}{section.4431}{}}
\newlabel{met13:prolongement}{{20.3}{490}{Annexe: de nouvelles méthodes en Analyse}{section.4431}{}}
\@writefile{toc}{\contentsline {section}{\numberline {20.4}Jeux}{491}{section.4432}\protected@file@percent }
\newlabel{exo3:derivation}{{20.14}{492}{Jeux}{recherche.4468}{}}
\newlabel{exo3:bijective}{{20.15}{492}{Jeux}{recherche.4469}{}}
\@setckpt{der_app_21}{
\setcounter{page}{497}
\setcounter{equation}{0}
\setcounter{enumi}{5}
\setcounter{enumii}{4}
\setcounter{enumiii}{4}
\setcounter{enumiv}{0}
\setcounter{footnote}{0}
\setcounter{mpfootnote}{0}
\setcounter{part}{0}
\setcounter{chapter}{20}
\setcounter{section}{4}
\setcounter{subsection}{0}
\setcounter{subsubsection}{0}
\setcounter{paragraph}{0}
\setcounter{subparagraph}{0}
\setcounter{figure}{0}
\setcounter{table}{0}
\setcounter{chapterstar}{1}
\setcounter{@stackindex}{0}
\setcounter{ROWcellindex@}{0}
\setcounter{tcbbreakpart}{0}
\setcounter{tcblayer}{0}
\setcounter{tcolorbox@number}{0}
\setcounter{parentequation}{0}
\setcounter{ifsymcnt}{0}
\setcounter{lstnumber}{1}
\setcounter{vrcnt}{39}
\setcounter{tw@hyphen@char@num}{0}
\setcounter{float@type}{64}
\setcounter{subfigure}{0}
\setcounter{lofdepth}{1}
\setcounter{subtable}{0}
\setcounter{lotdepth}{1}
\setcounter{Item}{2444}
\setcounter{Hfootnote}{21}
\setcounter{bookmark@seq@number}{446}
\setcounter{mdf@globalstyle@cnt}{1}
\setcounter{mdfcountframes}{0}
\setcounter{mdf@env@i}{0}
\setcounter{mdf@env@ii}{0}
\setcounter{mdf@zref@counter}{0}
\setcounter{bclogocompteur}{0}
\setcounter{BAenumi}{0}
\setcounter{caption@flags}{0}
\setcounter{continuedfloat}{0}
\setcounter{tabularnote}{0}
\setcounter{num}{0}
\setcounter{qcm}{0}
\setcounter{FancyVerbLine}{21}
\setcounter{linenumber}{3}
\setcounter{LN@truepage}{502}
\setcounter{minted@FancyVerbLineTemp}{0}
\setcounter{listing}{0}
\setcounter{numquestion}{0}
\setcounter{qcm@numb}{0}
\setcounter{numprop}{0}
\setcounter{LT@tables}{0}
\setcounter{LT@chunks}{0}
\setcounter{@LCDdotx}{0}
\setcounter{@LCDdoty}{0}
\setcounter{@LCDchrx}{0}
\setcounter{@LCDlines}{0}
\setcounter{@LCDlower}{0}
\setcounter{nprt@mantissa@digitsbefore}{0}
\setcounter{nprt@mantissa@digitsafter}{0}
\setcounter{nprt@exponent@digitsbefore}{0}
\setcounter{nprt@exponent@digitsafter}{0}
\setcounter{nprt@digitsfirstblock}{1}
\setcounter{nprt@blockcnt}{1}
\setcounter{nprt@cntprint}{0}
\setcounter{tkz@gr@a}{0}
\setcounter{tkz@gr@b}{0}
\setcounter{tkz@gr@c}{0}
\setcounter{tkz@gr@e}{0}
\setcounter{tkz@gr@d}{0}
\setcounter{tkz@gr@p}{1}
\setcounter{tkz@gr@i}{0}
\setcounter{tkz@gr@n}{0}
\setcounter{tkz@gr@ta}{0}
\setcounter{tkz@gr@tb}{0}
\setcounter{tkz@cnt@line}{3}
\setcounter{tkz@cnt@lg}{2}
\setcounter{tkz@cnt@cl}{2}
\setcounter{tkz@cnt@pred}{1}
\setcounter{tkz@cnt@temp}{0}
\setcounter{tkz@cnt@arrow}{2}
\setcounter{tkz@cnt@zone}{0}
\setcounter{tkz@cnt@lgnext}{3}
\setcounter{tkz@cnt@clnext}{2}
\setcounter{tkz@cnt@pair}{2}
\setcounter{tkz@cnt@impair}{2}
\setcounter{tkz@cnt@aw}{2}
\setcounter{C@NumTab}{0}
\setcounter{C@NumGroup}{0}
\setcounter{C@NextNode}{0}
\setcounter{NumC@Node}{0}
\setcounter{NumC@Stop}{0}
\setcounter{C@CurrentStop}{0}
\setcounter{C@CurrentNode}{0}
\setcounter{C@CurrentGroup}{0}
\setcounter{r@tfl@t}{0}
\setcounter{c@imbrication}{-1}
\setcounter{c@indentation}{0}
\setcounter{c@instruction}{20}
\setcounter{c@algo}{2}
\setcounter{c@tabdim}{0}
\setcounter{c@chaineouverte}{0}
\setcounter{floatalgo}{0}
\setcounter{aide}{0}
\setcounter{sol}{0}
\setcounter{mtc}{21}
\setcounter{minitocdepth}{3}
\setcounter{ptc}{0}
\setcounter{parttocdepth}{2}
\setcounter{asy}{0}
\setcounter{theoreme}{10}
\setcounter{lemme}{0}
\setcounter{corollaire}{0}
\setcounter{propriete}{0}
\setcounter{definition}{5}
\setcounter{exemple}{1}
\setcounter{remarque}{74}
\setcounter{recherche}{26}
\setcounter{exercicea}{0}
\setcounter{exerciceb}{0}
\setcounter{exercicec}{0}
\setcounter{pyquestions}{0}
\setcounter{pyxercice}{0}
\setcounter{lstlisting}{0}
\setcounter{section@level}{0}
\setcounter{tabularnotesi}{0}
\setcounter{tabularnotes*i}{0}
\setcounter{minilofdepth}{2}
\setcounter{minilotdepth}{2}
\setcounter{partlofdepth}{2}
\setcounter{partlotdepth}{2}
\setcounter{sectlofdepth}{2}
\setcounter{sectlotdepth}{2}
}
