\relax 
\providecommand\hyper@newdestlabel[2]{}
\providecommand\zref@newlabel[2]{}
\@writefile{toc}{\contentsline {chapter}{\numberline {9}D\IeC {\'e}riv\IeC {\'e}es et primitives: rappels}{197}{chapter.1810}\protected@file@percent }
\@writefile{lof}{\addvspace {10\p@ }}
\@writefile{lot}{\addvspace {10\p@ }}
\@writefile{lof}{\contentsline {xchapter}{D\IeC {\'e}riv\IeC {\'e}es et primitives: rappels}{198}{chapter.1810}\protected@file@percent }
\@writefile{lot}{\contentsline {xchapter}{D\IeC {\'e}riv\IeC {\'e}es et primitives: rappels}{198}{chapter.1810}\protected@file@percent }
\@writefile{toc}{\contentsline {section}{\numberline {9.1}D\IeC {\'e}rivation}{198}{section.1811}\protected@file@percent }
\@writefile{toc}{\contentsline {subsubsection}{\numberline {9.1.0.1}Fermat et le probl\IeC {\`e}me du maximum et du minimum}{198}{subsubsection.1812}\protected@file@percent }
\@writefile{toc}{\contentsline {subsubsection}{\numberline {9.1.0.2}\textsc  {Newton}, \textsc  {Leibniz} et \textsc  {Bernoulli}}{199}{subsubsection.1815}\protected@file@percent }
\@writefile{toc}{\contentsline {subsubsection}{\numberline {9.1.0.3}D\IeC {\'e}riv\IeC {\'e}e d'une combinaison lin\IeC {\'e}aire}{200}{subsubsection.1819}\protected@file@percent }
\@writefile{toc}{\contentsline {subsubsection}{\numberline {9.1.0.4}D\IeC {\'e}riv\IeC {\'e}e d'un produit}{200}{subsubsection.1821}\protected@file@percent }
\@writefile{toc}{\contentsline {subsubsection}{\numberline {9.1.0.5}D\IeC {\'e}riv\IeC {\'e}e d'un quotient}{200}{subsubsection.1824}\protected@file@percent }
\@writefile{toc}{\contentsline {subsection}{\numberline {9.1.1}Le cours version longue: nombre d\IeC {\'e}riv\IeC {\'e}}{202}{subsection.1830}\protected@file@percent }
\@writefile{toc}{\contentsline {subsubsection}{\numberline {9.1.1.1}La bataille de la tangente}{202}{subsubsection.1831}\protected@file@percent }
\@writefile{toc}{\contentsline {subsubsection}{\numberline {9.1.1.2}Newton et la vitesse}{202}{subsubsection.1834}\protected@file@percent }
\@writefile{toc}{\contentsline {subsubsection}{\numberline {9.1.1.3}Leibniz et la tangente}{202}{subsubsection.1835}\protected@file@percent }
\@writefile{toc}{\contentsline {subsubsection}{\numberline {9.1.1.4}Qu'est-ce que la d\IeC {\'e}riv\IeC {\'e}e d'une fonction en un point ?}{203}{subsubsection.1837}\protected@file@percent }
\@writefile{toc}{\contentsline {subsubsection}{\numberline {9.1.1.5}Comment lever certaines ind\IeC {\'e}terminations avec un calcul de nombre d\IeC {\'e}riv\IeC {\'e}?}{204}{subsubsection.1839}\protected@file@percent }
\@writefile{toc}{\contentsline {subsubsection}{\numberline {9.1.1.6}Comment calculer la d\IeC {\'e}riv\IeC {\'e}e d'une fonction en a?}{204}{subsubsection.1846}\protected@file@percent }
\@writefile{toc}{\contentsline {subsubsection}{\numberline {9.1.1.7}L'id\IeC {\'e}e fondamentale du calcul diff\IeC {\'e}rentiel: l'approximation locale des fonctions par des fonctions affines}{205}{subsubsection.1847}\protected@file@percent }
\newlabel{approx}{{9-6}{205}{L'idée fondamentale du calcul différentiel: l'approximation locale des fonctions par des fonctions affines}{theoreme.1848}{}}
\@writefile{toc}{\contentsline {subsection}{\numberline {9.1.2}Le cours version longue - suite: variations des fonctions}{206}{subsection.1849}\protected@file@percent }
\@writefile{toc}{\contentsline {subsubsection}{\numberline {9.1.2.1}Qu'est-ce qu'une fonction d\IeC {\'e}rivable sur un intervalle ?}{206}{subsubsection.1850}\protected@file@percent }
\@writefile{toc}{\contentsline {subsubsection}{\numberline {9.1.2.2}Quel est le signe de la d\IeC {\'e}riv\IeC {\'e}e d'une fonction croissante sur une partie de R ?}{206}{subsubsection.1851}\protected@file@percent }
\@writefile{toc}{\contentsline {subsubsection}{\numberline {9.1.2.3}Une fonction dont la d\IeC {\'e}riv\IeC {\'e}e est n\IeC {\'e}gative est-elle d\IeC {\'e}croissante ?}{206}{subsubsection.1853}\protected@file@percent }
\@writefile{toc}{\contentsline {subsubsection}{\numberline {9.1.2.4}Comment montrer qu'une fonction est strictement croissante ?}{207}{subsubsection.1855}\protected@file@percent }
\@writefile{toc}{\contentsline {subsubsection}{\numberline {9.1.2.5}Que dire de la derivee en un extremum local?}{208}{subsubsection.1858}\protected@file@percent }
\newlabel{extreloc}{{9-9}{208}{Que dire de la derivee en un extremum local?}{theoreme.1859}{}}
\@writefile{toc}{\contentsline {subsubsection}{\numberline {9.1.2.6}Peut-on \IeC {\'e}tudier les variations d'une fonction sans calculer sa d\IeC {\'e}riv\IeC {\'e}e ?}{208}{subsubsection.1860}\protected@file@percent }
\@writefile{toc}{\contentsline {subsubsection}{\numberline {9.1.2.7}Utilisation de SymPy}{209}{subsubsection.1862}\protected@file@percent }
\@writefile{toc}{\contentsline {subsection}{\numberline {9.1.3}LE COURS: VERSION COURTE}{209}{subsection.1863}\protected@file@percent }
\@writefile{toc}{\contentsline {subsubsection}{\numberline {9.1.3.1}D\IeC {\'e}finitions et un th\IeC {\'e}or\IeC {\`e}me}{209}{subsubsection.1864}\protected@file@percent }
\@writefile{toc}{\contentsline {subsection}{\numberline {9.1.4}Nouveaut\IeC {\'e}s de Terminale}{210}{subsection.1871}\protected@file@percent }
\@writefile{toc}{\contentsline {subsubsection}{\numberline {9.1.4.1}D\IeC {\'e}riv\IeC {\'e}e de fonctions compos\IeC {\'e}es}{210}{subsubsection.1872}\protected@file@percent }
\@writefile{toc}{\contentsline {subsubsection}{\numberline {9.1.4.2}Les d\IeC {\'e}riv\IeC {\'e}es usuelles}{210}{subsubsection.1874}\protected@file@percent }
\@writefile{toc}{\contentsline {section}{\numberline {9.2}Primitives}{211}{section.1875}\protected@file@percent }
\@writefile{toc}{\contentsline {subsection}{\numberline {9.2.1}Une d\IeC {\'e}finition et des th\IeC {\'e}or\IeC {\`e}mes}{211}{subsection.1876}\protected@file@percent }
\@writefile{toc}{\contentsline {subsection}{\numberline {9.2.2}Primitives usuelles}{213}{subsection.1883}\protected@file@percent }
\@writefile{toc}{\contentsline {section}{\numberline {9.3}Entra\IeC {\^\i }nement}{214}{section.1884}\protected@file@percent }
\@writefile{toc}{\contentsline {subsection}{\numberline {9.3.1}Niveau Premi\IeC {\`e}re}{214}{subsection.1885}\protected@file@percent }
\@writefile{toc}{\contentsline {subsection}{\numberline {9.3.2}Nouveaut\IeC {\'e}s de Terminale}{221}{subsection.2032}\protected@file@percent }
\@setckpt{DerPrimInt_21}{
\setcounter{page}{224}
\setcounter{equation}{0}
\setcounter{enumi}{4}
\setcounter{enumii}{2}
\setcounter{enumiii}{4}
\setcounter{enumiv}{0}
\setcounter{footnote}{3}
\setcounter{mpfootnote}{0}
\setcounter{part}{0}
\setcounter{chapter}{9}
\setcounter{section}{3}
\setcounter{subsection}{2}
\setcounter{subsubsection}{0}
\setcounter{paragraph}{0}
\setcounter{subparagraph}{0}
\setcounter{figure}{0}
\setcounter{table}{0}
\setcounter{chapterstar}{1}
\setcounter{@stackindex}{0}
\setcounter{ROWcellindex@}{0}
\setcounter{tcbbreakpart}{0}
\setcounter{tcblayer}{0}
\setcounter{tcolorbox@number}{0}
\setcounter{parentequation}{0}
\setcounter{ifsymcnt}{0}
\setcounter{lstnumber}{1}
\setcounter{vrcnt}{13}
\setcounter{tw@hyphen@char@num}{0}
\setcounter{float@type}{64}
\setcounter{subfigure}{0}
\setcounter{lofdepth}{1}
\setcounter{subtable}{0}
\setcounter{lotdepth}{1}
\setcounter{Item}{1094}
\setcounter{Hfootnote}{13}
\setcounter{bookmark@seq@number}{204}
\setcounter{mdf@globalstyle@cnt}{1}
\setcounter{mdfcountframes}{0}
\setcounter{mdf@env@i}{0}
\setcounter{mdf@env@ii}{0}
\setcounter{mdf@zref@counter}{0}
\setcounter{bclogocompteur}{0}
\setcounter{BAenumi}{0}
\setcounter{caption@flags}{0}
\setcounter{continuedfloat}{0}
\setcounter{tabularnote}{0}
\setcounter{num}{0}
\setcounter{qcm}{0}
\setcounter{FancyVerbLine}{8}
\setcounter{linenumber}{3}
\setcounter{LN@truepage}{223}
\setcounter{minted@FancyVerbLineTemp}{0}
\setcounter{listing}{0}
\setcounter{numquestion}{0}
\setcounter{qcm@numb}{0}
\setcounter{numprop}{0}
\setcounter{LT@tables}{0}
\setcounter{LT@chunks}{0}
\setcounter{@LCDdotx}{0}
\setcounter{@LCDdoty}{0}
\setcounter{@LCDchrx}{0}
\setcounter{@LCDlines}{0}
\setcounter{@LCDlower}{0}
\setcounter{nprt@mantissa@digitsbefore}{0}
\setcounter{nprt@mantissa@digitsafter}{0}
\setcounter{nprt@exponent@digitsbefore}{0}
\setcounter{nprt@exponent@digitsafter}{0}
\setcounter{nprt@digitsfirstblock}{1}
\setcounter{nprt@blockcnt}{1}
\setcounter{nprt@cntprint}{0}
\setcounter{tkz@gr@a}{0}
\setcounter{tkz@gr@b}{0}
\setcounter{tkz@gr@c}{0}
\setcounter{tkz@gr@e}{0}
\setcounter{tkz@gr@d}{0}
\setcounter{tkz@gr@p}{1}
\setcounter{tkz@gr@i}{0}
\setcounter{tkz@gr@n}{0}
\setcounter{tkz@gr@ta}{0}
\setcounter{tkz@gr@tb}{0}
\setcounter{tkz@cnt@line}{3}
\setcounter{tkz@cnt@lg}{2}
\setcounter{tkz@cnt@cl}{2}
\setcounter{tkz@cnt@pred}{1}
\setcounter{tkz@cnt@temp}{0}
\setcounter{tkz@cnt@arrow}{2}
\setcounter{tkz@cnt@zone}{0}
\setcounter{tkz@cnt@lgnext}{3}
\setcounter{tkz@cnt@clnext}{2}
\setcounter{tkz@cnt@pair}{2}
\setcounter{tkz@cnt@impair}{2}
\setcounter{tkz@cnt@aw}{2}
\setcounter{C@NumTab}{0}
\setcounter{C@NumGroup}{0}
\setcounter{C@NextNode}{0}
\setcounter{NumC@Node}{0}
\setcounter{NumC@Stop}{0}
\setcounter{C@CurrentStop}{0}
\setcounter{C@CurrentNode}{0}
\setcounter{C@CurrentGroup}{0}
\setcounter{r@tfl@t}{0}
\setcounter{c@imbrication}{-1}
\setcounter{c@indentation}{0}
\setcounter{c@instruction}{20}
\setcounter{c@algo}{2}
\setcounter{c@tabdim}{0}
\setcounter{c@chaineouverte}{0}
\setcounter{floatalgo}{0}
\setcounter{aide}{0}
\setcounter{sol}{0}
\setcounter{mtc}{10}
\setcounter{minitocdepth}{3}
\setcounter{ptc}{0}
\setcounter{parttocdepth}{2}
\setcounter{asy}{0}
\setcounter{theoreme}{17}
\setcounter{lemme}{0}
\setcounter{corollaire}{0}
\setcounter{propriete}{0}
\setcounter{definition}{7}
\setcounter{exemple}{0}
\setcounter{remarque}{33}
\setcounter{recherche}{51}
\setcounter{exercicea}{0}
\setcounter{exerciceb}{0}
\setcounter{exercicec}{0}
\setcounter{pyquestions}{0}
\setcounter{pyxercice}{0}
\setcounter{lstlisting}{0}
\setcounter{section@level}{0}
\setcounter{tabularnotesi}{0}
\setcounter{tabularnotes*i}{0}
\setcounter{minilofdepth}{2}
\setcounter{minilotdepth}{2}
\setcounter{partlofdepth}{2}
\setcounter{partlotdepth}{2}
\setcounter{sectlofdepth}{2}
\setcounter{sectlotdepth}{2}
}
