\relax 
\providecommand\hyper@newdestlabel[2]{}
\providecommand\zref@newlabel[2]{}
\@writefile{toc}{\contentsline {chapter}{\numberline {21}D\IeC {\'e}veloppements limit\IeC {\'e}s et applications}{497}{chapter.4554}\protected@file@percent }
\@writefile{lof}{\addvspace {10\p@ }}
\@writefile{lot}{\addvspace {10\p@ }}
\@writefile{lof}{\contentsline {xchapter}{D\IeC {\'e}veloppements limit\IeC {\'e}s et applications}{498}{chapter.4554}\protected@file@percent }
\@writefile{lot}{\contentsline {xchapter}{D\IeC {\'e}veloppements limit\IeC {\'e}s et applications}{498}{chapter.4554}\protected@file@percent }
\@writefile{toc}{\contentsline {section}{\numberline {21.1} Fonction n\IeC {\'e}gligeable devant une autre au voisinage d'un point}{498}{section.4555}\protected@file@percent }
\@writefile{toc}{\contentsline {section}{\numberline {21.2}D\IeC {\'e}veloppements limit\IeC {\'e}s}{499}{section.4562}\protected@file@percent }
\@writefile{toc}{\contentsline {subsection}{\numberline {21.2.1}(Re-)d\IeC {\'e}couverte des d\IeC {\'e}veloppements limit\IeC {\'e}s aux ordres 0 et 1}{499}{subsection.4563}\protected@file@percent }
\@writefile{toc}{\contentsline {subsubsection}{\numberline {21.2.1.1}Ordre 0}{500}{subsubsection.4564}\protected@file@percent }
\@writefile{toc}{\contentsline {subsubsection}{\numberline {21.2.1.2}Ordre 1}{500}{subsubsection.4565}\protected@file@percent }
\@writefile{toc}{\contentsline {subsection}{\numberline {21.2.2}Un peu d'ordre: notion de DL}{500}{subsection.4566}\protected@file@percent }
\@writefile{toc}{\contentsline {subsection}{\numberline {21.2.3}D\IeC {\'e}veloppement asymptotique}{500}{subsection.4577}\protected@file@percent }
\@writefile{toc}{\contentsline {subsection}{\numberline {21.2.4}Formule de Taylor-Young}{501}{subsection.4580}\protected@file@percent }
\@writefile{toc}{\contentsline {subsection}{\numberline {21.2.5}R\IeC {\`e}gles de calcul}{502}{subsection.4587}\protected@file@percent }
\@writefile{toc}{\contentsline {subsubsection}{\numberline {21.2.5.1}$\text  {\large  {\fontencoding  {T1}\fontfamily  {frc}\linespread  {1.5}\selectfont  o}}\left (x^n\right )$}{502}{subsubsection.4588}\protected@file@percent }
\@writefile{toc}{\contentsline {subsubsection}{\numberline {21.2.5.2}Lin\IeC {\'e}arit\IeC {\'e}}{502}{subsubsection.4596}\protected@file@percent }
\@writefile{toc}{\contentsline {subsubsection}{\numberline {21.2.5.3}Produit}{502}{subsubsection.4599}\protected@file@percent }
\@writefile{toc}{\contentsline {subsubsection}{\numberline {21.2.5.4}Substitution}{503}{subsubsection.4605}\protected@file@percent }
\@writefile{toc}{\contentsline {section}{\numberline {21.3}Application des DLs}{503}{section.4608}\protected@file@percent }
\@writefile{toc}{\contentsline {subsection}{\numberline {21.3.1}Calcul de limites}{503}{subsection.4609}\protected@file@percent }
\newlabel{40@xvr}{{}{503}}
\newlabel{40@vr}{{}{503}}
\@writefile{toc}{\contentsline {subsection}{\numberline {21.3.2}Recherche d'un \IeC {\'e}quivalent de $f(x) - \displaystyle \qopname  \relax m{lim}_{x\to x_0}f(x)$}{503}{subsection.4611}\protected@file@percent }
\@writefile{toc}{\contentsline {subsection}{\numberline {21.3.3}Asymptotes}{503}{subsection.4616}\protected@file@percent }
\@writefile{toc}{\contentsline {subsection}{\numberline {21.3.4}Lien avec la continuit\IeC {\'e} et la d\IeC {\'e}rivabilit\IeC {\'e}}{504}{subsection.4632}\protected@file@percent }
\@writefile{toc}{\contentsline {subsection}{\numberline {21.3.5}Avec Python}{504}{subsection.4640}\protected@file@percent }
\@writefile{toc}{\contentsline {section}{\numberline {21.4}La main \IeC {\`a} la p\IeC {\^a}te}{505}{section.4641}\protected@file@percent }
\newlabel{exolim}{{21.14}{505}{La main à la pâte}{recherche.4652}{}}
\@setckpt{DL_21}{
\setcounter{page}{509}
\setcounter{equation}{0}
\setcounter{enumi}{3}
\setcounter{enumii}{5}
\setcounter{enumiii}{2}
\setcounter{enumiv}{0}
\setcounter{footnote}{0}
\setcounter{mpfootnote}{0}
\setcounter{part}{0}
\setcounter{chapter}{21}
\setcounter{section}{4}
\setcounter{subsection}{0}
\setcounter{subsubsection}{0}
\setcounter{paragraph}{0}
\setcounter{subparagraph}{0}
\setcounter{figure}{0}
\setcounter{table}{0}
\setcounter{chapterstar}{1}
\setcounter{@stackindex}{0}
\setcounter{ROWcellindex@}{0}
\setcounter{tcbbreakpart}{0}
\setcounter{tcblayer}{0}
\setcounter{tcolorbox@number}{0}
\setcounter{parentequation}{0}
\setcounter{ifsymcnt}{0}
\setcounter{lstnumber}{1}
\setcounter{vrcnt}{40}
\setcounter{tw@hyphen@char@num}{0}
\setcounter{float@type}{64}
\setcounter{subfigure}{0}
\setcounter{lofdepth}{1}
\setcounter{subtable}{0}
\setcounter{lotdepth}{1}
\setcounter{Item}{2542}
\setcounter{Hfootnote}{21}
\setcounter{bookmark@seq@number}{461}
\setcounter{mdf@globalstyle@cnt}{1}
\setcounter{mdfcountframes}{0}
\setcounter{mdf@env@i}{0}
\setcounter{mdf@env@ii}{0}
\setcounter{mdf@zref@counter}{0}
\setcounter{bclogocompteur}{0}
\setcounter{BAenumi}{0}
\setcounter{caption@flags}{0}
\setcounter{continuedfloat}{0}
\setcounter{tabularnote}{0}
\setcounter{num}{0}
\setcounter{qcm}{0}
\setcounter{FancyVerbLine}{12}
\setcounter{linenumber}{3}
\setcounter{LN@truepage}{514}
\setcounter{minted@FancyVerbLineTemp}{0}
\setcounter{listing}{0}
\setcounter{numquestion}{0}
\setcounter{qcm@numb}{0}
\setcounter{numprop}{0}
\setcounter{LT@tables}{0}
\setcounter{LT@chunks}{0}
\setcounter{@LCDdotx}{0}
\setcounter{@LCDdoty}{0}
\setcounter{@LCDchrx}{0}
\setcounter{@LCDlines}{0}
\setcounter{@LCDlower}{0}
\setcounter{nprt@mantissa@digitsbefore}{0}
\setcounter{nprt@mantissa@digitsafter}{0}
\setcounter{nprt@exponent@digitsbefore}{0}
\setcounter{nprt@exponent@digitsafter}{0}
\setcounter{nprt@digitsfirstblock}{1}
\setcounter{nprt@blockcnt}{1}
\setcounter{nprt@cntprint}{0}
\setcounter{tkz@gr@a}{0}
\setcounter{tkz@gr@b}{0}
\setcounter{tkz@gr@c}{0}
\setcounter{tkz@gr@e}{0}
\setcounter{tkz@gr@d}{0}
\setcounter{tkz@gr@p}{1}
\setcounter{tkz@gr@i}{0}
\setcounter{tkz@gr@n}{0}
\setcounter{tkz@gr@ta}{0}
\setcounter{tkz@gr@tb}{0}
\setcounter{tkz@cnt@line}{3}
\setcounter{tkz@cnt@lg}{2}
\setcounter{tkz@cnt@cl}{2}
\setcounter{tkz@cnt@pred}{1}
\setcounter{tkz@cnt@temp}{0}
\setcounter{tkz@cnt@arrow}{2}
\setcounter{tkz@cnt@zone}{0}
\setcounter{tkz@cnt@lgnext}{3}
\setcounter{tkz@cnt@clnext}{2}
\setcounter{tkz@cnt@pair}{2}
\setcounter{tkz@cnt@impair}{2}
\setcounter{tkz@cnt@aw}{2}
\setcounter{C@NumTab}{0}
\setcounter{C@NumGroup}{0}
\setcounter{C@NextNode}{0}
\setcounter{NumC@Node}{0}
\setcounter{NumC@Stop}{0}
\setcounter{C@CurrentStop}{0}
\setcounter{C@CurrentNode}{0}
\setcounter{C@CurrentGroup}{0}
\setcounter{r@tfl@t}{0}
\setcounter{c@imbrication}{-1}
\setcounter{c@indentation}{0}
\setcounter{c@instruction}{20}
\setcounter{c@algo}{2}
\setcounter{c@tabdim}{0}
\setcounter{c@chaineouverte}{0}
\setcounter{floatalgo}{0}
\setcounter{aide}{0}
\setcounter{sol}{0}
\setcounter{mtc}{22}
\setcounter{minitocdepth}{3}
\setcounter{ptc}{0}
\setcounter{parttocdepth}{2}
\setcounter{asy}{0}
\setcounter{theoreme}{14}
\setcounter{lemme}{0}
\setcounter{corollaire}{0}
\setcounter{propriete}{0}
\setcounter{definition}{4}
\setcounter{exemple}{0}
\setcounter{remarque}{74}
\setcounter{recherche}{20}
\setcounter{exercicea}{0}
\setcounter{exerciceb}{0}
\setcounter{exercicec}{0}
\setcounter{pyquestions}{0}
\setcounter{pyxercice}{0}
\setcounter{lstlisting}{0}
\setcounter{section@level}{0}
\setcounter{tabularnotesi}{0}
\setcounter{tabularnotes*i}{0}
\setcounter{minilofdepth}{2}
\setcounter{minilotdepth}{2}
\setcounter{partlofdepth}{2}
\setcounter{partlotdepth}{2}
\setcounter{sectlofdepth}{2}
\setcounter{sectlotdepth}{2}
}
