\relax 
\providecommand\hyper@newdestlabel[2]{}
\providecommand\zref@newlabel[2]{}
\@writefile{toc}{\contentsline {chapter}{\numberline {11}\IeC {\'E}quations diff\IeC {\'e}rentielles}{235}{chapter.2199}\protected@file@percent }
\@writefile{lof}{\addvspace {10\p@ }}
\@writefile{lot}{\addvspace {10\p@ }}
\@writefile{lof}{\contentsline {xchapter}{\IeC {\'E}quations diff\IeC {\'e}rentielles}{236}{chapter.2199}\protected@file@percent }
\@writefile{lot}{\contentsline {xchapter}{\IeC {\'E}quations diff\IeC {\'e}rentielles}{236}{chapter.2199}\protected@file@percent }
\@writefile{toc}{\contentsline {section}{\numberline {11.1}D\IeC {\'e}couverte \IeC {\`a} partir d'un exemple bien connu}{236}{section.2200}\protected@file@percent }
\@writefile{toc}{\contentsline {subsection}{\numberline {11.1.1}Des \IeC {\'e}quations diff\IeC {\'e}rentielles bien connues...quoique}{236}{subsection.2201}\protected@file@percent }
\@writefile{toc}{\contentsline {section}{\numberline {11.2}\IeC {\'E}quations diff\IeC {\'e}rentielles du premier ordre}{236}{section.2202}\protected@file@percent }
\@writefile{toc}{\contentsline {subsection}{\numberline {11.2.1}G\IeC {\'e}n\IeC {\'e}ralit\IeC {\'e}s}{236}{subsection.2203}\protected@file@percent }
\@writefile{toc}{\contentsline {subsection}{\numberline {11.2.2}\IeC {\'E}quations lin\IeC {\'e}aires homog\IeC {\`e}nes \IeC {\`a} coefficients constants}{237}{subsection.2205}\protected@file@percent }
\@writefile{toc}{\contentsline {subsection}{\numberline {11.2.3}\IeC {\'E}quations lin\IeC {\'e}aires}{238}{subsection.2208}\protected@file@percent }
\@writefile{toc}{\contentsline {subsubsection}{\numberline {11.2.3.1}\IeC {\'E}quation homog\IeC {\`e}nes}{238}{subsubsection.2209}\protected@file@percent }
\@writefile{toc}{\contentsline {subsubsection}{\numberline {11.2.3.2}Principe de superposition des solutions}{238}{subsubsection.2214}\protected@file@percent }
\@writefile{toc}{\contentsline {subsubsection}{\numberline {11.2.3.3}M\IeC {\'e}thode de variation de la constante}{239}{subsubsection.2216}\protected@file@percent }
\@writefile{toc}{\contentsline {paragraph}{\numberline {11.2.3.3.1}Avec SymPy}{239}{paragraph.2218}\protected@file@percent }
\@writefile{toc}{\contentsline {paragraph}{\numberline {11.2.3.3.2}Avec NumPy}{239}{paragraph.2219}\protected@file@percent }
\@writefile{toc}{\contentsline {section}{\numberline {11.3}\IeC {\'E}quations diff\IeC {\'e}rentielles du deuxi\IeC {\`e}me ordre}{239}{section.2220}\protected@file@percent }
\@writefile{toc}{\contentsline {subsection}{\numberline {11.3.1}G\IeC {\'e}n\IeC {\'e}ralit\IeC {\'e}s}{239}{subsection.2221}\protected@file@percent }
\@writefile{toc}{\contentsline {subsection}{\numberline {11.3.2}\'Equations diff\IeC {\'e}rentielles lin\IeC {\'e}aires du second ordre}{240}{subsection.2224}\protected@file@percent }
\@writefile{toc}{\contentsline {subsection}{\numberline {11.3.3}\'Equations lin\IeC {\'e}aires \IeC {\`a} coefficients constants}{240}{subsection.2226}\protected@file@percent }
\@writefile{toc}{\contentsline {subsection}{\numberline {11.3.4}R\IeC {\'e}solution de l'\IeC {\'e}quation sans second membre}{240}{subsection.2228}\protected@file@percent }
\@writefile{toc}{\contentsline {subsection}{\numberline {11.3.5}\IeC {\'E}quation avec second membre}{241}{subsection.2232}\protected@file@percent }
\@writefile{toc}{\contentsline {section}{\numberline {11.4}Petites activit\IeC {\'e}s pr\IeC {\'e}liminaires}{242}{section.2234}\protected@file@percent }
\@writefile{toc}{\contentsline {section}{\numberline {11.5}Bac et BTS}{242}{section.2244}\protected@file@percent }
\@writefile{toc}{\contentsline {section}{\numberline {11.6}Un soup\IeC {\c c}on de Bcpst quand m\IeC {\^e}me}{246}{section.2310}\protected@file@percent }
\@setckpt{equa_diffs_21}{
\setcounter{page}{247}
\setcounter{equation}{0}
\setcounter{enumi}{2}
\setcounter{enumii}{4}
\setcounter{enumiii}{4}
\setcounter{enumiv}{0}
\setcounter{footnote}{0}
\setcounter{mpfootnote}{0}
\setcounter{part}{0}
\setcounter{chapter}{11}
\setcounter{section}{6}
\setcounter{subsection}{0}
\setcounter{subsubsection}{0}
\setcounter{paragraph}{0}
\setcounter{subparagraph}{0}
\setcounter{figure}{0}
\setcounter{table}{0}
\setcounter{chapterstar}{1}
\setcounter{@stackindex}{0}
\setcounter{ROWcellindex@}{0}
\setcounter{tcbbreakpart}{0}
\setcounter{tcblayer}{0}
\setcounter{tcolorbox@number}{0}
\setcounter{parentequation}{0}
\setcounter{ifsymcnt}{0}
\setcounter{lstnumber}{1}
\setcounter{vrcnt}{13}
\setcounter{tw@hyphen@char@num}{0}
\setcounter{float@type}{64}
\setcounter{subfigure}{0}
\setcounter{lofdepth}{1}
\setcounter{subtable}{0}
\setcounter{lotdepth}{1}
\setcounter{Item}{1244}
\setcounter{Hfootnote}{13}
\setcounter{bookmark@seq@number}{230}
\setcounter{mdf@globalstyle@cnt}{1}
\setcounter{mdfcountframes}{0}
\setcounter{mdf@env@i}{0}
\setcounter{mdf@env@ii}{0}
\setcounter{mdf@zref@counter}{0}
\setcounter{bclogocompteur}{0}
\setcounter{BAenumi}{0}
\setcounter{caption@flags}{0}
\setcounter{continuedfloat}{0}
\setcounter{tabularnote}{0}
\setcounter{num}{0}
\setcounter{qcm}{0}
\setcounter{FancyVerbLine}{11}
\setcounter{linenumber}{3}
\setcounter{LN@truepage}{250}
\setcounter{minted@FancyVerbLineTemp}{0}
\setcounter{listing}{0}
\setcounter{numquestion}{0}
\setcounter{qcm@numb}{0}
\setcounter{numprop}{0}
\setcounter{LT@tables}{0}
\setcounter{LT@chunks}{0}
\setcounter{@LCDdotx}{0}
\setcounter{@LCDdoty}{0}
\setcounter{@LCDchrx}{0}
\setcounter{@LCDlines}{0}
\setcounter{@LCDlower}{0}
\setcounter{nprt@mantissa@digitsbefore}{0}
\setcounter{nprt@mantissa@digitsafter}{0}
\setcounter{nprt@exponent@digitsbefore}{0}
\setcounter{nprt@exponent@digitsafter}{0}
\setcounter{nprt@digitsfirstblock}{1}
\setcounter{nprt@blockcnt}{1}
\setcounter{nprt@cntprint}{0}
\setcounter{tkz@gr@a}{0}
\setcounter{tkz@gr@b}{0}
\setcounter{tkz@gr@c}{0}
\setcounter{tkz@gr@e}{0}
\setcounter{tkz@gr@d}{0}
\setcounter{tkz@gr@p}{1}
\setcounter{tkz@gr@i}{0}
\setcounter{tkz@gr@n}{0}
\setcounter{tkz@gr@ta}{0}
\setcounter{tkz@gr@tb}{0}
\setcounter{tkz@cnt@line}{3}
\setcounter{tkz@cnt@lg}{2}
\setcounter{tkz@cnt@cl}{2}
\setcounter{tkz@cnt@pred}{1}
\setcounter{tkz@cnt@temp}{0}
\setcounter{tkz@cnt@arrow}{2}
\setcounter{tkz@cnt@zone}{0}
\setcounter{tkz@cnt@lgnext}{3}
\setcounter{tkz@cnt@clnext}{2}
\setcounter{tkz@cnt@pair}{2}
\setcounter{tkz@cnt@impair}{2}
\setcounter{tkz@cnt@aw}{2}
\setcounter{C@NumTab}{0}
\setcounter{C@NumGroup}{0}
\setcounter{C@NextNode}{0}
\setcounter{NumC@Node}{0}
\setcounter{NumC@Stop}{0}
\setcounter{C@CurrentStop}{0}
\setcounter{C@CurrentNode}{0}
\setcounter{C@CurrentGroup}{0}
\setcounter{r@tfl@t}{0}
\setcounter{c@imbrication}{-1}
\setcounter{c@indentation}{0}
\setcounter{c@instruction}{20}
\setcounter{c@algo}{2}
\setcounter{c@tabdim}{0}
\setcounter{c@chaineouverte}{0}
\setcounter{floatalgo}{0}
\setcounter{aide}{0}
\setcounter{sol}{0}
\setcounter{mtc}{12}
\setcounter{minitocdepth}{3}
\setcounter{ptc}{0}
\setcounter{parttocdepth}{2}
\setcounter{asy}{0}
\setcounter{theoreme}{5}
\setcounter{lemme}{0}
\setcounter{corollaire}{0}
\setcounter{propriete}{0}
\setcounter{definition}{7}
\setcounter{exemple}{0}
\setcounter{remarque}{34}
\setcounter{recherche}{18}
\setcounter{exercicea}{0}
\setcounter{exerciceb}{0}
\setcounter{exercicec}{0}
\setcounter{pyquestions}{0}
\setcounter{pyxercice}{0}
\setcounter{lstlisting}{0}
\setcounter{section@level}{0}
\setcounter{tabularnotesi}{0}
\setcounter{tabularnotes*i}{0}
\setcounter{minilofdepth}{2}
\setcounter{minilotdepth}{2}
\setcounter{partlofdepth}{2}
\setcounter{partlotdepth}{2}
\setcounter{sectlofdepth}{2}
\setcounter{sectlotdepth}{2}
}
