\relax 
\providecommand\hyper@newdestlabel[2]{}
\providecommand\zref@newlabel[2]{}
\@writefile{toc}{\contentsline {chapter}{\numberline {17}Introduction aux espaces vectoriels}{397}{chapter.3510}\protected@file@percent }
\@writefile{lof}{\addvspace {10\p@ }}
\@writefile{lot}{\addvspace {10\p@ }}
\@writefile{lof}{\contentsline {xchapter}{Introduction aux espaces vectoriels}{398}{chapter.3510}\protected@file@percent }
\@writefile{lot}{\contentsline {xchapter}{Introduction aux espaces vectoriels}{398}{chapter.3510}\protected@file@percent }
\@writefile{toc}{\contentsline {section}{\numberline {17.1}Vers une d\IeC {\'e}finition}{398}{section.3511}\protected@file@percent }
\@writefile{toc}{\contentsline {section}{\numberline {17.2}Premiers exemples}{399}{section.3519}\protected@file@percent }
\@writefile{toc}{\contentsline {subsection}{\numberline {17.2.1}R\textsuperscript  {2} en D2}{399}{subsection.3520}\protected@file@percent }
\@writefile{toc}{\contentsline {subsection}{\numberline {17.2.2}Les matrices}{400}{subsection.3530}\protected@file@percent }
\@writefile{toc}{\contentsline {subsection}{\numberline {17.2.3}Les autres exemples de r\IeC {\'e}f\IeC {\'e}rence}{400}{subsection.3531}\protected@file@percent }
\@writefile{toc}{\contentsline {section}{\numberline {17.3}Sous-espace vectoriel}{401}{section.3539}\protected@file@percent }
\newlabel{sev1}{{17-2}{401}{Sous-espace vectoriel}{theoreme.3541}{}}
\newlabel{sev2}{{17-3}{401}{Sous-espace vectoriel}{theoreme.3542}{}}
\@writefile{toc}{\contentsline {section}{\numberline {17.4}Familles de vecteurs d'un espace vectoriel $(V,\IeC {\ensuremath  {\oplus }},\star )$}{402}{section.3547}\protected@file@percent }
\@writefile{toc}{\contentsline {subsection}{\numberline {17.4.1}Sous-espace engendr\IeC {\'e} par une famille}{402}{subsection.3548}\protected@file@percent }
\@writefile{toc}{\contentsline {subsection}{\numberline {17.4.2}Famille g\IeC {\'e}n\IeC {\'e}ratrice}{404}{subsection.3565}\protected@file@percent }
\@writefile{toc}{\contentsline {subsection}{\numberline {17.4.3}Familles libres}{405}{subsection.3574}\protected@file@percent }
\@writefile{toc}{\contentsline {subsection}{\numberline {17.4.4}Bases}{406}{subsection.3588}\protected@file@percent }
\@writefile{toc}{\contentsline {subsubsection}{\numberline {17.4.4.1}D\IeC {\'e}finition}{406}{subsubsection.3589}\protected@file@percent }
\@writefile{toc}{\contentsline {subsubsection}{\numberline {17.4.4.2}Bases de $\mathbb  {K}^{n}$}{407}{subsubsection.3593}\protected@file@percent }
\@writefile{toc}{\contentsline {subsection}{\numberline {17.4.5}Bonus: Polyn\IeC {\^o}mes et alg\IeC {\`e}bre lin\IeC {\'e}aire}{408}{subsection.3600}\protected@file@percent }
\newlabel{th::ech}{{17-18}{408}{Bonus: Polynômes et algèbre linéaire}{theoreme.3603}{}}
\newlabel{35@xvr}{{}{409}}
\newlabel{35@vr}{{}{409}}
\@writefile{toc}{\contentsline {section}{\numberline {17.5}Entra\IeC {\^\i }nement}{410}{section.3605}\protected@file@percent }
\@writefile{toc}{\contentsline {subsection}{\numberline {17.5.1}Interro de cours}{410}{subsection.3606}\protected@file@percent }
\@writefile{toc}{\contentsline {subsection}{\numberline {17.5.2}D\IeC {\'e}finition d'un EV}{410}{subsection.3617}\protected@file@percent }
\@writefile{toc}{\contentsline {subsection}{\numberline {17.5.3}SEV}{410}{subsection.3619}\protected@file@percent }
\newlabel{sev}{{17.27}{411}{SEV}{recherche.3656}{}}
\@writefile{toc}{\contentsline {subsection}{\numberline {17.5.4}Familles de vecteurs}{412}{subsection.3666}\protected@file@percent }
\newlabel{36@xvr}{{}{412}}
\newlabel{36@vr}{{}{412}}
\@setckpt{EV_21}{
\setcounter{page}{416}
\setcounter{equation}{0}
\setcounter{enumi}{4}
\setcounter{enumii}{2}
\setcounter{enumiii}{4}
\setcounter{enumiv}{0}
\setcounter{footnote}{0}
\setcounter{mpfootnote}{0}
\setcounter{part}{0}
\setcounter{chapter}{17}
\setcounter{section}{5}
\setcounter{subsection}{4}
\setcounter{subsubsection}{0}
\setcounter{paragraph}{0}
\setcounter{subparagraph}{0}
\setcounter{figure}{0}
\setcounter{table}{0}
\setcounter{chapterstar}{1}
\setcounter{@stackindex}{0}
\setcounter{ROWcellindex@}{0}
\setcounter{tcbbreakpart}{0}
\setcounter{tcblayer}{0}
\setcounter{tcolorbox@number}{0}
\setcounter{parentequation}{0}
\setcounter{ifsymcnt}{0}
\setcounter{lstnumber}{1}
\setcounter{vrcnt}{36}
\setcounter{tw@hyphen@char@num}{0}
\setcounter{float@type}{64}
\setcounter{subfigure}{0}
\setcounter{lofdepth}{1}
\setcounter{subtable}{0}
\setcounter{lotdepth}{1}
\setcounter{Item}{1968}
\setcounter{Hfootnote}{19}
\setcounter{bookmark@seq@number}{365}
\setcounter{mdf@globalstyle@cnt}{1}
\setcounter{mdfcountframes}{0}
\setcounter{mdf@env@i}{0}
\setcounter{mdf@env@ii}{0}
\setcounter{mdf@zref@counter}{0}
\setcounter{bclogocompteur}{0}
\setcounter{BAenumi}{0}
\setcounter{caption@flags}{0}
\setcounter{continuedfloat}{0}
\setcounter{tabularnote}{0}
\setcounter{num}{0}
\setcounter{qcm}{0}
\setcounter{FancyVerbLine}{1}
\setcounter{linenumber}{3}
\setcounter{LN@truepage}{419}
\setcounter{minted@FancyVerbLineTemp}{0}
\setcounter{listing}{0}
\setcounter{numquestion}{0}
\setcounter{qcm@numb}{0}
\setcounter{numprop}{0}
\setcounter{LT@tables}{0}
\setcounter{LT@chunks}{0}
\setcounter{@LCDdotx}{0}
\setcounter{@LCDdoty}{0}
\setcounter{@LCDchrx}{0}
\setcounter{@LCDlines}{0}
\setcounter{@LCDlower}{0}
\setcounter{nprt@mantissa@digitsbefore}{0}
\setcounter{nprt@mantissa@digitsafter}{0}
\setcounter{nprt@exponent@digitsbefore}{0}
\setcounter{nprt@exponent@digitsafter}{0}
\setcounter{nprt@digitsfirstblock}{1}
\setcounter{nprt@blockcnt}{1}
\setcounter{nprt@cntprint}{0}
\setcounter{tkz@gr@a}{0}
\setcounter{tkz@gr@b}{0}
\setcounter{tkz@gr@c}{0}
\setcounter{tkz@gr@e}{0}
\setcounter{tkz@gr@d}{0}
\setcounter{tkz@gr@p}{1}
\setcounter{tkz@gr@i}{0}
\setcounter{tkz@gr@n}{0}
\setcounter{tkz@gr@ta}{0}
\setcounter{tkz@gr@tb}{0}
\setcounter{tkz@cnt@line}{3}
\setcounter{tkz@cnt@lg}{2}
\setcounter{tkz@cnt@cl}{2}
\setcounter{tkz@cnt@pred}{1}
\setcounter{tkz@cnt@temp}{0}
\setcounter{tkz@cnt@arrow}{2}
\setcounter{tkz@cnt@zone}{0}
\setcounter{tkz@cnt@lgnext}{3}
\setcounter{tkz@cnt@clnext}{2}
\setcounter{tkz@cnt@pair}{2}
\setcounter{tkz@cnt@impair}{2}
\setcounter{tkz@cnt@aw}{2}
\setcounter{C@NumTab}{0}
\setcounter{C@NumGroup}{0}
\setcounter{C@NextNode}{0}
\setcounter{NumC@Node}{0}
\setcounter{NumC@Stop}{0}
\setcounter{C@CurrentStop}{0}
\setcounter{C@CurrentNode}{0}
\setcounter{C@CurrentGroup}{0}
\setcounter{r@tfl@t}{0}
\setcounter{c@imbrication}{-1}
\setcounter{c@indentation}{0}
\setcounter{c@instruction}{20}
\setcounter{c@algo}{2}
\setcounter{c@tabdim}{0}
\setcounter{c@chaineouverte}{0}
\setcounter{floatalgo}{0}
\setcounter{aide}{0}
\setcounter{sol}{0}
\setcounter{mtc}{18}
\setcounter{minitocdepth}{3}
\setcounter{ptc}{0}
\setcounter{parttocdepth}{2}
\setcounter{asy}{0}
\setcounter{theoreme}{19}
\setcounter{lemme}{0}
\setcounter{corollaire}{0}
\setcounter{propriete}{0}
\setcounter{definition}{10}
\setcounter{exemple}{6}
\setcounter{remarque}{54}
\setcounter{recherche}{49}
\setcounter{exercicea}{0}
\setcounter{exerciceb}{0}
\setcounter{exercicec}{0}
\setcounter{pyquestions}{0}
\setcounter{pyxercice}{0}
\setcounter{lstlisting}{0}
\setcounter{section@level}{0}
\setcounter{tabularnotesi}{0}
\setcounter{tabularnotes*i}{0}
\setcounter{minilofdepth}{2}
\setcounter{minilotdepth}{2}
\setcounter{partlofdepth}{2}
\setcounter{partlotdepth}{2}
\setcounter{sectlofdepth}{2}
\setcounter{sectlotdepth}{2}
}
