\relax 
\providecommand\hyper@newdestlabel[2]{}
\providecommand\zref@newlabel[2]{}
\@writefile{toc}{\contentsline {chapter}{\numberline {26}Fonctions de 2 variables}{607}{chapter.5621}\protected@file@percent }
\@writefile{lof}{\addvspace {10\p@ }}
\@writefile{lot}{\addvspace {10\p@ }}
\@writefile{lof}{\contentsline {xchapter}{Fonctions de 2 variables}{608}{chapter.5621}\protected@file@percent }
\@writefile{lot}{\contentsline {xchapter}{Fonctions de 2 variables}{608}{chapter.5621}\protected@file@percent }
\@writefile{toc}{\contentsline {section}{\numberline {26.1}Pr\IeC {\'e}ambule}{608}{section.5622}\protected@file@percent }
\@writefile{toc}{\contentsline {subsection}{\numberline {26.1.1}D\IeC {\'e}j\IeC {\`a} vu}{608}{subsection.5623}\protected@file@percent }
\@writefile{toc}{\contentsline {subsection}{\numberline {26.1.2}Lignes de niveaux sur une carte}{609}{subsection.5624}\protected@file@percent }
\newlabel{experim}{{26.1.2}{609}{}{subsection.5624}{}}
\newlabel{pos1}{{\bfseries  \color  {green!50!blue}\fontfamily  {ugq}\selectfont  1}{609}{}{Item.5625}{}}
\newlabel{pos2}{{\bfseries  \color  {green!50!blue}\fontfamily  {ugq}\selectfont  2}{609}{}{Item.5626}{}}
\newlabel{pos4}{{\bfseries  \color  {green!50!blue}\fontfamily  {ugq}\selectfont  4}{609}{}{Item.5628}{}}
\@writefile{toc}{\contentsline {section}{\numberline {26.2}Repr\IeC {\'e}sentations graphiques}{610}{section.5632}\protected@file@percent }
\@writefile{toc}{\contentsline {subsection}{\numberline {26.2.1}Repr\IeC {\'e}sentations graphiques de fonctions \IeC {\`a} deux variables}{610}{subsection.5633}\protected@file@percent }
\@writefile{toc}{\contentsline {subsection}{\numberline {26.2.2}Fonctions partielles}{613}{subsection.5640}\protected@file@percent }
\@writefile{toc}{\contentsline {subsubsection}{\numberline {26.2.2.1}D\IeC {\'e}finition}{613}{subsubsection.5641}\protected@file@percent }
\@writefile{toc}{\contentsline {subsection}{\numberline {26.2.3}Coupe par des plans}{613}{subsection.5643}\protected@file@percent }
\@writefile{toc}{\contentsline {section}{\numberline {26.3}Approche intuitive de la continuit\IeC {\'e}}{614}{section.5647}\protected@file@percent }
\@writefile{toc}{\contentsline {section}{\numberline {26.4}Recherche d'extrema}{614}{section.5656}\protected@file@percent }
\@writefile{toc}{\contentsline {section}{\numberline {26.5}D\IeC {\'e}riv\IeC {\'e}es partielles d'ordre 1 et applications}{615}{section.5659}\protected@file@percent }
\@writefile{toc}{\contentsline {subsection}{\numberline {26.5.1}D\IeC {\'e}riv\IeC {\'e}es partielles}{615}{subsection.5660}\protected@file@percent }
\@writefile{toc}{\contentsline {subsection}{\numberline {26.5.2}Gradient}{616}{subsection.5664}\protected@file@percent }
\@writefile{toc}{\contentsline {subsection}{\numberline {26.5.3}Condition n\IeC {\'e}cessaire d'existence d'un extremum}{616}{subsection.5666}\protected@file@percent }
\@writefile{lof}{\contentsline {figure}{\numberline {26.1}{\ignorespaces  Repr\IeC {\'e}sentation graphique de la surface repr\IeC {\'e}sentative de $f(x,y)=x^2-y^2$\relax }}{617}{figure.caption.5669}\protected@file@percent }
\newlabel{fig3}{{26.1}{617}{Représentation graphique de la surface représentative de $f(x,y)=x^2-y^2$\relax }{figure.caption.5669}{}}
\@writefile{toc}{\contentsline {section}{\numberline {26.6}Fonctions de classe $\mathscr  C^1$}{617}{section.5672}\protected@file@percent }
\@writefile{toc}{\contentsline {subsection}{\numberline {26.6.1}Approximation locale d'une fonction $\mathscr  {C}^1$}{618}{subsection.5675}\protected@file@percent }
\@writefile{lof}{\contentsline {figure}{\numberline {26.2}{\ignorespaces  Repr\IeC {\'e}sentation graphique de la surface repr\IeC {\'e}sentative de $f(x,y)=(x^2+y^2)/2$ et du plan tangent en $(1/2,1/2)$\relax }}{618}{figure.caption.5678}\protected@file@percent }
\newlabel{fig3}{{26.2}{618}{Représentation graphique de la surface représentative de $f(x,y)=(x^2+y^2)/2$ et du plan tangent en $(1/2,1/2)$\relax }{figure.caption.5678}{}}
\@writefile{toc}{\contentsline {section}{\numberline {26.7}D\IeC {\'e}rivation d'une expression de la forme $f(x(t),y(t))$}{619}{section.5681}\protected@file@percent }
\@writefile{toc}{\contentsline {section}{\numberline {26.8}D\IeC {\'e}riv\IeC {\'e}es partielles d'ordre 2}{619}{section.5684}\protected@file@percent }
\@writefile{toc}{\contentsline {section}{\numberline {26.9}Petits calculs et petits dessins}{621}{section.5695}\protected@file@percent }
\@setckpt{fdxvars21}{
\setcounter{page}{625}
\setcounter{equation}{0}
\setcounter{enumi}{2}
\setcounter{enumii}{4}
\setcounter{enumiii}{1}
\setcounter{enumiv}{0}
\setcounter{footnote}{0}
\setcounter{mpfootnote}{0}
\setcounter{part}{0}
\setcounter{chapter}{26}
\setcounter{section}{9}
\setcounter{subsection}{0}
\setcounter{subsubsection}{0}
\setcounter{paragraph}{0}
\setcounter{subparagraph}{0}
\setcounter{figure}{2}
\setcounter{table}{0}
\setcounter{chapterstar}{1}
\setcounter{@stackindex}{0}
\setcounter{ROWcellindex@}{0}
\setcounter{tcbbreakpart}{0}
\setcounter{tcblayer}{0}
\setcounter{tcolorbox@number}{0}
\setcounter{parentequation}{0}
\setcounter{ifsymcnt}{0}
\setcounter{lstnumber}{2}
\setcounter{vrcnt}{48}
\setcounter{tw@hyphen@char@num}{0}
\setcounter{float@type}{64}
\setcounter{subfigure}{0}
\setcounter{lofdepth}{1}
\setcounter{subtable}{0}
\setcounter{lotdepth}{1}
\setcounter{Item}{3142}
\setcounter{Hfootnote}{24}
\setcounter{bookmark@seq@number}{575}
\setcounter{mdf@globalstyle@cnt}{1}
\setcounter{mdfcountframes}{0}
\setcounter{mdf@env@i}{0}
\setcounter{mdf@env@ii}{0}
\setcounter{mdf@zref@counter}{0}
\setcounter{bclogocompteur}{0}
\setcounter{BAenumi}{0}
\setcounter{caption@flags}{0}
\setcounter{continuedfloat}{0}
\setcounter{tabularnote}{0}
\setcounter{num}{0}
\setcounter{qcm}{0}
\setcounter{FancyVerbLine}{1}
\setcounter{linenumber}{3}
\setcounter{LN@truepage}{630}
\setcounter{minted@FancyVerbLineTemp}{0}
\setcounter{listing}{0}
\setcounter{numquestion}{0}
\setcounter{qcm@numb}{0}
\setcounter{numprop}{0}
\setcounter{LT@tables}{0}
\setcounter{LT@chunks}{0}
\setcounter{@LCDdotx}{0}
\setcounter{@LCDdoty}{0}
\setcounter{@LCDchrx}{0}
\setcounter{@LCDlines}{0}
\setcounter{@LCDlower}{0}
\setcounter{nprt@mantissa@digitsbefore}{0}
\setcounter{nprt@mantissa@digitsafter}{0}
\setcounter{nprt@exponent@digitsbefore}{0}
\setcounter{nprt@exponent@digitsafter}{0}
\setcounter{nprt@digitsfirstblock}{8}
\setcounter{nprt@blockcnt}{8}
\setcounter{nprt@cntprint}{2}
\setcounter{tkz@gr@a}{0}
\setcounter{tkz@gr@b}{0}
\setcounter{tkz@gr@c}{0}
\setcounter{tkz@gr@e}{0}
\setcounter{tkz@gr@d}{0}
\setcounter{tkz@gr@p}{1}
\setcounter{tkz@gr@i}{0}
\setcounter{tkz@gr@n}{0}
\setcounter{tkz@gr@ta}{0}
\setcounter{tkz@gr@tb}{0}
\setcounter{tkz@cnt@line}{3}
\setcounter{tkz@cnt@lg}{2}
\setcounter{tkz@cnt@cl}{2}
\setcounter{tkz@cnt@pred}{1}
\setcounter{tkz@cnt@temp}{0}
\setcounter{tkz@cnt@arrow}{2}
\setcounter{tkz@cnt@zone}{0}
\setcounter{tkz@cnt@lgnext}{3}
\setcounter{tkz@cnt@clnext}{2}
\setcounter{tkz@cnt@pair}{2}
\setcounter{tkz@cnt@impair}{2}
\setcounter{tkz@cnt@aw}{2}
\setcounter{C@NumTab}{0}
\setcounter{C@NumGroup}{0}
\setcounter{C@NextNode}{0}
\setcounter{NumC@Node}{0}
\setcounter{NumC@Stop}{0}
\setcounter{C@CurrentStop}{0}
\setcounter{C@CurrentNode}{0}
\setcounter{C@CurrentGroup}{0}
\setcounter{r@tfl@t}{0}
\setcounter{c@imbrication}{-1}
\setcounter{c@indentation}{0}
\setcounter{c@instruction}{20}
\setcounter{c@algo}{2}
\setcounter{c@tabdim}{0}
\setcounter{c@chaineouverte}{0}
\setcounter{floatalgo}{0}
\setcounter{aide}{0}
\setcounter{sol}{0}
\setcounter{mtc}{27}
\setcounter{minitocdepth}{3}
\setcounter{ptc}{0}
\setcounter{parttocdepth}{2}
\setcounter{asy}{0}
\setcounter{theoreme}{5}
\setcounter{lemme}{0}
\setcounter{corollaire}{0}
\setcounter{propriete}{0}
\setcounter{definition}{12}
\setcounter{exemple}{0}
\setcounter{remarque}{88}
\setcounter{recherche}{34}
\setcounter{exercicea}{0}
\setcounter{exerciceb}{0}
\setcounter{exercicec}{0}
\setcounter{pyquestions}{0}
\setcounter{pyxercice}{0}
\setcounter{lstlisting}{0}
\setcounter{section@level}{0}
\setcounter{tabularnotesi}{0}
\setcounter{tabularnotes*i}{0}
\setcounter{minilofdepth}{2}
\setcounter{minilotdepth}{2}
\setcounter{partlofdepth}{2}
\setcounter{partlotdepth}{2}
\setcounter{sectlofdepth}{2}
\setcounter{sectlotdepth}{2}
}
