\relax 
\providecommand\hyper@newdestlabel[2]{}
\providecommand\zref@newlabel[2]{}
\@writefile{toc}{\contentsline {chapter}{\numberline {14}G\IeC {\'e}om\IeC {\'e}trie: rappels}{297}{chapter.2682}\protected@file@percent }
\@writefile{lof}{\addvspace {10\p@ }}
\@writefile{lot}{\addvspace {10\p@ }}
\@writefile{lof}{\contentsline {xchapter}{G\IeC {\'e}om\IeC {\'e}trie: rappels}{298}{chapter.2682}\protected@file@percent }
\@writefile{lot}{\contentsline {xchapter}{G\IeC {\'e}om\IeC {\'e}trie: rappels}{298}{chapter.2682}\protected@file@percent }
\@writefile{toc}{\contentsline {section}{\numberline {14.1}G\IeC {\'e}om\IeC {\'e}trieS}{298}{section.2683}\protected@file@percent }
\@writefile{lof}{\contentsline {figure}{\numberline {14.1}{\ignorespaces Henri \textsc  {Poincar\IeC {\'e}} (1854 - 1912)\relax }}{298}{figure.caption.2684}\protected@file@percent }
\@writefile{toc}{\contentsline {section}{\numberline {14.2}En 2nde: les vecteurs}{298}{section.2685}\protected@file@percent }
\@writefile{toc}{\contentsline {subsection}{\numberline {14.2.1}Une introduction historique}{298}{subsection.2686}\protected@file@percent }
\@writefile{toc}{\contentsline {subsection}{\numberline {14.2.2}Qu'est-ce qu'un vecteur du plan?}{300}{subsection.2687}\protected@file@percent }
\@writefile{toc}{\contentsline {subsection}{\numberline {14.2.3}Somme de vecteurs}{301}{subsection.2690}\protected@file@percent }
\@writefile{toc}{\contentsline {subsection}{\numberline {14.2.4}Vecteur nul - Oppos\IeC {\'e} d'un vecteur}{301}{subsection.2693}\protected@file@percent }
\@writefile{toc}{\contentsline {subsection}{\numberline {14.2.5}Multiplication d'un vecteur par un nombre r\IeC {\'e}el}{302}{subsection.2697}\protected@file@percent }
\@writefile{toc}{\contentsline {subsection}{\numberline {14.2.6}Vecteurs colin\IeC {\'e}aires}{302}{subsection.2699}\protected@file@percent }
\@writefile{toc}{\contentsline {subsubsection}{\numberline {14.2.6.1}D\IeC {\'e}finition}{302}{subsubsection.2700}\protected@file@percent }
\@writefile{toc}{\contentsline {subsubsection}{\numberline {14.2.6.2}Cons\IeC {\'e}quences}{303}{subsubsection.2704}\protected@file@percent }
\@writefile{toc}{\contentsline {subsection}{\numberline {14.2.7}Base du plan vectoriel}{303}{subsection.2706}\protected@file@percent }
\@writefile{toc}{\contentsline {subsection}{\numberline {14.2.8}Des exercices\dots  basiques.}{304}{subsection.2709}\protected@file@percent }
\@writefile{toc}{\contentsline {subsection}{\numberline {14.2.9}Vecteurs et rep\IeC {\`e}res du plan}{308}{subsection.2722}\protected@file@percent }
\@writefile{toc}{\contentsline {subsubsection}{\numberline {14.2.9.1}Coordonn\IeC {\'e}es d'un point dans un rep\IeC {\`e}re}{308}{subsubsection.2723}\protected@file@percent }
\@writefile{toc}{\contentsline {subsubsection}{\numberline {14.2.9.2}Coordonn\IeC {\'e}es d'un vecteur dans une base}{309}{subsubsection.2726}\protected@file@percent }
\@writefile{toc}{\contentsline {subsubsection}{\numberline {14.2.9.3}Coordonn\IeC {\'e}es du milieu d'un segment}{310}{subsubsection.2728}\protected@file@percent }
\@writefile{toc}{\contentsline {subsubsection}{\numberline {14.2.9.4}Colin\IeC {\'e}arit\IeC {\'e} et cons\IeC {\'e}quences}{310}{subsubsection.2730}\protected@file@percent }
\@writefile{toc}{\contentsline {subsubsection}{\numberline {14.2.9.5}Rep\IeC {\`e}re orthonormal}{311}{subsubsection.2734}\protected@file@percent }
\@writefile{toc}{\contentsline {subsection}{\numberline {14.2.10}Pour le fun: les couleurs et les vecteurs}{311}{subsection.2738}\protected@file@percent }
\@writefile{toc}{\contentsline {subsection}{\numberline {14.2.11}Exercices d'application directe du cours}{313}{subsection.2741}\protected@file@percent }
\@writefile{toc}{\contentsline {subsubsection}{\numberline {14.2.11.1}Vecteur et repr\IeC {\'e}sentants}{313}{subsubsection.2742}\protected@file@percent }
\@writefile{toc}{\contentsline {subsubsection}{\numberline {14.2.11.2}\IeC {\'E}galit\IeC {\'e} de vecteurs}{313}{subsubsection.2749}\protected@file@percent }
\newlabel{vecteurs-et-milieu2}{{\bfseries  \color  {green!50!blue}\fontfamily  {ugq}\selectfont  3}{314}{Égalité de vecteurs}{Item.2753}{}}
\@writefile{toc}{\contentsline {subsubsection}{\numberline {14.2.11.3}Somme de vecteurs}{314}{subsubsection.2760}\protected@file@percent }
\@writefile{toc}{\contentsline {subsubsection}{\numberline {14.2.11.4}Multiplication par un r\IeC {\'e}el}{315}{subsubsection.2766}\protected@file@percent }
\@writefile{toc}{\contentsline {subsection}{\numberline {14.2.12}Encore des exercices}{315}{subsection.2771}\protected@file@percent }
\@writefile{toc}{\contentsline {section}{\numberline {14.3}En 1\IeC {\`e}re: le produit scalaire}{319}{section.2823}\protected@file@percent }
\@writefile{toc}{\contentsline {subsection}{\numberline {14.3.1}Construisons le produit scalaire}{319}{subsection.2824}\protected@file@percent }
\newlabel{ps}{{14.3.1}{319}{Construisons le produit scalaire}{subsection.2824}{}}
\@writefile{toc}{\contentsline {subsubsection}{\numberline {14.3.1.1}\IeC {\`A} la recherche d'une d\IeC {\'e}finition}{319}{subsubsection.2826}\protected@file@percent }
\newlabel{psnorme}{{14-9}{321}{À la recherche d'une définition}{theoreme.2832}{}}
\@writefile{toc}{\contentsline {subsubsection}{\numberline {14.3.1.2}Produit scalaire et cosinus}{321}{subsubsection.2835}\protected@file@percent }
\newlabel{16@xvr}{{}{322}}
\newlabel{16@vr}{{}{322}}
\newlabel{psproj}{{14-11}{322}{Produit scalaire et cosinus}{theoreme.2837}{}}
\newlabel{17@xvr}{{}{322}}
\newlabel{17@vr}{{}{322}}
\newlabel{pscos}{{14-12}{322}{Produit scalaire et cosinus}{theoreme.2840}{}}
\@writefile{toc}{\contentsline {subsubsection}{\numberline {14.3.1.3}Produit scalaire et orthogonalit\IeC {\'e}}{323}{subsubsection.2841}\protected@file@percent }
\@writefile{toc}{\contentsline {subsection}{\numberline {14.3.2}Applications du produit scalaire}{323}{subsection.2843}\protected@file@percent }
\@writefile{toc}{\contentsline {subsubsection}{\numberline {14.3.2.1}Affine {\fontfamily  {mvs}\fontencoding  {U}\fontseries  {m}\fontshape  {n}\selectfont  \char 69}Vectoriel}{323}{subsubsection.2844}\protected@file@percent }
\@writefile{toc}{\contentsline {subsubsection}{\numberline {14.3.2.2}Droites orthogonales}{323}{subsubsection.2846}\protected@file@percent }
\@writefile{toc}{\contentsline {subsubsection}{\numberline {14.3.2.3}Droites et plans orthogonaux}{324}{subsubsection.2848}\protected@file@percent }
\@writefile{toc}{\contentsline {subsubsection}{\numberline {14.3.2.4}Vecteur normal \IeC {\`a} un plan}{324}{subsubsection.2851}\protected@file@percent }
\@writefile{toc}{\contentsline {subsubsection}{\numberline {14.3.2.5}Projet\IeC {\'e} orthogonal sur un plan}{325}{subsubsection.2853}\protected@file@percent }
\@writefile{toc}{\contentsline {subsubsection}{\numberline {14.3.2.6}G\IeC {\'e}om\IeC {\'e}trie aux concours: projection orthogonale d'un vecteur sur un plan}{325}{subsubsection.2856}\protected@file@percent }
\@writefile{toc}{\contentsline {subsubsection}{\numberline {14.3.2.7}Distance d'un point \IeC {\`a} un plan}{326}{subsubsection.2861}\protected@file@percent }
\@writefile{toc}{\contentsline {subsubsection}{\numberline {14.3.2.8}Plans parall\IeC {\`e}les}{326}{subsubsection.2864}\protected@file@percent }
\@writefile{toc}{\contentsline {subsubsection}{\numberline {14.3.2.9}Plans perpendiculaires}{327}{subsubsection.2866}\protected@file@percent }
\@writefile{toc}{\contentsline {subsection}{\numberline {14.3.3}G\IeC {\'e}om\IeC {\'e}trie analytique}{327}{subsection.2868}\protected@file@percent }
\@writefile{toc}{\contentsline {subsubsection}{\numberline {14.3.3.1}Repr\IeC {\'e}sentation param\IeC {\'e}trique d'un plan}{327}{subsubsection.2869}\protected@file@percent }
\@writefile{toc}{\contentsline {subsubsection}{\numberline {14.3.3.2}\IeC {\'E}quation cart\IeC {\'e}sienne d'un plan}{328}{subsubsection.2870}\protected@file@percent }
\@writefile{toc}{\contentsline {subsubsection}{\numberline {14.3.3.3}Repr\IeC {\'e}sentation param\IeC {\'e}trique d'une droite}{328}{subsubsection.2872}\protected@file@percent }
\@writefile{toc}{\contentsline {subsubsection}{\numberline {14.3.3.4}Cercles et Sph\IeC {\`e}res}{328}{subsubsection.2873}\protected@file@percent }
\@writefile{toc}{\contentsline {section}{\numberline {14.4}ENTRA\IeC {\^I}NEMENT et R\IeC {\'E}FLEXION}{330}{section.2876}\protected@file@percent }
\@writefile{toc}{\contentsline {subsection}{\numberline {14.4.1}Exercices de 1\IeC {\`e}re}{330}{subsection.2877}\protected@file@percent }
\@writefile{toc}{\contentsline {subsection}{\numberline {14.4.2}En Terminale}{333}{subsection.2935}\protected@file@percent }
\@setckpt{geometrie21}{
\setcounter{page}{348}
\setcounter{equation}{0}
\setcounter{enumi}{3}
\setcounter{enumii}{3}
\setcounter{enumiii}{4}
\setcounter{enumiv}{0}
\setcounter{footnote}{5}
\setcounter{mpfootnote}{0}
\setcounter{part}{0}
\setcounter{chapter}{14}
\setcounter{section}{4}
\setcounter{subsection}{2}
\setcounter{subsubsection}{0}
\setcounter{paragraph}{0}
\setcounter{subparagraph}{0}
\setcounter{figure}{1}
\setcounter{table}{0}
\setcounter{chapterstar}{1}
\setcounter{@stackindex}{0}
\setcounter{ROWcellindex@}{0}
\setcounter{tcbbreakpart}{0}
\setcounter{tcblayer}{0}
\setcounter{tcolorbox@number}{0}
\setcounter{parentequation}{0}
\setcounter{ifsymcnt}{0}
\setcounter{lstnumber}{1}
\setcounter{vrcnt}{17}
\setcounter{tw@hyphen@char@num}{0}
\setcounter{float@type}{64}
\setcounter{subfigure}{0}
\setcounter{lofdepth}{1}
\setcounter{subtable}{0}
\setcounter{lotdepth}{1}
\setcounter{Item}{1713}
\setcounter{Hfootnote}{18}
\setcounter{bookmark@seq@number}{300}
\setcounter{mdf@globalstyle@cnt}{1}
\setcounter{mdfcountframes}{0}
\setcounter{mdf@env@i}{0}
\setcounter{mdf@env@ii}{0}
\setcounter{mdf@zref@counter}{0}
\setcounter{bclogocompteur}{0}
\setcounter{BAenumi}{0}
\setcounter{caption@flags}{0}
\setcounter{continuedfloat}{0}
\setcounter{tabularnote}{0}
\setcounter{num}{0}
\setcounter{qcm}{0}
\setcounter{FancyVerbLine}{15}
\setcounter{linenumber}{3}
\setcounter{LN@truepage}{351}
\setcounter{minted@FancyVerbLineTemp}{0}
\setcounter{listing}{0}
\setcounter{numquestion}{0}
\setcounter{qcm@numb}{0}
\setcounter{numprop}{0}
\setcounter{LT@tables}{0}
\setcounter{LT@chunks}{0}
\setcounter{@LCDdotx}{0}
\setcounter{@LCDdoty}{0}
\setcounter{@LCDchrx}{0}
\setcounter{@LCDlines}{0}
\setcounter{@LCDlower}{0}
\setcounter{nprt@mantissa@digitsbefore}{0}
\setcounter{nprt@mantissa@digitsafter}{0}
\setcounter{nprt@exponent@digitsbefore}{0}
\setcounter{nprt@exponent@digitsafter}{0}
\setcounter{nprt@digitsfirstblock}{1}
\setcounter{nprt@blockcnt}{1}
\setcounter{nprt@cntprint}{0}
\setcounter{tkz@gr@a}{0}
\setcounter{tkz@gr@b}{0}
\setcounter{tkz@gr@c}{0}
\setcounter{tkz@gr@e}{0}
\setcounter{tkz@gr@d}{0}
\setcounter{tkz@gr@p}{1}
\setcounter{tkz@gr@i}{0}
\setcounter{tkz@gr@n}{0}
\setcounter{tkz@gr@ta}{0}
\setcounter{tkz@gr@tb}{0}
\setcounter{tkz@cnt@line}{3}
\setcounter{tkz@cnt@lg}{2}
\setcounter{tkz@cnt@cl}{2}
\setcounter{tkz@cnt@pred}{1}
\setcounter{tkz@cnt@temp}{0}
\setcounter{tkz@cnt@arrow}{2}
\setcounter{tkz@cnt@zone}{0}
\setcounter{tkz@cnt@lgnext}{3}
\setcounter{tkz@cnt@clnext}{2}
\setcounter{tkz@cnt@pair}{2}
\setcounter{tkz@cnt@impair}{2}
\setcounter{tkz@cnt@aw}{2}
\setcounter{C@NumTab}{0}
\setcounter{C@NumGroup}{0}
\setcounter{C@NextNode}{0}
\setcounter{NumC@Node}{0}
\setcounter{NumC@Stop}{0}
\setcounter{C@CurrentStop}{0}
\setcounter{C@CurrentNode}{0}
\setcounter{C@CurrentGroup}{0}
\setcounter{r@tfl@t}{0}
\setcounter{c@imbrication}{-1}
\setcounter{c@indentation}{0}
\setcounter{c@instruction}{20}
\setcounter{c@algo}{2}
\setcounter{c@tabdim}{0}
\setcounter{c@chaineouverte}{0}
\setcounter{floatalgo}{0}
\setcounter{aide}{0}
\setcounter{sol}{0}
\setcounter{mtc}{15}
\setcounter{minitocdepth}{3}
\setcounter{ptc}{0}
\setcounter{parttocdepth}{2}
\setcounter{asy}{0}
\setcounter{theoreme}{15}
\setcounter{lemme}{0}
\setcounter{corollaire}{0}
\setcounter{propriete}{4}
\setcounter{definition}{16}
\setcounter{exemple}{0}
\setcounter{remarque}{44}
\setcounter{recherche}{83}
\setcounter{exercicea}{0}
\setcounter{exerciceb}{0}
\setcounter{exercicec}{0}
\setcounter{pyquestions}{0}
\setcounter{pyxercice}{3}
\setcounter{lstlisting}{0}
\setcounter{section@level}{0}
\setcounter{tabularnotesi}{0}
\setcounter{tabularnotes*i}{0}
\setcounter{minilofdepth}{2}
\setcounter{minilotdepth}{2}
\setcounter{partlofdepth}{2}
\setcounter{partlotdepth}{2}
\setcounter{sectlofdepth}{2}
\setcounter{sectlotdepth}{2}
}
