\relax 
\providecommand\hyper@newdestlabel[2]{}
\providecommand\zref@newlabel[2]{}
\@writefile{toc}{\contentsline {chapter}{\numberline {22}Int\IeC {\'e}gration: Niveau 2}{509}{chapter.4711}\protected@file@percent }
\@writefile{lof}{\addvspace {10\p@ }}
\@writefile{lot}{\addvspace {10\p@ }}
\@writefile{lof}{\contentsline {xchapter}{Int\IeC {\'e}gration: Niveau 2}{510}{chapter.4711}\protected@file@percent }
\@writefile{lot}{\contentsline {xchapter}{Int\IeC {\'e}gration: Niveau 2}{510}{chapter.4711}\protected@file@percent }
\@writefile{toc}{\contentsline {section}{\numberline {22.1}Quelques rappels du chapitre 10}{510}{section.4712}\protected@file@percent }
\@writefile{toc}{\contentsline {subsubsection}{\numberline {22.1.0.1}Relation de Chasles}{510}{subsubsection.4715}\protected@file@percent }
\@writefile{toc}{\contentsline {subsubsection}{\numberline {22.1.0.2}Lin\IeC {\'e}arit\IeC {\'e}}{511}{subsubsection.4717}\protected@file@percent }
\@writefile{toc}{\contentsline {section}{\numberline {22.2}Int\IeC {\'e}grales et relation d'ordre}{511}{section.4719}\protected@file@percent }
\@writefile{toc}{\contentsline {subsection}{\numberline {22.2.1}Valeur moyenne}{512}{subsection.4725}\protected@file@percent }
\@writefile{toc}{\contentsline {subsubsection}{\numberline {22.2.1.1}D\IeC {\'e}finition}{512}{subsubsection.4726}\protected@file@percent }
\@writefile{toc}{\contentsline {subsection}{\numberline {22.2.2}Est-ce que la valeur moyenne est une valeur prise par la fonction ?}{512}{subsection.4729}\protected@file@percent }
\@writefile{toc}{\contentsline {section}{\numberline {22.3}Primitive et int\IeC {\'e}grale}{513}{section.4731}\protected@file@percent }
\@writefile{toc}{\contentsline {subsection}{\numberline {22.3.1}Int\IeC {\'e}grale fonction de sa borne sup\IeC {\'e}rieure}{513}{subsection.4732}\protected@file@percent }
\@writefile{toc}{\contentsline {subsection}{\numberline {22.3.2}Th\IeC {\'e}or\IeC {\`e}me fondamental de l'Analyse}{513}{subsection.4733}\protected@file@percent }
\@writefile{toc}{\contentsline {subsection}{\numberline {22.3.3}Comment calculer une int\IeC {\'e}grale \IeC {\`a} l'aide d'une primitive?}{514}{subsection.4735}\protected@file@percent }
\@writefile{toc}{\contentsline {section}{\numberline {22.4}Fonction d\IeC {\'e}finie par une int\IeC {\'e}grale: approfondisssment}{515}{section.4737}\protected@file@percent }
\@writefile{toc}{\contentsline {section}{\numberline {22.5}Sommes de Riemann}{516}{section.4741}\protected@file@percent }
\@writefile{toc}{\contentsline {subsection}{\numberline {22.5.1}D\IeC {\'e}finition}{516}{subsection.4742}\protected@file@percent }
\@writefile{toc}{\contentsline {subsection}{\numberline {22.5.2}Cas des fonctions de classe $\mathscr  {C}^1$}{516}{subsection.4744}\protected@file@percent }
\@writefile{toc}{\contentsline {subsection}{\numberline {22.5.3}Cas des fonctions continues}{517}{subsection.4746}\protected@file@percent }
\@writefile{toc}{\contentsline {subsection}{\numberline {22.5.4}Interpr\IeC {\'e}tation g\IeC {\'e}om\IeC {\'e}trique}{517}{subsection.4749}\protected@file@percent }
\@writefile{toc}{\contentsline {subsection}{\numberline {22.5.5}Python et les sommes de Riemann}{518}{subsection.4750}\protected@file@percent }
\@writefile{toc}{\contentsline {section}{\numberline {22.6}La main \IeC {\`a} la p\IeC {\^a}te}{519}{section.4751}\protected@file@percent }
\@setckpt{Int_2_21}{
\setcounter{page}{526}
\setcounter{equation}{0}
\setcounter{enumi}{6}
\setcounter{enumii}{2}
\setcounter{enumiii}{2}
\setcounter{enumiv}{0}
\setcounter{footnote}{0}
\setcounter{mpfootnote}{0}
\setcounter{part}{0}
\setcounter{chapter}{22}
\setcounter{section}{6}
\setcounter{subsection}{0}
\setcounter{subsubsection}{0}
\setcounter{paragraph}{0}
\setcounter{subparagraph}{0}
\setcounter{figure}{0}
\setcounter{table}{0}
\setcounter{chapterstar}{1}
\setcounter{@stackindex}{0}
\setcounter{ROWcellindex@}{0}
\setcounter{tcbbreakpart}{0}
\setcounter{tcblayer}{0}
\setcounter{tcolorbox@number}{0}
\setcounter{parentequation}{0}
\setcounter{ifsymcnt}{0}
\setcounter{lstnumber}{1}
\setcounter{vrcnt}{40}
\setcounter{tw@hyphen@char@num}{0}
\setcounter{float@type}{64}
\setcounter{subfigure}{0}
\setcounter{lofdepth}{1}
\setcounter{subtable}{0}
\setcounter{lotdepth}{1}
\setcounter{Item}{2659}
\setcounter{Hfootnote}{21}
\setcounter{bookmark@seq@number}{478}
\setcounter{mdf@globalstyle@cnt}{1}
\setcounter{mdfcountframes}{0}
\setcounter{mdf@env@i}{0}
\setcounter{mdf@env@ii}{0}
\setcounter{mdf@zref@counter}{0}
\setcounter{bclogocompteur}{0}
\setcounter{BAenumi}{0}
\setcounter{caption@flags}{0}
\setcounter{continuedfloat}{0}
\setcounter{tabularnote}{0}
\setcounter{num}{0}
\setcounter{qcm}{0}
\setcounter{FancyVerbLine}{8}
\setcounter{linenumber}{3}
\setcounter{LN@truepage}{531}
\setcounter{minted@FancyVerbLineTemp}{0}
\setcounter{listing}{0}
\setcounter{numquestion}{0}
\setcounter{qcm@numb}{0}
\setcounter{numprop}{0}
\setcounter{LT@tables}{0}
\setcounter{LT@chunks}{0}
\setcounter{@LCDdotx}{0}
\setcounter{@LCDdoty}{0}
\setcounter{@LCDchrx}{0}
\setcounter{@LCDlines}{0}
\setcounter{@LCDlower}{0}
\setcounter{nprt@mantissa@digitsbefore}{0}
\setcounter{nprt@mantissa@digitsafter}{0}
\setcounter{nprt@exponent@digitsbefore}{0}
\setcounter{nprt@exponent@digitsafter}{0}
\setcounter{nprt@digitsfirstblock}{1}
\setcounter{nprt@blockcnt}{1}
\setcounter{nprt@cntprint}{0}
\setcounter{tkz@gr@a}{0}
\setcounter{tkz@gr@b}{0}
\setcounter{tkz@gr@c}{0}
\setcounter{tkz@gr@e}{0}
\setcounter{tkz@gr@d}{0}
\setcounter{tkz@gr@p}{1}
\setcounter{tkz@gr@i}{0}
\setcounter{tkz@gr@n}{0}
\setcounter{tkz@gr@ta}{0}
\setcounter{tkz@gr@tb}{0}
\setcounter{tkz@cnt@line}{3}
\setcounter{tkz@cnt@lg}{2}
\setcounter{tkz@cnt@cl}{2}
\setcounter{tkz@cnt@pred}{1}
\setcounter{tkz@cnt@temp}{0}
\setcounter{tkz@cnt@arrow}{2}
\setcounter{tkz@cnt@zone}{0}
\setcounter{tkz@cnt@lgnext}{3}
\setcounter{tkz@cnt@clnext}{2}
\setcounter{tkz@cnt@pair}{2}
\setcounter{tkz@cnt@impair}{2}
\setcounter{tkz@cnt@aw}{2}
\setcounter{C@NumTab}{0}
\setcounter{C@NumGroup}{0}
\setcounter{C@NextNode}{0}
\setcounter{NumC@Node}{0}
\setcounter{NumC@Stop}{0}
\setcounter{C@CurrentStop}{0}
\setcounter{C@CurrentNode}{0}
\setcounter{C@CurrentGroup}{0}
\setcounter{r@tfl@t}{0}
\setcounter{c@imbrication}{-1}
\setcounter{c@indentation}{0}
\setcounter{c@instruction}{20}
\setcounter{c@algo}{2}
\setcounter{c@tabdim}{0}
\setcounter{c@chaineouverte}{0}
\setcounter{floatalgo}{0}
\setcounter{aide}{0}
\setcounter{sol}{0}
\setcounter{mtc}{23}
\setcounter{minitocdepth}{3}
\setcounter{ptc}{0}
\setcounter{parttocdepth}{2}
\setcounter{asy}{0}
\setcounter{theoreme}{14}
\setcounter{lemme}{0}
\setcounter{corollaire}{0}
\setcounter{propriete}{0}
\setcounter{definition}{4}
\setcounter{exemple}{0}
\setcounter{remarque}{74}
\setcounter{recherche}{18}
\setcounter{exercicea}{0}
\setcounter{exerciceb}{0}
\setcounter{exercicec}{0}
\setcounter{pyquestions}{0}
\setcounter{pyxercice}{0}
\setcounter{lstlisting}{0}
\setcounter{section@level}{0}
\setcounter{tabularnotesi}{0}
\setcounter{tabularnotes*i}{0}
\setcounter{minilofdepth}{2}
\setcounter{minilotdepth}{2}
\setcounter{partlofdepth}{2}
\setcounter{partlotdepth}{2}
\setcounter{sectlofdepth}{2}
\setcounter{sectlotdepth}{2}
}
