\relax 
\providecommand\hyper@newdestlabel[2]{}
\providecommand\zref@newlabel[2]{}
\@writefile{toc}{\contentsline {chapter}{\numberline {10}Calcul int\IeC {\'e}gral: rappels}{225}{chapter.2066}\protected@file@percent }
\@writefile{lof}{\addvspace {10\p@ }}
\@writefile{lot}{\addvspace {10\p@ }}
\@writefile{lof}{\contentsline {xchapter}{Calcul int\IeC {\'e}gral: rappels}{226}{chapter.2066}\protected@file@percent }
\@writefile{lot}{\contentsline {xchapter}{Calcul int\IeC {\'e}gral: rappels}{226}{chapter.2066}\protected@file@percent }
\@writefile{toc}{\contentsline {section}{\numberline {10.1}Int\IeC {\'e}gration}{226}{section.2067}\protected@file@percent }
\@writefile{toc}{\contentsline {subsection}{\numberline {10.1.1}Le principe de sommation infinie}{226}{subsection.2068}\protected@file@percent }
\@writefile{toc}{\contentsline {subsubsection}{\numberline {10.1.1.1}Qu'est-ce qu'une int\IeC {\'e}grale ?}{226}{subsubsection.2069}\protected@file@percent }
\@writefile{toc}{\contentsline {subsubsection}{\numberline {10.1.1.2}Comment calculer la distance parcourue connaissant les vitesses instantan\IeC {\'e}es ?}{226}{subsubsection.2070}\protected@file@percent }
\newlabel{long}{{10.1.1.2}{226}{Comment calculer la distance parcourue connaissant les vitesses instantanées ?}{subsubsection.2070}{}}
\@writefile{toc}{\contentsline {subsubsection}{\numberline {10.1.1.3}Quelle est l'aire d\IeC {\'e}limit\IeC {\'e}e par une courbe ?}{226}{subsubsection.2071}\protected@file@percent }
\@writefile{toc}{\contentsline {subsubsection}{\numberline {10.1.1.4}Quel est le volume int\IeC {\'e}rieur \IeC {\`a} une sph\IeC {\`e}re ?}{228}{subsubsection.2072}\protected@file@percent }
\@writefile{toc}{\contentsline {subsection}{\numberline {10.1.2}D\IeC {\'e}finition des int\IeC {\'e}grales}{228}{subsection.2073}\protected@file@percent }
\@writefile{toc}{\contentsline {subsubsection}{\numberline {10.1.2.1}D\IeC {\'e}finition}{228}{subsubsection.2074}\protected@file@percent }
\@writefile{toc}{\contentsline {subsubsection}{\numberline {10.1.2.2}Relation de Chasles}{229}{subsubsection.2077}\protected@file@percent }
\@writefile{toc}{\contentsline {subsection}{\numberline {10.1.3}Primitive et int\IeC {\'e}grale}{230}{subsection.2080}\protected@file@percent }
\@writefile{toc}{\contentsline {subsubsection}{\numberline {10.1.3.1}Int\IeC {\'e}grale fonction de sa borne sup\IeC {\'e}rieure}{230}{subsubsection.2081}\protected@file@percent }
\@writefile{toc}{\contentsline {subsubsection}{\numberline {10.1.3.2}Comment retrouver $\mbox  {\boldmath  $f$\unboldmath  }$ connaissant $\mbox  {\boldmath  $S:\nobreakspace  t\DOTSB \mapstochar \rightarrow \DOTSI \intop \ilimits@ _a^bf(u)\:\text  {d}u$\unboldmath  }$ ?}{230}{subsubsection.2082}\protected@file@percent }
\@writefile{toc}{\contentsline {paragraph}{\numberline {10.1.3.2.1}Approche intuitive}{230}{paragraph.2084}\protected@file@percent }
\@writefile{toc}{\contentsline {paragraph}{\numberline {10.1.3.2.2}Preuve de notre intuition}{231}{paragraph.2085}\protected@file@percent }
\@writefile{toc}{\contentsline {subsubsection}{\numberline {10.1.3.3}Comment calculer une int\IeC {\'e}grale \IeC {\`a} l'aide d'une primitive?}{231}{subsubsection.2087}\protected@file@percent }
\@writefile{toc}{\contentsline {subsection}{\numberline {10.1.4}Nouveaux outils de calcul d'int\IeC {\'e}grales}{231}{subsection.2090}\protected@file@percent }
\@writefile{toc}{\contentsline {subsubsection}{\numberline {10.1.4.1}Int\IeC {\'e}gration par parties}{231}{subsubsection.2091}\protected@file@percent }
\@writefile{toc}{\contentsline {subsubsection}{\numberline {10.1.4.2}Changement de variable}{232}{subsubsection.2095}\protected@file@percent }
\@writefile{toc}{\contentsline {paragraph}{\numberline {10.1.4.2.1}Avec SymPy}{232}{paragraph.2098}\protected@file@percent }
\@writefile{toc}{\contentsline {section}{\numberline {10.2}En route vers l'int\IeC {\'e}gration}{233}{section.2099}\protected@file@percent }
\@writefile{toc}{\contentsline {subsection}{\numberline {10.2.1}Int\IeC {\'e}gration sans primitives}{233}{subsection.2100}\protected@file@percent }
\@writefile{toc}{\contentsline {subsection}{\numberline {10.2.2}Int\IeC {\'e}gration avec primitives}{233}{subsection.2120}\protected@file@percent }
\@writefile{toc}{\contentsline {section}{\numberline {10.3}Des exercices avec corrig\IeC {\'e}s}{236}{section.2184}\protected@file@percent }
\@setckpt{integrales21}{
\setcounter{page}{238}
\setcounter{equation}{0}
\setcounter{enumi}{13}
\setcounter{enumii}{4}
\setcounter{enumiii}{4}
\setcounter{enumiv}{0}
\setcounter{footnote}{0}
\setcounter{mpfootnote}{0}
\setcounter{part}{0}
\setcounter{chapter}{10}
\setcounter{section}{3}
\setcounter{subsection}{0}
\setcounter{subsubsection}{0}
\setcounter{paragraph}{0}
\setcounter{subparagraph}{0}
\setcounter{figure}{0}
\setcounter{table}{0}
\setcounter{chapterstar}{1}
\setcounter{@stackindex}{0}
\setcounter{ROWcellindex@}{0}
\setcounter{tcbbreakpart}{0}
\setcounter{tcblayer}{0}
\setcounter{tcolorbox@number}{0}
\setcounter{parentequation}{0}
\setcounter{ifsymcnt}{0}
\setcounter{lstnumber}{1}
\setcounter{vrcnt}{13}
\setcounter{tw@hyphen@char@num}{0}
\setcounter{float@type}{64}
\setcounter{subfigure}{0}
\setcounter{lofdepth}{1}
\setcounter{subtable}{0}
\setcounter{lotdepth}{1}
\setcounter{Item}{1170}
\setcounter{Hfootnote}{13}
\setcounter{bookmark@seq@number}{214}
\setcounter{mdf@globalstyle@cnt}{1}
\setcounter{mdfcountframes}{0}
\setcounter{mdf@env@i}{0}
\setcounter{mdf@env@ii}{0}
\setcounter{mdf@zref@counter}{0}
\setcounter{bclogocompteur}{0}
\setcounter{BAenumi}{0}
\setcounter{caption@flags}{0}
\setcounter{continuedfloat}{0}
\setcounter{tabularnote}{0}
\setcounter{num}{0}
\setcounter{qcm}{0}
\setcounter{FancyVerbLine}{7}
\setcounter{linenumber}{3}
\setcounter{LN@truepage}{237}
\setcounter{minted@FancyVerbLineTemp}{0}
\setcounter{listing}{0}
\setcounter{numquestion}{0}
\setcounter{qcm@numb}{0}
\setcounter{numprop}{0}
\setcounter{LT@tables}{0}
\setcounter{LT@chunks}{0}
\setcounter{@LCDdotx}{0}
\setcounter{@LCDdoty}{0}
\setcounter{@LCDchrx}{0}
\setcounter{@LCDlines}{0}
\setcounter{@LCDlower}{0}
\setcounter{nprt@mantissa@digitsbefore}{0}
\setcounter{nprt@mantissa@digitsafter}{0}
\setcounter{nprt@exponent@digitsbefore}{0}
\setcounter{nprt@exponent@digitsafter}{0}
\setcounter{nprt@digitsfirstblock}{1}
\setcounter{nprt@blockcnt}{1}
\setcounter{nprt@cntprint}{0}
\setcounter{tkz@gr@a}{0}
\setcounter{tkz@gr@b}{0}
\setcounter{tkz@gr@c}{0}
\setcounter{tkz@gr@e}{0}
\setcounter{tkz@gr@d}{0}
\setcounter{tkz@gr@p}{1}
\setcounter{tkz@gr@i}{0}
\setcounter{tkz@gr@n}{0}
\setcounter{tkz@gr@ta}{0}
\setcounter{tkz@gr@tb}{0}
\setcounter{tkz@cnt@line}{3}
\setcounter{tkz@cnt@lg}{2}
\setcounter{tkz@cnt@cl}{2}
\setcounter{tkz@cnt@pred}{1}
\setcounter{tkz@cnt@temp}{0}
\setcounter{tkz@cnt@arrow}{2}
\setcounter{tkz@cnt@zone}{0}
\setcounter{tkz@cnt@lgnext}{3}
\setcounter{tkz@cnt@clnext}{2}
\setcounter{tkz@cnt@pair}{2}
\setcounter{tkz@cnt@impair}{2}
\setcounter{tkz@cnt@aw}{2}
\setcounter{C@NumTab}{0}
\setcounter{C@NumGroup}{0}
\setcounter{C@NextNode}{0}
\setcounter{NumC@Node}{0}
\setcounter{NumC@Stop}{0}
\setcounter{C@CurrentStop}{0}
\setcounter{C@CurrentNode}{0}
\setcounter{C@CurrentGroup}{0}
\setcounter{r@tfl@t}{0}
\setcounter{c@imbrication}{-1}
\setcounter{c@indentation}{0}
\setcounter{c@instruction}{20}
\setcounter{c@algo}{2}
\setcounter{c@tabdim}{0}
\setcounter{c@chaineouverte}{0}
\setcounter{floatalgo}{0}
\setcounter{aide}{0}
\setcounter{sol}{0}
\setcounter{mtc}{11}
\setcounter{minitocdepth}{3}
\setcounter{ptc}{0}
\setcounter{parttocdepth}{2}
\setcounter{asy}{0}
\setcounter{theoreme}{6}
\setcounter{lemme}{0}
\setcounter{corollaire}{0}
\setcounter{propriete}{0}
\setcounter{definition}{3}
\setcounter{exemple}{0}
\setcounter{remarque}{33}
\setcounter{recherche}{24}
\setcounter{exercicea}{0}
\setcounter{exerciceb}{0}
\setcounter{exercicec}{0}
\setcounter{pyquestions}{0}
\setcounter{pyxercice}{0}
\setcounter{lstlisting}{0}
\setcounter{section@level}{0}
\setcounter{tabularnotesi}{0}
\setcounter{tabularnotes*i}{0}
\setcounter{minilofdepth}{2}
\setcounter{minilotdepth}{2}
\setcounter{partlofdepth}{2}
\setcounter{partlotdepth}{2}
\setcounter{sectlofdepth}{2}
\setcounter{sectlotdepth}{2}
}
