\relax 
\providecommand\hyper@newdestlabel[2]{}
\providecommand\zref@newlabel[2]{}
\@writefile{toc}{\contentsline {chapter}{\numberline {19}Limites et continuit\IeC {\'e}}{445}{chapter.4027}\protected@file@percent }
\@writefile{lof}{\addvspace {10\p@ }}
\@writefile{lot}{\addvspace {10\p@ }}
\@writefile{lof}{\contentsline {xchapter}{Limites et continuit\IeC {\'e}}{446}{chapter.4027}\protected@file@percent }
\@writefile{lot}{\contentsline {xchapter}{Limites et continuit\IeC {\'e}}{446}{chapter.4027}\protected@file@percent }
\@writefile{toc}{\contentsline {section}{\numberline {19.1}Voisinage}{446}{section.4028}\protected@file@percent }
\@writefile{toc}{\contentsline {section}{\numberline {19.2}Approche intuitive des diff\IeC {\'e}rentes d\IeC {\'e}finitions}{447}{section.4031}\protected@file@percent }
\@writefile{toc}{\contentsline {subsection}{\numberline {19.2.1}La fonction f est d\IeC {\'e}finie en a}{447}{subsection.4032}\protected@file@percent }
\@writefile{toc}{\contentsline {subsubsection}{\numberline {19.2.1.1}Il n'y a pas de \@FB@og  saut\@FB@fg  \xspace  {} en a}{448}{subsubsection.4033}\protected@file@percent }
\@writefile{toc}{\contentsline {paragraph}{\numberline {19.2.1.1.1}Approche intuitive}{448}{paragraph.4034}\protected@file@percent }
\@writefile{toc}{\contentsline {paragraph}{\numberline {19.2.1.1.2}Formalisation math\IeC {\'e}matique}{448}{paragraph.4035}\protected@file@percent }
\@writefile{toc}{\contentsline {subsubsection}{\numberline {19.2.1.2}Il y a un \@FB@og  saut\@FB@fg  \xspace  {} en a}{449}{subsubsection.4042}\protected@file@percent }
\@writefile{toc}{\contentsline {paragraph}{\numberline {19.2.1.2.1}Approche intuitive}{449}{paragraph.4043}\protected@file@percent }
\@writefile{toc}{\contentsline {subsection}{\numberline {19.2.2}La fonction f n'est pas d\IeC {\'e}finie en a}{449}{subsection.4044}\protected@file@percent }
\@writefile{toc}{\contentsline {subsubsection}{\numberline {19.2.2.1}Il y a un \@FB@og  saut\@FB@fg  \xspace  {} en a}{450}{subsubsection.4045}\protected@file@percent }
\@writefile{toc}{\contentsline {paragraph}{\numberline {19.2.2.1.1}Approche intuitive}{450}{paragraph.4046}\protected@file@percent }
\@writefile{toc}{\contentsline {subsubsection}{\numberline {19.2.2.2}Il y a un \@FB@og  vide\@FB@fg  \xspace  {} en a}{450}{subsubsection.4047}\protected@file@percent }
\@writefile{toc}{\contentsline {paragraph}{\numberline {19.2.2.2.1}Approche intuitive}{450}{paragraph.4048}\protected@file@percent }
\@writefile{toc}{\contentsline {paragraph}{\numberline {19.2.2.2.2}Formalisation math\IeC {\'e}matique}{450}{paragraph.4049}\protected@file@percent }
\@writefile{toc}{\contentsline {subsubsection}{\numberline {19.2.2.3}Il y a un \@FB@og  mur vertical\@FB@fg  \xspace  {} en a}{450}{subsubsection.4050}\protected@file@percent }
\@writefile{toc}{\contentsline {paragraph}{\numberline {19.2.2.3.1}Un exemple}{450}{paragraph.4051}\protected@file@percent }
\@writefile{toc}{\contentsline {subsection}{\numberline {19.2.3}Limite finie en l'infini}{451}{subsection.4053}\protected@file@percent }
\@writefile{toc}{\contentsline {paragraph}{\numberline {19.2.3.0.1}Approche intuitive}{451}{paragraph.4054}\protected@file@percent }
\@writefile{toc}{\contentsline {paragraph}{\numberline {19.2.3.0.2}Formalisation math\IeC {\'e}matique}{452}{paragraph.4055}\protected@file@percent }
\@writefile{toc}{\contentsline {subsection}{\numberline {19.2.4}Limite infinie en l'infini}{452}{subsection.4057}\protected@file@percent }
\@writefile{toc}{\contentsline {section}{\numberline {19.3}Les th\IeC {\'e}or\IeC {\`e}mes sur les limites}{452}{section.4059}\protected@file@percent }
\@writefile{toc}{\contentsline {subsection}{\numberline {19.3.1}Op\IeC {\'e}rations sur les limites}{453}{subsection.4061}\protected@file@percent }
\@writefile{toc}{\contentsline {subsection}{\numberline {19.3.2}Limites et relation d'ordre}{455}{subsection.4066}\protected@file@percent }
\@writefile{toc}{\contentsline {subsection}{\numberline {19.3.3}Th\IeC {\'e}or\IeC {\`e}me d'encadrement des limites}{456}{subsection.4071}\protected@file@percent }
\@writefile{toc}{\contentsline {subsection}{\numberline {19.3.4}Prolongement par continuit\IeC {\'e} en $x_0$}{456}{subsection.4076}\protected@file@percent }
\@writefile{toc}{\contentsline {subsection}{\numberline {19.3.5}Limites et suites}{457}{subsection.4079}\protected@file@percent }
\@writefile{toc}{\contentsline {subsection}{\numberline {19.3.6}Limites de fonctions compos\IeC {\'e}es}{458}{subsection.4086}\protected@file@percent }
\@writefile{toc}{\contentsline {subsection}{\numberline {19.3.7}Th\IeC {\'e}or\IeC {\`e}me de la limite monotone (admis)}{458}{subsection.4088}\protected@file@percent }
\@writefile{toc}{\contentsline {section}{\numberline {19.4}Kit de survie...}{459}{section.4091}\protected@file@percent }
\@writefile{toc}{\contentsline {subsection}{\numberline {19.4.1}G\IeC {\'e}n\IeC {\'e}ralit\IeC {\'e}s}{459}{subsection.4092}\protected@file@percent }
\@writefile{toc}{\contentsline {section}{\numberline {19.5}Fonctions \IeC {\'e}quivalentes}{461}{section.4108}\protected@file@percent }
\@writefile{toc}{\contentsline {section}{\numberline {19.6}Continuit\IeC {\'e}}{463}{section.4128}\protected@file@percent }
\@writefile{toc}{\contentsline {subsection}{\numberline {19.6.1}M\IeC {\'e}thodes}{463}{subsection.4132}\protected@file@percent }
\newlabel{met12:continuite}{{19.6.1}{464}{Méthodes}{subsection.4132}{}}
\@writefile{toc}{\contentsline {section}{\numberline {19.7}Fonctions continues sur un intervalle}{465}{section.4133}\protected@file@percent }
\@writefile{lof}{\contentsline {figure}{\numberline {19.1}{\ignorespaces B. \textsc  {Bolzano} (1781-1848 )\relax }}{465}{figure.caption.4134}\protected@file@percent }
\@writefile{toc}{\contentsline {subsection}{\numberline {19.7.1}Quelles sont les fonctions dont le graphe est un trait continu ?}{465}{subsection.4135}\protected@file@percent }
\@writefile{toc}{\contentsline {subsection}{\numberline {19.7.2}Op\IeC {\'e}rations alg\IeC {\'e}briques et composition}{467}{subsection.4139}\protected@file@percent }
\@writefile{toc}{\contentsline {subsection}{\numberline {19.7.3}Fonctions continues par morceaux}{467}{subsection.4143}\protected@file@percent }
\@writefile{toc}{\contentsline {section}{\numberline {19.8}Les gros th\IeC {\'e}or\IeC {\`e}mes sur la continuit\IeC {\'e}}{468}{section.4147}\protected@file@percent }
\@writefile{toc}{\contentsline {subsection}{\numberline {19.8.1}Th\IeC {\'e}or\IeC {\`e}me des valeurs interm\IeC {\'e}diaires}{468}{subsection.4148}\protected@file@percent }
\@writefile{toc}{\contentsline {subsubsection}{\numberline {19.8.1.1}Application fondamentale: une fonction continue peut-elle changer de signe sans s'annuler ?}{468}{subsubsection.4149}\protected@file@percent }
\@writefile{toc}{\contentsline {subsection}{\numberline {19.8.2}Une fonction f continue sur [a,b] prend-elle toutes les valeurs comprises entre f(a) et f(b) ?}{468}{subsection.4153}\protected@file@percent }
\@writefile{toc}{\contentsline {subsection}{\numberline {19.8.3}Th\IeC {\'e}or\IeC {\`e}me des bornes}{469}{subsection.4156}\protected@file@percent }
\@writefile{toc}{\contentsline {subsection}{\numberline {19.8.4}Th\IeC {\'e}or\IeC {\`e}me de la bijection}{469}{subsection.4158}\protected@file@percent }
\@writefile{toc}{\contentsline {subsubsection}{\numberline {19.8.4.1} Comment montrer qu'une \IeC {\'e}quation admet une unique solution\nobreakspace  ?}{469}{subsubsection.4159}\protected@file@percent }
\@writefile{toc}{\contentsline {subsubsection}{\numberline {19.8.4.2}Th\IeC {\'e}or\IeC {\`e}me de la bijection}{470}{subsubsection.4162}\protected@file@percent }
\@writefile{toc}{\contentsline {subsection}{\numberline {19.8.5}Application: d\IeC {\'e}finition de la fonction Arctan}{471}{subsection.4170}\protected@file@percent }
\@writefile{toc}{\contentsline {subsection}{\numberline {19.8.6}Comment r\IeC {\'e}soudre une \IeC {\'e}quation num\IeC {\'e}rique par dichotomie\nobreakspace  ?}{472}{subsection.4176}\protected@file@percent }
\@writefile{toc}{\contentsline {section}{\numberline {19.9}Entra\IeC {\^\i }nement}{475}{section.4177}\protected@file@percent }
\@writefile{toc}{\contentsline {subsection}{\numberline {19.9.1}Limites}{475}{subsection.4178}\protected@file@percent }
\@writefile{toc}{\contentsline {subsection}{\numberline {19.9.2}\IeC {\'E}quivalents}{476}{subsection.4263}\protected@file@percent }
\@writefile{toc}{\contentsline {subsection}{\numberline {19.9.3}\IeC {\'E}tude globale}{477}{subsection.4289}\protected@file@percent }
\@writefile{toc}{\contentsline {subsection}{\numberline {19.9.4}\IeC {\`A} l'oral d'Agro-V\IeC {\'e}to}{481}{subsection.4359}\protected@file@percent }
\@setckpt{lim_cont_21}{
\setcounter{page}{483}
\setcounter{equation}{0}
\setcounter{enumi}{7}
\setcounter{enumii}{2}
\setcounter{enumiii}{4}
\setcounter{enumiv}{0}
\setcounter{footnote}{2}
\setcounter{mpfootnote}{0}
\setcounter{part}{0}
\setcounter{chapter}{19}
\setcounter{section}{9}
\setcounter{subsection}{4}
\setcounter{subsubsection}{0}
\setcounter{paragraph}{0}
\setcounter{subparagraph}{0}
\setcounter{figure}{1}
\setcounter{table}{0}
\setcounter{chapterstar}{1}
\setcounter{@stackindex}{0}
\setcounter{ROWcellindex@}{0}
\setcounter{tcbbreakpart}{0}
\setcounter{tcblayer}{0}
\setcounter{tcolorbox@number}{0}
\setcounter{parentequation}{0}
\setcounter{ifsymcnt}{0}
\setcounter{lstnumber}{1}
\setcounter{vrcnt}{38}
\setcounter{tw@hyphen@char@num}{0}
\setcounter{float@type}{64}
\setcounter{subfigure}{0}
\setcounter{lofdepth}{1}
\setcounter{subtable}{0}
\setcounter{lotdepth}{1}
\setcounter{Item}{2334}
\setcounter{Hfootnote}{21}
\setcounter{bookmark@seq@number}{431}
\setcounter{mdf@globalstyle@cnt}{1}
\setcounter{mdfcountframes}{0}
\setcounter{mdf@env@i}{0}
\setcounter{mdf@env@ii}{0}
\setcounter{mdf@zref@counter}{0}
\setcounter{bclogocompteur}{0}
\setcounter{BAenumi}{0}
\setcounter{caption@flags}{0}
\setcounter{continuedfloat}{0}
\setcounter{tabularnote}{0}
\setcounter{num}{0}
\setcounter{qcm}{0}
\setcounter{FancyVerbLine}{5}
\setcounter{linenumber}{3}
\setcounter{LN@truepage}{486}
\setcounter{minted@FancyVerbLineTemp}{0}
\setcounter{listing}{0}
\setcounter{numquestion}{0}
\setcounter{qcm@numb}{0}
\setcounter{numprop}{0}
\setcounter{LT@tables}{0}
\setcounter{LT@chunks}{0}
\setcounter{@LCDdotx}{0}
\setcounter{@LCDdoty}{0}
\setcounter{@LCDchrx}{0}
\setcounter{@LCDlines}{0}
\setcounter{@LCDlower}{0}
\setcounter{nprt@mantissa@digitsbefore}{0}
\setcounter{nprt@mantissa@digitsafter}{0}
\setcounter{nprt@exponent@digitsbefore}{0}
\setcounter{nprt@exponent@digitsafter}{0}
\setcounter{nprt@digitsfirstblock}{1}
\setcounter{nprt@blockcnt}{1}
\setcounter{nprt@cntprint}{0}
\setcounter{tkz@gr@a}{0}
\setcounter{tkz@gr@b}{0}
\setcounter{tkz@gr@c}{0}
\setcounter{tkz@gr@e}{0}
\setcounter{tkz@gr@d}{0}
\setcounter{tkz@gr@p}{1}
\setcounter{tkz@gr@i}{0}
\setcounter{tkz@gr@n}{0}
\setcounter{tkz@gr@ta}{0}
\setcounter{tkz@gr@tb}{0}
\setcounter{tkz@cnt@line}{3}
\setcounter{tkz@cnt@lg}{2}
\setcounter{tkz@cnt@cl}{2}
\setcounter{tkz@cnt@pred}{1}
\setcounter{tkz@cnt@temp}{0}
\setcounter{tkz@cnt@arrow}{2}
\setcounter{tkz@cnt@zone}{0}
\setcounter{tkz@cnt@lgnext}{3}
\setcounter{tkz@cnt@clnext}{2}
\setcounter{tkz@cnt@pair}{2}
\setcounter{tkz@cnt@impair}{2}
\setcounter{tkz@cnt@aw}{2}
\setcounter{C@NumTab}{0}
\setcounter{C@NumGroup}{0}
\setcounter{C@NextNode}{0}
\setcounter{NumC@Node}{0}
\setcounter{NumC@Stop}{0}
\setcounter{C@CurrentStop}{0}
\setcounter{C@CurrentNode}{0}
\setcounter{C@CurrentGroup}{0}
\setcounter{r@tfl@t}{0}
\setcounter{c@imbrication}{-1}
\setcounter{c@indentation}{0}
\setcounter{c@instruction}{20}
\setcounter{c@algo}{2}
\setcounter{c@tabdim}{0}
\setcounter{c@chaineouverte}{0}
\setcounter{floatalgo}{0}
\setcounter{aide}{0}
\setcounter{sol}{0}
\setcounter{mtc}{20}
\setcounter{minitocdepth}{3}
\setcounter{ptc}{0}
\setcounter{parttocdepth}{2}
\setcounter{asy}{0}
\setcounter{theoreme}{36}
\setcounter{lemme}{0}
\setcounter{corollaire}{0}
\setcounter{propriete}{1}
\setcounter{definition}{18}
\setcounter{exemple}{5}
\setcounter{remarque}{72}
\setcounter{recherche}{46}
\setcounter{exercicea}{0}
\setcounter{exerciceb}{0}
\setcounter{exercicec}{0}
\setcounter{pyquestions}{0}
\setcounter{pyxercice}{0}
\setcounter{lstlisting}{0}
\setcounter{section@level}{0}
\setcounter{tabularnotesi}{0}
\setcounter{tabularnotes*i}{0}
\setcounter{minilofdepth}{2}
\setcounter{minilotdepth}{2}
\setcounter{partlofdepth}{2}
\setcounter{partlotdepth}{2}
\setcounter{sectlofdepth}{2}
\setcounter{sectlotdepth}{2}
}
