\relax 
\providecommand\hyper@newdestlabel[2]{}
\providecommand\zref@newlabel[2]{}
\@writefile{toc}{\contentsline {chapter}{\numberline {2}Bases pour raisonner}{5}{chapter.3}\protected@file@percent }
\@writefile{lof}{\addvspace {10\p@ }}
\@writefile{lot}{\addvspace {10\p@ }}
\@writefile{lof}{\contentsline {xchapter}{Bases pour raisonner}{6}{chapter.3}\protected@file@percent }
\@writefile{lot}{\contentsline {xchapter}{Bases pour raisonner}{6}{chapter.3}\protected@file@percent }
\@writefile{toc}{\contentsline {section}{\numberline {2.1}Mise en \IeC {\'e}vidence des probl\IeC {\`e}mes}{6}{section.4}\protected@file@percent }
\@writefile{toc}{\contentsline {subsection}{\numberline {2.1.1}Rapports de jury}{6}{subsection.5}\protected@file@percent }
\@writefile{toc}{\contentsline {subsection}{\numberline {2.1.2}Les BCPST1 au Pays des Merveilles}{7}{subsection.6}\protected@file@percent }
\@writefile{toc}{\contentsline {section}{\numberline {2.2}Un brin de logique}{9}{section.7}\protected@file@percent }
\@writefile{toc}{\contentsline {subsection}{\numberline {2.2.1}Test pr\IeC {\'e}liminaire}{9}{subsection.8}\protected@file@percent }
\@writefile{toc}{\contentsline {subsection}{\numberline {2.2.2}Contexte}{9}{subsection.11}\protected@file@percent }
\@writefile{toc}{\contentsline {subsection}{\numberline {2.2.3}Implication}{10}{subsection.12}\protected@file@percent }
\@writefile{toc}{\contentsline {subsection}{\numberline {2.2.4}Contrapos\IeC {\'e}e}{11}{subsection.14}\protected@file@percent }
\@writefile{toc}{\contentsline {subsection}{\numberline {2.2.5}Contraire (n\IeC {\'e}gation) d'une implication}{11}{subsection.15}\protected@file@percent }
\@writefile{toc}{\contentsline {subsection}{\numberline {2.2.6}Quantificateurs}{12}{subsection.18}\protected@file@percent }
\@writefile{toc}{\contentsline {subsubsection}{\numberline {2.2.6.1}Un pour tous : $\forall $}{12}{subsubsection.19}\protected@file@percent }
\@writefile{toc}{\contentsline {subsubsection}{\numberline {2.2.6.2}Un pour l'existence : $\exists $}{12}{subsubsection.20}\protected@file@percent }
\@writefile{toc}{\contentsline {subsubsection}{\numberline {2.2.6.3}Quantificateurs et n\IeC {\'e}gation}{12}{subsubsection.21}\protected@file@percent }
\@writefile{toc}{\contentsline {subsection}{\numberline {2.2.7}R\IeC {\'e}ciproque / \IeC {\'E}quivalence}{12}{subsection.23}\protected@file@percent }
\@writefile{toc}{\contentsline {section}{\numberline {2.3}R\IeC {\'e}currence}{13}{section.26}\protected@file@percent }
\@writefile{toc}{\contentsline {subsection}{\numberline {2.3.1}R\IeC {\'e}cursion, r\IeC {\'e}currence, induction}{13}{subsection.27}\protected@file@percent }
\@writefile{toc}{\contentsline {subsection}{\numberline {2.3.2}Un jeu}{14}{subsection.29}\protected@file@percent }
\@writefile{toc}{\contentsline {subsection}{\numberline {2.3.3}Les th\IeC {\'e}or\IeC {\`e}mes}{15}{subsection.34}\protected@file@percent }
\@writefile{toc}{\contentsline {section}{\numberline {2.4}Les grands types de raisonnements: le r\IeC {\'e}sum\IeC {\'e} }{16}{section.40}\protected@file@percent }
\@writefile{toc}{\contentsline {subsection}{\numberline {2.4.1}Avec les quantificateurs}{16}{subsection.41}\protected@file@percent }
\@writefile{toc}{\contentsline {subsection}{\numberline {2.4.2}Pour d\IeC {\'e}montrer une implication}{16}{subsection.42}\protected@file@percent }
\@writefile{toc}{\contentsline {subsection}{\numberline {2.4.3}Un raisonnement par r\IeC {\'e}currence}{17}{subsection.46}\protected@file@percent }
\@writefile{toc}{\contentsline {subsection}{\numberline {2.4.4}\IeC {\'E}quivalence}{17}{subsection.47}\protected@file@percent }
\@writefile{toc}{\contentsline {section}{\numberline {2.5}Exer\IeC {\c c}ons-nous}{18}{section.49}\protected@file@percent }
\@setckpt{Logic22}{
\setcounter{page}{22}
\setcounter{equation}{0}
\setcounter{enumi}{3}
\setcounter{enumii}{5}
\setcounter{enumiii}{0}
\setcounter{enumiv}{0}
\setcounter{footnote}{2}
\setcounter{mpfootnote}{0}
\setcounter{part}{0}
\setcounter{chapter}{2}
\setcounter{section}{5}
\setcounter{subsection}{0}
\setcounter{subsubsection}{0}
\setcounter{paragraph}{0}
\setcounter{subparagraph}{0}
\setcounter{figure}{0}
\setcounter{table}{0}
\setcounter{chapterstar}{1}
\setcounter{@stackindex}{0}
\setcounter{ROWcellindex@}{0}
\setcounter{tcbbreakpart}{0}
\setcounter{tcblayer}{0}
\setcounter{tcolorbox@number}{0}
\setcounter{parentequation}{0}
\setcounter{ifsymcnt}{0}
\setcounter{lstnumber}{1}
\setcounter{vrcnt}{0}
\setcounter{tw@hyphen@char@num}{0}
\setcounter{float@type}{64}
\setcounter{subfigure}{0}
\setcounter{lofdepth}{1}
\setcounter{subtable}{0}
\setcounter{lotdepth}{1}
\setcounter{Item}{74}
\setcounter{Hfootnote}{2}
\setcounter{bookmark@seq@number}{24}
\setcounter{mdf@globalstyle@cnt}{1}
\setcounter{mdfcountframes}{0}
\setcounter{mdf@env@i}{0}
\setcounter{mdf@env@ii}{0}
\setcounter{mdf@zref@counter}{0}
\setcounter{bclogocompteur}{0}
\setcounter{BAenumi}{0}
\setcounter{caption@flags}{0}
\setcounter{continuedfloat}{0}
\setcounter{tabularnote}{0}
\setcounter{num}{0}
\setcounter{qcm}{0}
\setcounter{FancyVerbLine}{14}
\setcounter{linenumber}{1}
\setcounter{LN@truepage}{21}
\setcounter{minted@FancyVerbLineTemp}{0}
\setcounter{listing}{0}
\setcounter{numquestion}{0}
\setcounter{qcm@numb}{0}
\setcounter{numprop}{0}
\setcounter{LT@tables}{0}
\setcounter{LT@chunks}{0}
\setcounter{@LCDdotx}{0}
\setcounter{@LCDdoty}{0}
\setcounter{@LCDchrx}{0}
\setcounter{@LCDlines}{0}
\setcounter{@LCDlower}{0}
\setcounter{nprt@mantissa@digitsbefore}{0}
\setcounter{nprt@mantissa@digitsafter}{0}
\setcounter{nprt@exponent@digitsbefore}{0}
\setcounter{nprt@exponent@digitsafter}{0}
\setcounter{nprt@digitsfirstblock}{0}
\setcounter{nprt@blockcnt}{0}
\setcounter{nprt@cntprint}{0}
\setcounter{tkz@gr@a}{0}
\setcounter{tkz@gr@b}{0}
\setcounter{tkz@gr@c}{0}
\setcounter{tkz@gr@e}{0}
\setcounter{tkz@gr@d}{0}
\setcounter{tkz@gr@p}{0}
\setcounter{tkz@gr@i}{0}
\setcounter{tkz@gr@n}{0}
\setcounter{tkz@gr@ta}{0}
\setcounter{tkz@gr@tb}{0}
\setcounter{tkz@cnt@line}{0}
\setcounter{tkz@cnt@lg}{0}
\setcounter{tkz@cnt@cl}{0}
\setcounter{tkz@cnt@pred}{0}
\setcounter{tkz@cnt@temp}{0}
\setcounter{tkz@cnt@arrow}{0}
\setcounter{tkz@cnt@zone}{0}
\setcounter{tkz@cnt@lgnext}{0}
\setcounter{tkz@cnt@clnext}{0}
\setcounter{tkz@cnt@pair}{0}
\setcounter{tkz@cnt@impair}{0}
\setcounter{tkz@cnt@aw}{0}
\setcounter{C@NumTab}{0}
\setcounter{C@NumGroup}{0}
\setcounter{C@NextNode}{0}
\setcounter{NumC@Node}{0}
\setcounter{NumC@Stop}{0}
\setcounter{C@CurrentStop}{0}
\setcounter{C@CurrentNode}{0}
\setcounter{C@CurrentGroup}{0}
\setcounter{r@tfl@t}{0}
\setcounter{c@imbrication}{0}
\setcounter{c@indentation}{0}
\setcounter{c@instruction}{0}
\setcounter{c@algo}{0}
\setcounter{c@tabdim}{0}
\setcounter{c@chaineouverte}{0}
\setcounter{floatalgo}{0}
\setcounter{aide}{0}
\setcounter{sol}{0}
\setcounter{mtc}{2}
\setcounter{minitocdepth}{3}
\setcounter{ptc}{0}
\setcounter{parttocdepth}{2}
\setcounter{asy}{0}
\setcounter{theoreme}{3}
\setcounter{lemme}{0}
\setcounter{corollaire}{0}
\setcounter{propriete}{0}
\setcounter{definition}{2}
\setcounter{exemple}{0}
\setcounter{remarque}{2}
\setcounter{recherche}{30}
\setcounter{exercicea}{0}
\setcounter{exerciceb}{0}
\setcounter{exercicec}{0}
\setcounter{pyquestions}{0}
\setcounter{pyxercice}{0}
\setcounter{lstlisting}{0}
\setcounter{section@level}{0}
\setcounter{tabularnotesi}{0}
\setcounter{tabularnotes*i}{0}
\setcounter{minilofdepth}{2}
\setcounter{minilotdepth}{2}
\setcounter{partlofdepth}{2}
\setcounter{partlotdepth}{2}
\setcounter{sectlofdepth}{2}
\setcounter{sectlotdepth}{2}
}
