\relax 
\providecommand\hyper@newdestlabel[2]{}
\providecommand\zref@newlabel[2]{}
\@writefile{toc}{\contentsline {chapter}{\numberline {12}Calcul matriciel}{247}{chapter.2325}\protected@file@percent }
\@writefile{lof}{\addvspace {10\p@ }}
\@writefile{lot}{\addvspace {10\p@ }}
\@writefile{lof}{\contentsline {xchapter}{Calcul matriciel}{248}{chapter.2325}\protected@file@percent }
\@writefile{lot}{\contentsline {xchapter}{Calcul matriciel}{248}{chapter.2325}\protected@file@percent }
\@writefile{toc}{\contentsline {section}{\numberline {12.1}Un peu d'histoire}{248}{section.2326}\protected@file@percent }
\@writefile{lof}{\contentsline {figure}{\numberline {12.1}{\ignorespaces J.\bsc  {Sylvester (1814-1897)}\relax }}{248}{figure.caption.2327}\protected@file@percent }
\@writefile{toc}{\contentsline {section}{\numberline {12.2}Matrice}{249}{section.2328}\protected@file@percent }
\@writefile{toc}{\contentsline {subsection}{\numberline {12.2.1}D\IeC {\'e}finition}{249}{subsection.2329}\protected@file@percent }
\@writefile{toc}{\contentsline {subsection}{\numberline {12.2.2}Avec Python}{249}{subsection.2332}\protected@file@percent }
\@writefile{toc}{\contentsline {subsubsection}{\numberline {12.2.2.1}Avec des listes de listes}{249}{subsubsection.2333}\protected@file@percent }
\@writefile{toc}{\contentsline {subsubsection}{\numberline {12.2.2.2}Avec NumPy}{250}{subsubsection.2334}\protected@file@percent }
\@writefile{toc}{\contentsline {section}{\numberline {12.3}Quelques matrices particuli\IeC {\`e}res}{250}{section.2336}\protected@file@percent }
\@writefile{toc}{\contentsline {subsection}{\numberline {12.3.1}Matrice ligne/colonne}{250}{subsection.2337}\protected@file@percent }
\@writefile{toc}{\contentsline {subsection}{\numberline {12.3.2}Matrice carr\IeC {\'e}e}{251}{subsection.2340}\protected@file@percent }
\@writefile{toc}{\contentsline {subsection}{\numberline {12.3.3}Matrice nulle}{251}{subsection.2343}\protected@file@percent }
\@writefile{toc}{\contentsline {subsection}{\numberline {12.3.4}Matrices diagonales}{251}{subsection.2344}\protected@file@percent }
\@writefile{toc}{\contentsline {subsection}{\numberline {12.3.5}Matrices triangulaires}{252}{subsection.2352}\protected@file@percent }
\@writefile{toc}{\contentsline {subsection}{\numberline {12.3.6}Matrices sym\IeC {\'e}triques/antisym\IeC {\'e}triques}{253}{subsection.2356}\protected@file@percent }
\@writefile{toc}{\contentsline {subsection}{\numberline {12.3.7}Matrices \IeC {\'e}l\IeC {\'e}mentaires}{253}{subsection.2361}\protected@file@percent }
\@writefile{toc}{\contentsline {subsection}{\numberline {12.3.8}Matrices \IeC {\'e}chelonn\IeC {\'e}es}{253}{subsection.2363}\protected@file@percent }
\@writefile{toc}{\contentsline {section}{\numberline {12.4}Op\IeC {\'e}rations sur les matrices}{254}{section.2369}\protected@file@percent }
\@writefile{toc}{\contentsline {subsection}{\numberline {12.4.1}Transpos\IeC {\'e}e d'une matrice}{254}{subsection.2370}\protected@file@percent }
\@writefile{toc}{\contentsline {subsection}{\numberline {12.4.2}\IeC {\'E}galit\IeC {\'e}}{254}{subsection.2373}\protected@file@percent }
\newlabel{14@xvr}{{}{254}}
\newlabel{14@vr}{{}{254}}
\newlabel{15@xvr}{{}{254}}
\newlabel{15@vr}{{}{254}}
\@writefile{toc}{\contentsline {subsection}{\numberline {12.4.3}Op\IeC {\'e}ration terme \IeC {\`a} terme}{255}{subsection.2374}\protected@file@percent }
\@writefile{toc}{\contentsline {subsection}{\numberline {12.4.4}Multiplication par un scalaire}{255}{subsection.2376}\protected@file@percent }
\@writefile{toc}{\contentsline {subsection}{\numberline {12.4.5}Produit de matrices}{255}{subsection.2377}\protected@file@percent }
\newlabel{thm::trace_prod}{{12-2}{256}{Produit de matrices}{theoreme.2382}{}}
\newlabel{thm::distri}{{12-4}{257}{Produit de matrices}{theoreme.2384}{}}
\@writefile{toc}{\contentsline {subsection}{\numberline {12.4.6}Puissance}{257}{subsection.2388}\protected@file@percent }
\@writefile{toc}{\contentsline {subsection}{\numberline {12.4.7}Formule du bin\IeC {\^o}me de Newton}{258}{subsection.2394}\protected@file@percent }
\@writefile{toc}{\contentsline {subsection}{\numberline {12.4.8}Matrices inversibles}{260}{subsection.2401}\protected@file@percent }
\@writefile{toc}{\contentsline {section}{\numberline {12.5}ENTRA\IeC {\^I}NEMENT et R\IeC {\'E}FLEXION}{261}{section.2409}\protected@file@percent }
\@writefile{toc}{\contentsline {subsection}{\numberline {12.5.1}Op\IeC {\'e}rations}{261}{subsection.2410}\protected@file@percent }
\@writefile{toc}{\contentsline {subsection}{\numberline {12.5.2}En s'aidant de Python}{264}{subsection.2455}\protected@file@percent }
\@writefile{toc}{\contentsline {subsection}{\numberline {12.5.3}Matrices inversibles}{266}{subsection.2465}\protected@file@percent }
\@writefile{toc}{\contentsline {subsection}{\numberline {12.5.4}Aux concours}{268}{subsection.2516}\protected@file@percent }
\@setckpt{matrices21}{
\setcounter{page}{271}
\setcounter{equation}{0}
\setcounter{enumi}{3}
\setcounter{enumii}{3}
\setcounter{enumiii}{4}
\setcounter{enumiv}{0}
\setcounter{footnote}{0}
\setcounter{mpfootnote}{0}
\setcounter{part}{0}
\setcounter{chapter}{12}
\setcounter{section}{5}
\setcounter{subsection}{4}
\setcounter{subsubsection}{0}
\setcounter{paragraph}{0}
\setcounter{subparagraph}{0}
\setcounter{figure}{1}
\setcounter{table}{0}
\setcounter{chapterstar}{1}
\setcounter{@stackindex}{0}
\setcounter{ROWcellindex@}{0}
\setcounter{tcbbreakpart}{0}
\setcounter{tcblayer}{0}
\setcounter{tcolorbox@number}{0}
\setcounter{parentequation}{0}
\setcounter{ifsymcnt}{0}
\setcounter{lstnumber}{1}
\setcounter{vrcnt}{15}
\setcounter{tw@hyphen@char@num}{0}
\setcounter{float@type}{64}
\setcounter{subfigure}{0}
\setcounter{lofdepth}{1}
\setcounter{subtable}{0}
\setcounter{lotdepth}{1}
\setcounter{Item}{1329}
\setcounter{Hfootnote}{13}
\setcounter{bookmark@seq@number}{258}
\setcounter{mdf@globalstyle@cnt}{1}
\setcounter{mdfcountframes}{0}
\setcounter{mdf@env@i}{0}
\setcounter{mdf@env@ii}{0}
\setcounter{mdf@zref@counter}{0}
\setcounter{bclogocompteur}{0}
\setcounter{BAenumi}{0}
\setcounter{caption@flags}{0}
\setcounter{continuedfloat}{0}
\setcounter{tabularnote}{0}
\setcounter{num}{0}
\setcounter{qcm}{0}
\setcounter{FancyVerbLine}{7}
\setcounter{linenumber}{3}
\setcounter{LN@truepage}{274}
\setcounter{minted@FancyVerbLineTemp}{0}
\setcounter{listing}{0}
\setcounter{numquestion}{0}
\setcounter{qcm@numb}{0}
\setcounter{numprop}{0}
\setcounter{LT@tables}{0}
\setcounter{LT@chunks}{0}
\setcounter{@LCDdotx}{0}
\setcounter{@LCDdoty}{0}
\setcounter{@LCDchrx}{0}
\setcounter{@LCDlines}{0}
\setcounter{@LCDlower}{0}
\setcounter{nprt@mantissa@digitsbefore}{0}
\setcounter{nprt@mantissa@digitsafter}{0}
\setcounter{nprt@exponent@digitsbefore}{0}
\setcounter{nprt@exponent@digitsafter}{0}
\setcounter{nprt@digitsfirstblock}{1}
\setcounter{nprt@blockcnt}{1}
\setcounter{nprt@cntprint}{0}
\setcounter{tkz@gr@a}{0}
\setcounter{tkz@gr@b}{0}
\setcounter{tkz@gr@c}{0}
\setcounter{tkz@gr@e}{0}
\setcounter{tkz@gr@d}{0}
\setcounter{tkz@gr@p}{1}
\setcounter{tkz@gr@i}{0}
\setcounter{tkz@gr@n}{0}
\setcounter{tkz@gr@ta}{0}
\setcounter{tkz@gr@tb}{0}
\setcounter{tkz@cnt@line}{3}
\setcounter{tkz@cnt@lg}{2}
\setcounter{tkz@cnt@cl}{2}
\setcounter{tkz@cnt@pred}{1}
\setcounter{tkz@cnt@temp}{0}
\setcounter{tkz@cnt@arrow}{2}
\setcounter{tkz@cnt@zone}{0}
\setcounter{tkz@cnt@lgnext}{3}
\setcounter{tkz@cnt@clnext}{2}
\setcounter{tkz@cnt@pair}{2}
\setcounter{tkz@cnt@impair}{2}
\setcounter{tkz@cnt@aw}{2}
\setcounter{C@NumTab}{0}
\setcounter{C@NumGroup}{0}
\setcounter{C@NextNode}{0}
\setcounter{NumC@Node}{0}
\setcounter{NumC@Stop}{0}
\setcounter{C@CurrentStop}{0}
\setcounter{C@CurrentNode}{0}
\setcounter{C@CurrentGroup}{0}
\setcounter{r@tfl@t}{0}
\setcounter{c@imbrication}{-1}
\setcounter{c@indentation}{0}
\setcounter{c@instruction}{20}
\setcounter{c@algo}{2}
\setcounter{c@tabdim}{0}
\setcounter{c@chaineouverte}{0}
\setcounter{floatalgo}{0}
\setcounter{aide}{0}
\setcounter{sol}{0}
\setcounter{mtc}{13}
\setcounter{minitocdepth}{3}
\setcounter{ptc}{0}
\setcounter{parttocdepth}{2}
\setcounter{asy}{0}
\setcounter{theoreme}{9}
\setcounter{lemme}{0}
\setcounter{corollaire}{0}
\setcounter{propriete}{0}
\setcounter{definition}{15}
\setcounter{exemple}{0}
\setcounter{remarque}{35}
\setcounter{recherche}{64}
\setcounter{exercicea}{0}
\setcounter{exerciceb}{0}
\setcounter{exercicec}{0}
\setcounter{pyquestions}{0}
\setcounter{pyxercice}{0}
\setcounter{lstlisting}{0}
\setcounter{section@level}{0}
\setcounter{tabularnotesi}{0}
\setcounter{tabularnotes*i}{0}
\setcounter{minilofdepth}{2}
\setcounter{minilotdepth}{2}
\setcounter{partlofdepth}{2}
\setcounter{partlotdepth}{2}
\setcounter{sectlofdepth}{2}
\setcounter{sectlotdepth}{2}
}
