\relax 
\providecommand\hyper@newdestlabel[2]{}
\providecommand\zref@newlabel[2]{}
\providecommand\babel@aux[2]{}
\@nameuse{bbl@beforestart}
\catcode `"\active 
\catcode `:\active 
\catcode `;\active 
\catcode `!\active 
\catcode `?\active 
\providecommand\HyperFirstAtBeginDocument{\AtBeginDocument}
\HyperFirstAtBeginDocument{\ifx\hyper@anchor\@undefined
\global\let\oldcontentsline\contentsline
\gdef\contentsline#1#2#3#4{\oldcontentsline{#1}{#2}{#3}}
\global\let\oldnewlabel\newlabel
\gdef\newlabel#1#2{\newlabelxx{#1}#2}
\gdef\newlabelxx#1#2#3#4#5#6{\oldnewlabel{#1}{{#2}{#3}}}
\AtEndDocument{\ifx\hyper@anchor\@undefined
\let\contentsline\oldcontentsline
\let\newlabel\oldnewlabel
\fi}
\fi}
\global\let\hyper@last\relax 
\gdef\HyperFirstAtBeginDocument#1{#1}
\providecommand\HyField@AuxAddToFields[1]{}
\providecommand\HyField@AuxAddToCoFields[2]{}
\nicematrix@redefine@check@rerun 
\providecommand \oddpage@label [2]{}
\babel@aux{french}{}
\pgfsyspdfmark {pgfid1}{9043707}{49503773}
\@input{applin21.aux}
\pgfsyspdfmark {pgfid2}{2797019}{50355741}
\ExplSyntaxOn \cs_if_free:NT \pgfsyspdfmark {\cs_set_eq:NN \pgfsyspdfmark \@gobblethree }\ExplSyntaxOff 
\ExplSyntaxOn 
\char_set_catcode_space:n {32}
\tl_gset:cn {c__nicematrix_1_tl}{\seq_gset_from_clist:Nn \c__nicematrix_size_seq {0,5,6,0,3,4}}
\ExplSyntaxOff 
\ExplSyntaxOn 
\char_set_catcode_space:n {32}
\tl_gset:cn {c__nicematrix_2_tl}{\seq_gset_from_clist:Nn \c__nicematrix_size_seq {0,6,7,0,6,7}}
\ExplSyntaxOff 
\ExplSyntaxOn 
\char_set_catcode_space:n {32}
\tl_gset:cn {c__nicematrix_3_tl}{\seq_gset_from_clist:Nn \c__nicematrix_size_seq {0,6,7,0,6,7}}
\ExplSyntaxOff 
\pgfsyspdfmark {pgfid65}{22570882}{31044181}
\pgfsyspdfmark {pgfid66}{22898562}{30185662}
\pgfsyspdfmark {pgfid67}{21704643}{30185662}
\pgfsyspdfmark {pgfid68}{23321375}{30185662}
\pgfsyspdfmark {pgfid69}{25002511}{30185662}
\pgfsyspdfmark {pgfid70}{26636762}{30185662}
\pgfsyspdfmark {pgfid71}{22570882}{29930069}
\pgfsyspdfmark {pgfid72}{22898562}{29071550}
\pgfsyspdfmark {pgfid73}{23321375}{29071550}
\pgfsyspdfmark {pgfid74}{25002511}{29071550}
\pgfsyspdfmark {pgfid75}{26636762}{29071550}
\pgfsyspdfmark {pgfid76}{27577943}{29071550}
\pgfsyspdfmark {pgfid77}{22570882}{28815957}
\pgfsyspdfmark {pgfid78}{22898562}{27957438}
\pgfsyspdfmark {pgfid79}{23321375}{27957438}
\pgfsyspdfmark {pgfid80}{25002511}{27957438}
\pgfsyspdfmark {pgfid81}{26636762}{27957438}
\pgfsyspdfmark {pgfid82}{27668050}{27957438}
\pgfsyspdfmark {pgfid83}{22570882}{27701845}
\pgfsyspdfmark {pgfid84}{22898562}{26843326}
\pgfsyspdfmark {pgfid85}{23321375}{26843326}
\pgfsyspdfmark {pgfid86}{25002511}{26843326}
\pgfsyspdfmark {pgfid87}{26636762}{26843326}
\pgfsyspdfmark {pgfid88}{27802672}{26843326}
\pgfsyspdfmark {pgfid89}{22570882}{26587733}
\pgfsyspdfmark {pgfid90}{22898562}{25729214}
\pgfsyspdfmark {pgfid91}{23321375}{25729214}
\pgfsyspdfmark {pgfid92}{25002511}{25729214}
\pgfsyspdfmark {pgfid93}{26636762}{25729214}
\pgfsyspdfmark {pgfid94}{27809640}{25729214}
\pgfsyspdfmark {pgfid95}{22570882}{25473621}
\pgfsyspdfmark {pgfid96}{22898562}{24615102}
\pgfsyspdfmark {pgfid97}{23321375}{24615102}
\pgfsyspdfmark {pgfid98}{25002511}{24615102}
\pgfsyspdfmark {pgfid99}{26636762}{24615102}
\pgfsyspdfmark {pgfid100}{27814810}{24615102}
\pgfsyspdfmark {pgfid101}{22570882}{24359509}
\pgfsyspdfmark {pgfid102}{22898562}{23354699}
\pgfsyspdfmark {pgfid103}{27760602}{23354699}
\pgfsyspdfmark {pgfid104}{22570882}{23099106}
\pgfsyspdfmark {pgfid105}{20401934}{23099106}
\pgfsyspdfmark {pgfid106}{22570882}{23099106}
\pgfsyspdfmark {pgfid107}{24071868}{23099106}
\pgfsyspdfmark {pgfid108}{25933154}{23099106}
\pgfsyspdfmark {pgfid109}{27340370}{23099106}
\pgfsyspdfmark {pgfid110}{28070361}{23099106}
\pgfsyspdfmark {pgfid111}{28179806}{26950148}
\pgfsyspdfmark {pgfid113}{28179806}{26950148}
\pgfsyspdfmark {pgfid114}{21290271}{17270804}
\pgfsyspdfmark {pgfid115}{21617951}{16412285}
\pgfsyspdfmark {pgfid116}{20424032}{16412285}
\pgfsyspdfmark {pgfid117}{22184018}{16412285}
\pgfsyspdfmark {pgfid118}{24000060}{16412285}
\pgfsyspdfmark {pgfid119}{26481780}{16412285}
\pgfsyspdfmark {pgfid120}{29012018}{16412285}
\pgfsyspdfmark {pgfid121}{21290271}{16156692}
\pgfsyspdfmark {pgfid122}{21617951}{15298173}
\pgfsyspdfmark {pgfid123}{22184018}{15298173}
\pgfsyspdfmark {pgfid124}{24000060}{15298173}
\pgfsyspdfmark {pgfid125}{26481780}{15298173}
\pgfsyspdfmark {pgfid126}{29012018}{15298173}
\pgfsyspdfmark {pgfid127}{30362190}{15298173}
\pgfsyspdfmark {pgfid128}{21290271}{15042580}
\pgfsyspdfmark {pgfid129}{21617951}{14184061}
\pgfsyspdfmark {pgfid130}{22184018}{14184061}
\pgfsyspdfmark {pgfid131}{24000060}{14184061}
\pgfsyspdfmark {pgfid132}{26481780}{14184061}
\pgfsyspdfmark {pgfid133}{29012018}{14184061}
\pgfsyspdfmark {pgfid134}{30390738}{14184061}
\pgfsyspdfmark {pgfid135}{21290271}{13928468}
\pgfsyspdfmark {pgfid136}{21617951}{13069949}
\pgfsyspdfmark {pgfid137}{21290271}{12814356}
\pgfsyspdfmark {pgfid138}{21617951}{11955837}
\pgfsyspdfmark {pgfid139}{22184018}{11955837}
\pgfsyspdfmark {pgfid140}{24000060}{11955837}
\pgfsyspdfmark {pgfid141}{26481780}{11955837}
\pgfsyspdfmark {pgfid142}{29012018}{11955837}
\pgfsyspdfmark {pgfid143}{30379848}{11955837}
\pgfsyspdfmark {pgfid144}{21290271}{11700244}
\pgfsyspdfmark {pgfid145}{21617951}{10841725}
\pgfsyspdfmark {pgfid146}{21290271}{10586132}
\pgfsyspdfmark {pgfid147}{21617951}{9727613}
\pgfsyspdfmark {pgfid148}{22184018}{9727613}
\pgfsyspdfmark {pgfid149}{24000060}{9727613}
\pgfsyspdfmark {pgfid150}{26481780}{9727613}
\pgfsyspdfmark {pgfid151}{29012018}{9727613}
\pgfsyspdfmark {pgfid152}{30458753}{9727613}
\pgfsyspdfmark {pgfid153}{21290271}{9472020}
\pgfsyspdfmark {pgfid154}{21617951}{8467210}
\pgfsyspdfmark {pgfid155}{30403063}{8467210}
\pgfsyspdfmark {pgfid156}{21290271}{8211617}
\pgfsyspdfmark {pgfid157}{19121323}{8211617}
\pgfsyspdfmark {pgfid158}{21290271}{8211617}
\pgfsyspdfmark {pgfid159}{23077765}{8211617}
\pgfsyspdfmark {pgfid160}{24922355}{8211617}
\pgfsyspdfmark {pgfid161}{25577715}{8211617}
\pgfsyspdfmark {pgfid162}{27385845}{8211617}
\pgfsyspdfmark {pgfid163}{28041205}{8211617}
\pgfsyspdfmark {pgfid164}{29982831}{8211617}
\pgfsyspdfmark {pgfid165}{30715785}{8211617}
\pgfsyspdfmark {pgfid166}{30825230}{12619715}
\pgfsyspdfmark {pgfid168}{30825230}{12619715}
\pgfsyspdfmark {pgfid170}{21521590}{45282252}
\pgfsyspdfmark {pgfid171}{21849270}{44423733}
\pgfsyspdfmark {pgfid172}{20003827}{44423733}
\pgfsyspdfmark {pgfid173}{22624138}{44423733}
\pgfsyspdfmark {pgfid174}{24857782}{44423733}
\pgfsyspdfmark {pgfid175}{27757104}{44423733}
\pgfsyspdfmark {pgfid176}{30704944}{44423733}
\pgfsyspdfmark {pgfid177}{21521590}{44168140}
\pgfsyspdfmark {pgfid178}{21849270}{43309621}
\pgfsyspdfmark {pgfid179}{22624138}{43309621}
\pgfsyspdfmark {pgfid180}{24857782}{43309621}
\pgfsyspdfmark {pgfid181}{27757104}{43309621}
\pgfsyspdfmark {pgfid182}{30704944}{43309621}
\pgfsyspdfmark {pgfid183}{32237702}{43309621}
\pgfsyspdfmark {pgfid184}{21521590}{43054028}
\pgfsyspdfmark {pgfid185}{21849270}{42195509}
\pgfsyspdfmark {pgfid186}{22624138}{42195509}
\pgfsyspdfmark {pgfid187}{24857782}{42195509}
\pgfsyspdfmark {pgfid188}{27757104}{42195509}
\pgfsyspdfmark {pgfid189}{30704944}{42195509}
\pgfsyspdfmark {pgfid190}{32266250}{42195509}
\pgfsyspdfmark {pgfid191}{21521590}{41939916}
\pgfsyspdfmark {pgfid192}{21849270}{41081397}
\pgfsyspdfmark {pgfid193}{21521590}{40825804}
\pgfsyspdfmark {pgfid194}{21849270}{39967285}
\pgfsyspdfmark {pgfid195}{22624138}{39967285}
\pgfsyspdfmark {pgfid196}{24857782}{39967285}
\pgfsyspdfmark {pgfid197}{27757104}{39967285}
\pgfsyspdfmark {pgfid198}{30704944}{39967285}
\pgfsyspdfmark {pgfid199}{32255360}{39967285}
\pgfsyspdfmark {pgfid200}{21521590}{39711692}
\pgfsyspdfmark {pgfid201}{21849270}{38853173}
\pgfsyspdfmark {pgfid202}{21521590}{38597580}
\pgfsyspdfmark {pgfid203}{21849270}{37739061}
\pgfsyspdfmark {pgfid204}{22624138}{37739061}
\pgfsyspdfmark {pgfid205}{24857782}{37739061}
\pgfsyspdfmark {pgfid206}{27757104}{37739061}
\pgfsyspdfmark {pgfid207}{30704944}{37739061}
\pgfsyspdfmark {pgfid208}{32334265}{37739061}
\pgfsyspdfmark {pgfid209}{21521590}{37483468}
\pgfsyspdfmark {pgfid210}{21849270}{36478658}
\pgfsyspdfmark {pgfid211}{32451141}{36478658}
\pgfsyspdfmark {pgfid212}{21521590}{36223065}
\pgfsyspdfmark {pgfid213}{18049594}{36223065}
\pgfsyspdfmark {pgfid214}{21521590}{36223065}
\pgfsyspdfmark {pgfid215}{23726686}{36223065}
\pgfsyspdfmark {pgfid216}{25988878}{36223065}
\pgfsyspdfmark {pgfid217}{26644238}{36223065}
\pgfsyspdfmark {pgfid218}{28869970}{36223065}
\pgfsyspdfmark {pgfid219}{29525330}{36223065}
\pgfsyspdfmark {pgfid220}{31884558}{36223065}
\pgfsyspdfmark {pgfid221}{32798834}{36223065}
\pgfsyspdfmark {pgfid222}{32908279}{40631163}
\pgfsyspdfmark {pgfid224}{32908279}{40631163}
\ExplSyntaxOn 
\char_set_catcode_space:n {32}
\tl_gset:cn {c__nicematrix_4_tl}{\seq_gset_from_clist:Nn \c__nicematrix_size_seq {0,4,4,1,5,5}}
\ExplSyntaxOff 
\ExplSyntaxOn 
\char_set_catcode_space:n {32}
\tl_gset:cn {c__nicematrix_5_tl}{\seq_gset_from_clist:Nn \c__nicematrix_size_seq {0,4,4,1,5,5}}
\ExplSyntaxOff 
\ExplSyntaxOn 
\char_set_catcode_space:n {32}
\tl_gset:cn {c__nicematrix_6_tl}{\seq_gset_from_clist:Nn \c__nicematrix_size_seq {0,4,4,1,5,5}}
\ExplSyntaxOff 
\pgfsyspdfmark {pgfid239}{12197306}{35221866}
\pgfsyspdfmark {pgfid240}{12524986}{34363347}
\pgfsyspdfmark {pgfid241}{12790640}{34363347}
\pgfsyspdfmark {pgfid242}{14005856}{34363347}
\pgfsyspdfmark {pgfid243}{15256588}{34363347}
\pgfsyspdfmark {pgfid244}{16519458}{34363347}
\pgfsyspdfmark {pgfid245}{17779631}{34363347}
\pgfsyspdfmark {pgfid246}{12197306}{34107754}
\pgfsyspdfmark {pgfid247}{12662512}{33249235}
\pgfsyspdfmark {pgfid248}{12790640}{33249235}
\pgfsyspdfmark {pgfid249}{14005856}{33249235}
\pgfsyspdfmark {pgfid250}{15256588}{33249235}
\pgfsyspdfmark {pgfid251}{16519458}{33249235}
\pgfsyspdfmark {pgfid252}{17779631}{33249235}
\pgfsyspdfmark {pgfid253}{12197306}{32993642}
\pgfsyspdfmark {pgfid254}{12662512}{32135123}
\pgfsyspdfmark {pgfid255}{12790640}{32135123}
\pgfsyspdfmark {pgfid256}{14005856}{32135123}
\pgfsyspdfmark {pgfid257}{15256588}{32135123}
\pgfsyspdfmark {pgfid258}{16519458}{32135123}
\pgfsyspdfmark {pgfid259}{17779631}{32135123}
\pgfsyspdfmark {pgfid260}{12197306}{31879530}
\pgfsyspdfmark {pgfid261}{12662512}{31021011}
\pgfsyspdfmark {pgfid262}{12790640}{31021011}
\pgfsyspdfmark {pgfid263}{14005856}{31021011}
\pgfsyspdfmark {pgfid264}{15256588}{31021011}
\pgfsyspdfmark {pgfid265}{16519458}{31021011}
\pgfsyspdfmark {pgfid266}{17779631}{31021011}
\pgfsyspdfmark {pgfid267}{12197306}{30765418}
\pgfsyspdfmark {pgfid268}{12662512}{29906899}
\pgfsyspdfmark {pgfid269}{12790640}{29906899}
\pgfsyspdfmark {pgfid270}{14005856}{29906899}
\pgfsyspdfmark {pgfid271}{15256588}{29906899}
\pgfsyspdfmark {pgfid272}{16519458}{29906899}
\pgfsyspdfmark {pgfid273}{17779631}{29906899}
\pgfsyspdfmark {pgfid274}{12197306}{29651306}
\pgfsyspdfmark {pgfid275}{12197306}{29651306}
\pgfsyspdfmark {pgfid276}{13383974}{29651306}
\pgfsyspdfmark {pgfid277}{14627738}{29651306}
\pgfsyspdfmark {pgfid278}{15885438}{29651306}
\pgfsyspdfmark {pgfid279}{17153478}{29651306}
\pgfsyspdfmark {pgfid280}{18405784}{29651306}
\pgfsyspdfmark {pgfid281}{18515229}{31684889}
\pgfsyspdfmark {pgfid283}{18515229}{31684889}
\pgfsyspdfmark {pgfid284}{20044761}{35749173}
\pgfsyspdfmark {pgfid285}{20372441}{34363347}
\pgfsyspdfmark {pgfid286}{20962271}{34363347}
\pgfsyspdfmark {pgfid287}{23160749}{34363347}
\pgfsyspdfmark {pgfid288}{25898565}{34363347}
\pgfsyspdfmark {pgfid289}{28817431}{34363347}
\pgfsyspdfmark {pgfid290}{31743554}{34363347}
\pgfsyspdfmark {pgfid291}{20044761}{34107754}
\pgfsyspdfmark {pgfid292}{20834143}{33249235}
\pgfsyspdfmark {pgfid293}{20962271}{33249235}
\pgfsyspdfmark {pgfid294}{23160749}{33249235}
\pgfsyspdfmark {pgfid295}{25898565}{33249235}
\pgfsyspdfmark {pgfid296}{28817431}{33249235}
\pgfsyspdfmark {pgfid297}{31743554}{33249235}
\pgfsyspdfmark {pgfid298}{20044761}{32993642}
\pgfsyspdfmark {pgfid299}{20834143}{32135123}
\pgfsyspdfmark {pgfid300}{20962271}{32135123}
\pgfsyspdfmark {pgfid301}{23160749}{32135123}
\pgfsyspdfmark {pgfid302}{25898565}{32135123}
\pgfsyspdfmark {pgfid303}{28817431}{32135123}
\pgfsyspdfmark {pgfid304}{31743554}{32135123}
\pgfsyspdfmark {pgfid305}{20044761}{31879530}
\pgfsyspdfmark {pgfid306}{20834143}{31021011}
\pgfsyspdfmark {pgfid307}{20962271}{31021011}
\pgfsyspdfmark {pgfid308}{23160749}{31021011}
\pgfsyspdfmark {pgfid309}{25898565}{31021011}
\pgfsyspdfmark {pgfid310}{28817431}{31021011}
\pgfsyspdfmark {pgfid311}{31743554}{31021011}
\pgfsyspdfmark {pgfid312}{20044761}{30765418}
\pgfsyspdfmark {pgfid313}{20834143}{29906899}
\pgfsyspdfmark {pgfid314}{20962271}{29906899}
\pgfsyspdfmark {pgfid315}{23160749}{29906899}
\pgfsyspdfmark {pgfid316}{25898565}{29906899}
\pgfsyspdfmark {pgfid317}{28817431}{29906899}
\pgfsyspdfmark {pgfid318}{31743554}{29906899}
\pgfsyspdfmark {pgfid319}{20044761}{29651306}
\pgfsyspdfmark {pgfid320}{20044761}{29651306}
\pgfsyspdfmark {pgfid321}{21879781}{29651306}
\pgfsyspdfmark {pgfid322}{24441717}{29651306}
\pgfsyspdfmark {pgfid323}{27355413}{29651306}
\pgfsyspdfmark {pgfid324}{30279449}{29651306}
\pgfsyspdfmark {pgfid325}{33207659}{29651306}
\pgfsyspdfmark {pgfid326}{33317104}{31684889}
\pgfsyspdfmark {pgfid328}{33317104}{31684889}
\pgfsyspdfmark {pgfid329}{17135618}{29247222}
\pgfsyspdfmark {pgfid330}{17463298}{27969044}
\pgfsyspdfmark {pgfid331}{18053128}{27969044}
\pgfsyspdfmark {pgfid332}{19888148}{27969044}
\pgfsyspdfmark {pgfid333}{22198819}{27969044}
\pgfsyspdfmark {pgfid334}{25159223}{27969044}
\pgfsyspdfmark {pgfid335}{28116930}{27969044}
\pgfsyspdfmark {pgfid336}{17135618}{27713451}
\pgfsyspdfmark {pgfid337}{17925000}{26854932}
\pgfsyspdfmark {pgfid338}{18053128}{26854932}
\pgfsyspdfmark {pgfid339}{19888148}{26854932}
\pgfsyspdfmark {pgfid340}{22198819}{26854932}
\pgfsyspdfmark {pgfid341}{25159223}{26854932}
\pgfsyspdfmark {pgfid342}{28116930}{26854932}
\pgfsyspdfmark {pgfid343}{17135618}{26599339}
\pgfsyspdfmark {pgfid344}{17925000}{25740820}
\pgfsyspdfmark {pgfid345}{18053128}{25740820}
\pgfsyspdfmark {pgfid346}{19888148}{25740820}
\pgfsyspdfmark {pgfid347}{22198819}{25740820}
\pgfsyspdfmark {pgfid348}{25159223}{25740820}
\pgfsyspdfmark {pgfid349}{28116930}{25740820}
\pgfsyspdfmark {pgfid350}{17135618}{25485227}
\pgfsyspdfmark {pgfid351}{17925000}{24626708}
\pgfsyspdfmark {pgfid352}{18053128}{24626708}
\pgfsyspdfmark {pgfid353}{19888148}{24626708}
\pgfsyspdfmark {pgfid354}{22198819}{24626708}
\pgfsyspdfmark {pgfid355}{25159223}{24626708}
\pgfsyspdfmark {pgfid356}{28116930}{24626708}
\pgfsyspdfmark {pgfid357}{17135618}{24371115}
\pgfsyspdfmark {pgfid358}{17925000}{23512596}
\pgfsyspdfmark {pgfid359}{18053128}{23512596}
\pgfsyspdfmark {pgfid360}{19888148}{23512596}
\pgfsyspdfmark {pgfid361}{22198819}{23512596}
\pgfsyspdfmark {pgfid362}{25159223}{23512596}
\pgfsyspdfmark {pgfid363}{28116930}{23512596}
\pgfsyspdfmark {pgfid364}{17135618}{23257003}
\pgfsyspdfmark {pgfid365}{17135618}{23257003}
\pgfsyspdfmark {pgfid366}{18970638}{23257003}
\pgfsyspdfmark {pgfid367}{20805658}{23257003}
\pgfsyspdfmark {pgfid368}{23591980}{23257003}
\pgfsyspdfmark {pgfid369}{26726466}{23257003}
\pgfsyspdfmark {pgfid370}{29507394}{23257003}
\pgfsyspdfmark {pgfid371}{29616839}{25290586}
\pgfsyspdfmark {pgfid373}{29616839}{25290586}
\ttl@finishall
\newlabel{LastPage}{{}{550}{}{page.26}{}}
\xdef\lastpage@lastpage{550}
\xdef\lastpage@lastpageHy{26}
\gdef \@abspage@last{26}
