\relax 
\providecommand\hyper@newdestlabel[2]{}
\providecommand\zref@newlabel[2]{}
\@writefile{toc}{\contentsline {chapter}{\numberline {16}Polyn\IeC {\^o}mes}{383}{chapter.3320}\protected@file@percent }
\@writefile{lof}{\addvspace {10\p@ }}
\@writefile{lot}{\addvspace {10\p@ }}
\@writefile{lof}{\contentsline {xchapter}{Polyn\IeC {\^o}mes}{384}{chapter.3320}\protected@file@percent }
\@writefile{lot}{\contentsline {xchapter}{Polyn\IeC {\^o}mes}{384}{chapter.3320}\protected@file@percent }
\@writefile{toc}{\contentsline {section}{\numberline {16.1}Gavarit' Pa Roussky ? Souvenirs de 1\IeC {\`e}re}{384}{section.3321}\protected@file@percent }
\@writefile{toc}{\contentsline {section}{\numberline {16.2}Quelques d\IeC {\'e}finitions}{384}{section.3322}\protected@file@percent }
\@writefile{toc}{\contentsline {subsection}{\numberline {16.2.1}Remarques pr\IeC {\'e}liminaires}{384}{subsection.3323}\protected@file@percent }
\@writefile{toc}{\contentsline {subsection}{\numberline {16.2.2}D\IeC {\'e}finition g\IeC {\'e}n\IeC {\'e}rale}{384}{subsection.3324}\protected@file@percent }
\@writefile{toc}{\contentsline {subsection}{\numberline {16.2.3}Fonctions polynomiales}{385}{subsection.3326}\protected@file@percent }
\@writefile{toc}{\contentsline {subsection}{\numberline {16.2.4}Polyn\IeC {\^o}mes particuliers}{385}{subsection.3328}\protected@file@percent }
\@writefile{toc}{\contentsline {subsection}{\numberline {16.2.5}Op\IeC {\'e}rations sur les polyn\IeC {\^o}mes}{386}{subsection.3332}\protected@file@percent }
\@writefile{toc}{\contentsline {section}{\numberline {16.3}Racines d'un polyn\IeC {\^o}me}{388}{section.3347}\protected@file@percent }
\@writefile{toc}{\contentsline {subsection}{\numberline {16.3.1}\IeC {\'E}tymologie}{388}{subsection.3348}\protected@file@percent }
\@writefile{toc}{\contentsline {subsection}{\numberline {16.3.2}D\IeC {\'e}finitions}{388}{subsection.3349}\protected@file@percent }
\@writefile{toc}{\contentsline {subsection}{\numberline {16.3.3}Racines et divisibilit\IeC {\'e}}{389}{subsection.3353}\protected@file@percent }
\@writefile{toc}{\contentsline {subsection}{\numberline {16.3.4}Ordre de multiplicit\IeC {\'e} d'une racine}{389}{subsection.3359}\protected@file@percent }
\@writefile{toc}{\contentsline {section}{\numberline {16.4}Quelques petits jeux}{390}{section.3361}\protected@file@percent }
\@writefile{toc}{\contentsline {subsection}{\numberline {16.4.1}En Premi\IeC {\`e}re}{390}{subsection.3362}\protected@file@percent }
\@writefile{toc}{\contentsline {subsection}{\numberline {16.4.2}En BCPST}{394}{subsection.3466}\protected@file@percent }
\newlabel{deuza}{{\bfseries  \color  {green!50!blue}\fontfamily  {ugq}\selectfont  2a}{395}{En BCPST}{Item.3495}{}}
\newlabel{33@xvr}{{}{395}}
\newlabel{33@vr}{{}{395}}
\newlabel{relrec}{{\bfseries  \color  {green!50!blue}\fontfamily  {ugq}\selectfont  3}{396}{En BCPST}{Item.3508}{}}
\newlabel{34@xvr}{{}{396}}
\newlabel{34@vr}{{}{396}}
\@setckpt{poly_21}{
\setcounter{page}{397}
\setcounter{equation}{0}
\setcounter{enumi}{4}
\setcounter{enumii}{3}
\setcounter{enumiii}{4}
\setcounter{enumiv}{0}
\setcounter{footnote}{0}
\setcounter{mpfootnote}{0}
\setcounter{part}{0}
\setcounter{chapter}{16}
\setcounter{section}{4}
\setcounter{subsection}{2}
\setcounter{subsubsection}{0}
\setcounter{paragraph}{0}
\setcounter{subparagraph}{0}
\setcounter{figure}{0}
\setcounter{table}{0}
\setcounter{chapterstar}{1}
\setcounter{@stackindex}{0}
\setcounter{ROWcellindex@}{0}
\setcounter{tcbbreakpart}{0}
\setcounter{tcblayer}{0}
\setcounter{tcolorbox@number}{0}
\setcounter{parentequation}{0}
\setcounter{ifsymcnt}{0}
\setcounter{lstnumber}{1}
\setcounter{vrcnt}{34}
\setcounter{tw@hyphen@char@num}{0}
\setcounter{float@type}{64}
\setcounter{subfigure}{0}
\setcounter{lofdepth}{1}
\setcounter{subtable}{0}
\setcounter{lotdepth}{1}
\setcounter{Item}{1851}
\setcounter{Hfootnote}{19}
\setcounter{bookmark@seq@number}{347}
\setcounter{mdf@globalstyle@cnt}{1}
\setcounter{mdfcountframes}{0}
\setcounter{mdf@env@i}{0}
\setcounter{mdf@env@ii}{0}
\setcounter{mdf@zref@counter}{0}
\setcounter{bclogocompteur}{0}
\setcounter{BAenumi}{0}
\setcounter{caption@flags}{0}
\setcounter{continuedfloat}{0}
\setcounter{tabularnote}{0}
\setcounter{num}{0}
\setcounter{qcm}{0}
\setcounter{FancyVerbLine}{1}
\setcounter{linenumber}{3}
\setcounter{LN@truepage}{400}
\setcounter{minted@FancyVerbLineTemp}{0}
\setcounter{listing}{0}
\setcounter{numquestion}{0}
\setcounter{qcm@numb}{0}
\setcounter{numprop}{0}
\setcounter{LT@tables}{0}
\setcounter{LT@chunks}{0}
\setcounter{@LCDdotx}{0}
\setcounter{@LCDdoty}{0}
\setcounter{@LCDchrx}{0}
\setcounter{@LCDlines}{0}
\setcounter{@LCDlower}{0}
\setcounter{nprt@mantissa@digitsbefore}{0}
\setcounter{nprt@mantissa@digitsafter}{0}
\setcounter{nprt@exponent@digitsbefore}{0}
\setcounter{nprt@exponent@digitsafter}{0}
\setcounter{nprt@digitsfirstblock}{1}
\setcounter{nprt@blockcnt}{1}
\setcounter{nprt@cntprint}{0}
\setcounter{tkz@gr@a}{0}
\setcounter{tkz@gr@b}{0}
\setcounter{tkz@gr@c}{0}
\setcounter{tkz@gr@e}{0}
\setcounter{tkz@gr@d}{0}
\setcounter{tkz@gr@p}{1}
\setcounter{tkz@gr@i}{0}
\setcounter{tkz@gr@n}{0}
\setcounter{tkz@gr@ta}{0}
\setcounter{tkz@gr@tb}{0}
\setcounter{tkz@cnt@line}{3}
\setcounter{tkz@cnt@lg}{2}
\setcounter{tkz@cnt@cl}{2}
\setcounter{tkz@cnt@pred}{1}
\setcounter{tkz@cnt@temp}{0}
\setcounter{tkz@cnt@arrow}{2}
\setcounter{tkz@cnt@zone}{0}
\setcounter{tkz@cnt@lgnext}{3}
\setcounter{tkz@cnt@clnext}{2}
\setcounter{tkz@cnt@pair}{2}
\setcounter{tkz@cnt@impair}{2}
\setcounter{tkz@cnt@aw}{2}
\setcounter{C@NumTab}{0}
\setcounter{C@NumGroup}{0}
\setcounter{C@NextNode}{0}
\setcounter{NumC@Node}{0}
\setcounter{NumC@Stop}{0}
\setcounter{C@CurrentStop}{0}
\setcounter{C@CurrentNode}{0}
\setcounter{C@CurrentGroup}{0}
\setcounter{r@tfl@t}{0}
\setcounter{c@imbrication}{-1}
\setcounter{c@indentation}{0}
\setcounter{c@instruction}{20}
\setcounter{c@algo}{2}
\setcounter{c@tabdim}{0}
\setcounter{c@chaineouverte}{0}
\setcounter{floatalgo}{0}
\setcounter{aide}{0}
\setcounter{sol}{0}
\setcounter{mtc}{17}
\setcounter{minitocdepth}{3}
\setcounter{ptc}{0}
\setcounter{parttocdepth}{2}
\setcounter{asy}{0}
\setcounter{theoreme}{9}
\setcounter{lemme}{0}
\setcounter{corollaire}{0}
\setcounter{propriete}{0}
\setcounter{definition}{7}
\setcounter{exemple}{0}
\setcounter{remarque}{50}
\setcounter{recherche}{44}
\setcounter{exercicea}{0}
\setcounter{exerciceb}{0}
\setcounter{exercicec}{0}
\setcounter{pyquestions}{0}
\setcounter{pyxercice}{0}
\setcounter{lstlisting}{0}
\setcounter{section@level}{0}
\setcounter{tabularnotesi}{0}
\setcounter{tabularnotes*i}{0}
\setcounter{minilofdepth}{2}
\setcounter{minilotdepth}{2}
\setcounter{partlofdepth}{2}
\setcounter{partlotdepth}{2}
\setcounter{sectlofdepth}{2}
\setcounter{sectlotdepth}{2}
}
