\relax 
\providecommand\hyper@newdestlabel[2]{}
\providecommand\zref@newlabel[2]{}
\providecommand\babel@aux[2]{}
\@nameuse{bbl@beforestart}
\catcode `"\active 
\catcode `:\active 
\catcode `;\active 
\catcode `!\active 
\catcode `?\active 
\providecommand\HyperFirstAtBeginDocument{\AtBeginDocument}
\HyperFirstAtBeginDocument{\ifx\hyper@anchor\@undefined
\global\let\oldcontentsline\contentsline
\gdef\contentsline#1#2#3#4{\oldcontentsline{#1}{#2}{#3}}
\global\let\oldnewlabel\newlabel
\gdef\newlabel#1#2{\newlabelxx{#1}#2}
\gdef\newlabelxx#1#2#3#4#5#6{\oldnewlabel{#1}{{#2}{#3}}}
\AtEndDocument{\ifx\hyper@anchor\@undefined
\let\contentsline\oldcontentsline
\let\newlabel\oldnewlabel
\fi}
\fi}
\global\let\hyper@last\relax 
\gdef\HyperFirstAtBeginDocument#1{#1}
\providecommand\HyField@AuxAddToFields[1]{}
\providecommand\HyField@AuxAddToCoFields[2]{}
\nicematrix@redefine@check@rerun 
\providecommand \oddpage@label [2]{}
\babel@aux{french}{}
\pgfsyspdfmark {pgfid1}{9043707}{49503773}
\@writefile{@@@}{\chapterbegin }
\pgfsyspdfmark {pgfid2}{2797019}{50452149}
\@writefile{toc}{\contentsline {chapter}{Table des mati\`eres}{3}{chapterstar.2}\protected@file@percent }
\@input{./fonctions/fonctions21.aux}
\pgfsyspdfmark {pgfid3}{2797019}{50355741}
\@input{Logic22.aux}
\pgfsyspdfmark {pgfid71}{2797019}{50355741}
\@input{sets_22.aux}
\pgfsyspdfmark {pgfid96}{2797019}{50355741}
\@input{Reels22.aux}
\pgfsyspdfmark {pgfid183}{2797019}{50235594}
\@input{trigo_22.aux}
\pgfsyspdfmark {pgfid217}{2797019}{50235594}
\@input{complecs.aux}
\pgfsyspdfmark {pgfid242}{2797019}{50235594}
\@input{denomb21.aux}
\pgfsyspdfmark {pgfid288}{2797019}{50235594}
\@input{suites1_21.aux}
\pgfsyspdfmark {pgfid359}{2797019}{50235594}
\@input{DerPrimInt_21.aux}
\pgfsyspdfmark {pgfid402}{2797019}{50235594}
\@input{integrales21.aux}
\pgfsyspdfmark {pgfid446}{2797019}{50235594}
\@input{equa_diffs_21.aux}
\pgfsyspdfmark {pgfid465}{2797019}{50235594}
\@input{matrices21.aux}
\pgfsyspdfmark {pgfid487}{2797019}{50235594}
\@input{systemes_21.aux}
\pgfsyspdfmark {pgfid552}{2797019}{50235594}
\@input{geometrie21.aux}
\pgfsyspdfmark {pgfid583}{2797019}{50235594}
\@input{stats_21.aux}
\pgfsyspdfmark {pgfid645}{2797019}{50235594}
\@input{poly_21.aux}
\pgfsyspdfmark {pgfid687}{2797019}{50235594}
\@input{EV_21.aux}
\pgfsyspdfmark {pgfid723}{2797019}{50235594}
\@input{suites_conv_21.aux}
\pgfsyspdfmark {pgfid785}{2797019}{50235594}
\@input{lim_cont_21.aux}
\pgfsyspdfmark {pgfid850}{2797019}{50235594}
\@input{der_app_21.aux}
\pgfsyspdfmark {pgfid970}{2797019}{50235594}
\@input{DL_21.aux}
\pgfsyspdfmark {pgfid1026}{2797019}{50235594}
\@input{Int_2_21.aux}
\pgfsyspdfmark {pgfid1061}{2797019}{50235594}
\@input{applin21.aux}
\pgfsyspdfmark {pgfid1097}{2797019}{50235594}
\ExplSyntaxOn \cs_if_free:NT \pgfsyspdfmark {\cs_set_eq:NN \pgfsyspdfmark \@gobblethree }\ExplSyntaxOff 
\ExplSyntaxOn 
\char_set_catcode_space:n {32}
\tl_gset:cn {c__nicematrix_1_tl}{\seq_gset_from_clist:Nn \c__nicematrix_size_seq {0,5,6,0,3,4}}
\ExplSyntaxOff 
\ExplSyntaxOn 
\char_set_catcode_space:n {32}
\tl_gset:cn {c__nicematrix_2_tl}{\seq_gset_from_clist:Nn \c__nicematrix_size_seq {0,6,7,0,6,7}}
\ExplSyntaxOff 
\pgfsyspdfmark {pgfid1161}{22570882}{21436182}
\pgfsyspdfmark {pgfid1162}{22898562}{20577663}
\pgfsyspdfmark {pgfid1163}{21704643}{20577663}
\pgfsyspdfmark {pgfid1164}{23321375}{20577663}
\pgfsyspdfmark {pgfid1165}{25002511}{20577663}
\pgfsyspdfmark {pgfid1166}{26636762}{20577663}
\pgfsyspdfmark {pgfid1167}{22570882}{20322070}
\pgfsyspdfmark {pgfid1168}{22898562}{19463551}
\pgfsyspdfmark {pgfid1169}{23321375}{19463551}
\pgfsyspdfmark {pgfid1170}{25002511}{19463551}
\pgfsyspdfmark {pgfid1171}{26636762}{19463551}
\pgfsyspdfmark {pgfid1172}{27577943}{19463551}
\pgfsyspdfmark {pgfid1173}{22570882}{19207958}
\pgfsyspdfmark {pgfid1174}{22898562}{18349439}
\pgfsyspdfmark {pgfid1175}{23321375}{18349439}
\pgfsyspdfmark {pgfid1176}{25002511}{18349439}
\pgfsyspdfmark {pgfid1177}{26636762}{18349439}
\pgfsyspdfmark {pgfid1178}{27668050}{18349439}
\pgfsyspdfmark {pgfid1179}{22570882}{18093846}
\pgfsyspdfmark {pgfid1180}{22898562}{17235327}
\pgfsyspdfmark {pgfid1181}{23321375}{17235327}
\pgfsyspdfmark {pgfid1182}{25002511}{17235327}
\pgfsyspdfmark {pgfid1183}{26636762}{17235327}
\pgfsyspdfmark {pgfid1184}{27802672}{17235327}
\pgfsyspdfmark {pgfid1185}{22570882}{16979734}
\pgfsyspdfmark {pgfid1186}{22898562}{16121215}
\pgfsyspdfmark {pgfid1187}{23321375}{16121215}
\pgfsyspdfmark {pgfid1188}{25002511}{16121215}
\pgfsyspdfmark {pgfid1189}{26636762}{16121215}
\pgfsyspdfmark {pgfid1190}{27809640}{16121215}
\pgfsyspdfmark {pgfid1191}{22570882}{15865622}
\pgfsyspdfmark {pgfid1192}{22898562}{15007103}
\pgfsyspdfmark {pgfid1193}{23321375}{15007103}
\pgfsyspdfmark {pgfid1194}{25002511}{15007103}
\pgfsyspdfmark {pgfid1195}{26636762}{15007103}
\pgfsyspdfmark {pgfid1196}{27814810}{15007103}
\pgfsyspdfmark {pgfid1197}{22570882}{14751510}
\pgfsyspdfmark {pgfid1198}{22898562}{13746700}
\pgfsyspdfmark {pgfid1199}{27760602}{13746700}
\pgfsyspdfmark {pgfid1200}{22570882}{13491107}
\pgfsyspdfmark {pgfid1201}{20401934}{13491107}
\pgfsyspdfmark {pgfid1202}{22570882}{13491107}
\pgfsyspdfmark {pgfid1203}{24071868}{13491107}
\pgfsyspdfmark {pgfid1204}{25933154}{13491107}
\pgfsyspdfmark {pgfid1205}{27340370}{13491107}
\pgfsyspdfmark {pgfid1206}{28070361}{13491107}
\pgfsyspdfmark {pgfid1207}{28179806}{17342149}
\pgfsyspdfmark {pgfid1209}{28179806}{17342149}
\pgfsyspdfmark {pgfid1210}{21290271}{10833844}
\pgfsyspdfmark {pgfid1211}{21617951}{9975325}
\pgfsyspdfmark {pgfid1212}{20424032}{9975325}
\pgfsyspdfmark {pgfid1213}{22184018}{9975325}
\pgfsyspdfmark {pgfid1214}{24000060}{9975325}
\pgfsyspdfmark {pgfid1215}{26481780}{9975325}
\pgfsyspdfmark {pgfid1216}{29012018}{9975325}
\pgfsyspdfmark {pgfid1217}{21290271}{9719732}
\pgfsyspdfmark {pgfid1218}{21617951}{8861213}
\pgfsyspdfmark {pgfid1219}{22184018}{8861213}
\pgfsyspdfmark {pgfid1220}{24000060}{8861213}
\pgfsyspdfmark {pgfid1221}{26481780}{8861213}
\pgfsyspdfmark {pgfid1222}{29012018}{8861213}
\pgfsyspdfmark {pgfid1223}{30362190}{8861213}
\pgfsyspdfmark {pgfid1224}{21290271}{8605620}
\pgfsyspdfmark {pgfid1225}{21617951}{7747101}
\pgfsyspdfmark {pgfid1226}{22184018}{7747101}
\pgfsyspdfmark {pgfid1227}{24000060}{7747101}
\pgfsyspdfmark {pgfid1228}{26481780}{7747101}
\pgfsyspdfmark {pgfid1229}{29012018}{7747101}
\pgfsyspdfmark {pgfid1230}{30390738}{7747101}
\pgfsyspdfmark {pgfid1231}{21290271}{7491508}
\pgfsyspdfmark {pgfid1232}{21617951}{6632989}
\pgfsyspdfmark {pgfid1233}{21290271}{6377396}
\pgfsyspdfmark {pgfid1234}{21617951}{5518877}
\pgfsyspdfmark {pgfid1235}{22184018}{5518877}
\pgfsyspdfmark {pgfid1236}{24000060}{5518877}
\pgfsyspdfmark {pgfid1237}{26481780}{5518877}
\pgfsyspdfmark {pgfid1238}{29012018}{5518877}
\pgfsyspdfmark {pgfid1239}{30379848}{5518877}
\pgfsyspdfmark {pgfid1240}{21290271}{5263284}
\pgfsyspdfmark {pgfid1241}{21617951}{4404765}
\pgfsyspdfmark {pgfid1242}{21290271}{4149172}
\pgfsyspdfmark {pgfid1243}{21617951}{3290653}
\pgfsyspdfmark {pgfid1244}{22184018}{3290653}
\pgfsyspdfmark {pgfid1245}{24000060}{3290653}
\pgfsyspdfmark {pgfid1246}{26481780}{3290653}
\pgfsyspdfmark {pgfid1247}{29012018}{3290653}
\pgfsyspdfmark {pgfid1248}{30458753}{3290653}
\pgfsyspdfmark {pgfid1249}{21290271}{3035060}
\pgfsyspdfmark {pgfid1250}{21617951}{2030250}
\pgfsyspdfmark {pgfid1251}{30403063}{2030250}
\pgfsyspdfmark {pgfid1252}{21290271}{1774657}
\pgfsyspdfmark {pgfid1253}{19121323}{1774657}
\pgfsyspdfmark {pgfid1254}{21290271}{1774657}
\pgfsyspdfmark {pgfid1255}{23077765}{1774657}
\pgfsyspdfmark {pgfid1256}{24922355}{1774657}
\pgfsyspdfmark {pgfid1257}{25577715}{1774657}
\pgfsyspdfmark {pgfid1258}{27385845}{1774657}
\pgfsyspdfmark {pgfid1259}{28041205}{1774657}
\pgfsyspdfmark {pgfid1260}{29982831}{1774657}
\pgfsyspdfmark {pgfid1261}{30715785}{1774657}
\pgfsyspdfmark {pgfid1262}{30825230}{6182755}
\pgfsyspdfmark {pgfid1264}{30825230}{6182755}
\ExplSyntaxOn 
\char_set_catcode_space:n {32}
\tl_gset:cn {c__nicematrix_3_tl}{\seq_gset_from_clist:Nn \c__nicematrix_size_seq {0,6,7,0,6,7}}
\ExplSyntaxOff 
\pgfsyspdfmark {pgfid1266}{21521590}{40309565}
\pgfsyspdfmark {pgfid1267}{21849270}{39451046}
\pgfsyspdfmark {pgfid1268}{20003827}{39451046}
\pgfsyspdfmark {pgfid1269}{22624138}{39451046}
\pgfsyspdfmark {pgfid1270}{24857782}{39451046}
\pgfsyspdfmark {pgfid1271}{27757104}{39451046}
\pgfsyspdfmark {pgfid1272}{30704944}{39451046}
\pgfsyspdfmark {pgfid1273}{21521590}{39195453}
\pgfsyspdfmark {pgfid1274}{21849270}{38336934}
\pgfsyspdfmark {pgfid1275}{22624138}{38336934}
\pgfsyspdfmark {pgfid1276}{24857782}{38336934}
\pgfsyspdfmark {pgfid1277}{27757104}{38336934}
\pgfsyspdfmark {pgfid1278}{30704944}{38336934}
\pgfsyspdfmark {pgfid1279}{32237702}{38336934}
\pgfsyspdfmark {pgfid1280}{21521590}{38081341}
\pgfsyspdfmark {pgfid1281}{21849270}{37222822}
\pgfsyspdfmark {pgfid1282}{22624138}{37222822}
\pgfsyspdfmark {pgfid1283}{24857782}{37222822}
\pgfsyspdfmark {pgfid1284}{27757104}{37222822}
\pgfsyspdfmark {pgfid1285}{30704944}{37222822}
\pgfsyspdfmark {pgfid1286}{32266250}{37222822}
\pgfsyspdfmark {pgfid1287}{21521590}{36967229}
\pgfsyspdfmark {pgfid1288}{21849270}{36108710}
\pgfsyspdfmark {pgfid1289}{21521590}{35853117}
\pgfsyspdfmark {pgfid1290}{21849270}{34994598}
\pgfsyspdfmark {pgfid1291}{22624138}{34994598}
\pgfsyspdfmark {pgfid1292}{24857782}{34994598}
\pgfsyspdfmark {pgfid1293}{27757104}{34994598}
\pgfsyspdfmark {pgfid1294}{30704944}{34994598}
\pgfsyspdfmark {pgfid1295}{32255360}{34994598}
\pgfsyspdfmark {pgfid1296}{21521590}{34739005}
\pgfsyspdfmark {pgfid1297}{21849270}{33880486}
\pgfsyspdfmark {pgfid1298}{21521590}{33624893}
\pgfsyspdfmark {pgfid1299}{21849270}{32766374}
\pgfsyspdfmark {pgfid1300}{22624138}{32766374}
\pgfsyspdfmark {pgfid1301}{24857782}{32766374}
\pgfsyspdfmark {pgfid1302}{27757104}{32766374}
\pgfsyspdfmark {pgfid1303}{30704944}{32766374}
\pgfsyspdfmark {pgfid1304}{32334265}{32766374}
\pgfsyspdfmark {pgfid1305}{21521590}{32510781}
\pgfsyspdfmark {pgfid1306}{21849270}{31505971}
\pgfsyspdfmark {pgfid1307}{32451141}{31505971}
\pgfsyspdfmark {pgfid1308}{21521590}{31250378}
\pgfsyspdfmark {pgfid1309}{18049594}{31250378}
\pgfsyspdfmark {pgfid1310}{21521590}{31250378}
\pgfsyspdfmark {pgfid1311}{23726686}{31250378}
\pgfsyspdfmark {pgfid1312}{25988878}{31250378}
\pgfsyspdfmark {pgfid1313}{26644238}{31250378}
\pgfsyspdfmark {pgfid1314}{28869970}{31250378}
\pgfsyspdfmark {pgfid1315}{29525330}{31250378}
\pgfsyspdfmark {pgfid1316}{31884558}{31250378}
\pgfsyspdfmark {pgfid1317}{32798834}{31250378}
\pgfsyspdfmark {pgfid1318}{32908279}{35658476}
\pgfsyspdfmark {pgfid1320}{32908279}{35658476}
\ExplSyntaxOn 
\char_set_catcode_space:n {32}
\tl_gset:cn {c__nicematrix_4_tl}{\seq_gset_from_clist:Nn \c__nicematrix_size_seq {0,4,4,1,5,5}}
\ExplSyntaxOff 
\ExplSyntaxOn 
\char_set_catcode_space:n {32}
\tl_gset:cn {c__nicematrix_5_tl}{\seq_gset_from_clist:Nn \c__nicematrix_size_seq {0,4,4,1,5,5}}
\ExplSyntaxOff 
\ExplSyntaxOn 
\char_set_catcode_space:n {32}
\tl_gset:cn {c__nicematrix_6_tl}{\seq_gset_from_clist:Nn \c__nicematrix_size_seq {0,4,4,1,5,5}}
\ExplSyntaxOff 
\pgfsyspdfmark {pgfid1335}{12197306}{21867230}
\pgfsyspdfmark {pgfid1336}{12524986}{21008711}
\pgfsyspdfmark {pgfid1337}{12790640}{21008711}
\pgfsyspdfmark {pgfid1338}{14005856}{21008711}
\pgfsyspdfmark {pgfid1339}{15256588}{21008711}
\pgfsyspdfmark {pgfid1340}{16519458}{21008711}
\pgfsyspdfmark {pgfid1341}{17779631}{21008711}
\pgfsyspdfmark {pgfid1342}{12197306}{20753118}
\pgfsyspdfmark {pgfid1343}{12662512}{19894599}
\pgfsyspdfmark {pgfid1344}{12790640}{19894599}
\pgfsyspdfmark {pgfid1345}{14005856}{19894599}
\pgfsyspdfmark {pgfid1346}{15256588}{19894599}
\pgfsyspdfmark {pgfid1347}{16519458}{19894599}
\pgfsyspdfmark {pgfid1348}{17779631}{19894599}
\pgfsyspdfmark {pgfid1349}{12197306}{19639006}
\pgfsyspdfmark {pgfid1350}{12662512}{18780487}
\pgfsyspdfmark {pgfid1351}{12790640}{18780487}
\pgfsyspdfmark {pgfid1352}{14005856}{18780487}
\pgfsyspdfmark {pgfid1353}{15256588}{18780487}
\pgfsyspdfmark {pgfid1354}{16519458}{18780487}
\pgfsyspdfmark {pgfid1355}{17779631}{18780487}
\pgfsyspdfmark {pgfid1356}{12197306}{18524894}
\pgfsyspdfmark {pgfid1357}{12662512}{17666375}
\pgfsyspdfmark {pgfid1358}{12790640}{17666375}
\pgfsyspdfmark {pgfid1359}{14005856}{17666375}
\pgfsyspdfmark {pgfid1360}{15256588}{17666375}
\pgfsyspdfmark {pgfid1361}{16519458}{17666375}
\pgfsyspdfmark {pgfid1362}{17779631}{17666375}
\pgfsyspdfmark {pgfid1363}{12197306}{17410782}
\pgfsyspdfmark {pgfid1364}{12662512}{16552263}
\pgfsyspdfmark {pgfid1365}{12790640}{16552263}
\pgfsyspdfmark {pgfid1366}{14005856}{16552263}
\pgfsyspdfmark {pgfid1367}{15256588}{16552263}
\pgfsyspdfmark {pgfid1368}{16519458}{16552263}
\pgfsyspdfmark {pgfid1369}{17779631}{16552263}
\pgfsyspdfmark {pgfid1370}{12197306}{16296670}
\pgfsyspdfmark {pgfid1371}{12197306}{16296670}
\pgfsyspdfmark {pgfid1372}{13383974}{16296670}
\pgfsyspdfmark {pgfid1373}{14627738}{16296670}
\pgfsyspdfmark {pgfid1374}{15885438}{16296670}
\pgfsyspdfmark {pgfid1375}{17153478}{16296670}
\pgfsyspdfmark {pgfid1376}{18405784}{16296670}
\pgfsyspdfmark {pgfid1377}{18515229}{18330253}
\pgfsyspdfmark {pgfid1379}{18515229}{18330253}
\pgfsyspdfmark {pgfid1380}{20044761}{22394537}
\pgfsyspdfmark {pgfid1381}{20372441}{21008711}
\pgfsyspdfmark {pgfid1382}{20962271}{21008711}
\pgfsyspdfmark {pgfid1383}{23160749}{21008711}
\pgfsyspdfmark {pgfid1384}{25898565}{21008711}
\pgfsyspdfmark {pgfid1385}{28817431}{21008711}
\pgfsyspdfmark {pgfid1386}{31743554}{21008711}
\pgfsyspdfmark {pgfid1387}{20044761}{20753118}
\pgfsyspdfmark {pgfid1388}{20834143}{19894599}
\pgfsyspdfmark {pgfid1389}{20962271}{19894599}
\pgfsyspdfmark {pgfid1390}{23160749}{19894599}
\pgfsyspdfmark {pgfid1391}{25898565}{19894599}
\pgfsyspdfmark {pgfid1392}{28817431}{19894599}
\pgfsyspdfmark {pgfid1393}{31743554}{19894599}
\pgfsyspdfmark {pgfid1394}{20044761}{19639006}
\pgfsyspdfmark {pgfid1395}{20834143}{18780487}
\pgfsyspdfmark {pgfid1396}{20962271}{18780487}
\pgfsyspdfmark {pgfid1397}{23160749}{18780487}
\pgfsyspdfmark {pgfid1398}{25898565}{18780487}
\pgfsyspdfmark {pgfid1399}{28817431}{18780487}
\pgfsyspdfmark {pgfid1400}{31743554}{18780487}
\pgfsyspdfmark {pgfid1401}{20044761}{18524894}
\pgfsyspdfmark {pgfid1402}{20834143}{17666375}
\pgfsyspdfmark {pgfid1403}{20962271}{17666375}
\pgfsyspdfmark {pgfid1404}{23160749}{17666375}
\pgfsyspdfmark {pgfid1405}{25898565}{17666375}
\pgfsyspdfmark {pgfid1406}{28817431}{17666375}
\pgfsyspdfmark {pgfid1407}{31743554}{17666375}
\pgfsyspdfmark {pgfid1408}{20044761}{17410782}
\pgfsyspdfmark {pgfid1409}{20834143}{16552263}
\pgfsyspdfmark {pgfid1410}{20962271}{16552263}
\pgfsyspdfmark {pgfid1411}{23160749}{16552263}
\pgfsyspdfmark {pgfid1412}{25898565}{16552263}
\pgfsyspdfmark {pgfid1413}{28817431}{16552263}
\pgfsyspdfmark {pgfid1414}{31743554}{16552263}
\pgfsyspdfmark {pgfid1415}{20044761}{16296670}
\pgfsyspdfmark {pgfid1416}{20044761}{16296670}
\pgfsyspdfmark {pgfid1417}{21879781}{16296670}
\pgfsyspdfmark {pgfid1418}{24441717}{16296670}
\pgfsyspdfmark {pgfid1419}{27355413}{16296670}
\pgfsyspdfmark {pgfid1420}{30279449}{16296670}
\pgfsyspdfmark {pgfid1421}{33207659}{16296670}
\pgfsyspdfmark {pgfid1422}{33317104}{18330253}
\pgfsyspdfmark {pgfid1424}{33317104}{18330253}
\pgfsyspdfmark {pgfid1425}{17135618}{15435861}
\pgfsyspdfmark {pgfid1426}{17463298}{14157683}
\pgfsyspdfmark {pgfid1427}{18053128}{14157683}
\pgfsyspdfmark {pgfid1428}{19888148}{14157683}
\pgfsyspdfmark {pgfid1429}{22198819}{14157683}
\pgfsyspdfmark {pgfid1430}{25159223}{14157683}
\pgfsyspdfmark {pgfid1431}{28116930}{14157683}
\pgfsyspdfmark {pgfid1432}{17135618}{13902090}
\pgfsyspdfmark {pgfid1433}{17925000}{13043571}
\pgfsyspdfmark {pgfid1434}{18053128}{13043571}
\pgfsyspdfmark {pgfid1435}{19888148}{13043571}
\pgfsyspdfmark {pgfid1436}{22198819}{13043571}
\pgfsyspdfmark {pgfid1437}{25159223}{13043571}
\pgfsyspdfmark {pgfid1438}{28116930}{13043571}
\pgfsyspdfmark {pgfid1439}{17135618}{12787978}
\pgfsyspdfmark {pgfid1440}{17925000}{11929459}
\pgfsyspdfmark {pgfid1441}{18053128}{11929459}
\pgfsyspdfmark {pgfid1442}{19888148}{11929459}
\pgfsyspdfmark {pgfid1443}{22198819}{11929459}
\pgfsyspdfmark {pgfid1444}{25159223}{11929459}
\pgfsyspdfmark {pgfid1445}{28116930}{11929459}
\pgfsyspdfmark {pgfid1446}{17135618}{11673866}
\pgfsyspdfmark {pgfid1447}{17925000}{10815347}
\pgfsyspdfmark {pgfid1448}{18053128}{10815347}
\pgfsyspdfmark {pgfid1449}{19888148}{10815347}
\pgfsyspdfmark {pgfid1450}{22198819}{10815347}
\pgfsyspdfmark {pgfid1451}{25159223}{10815347}
\pgfsyspdfmark {pgfid1452}{28116930}{10815347}
\pgfsyspdfmark {pgfid1453}{17135618}{10559754}
\pgfsyspdfmark {pgfid1454}{17925000}{9701235}
\pgfsyspdfmark {pgfid1455}{18053128}{9701235}
\pgfsyspdfmark {pgfid1456}{19888148}{9701235}
\pgfsyspdfmark {pgfid1457}{22198819}{9701235}
\pgfsyspdfmark {pgfid1458}{25159223}{9701235}
\pgfsyspdfmark {pgfid1459}{28116930}{9701235}
\pgfsyspdfmark {pgfid1460}{17135618}{9445642}
\pgfsyspdfmark {pgfid1461}{17135618}{9445642}
\pgfsyspdfmark {pgfid1462}{18970638}{9445642}
\pgfsyspdfmark {pgfid1463}{20805658}{9445642}
\pgfsyspdfmark {pgfid1464}{23591980}{9445642}
\pgfsyspdfmark {pgfid1465}{26726466}{9445642}
\pgfsyspdfmark {pgfid1466}{29507394}{9445642}
\pgfsyspdfmark {pgfid1467}{29616839}{11479225}
\pgfsyspdfmark {pgfid1469}{29616839}{11479225}
\@input{probasIntro21.aux}
\pgfsyspdfmark {pgfid1482}{2797019}{50235594}
\@input{VAR21.aux}
\pgfsyspdfmark {pgfid1533}{2797019}{50235594}
\@input{fdxvars21.aux}
\pgfsyspdfmark {pgfid1606}{2797019}{50235594}
\ttl@finishall
\newlabel{LastPage}{{}{624}{}{page.630}{}}
\xdef\lastpage@lastpage{624}
\xdef\lastpage@lastpageHy{630}
\global\mtcsecondpartfalse
\gdef \@abspage@last{631}
