\relax 
\providecommand\hyper@newdestlabel[2]{}
\providecommand\zref@newlabel[2]{}
\providecommand\babel@aux[2]{}
\@nameuse{bbl@beforestart}
\catcode `"\active 
\catcode `:\active 
\catcode `;\active 
\catcode `!\active 
\catcode `?\active 
\providecommand\HyperFirstAtBeginDocument{\AtBeginDocument}
\HyperFirstAtBeginDocument{\ifx\hyper@anchor\@undefined
\global\let\oldcontentsline\contentsline
\gdef\contentsline#1#2#3#4{\oldcontentsline{#1}{#2}{#3}}
\global\let\oldnewlabel\newlabel
\gdef\newlabel#1#2{\newlabelxx{#1}#2}
\gdef\newlabelxx#1#2#3#4#5#6{\oldnewlabel{#1}{{#2}{#3}}}
\AtEndDocument{\ifx\hyper@anchor\@undefined
\let\contentsline\oldcontentsline
\let\newlabel\oldnewlabel
\fi}
\fi}
\global\let\hyper@last\relax 
\gdef\HyperFirstAtBeginDocument#1{#1}
\providecommand\HyField@AuxAddToFields[1]{}
\providecommand\HyField@AuxAddToCoFields[2]{}
\nicematrix@redefine@check@rerun 
\providecommand \oddpage@label [2]{}
\babel@aux{french}{}
\pgfsyspdfmark {pgfid1}{9043707}{49503773}
\@input{complecs.aux}
\pgfsyspdfmark {pgfid2}{2797019}{50355741}
\ttl@finishall
\newlabel{LastPage}{{}{27}{}{page.27}{}}
\xdef\lastpage@lastpage{27}
\xdef\lastpage@lastpageHy{27}
\global\mtcsecondpartfalse
\gdef \@abspage@last{28}
