\BOOKMARK [0][-]{chapter.1}{\376\377\000P\000o\000l\000y\000n\000\364\000m\000e\000s}{}% 1
\BOOKMARK [1][-]{section.2}{\376\377\000G\000a\000v\000a\000r\000i\000t\000'\000\040\000P\000a\000\040\000R\000o\000u\000s\000s\000k\000y\000\040\000?\000\040\000S\000o\000u\000v\000e\000n\000i\000r\000s\000\040\000d\000e\000\040\0001\000\350\000r\000e}{chapter.1}% 2
\BOOKMARK [1][-]{section.3}{\376\377\000Q\000u\000e\000l\000q\000u\000e\000s\000\040\000d\000\351\000f\000i\000n\000i\000t\000i\000o\000n\000s}{chapter.1}% 3
\BOOKMARK [2][-]{subsection.4}{\376\377\000R\000e\000m\000a\000r\000q\000u\000e\000s\000\040\000p\000r\000\351\000l\000i\000m\000i\000n\000a\000i\000r\000e\000s}{section.3}% 4
\BOOKMARK [2][-]{subsection.5}{\376\377\000D\000\351\000f\000i\000n\000i\000t\000i\000o\000n\000\040\000g\000\351\000n\000\351\000r\000a\000l\000e}{section.3}% 5
\BOOKMARK [2][-]{subsection.7}{\376\377\000F\000o\000n\000c\000t\000i\000o\000n\000s\000\040\000p\000o\000l\000y\000n\000o\000m\000i\000a\000l\000e\000s}{section.3}% 6
\BOOKMARK [2][-]{subsection.9}{\376\377\000P\000o\000l\000y\000n\000\364\000m\000e\000s\000\040\000p\000a\000r\000t\000i\000c\000u\000l\000i\000e\000r\000s}{section.3}% 7
\BOOKMARK [2][-]{subsection.13}{\376\377\000O\000p\000\351\000r\000a\000t\000i\000o\000n\000s\000\040\000s\000u\000r\000\040\000l\000e\000s\000\040\000p\000o\000l\000y\000n\000\364\000m\000e\000s}{section.3}% 8
\BOOKMARK [1][-]{section.28}{\376\377\000R\000a\000c\000i\000n\000e\000s\000\040\000d\000'\000u\000n\000\040\000p\000o\000l\000y\000n\000\364\000m\000e}{chapter.1}% 9
\BOOKMARK [2][-]{subsection.29}{\376\377\000\311\000t\000y\000m\000o\000l\000o\000g\000i\000e}{section.28}% 10
\BOOKMARK [2][-]{subsection.30}{\376\377\000D\000\351\000f\000i\000n\000i\000t\000i\000o\000n\000s}{section.28}% 11
\BOOKMARK [2][-]{subsection.34}{\376\377\000R\000a\000c\000i\000n\000e\000s\000\040\000e\000t\000\040\000d\000i\000v\000i\000s\000i\000b\000i\000l\000i\000t\000\351}{section.28}% 12
\BOOKMARK [2][-]{subsection.40}{\376\377\000O\000r\000d\000r\000e\000\040\000d\000e\000\040\000m\000u\000l\000t\000i\000p\000l\000i\000c\000i\000t\000\351\000\040\000d\000'\000u\000n\000e\000\040\000r\000a\000c\000i\000n\000e}{section.28}% 13
\BOOKMARK [1][-]{section.42}{\376\377\000Q\000u\000e\000l\000q\000u\000e\000s\000\040\000p\000e\000t\000i\000t\000s\000\040\000j\000e\000u\000x}{chapter.1}% 14
\BOOKMARK [2][-]{subsection.43}{\376\377\000E\000n\000\040\000P\000r\000e\000m\000i\000\350\000r\000e}{section.42}% 15
\BOOKMARK [2][-]{subsection.147}{\376\377\000E\000n\000\040\000B\000C\000P\000S\000T}{section.42}% 16
