\BOOKMARK [0][-]{chapter.1}{\376\377\000I\000n\000t\000r\000o\000d\000u\000c\000t\000i\000o\000n\000\040\000a\000u\000x\000\040\000e\000s\000p\000a\000c\000e\000s\000\040\000v\000e\000c\000t\000o\000r\000i\000e\000l\000s}{}% 1
\BOOKMARK [1][-]{section.2}{\376\377\000V\000e\000r\000s\000\040\000u\000n\000e\000\040\000d\000\351\000f\000i\000n\000i\000t\000i\000o\000n}{chapter.1}% 2
\BOOKMARK [1][-]{section.10}{\376\377\000P\000r\000e\000m\000i\000e\000r\000s\000\040\000e\000x\000e\000m\000p\000l\000e\000s}{chapter.1}% 3
\BOOKMARK [2][-]{subsection.11}{\376\377\000R\0002\000\040\000e\000n\000\040\000D\0002}{section.10}% 4
\BOOKMARK [2][-]{subsection.21}{\376\377\000L\000e\000s\000\040\000m\000a\000t\000r\000i\000c\000e\000s}{section.10}% 5
\BOOKMARK [2][-]{subsection.22}{\376\377\000L\000e\000s\000\040\000a\000u\000t\000r\000e\000s\000\040\000e\000x\000e\000m\000p\000l\000e\000s\000\040\000d\000e\000\040\000r\000\351\000f\000\351\000r\000e\000n\000c\000e}{section.10}% 6
\BOOKMARK [1][-]{section.30}{\376\377\000S\000o\000u\000s\000-\000e\000s\000p\000a\000c\000e\000\040\000v\000e\000c\000t\000o\000r\000i\000e\000l}{chapter.1}% 7
\BOOKMARK [1][-]{section.38}{\376\377\000F\000a\000m\000i\000l\000l\000e\000s\000\040\000d\000e\000\040\000v\000e\000c\000t\000e\000u\000r\000s\000\040\000d\000'\000u\000n\000\040\000e\000s\000p\000a\000c\000e\000\040\000v\000e\000c\000t\000o\000r\000i\000e\000l\000\040\000\050\000V\000,\042\225\000,\000\051}{chapter.1}% 8
\BOOKMARK [2][-]{subsection.39}{\376\377\000S\000o\000u\000s\000-\000e\000s\000p\000a\000c\000e\000\040\000e\000n\000g\000e\000n\000d\000r\000\351\000\040\000p\000a\000r\000\040\000u\000n\000e\000\040\000f\000a\000m\000i\000l\000l\000e}{section.38}% 9
\BOOKMARK [2][-]{subsection.56}{\376\377\000F\000a\000m\000i\000l\000l\000e\000\040\000g\000\351\000n\000\351\000r\000a\000t\000r\000i\000c\000e}{section.38}% 10
\BOOKMARK [2][-]{subsection.65}{\376\377\000F\000a\000m\000i\000l\000l\000e\000s\000\040\000l\000i\000b\000r\000e\000s}{section.38}% 11
\BOOKMARK [2][-]{subsection.79}{\376\377\000B\000a\000s\000e\000s}{section.38}% 12
\BOOKMARK [2][-]{subsection.91}{\376\377\000B\000o\000n\000u\000s\000:\000\040\000P\000o\000l\000y\000n\000\364\000m\000e\000s\000\040\000e\000t\000\040\000a\000l\000g\000\350\000b\000r\000e\000\040\000l\000i\000n\000\351\000a\000i\000r\000e}{section.38}% 13
\BOOKMARK [1][-]{section.96}{\376\377\000E\000n\000t\000r\000a\000\356\000n\000e\000m\000e\000n\000t}{chapter.1}% 14
\BOOKMARK [2][-]{subsection.97}{\376\377\000I\000n\000t\000e\000r\000r\000o\000\040\000d\000e\000\040\000c\000o\000u\000r\000s}{section.96}% 15
\BOOKMARK [2][-]{subsection.108}{\376\377\000D\000\351\000f\000i\000n\000i\000t\000i\000o\000n\000\040\000d\000'\000u\000n\000\040\000E\000V}{section.96}% 16
\BOOKMARK [2][-]{subsection.110}{\376\377\000S\000E\000V}{section.96}% 17
\BOOKMARK [2][-]{subsection.157}{\376\377\000F\000a\000m\000i\000l\000l\000e\000s\000\040\000d\000e\000\040\000v\000e\000c\000t\000e\000u\000r\000s}{section.96}% 18
