\babel@toc {french}{}\relax 
\contentsline {chapter}{Table des mati\`eres}{3}{chapterstar.2}%
\contentsline {chapter}{\numberline {1}G\IeC {\'e}n\IeC {\'e}ralit\IeC {\'e}s sur les fonctions}{13}{chapter.3}%
\contentsline {section}{\numberline {1.1}Cours de 2nde}{14}{section.4}%
\contentsline {subsection}{\numberline {1.1.1}Teaser...}{14}{subsection.5}%
\contentsline {subsubsection}{\numberline {1.1.1.1}Suivez la fl\IeC {\`e}che}{14}{subsubsection.6}%
\contentsline {subsection}{\numberline {1.1.2}In English}{15}{subsection.8}%
\contentsline {subsubsection}{\numberline {1.1.2.1}Les fonctions en informatique}{15}{subsubsection.9}%
\contentsline {subsubsection}{\numberline {1.1.2.2}Une fonction qui existe d\IeC {\'e}j\IeC {\`a}}{15}{subsubsection.10}%
\contentsline {subsubsection}{\numberline {1.1.2.3}Cr\IeC {\'e}ons une fonction simple}{15}{subsubsection.11}%
\contentsline {subsubsection}{\numberline {1.1.2.4}Cr\IeC {\'e}ons une fonction un peu plus compliqu\IeC {\'e}e}{16}{subsubsection.12}%
\contentsline {subsection}{\numberline {1.1.3}Qu'est-ce qu'une fonction?}{16}{subsection.13}%
\contentsline {subsection}{\numberline {1.1.4}Diff\IeC {\'e}rentes repr\IeC {\'e}sentations d'une fonction}{20}{subsection.17}%
\contentsline {subsubsection}{\numberline {1.1.4.1}Diagramme sagittal}{20}{subsubsection.18}%
\contentsline {subsubsection}{\numberline {1.1.4.2}Tableau de valeurs}{21}{subsubsection.19}%
\contentsline {subsubsection}{\numberline {1.1.4.3}Utilisation de Python}{21}{subsubsection.20}%
\contentsline {subsubsection}{\numberline {1.1.4.4}Repr\IeC {\'e}sentation graphique}{22}{subsubsection.21}%
\contentsline {paragraph}{\numberline {1.1.4.4.1}Lecture d'une courbe}{22}{paragraph.22}%
\contentsline {paragraph}{\numberline {1.1.4.4.2}Repr\IeC {\'e}sentation graphique d'une fonction: un exemple}{23}{paragraph.30}%
\contentsline {subsubsection}{\numberline {1.1.4.5}Repr\IeC {\'e}sentation graphique d'une fonction: le cours}{23}{subsubsection.35}%
\contentsline {subsection}{\numberline {1.1.5}R\IeC {\'e}solution d'\IeC {\'e}quations et d'in\IeC {\'e}quations}{24}{subsection.37}%
\contentsline {subsubsection}{\numberline {1.1.5.1}R\IeC {\'e}solution graphique d'\IeC {\'e}quations}{24}{subsubsection.38}%
\contentsline {subsubsection}{\numberline {1.1.5.2}R\IeC {\'e}solution graphique d'in\IeC {\'e}quations}{25}{subsubsection.39}%
\contentsline {section}{\numberline {1.2}En Terminale}{26}{section.40}%
\contentsline {subsection}{\numberline {1.2.1}Parit\IeC {\'e}}{26}{subsection.41}%
\contentsline {subsection}{\numberline {1.2.2}P\IeC {\'e}riodicit\IeC {\'e}}{27}{subsection.45}%
\contentsline {subsection}{\numberline {1.2.3}Bornes}{28}{subsection.47}%
\contentsline {subsection}{\numberline {1.2.4}Monotonie}{28}{subsection.50}%
\contentsline {subsection}{\numberline {1.2.5}Op\IeC {\'e}rations sur les fonctions}{30}{subsection.55}%
\contentsline {section}{\numberline {1.3}Premi\IeC {\`e}re s\IeC {\'e}rie de recettes}{30}{section.60}%
\contentsline {subsection}{\numberline {1.3.1} Comment montrer qu'une fonction est paire?}{30}{subsection.61}%
\contentsline {subsection}{\numberline {1.3.2} Comment montrer qu'une fonction est impaire?}{30}{subsection.62}%
\contentsline {subsection}{\numberline {1.3.3} Comment montrer qu'une courbe admet le point A(a,b) comme centre de sym\IeC {\'e}trie? }{30}{subsection.63}%
\contentsline {subsection}{\numberline {1.3.4} Comment montrer qu'une fonction est p\IeC {\'e}riodique?}{30}{subsection.64}%
\contentsline {subsection}{\numberline {1.3.5} Comment \IeC {\'e}tudier le signe d'une expression?}{31}{subsection.65}%
\contentsline {subsection}{\numberline {1.3.6}Qu'est-ce qu'une fonction croissante sur I?}{31}{subsection.66}%
\contentsline {section}{\numberline {1.4}Fonctions usuelles}{31}{section.67}%
\contentsline {subsection}{\numberline {1.4.1}Fonction tangente}{31}{subsection.68}%
\contentsline {subsection}{\numberline {1.4.2}Rappels sur exp et ln}{32}{subsection.72}%
\contentsline {section}{\numberline {1.5}Seconde s\'erie de recettes}{34}{section.81}%
\contentsline {section}{\numberline {1.6}Quelques petits jeux}{37}{section.90}%
\contentsline {subsection}{\numberline {1.6.1}En 2nde}{37}{subsection.91}%
\contentsline {subsection}{\numberline {1.6.2}En Terminale}{48}{subsection.327}%
\contentsline {chapter}{\numberline {2}Bases pour raisonner}{53}{chapter.389}%
\contentsline {section}{\numberline {2.1}Mise en \IeC {\'e}vidence des probl\IeC {\`e}mes}{54}{section.390}%
\contentsline {subsection}{\numberline {2.1.1}Rapports de jury}{54}{subsection.391}%
\contentsline {subsection}{\numberline {2.1.2}Les BCPST1 au Pays des Merveilles}{55}{subsection.392}%
\contentsline {section}{\numberline {2.2}Un brin de logique}{57}{section.393}%
\contentsline {subsection}{\numberline {2.2.1}Test pr\IeC {\'e}liminaire}{58}{subsection.394}%
\contentsline {subsection}{\numberline {2.2.2}Contexte}{58}{subsection.397}%
\contentsline {subsection}{\numberline {2.2.3}Implication}{59}{subsection.398}%
\contentsline {subsection}{\numberline {2.2.4}Contrapos\IeC {\'e}e}{59}{subsection.400}%
\contentsline {subsection}{\numberline {2.2.5}Contraire (n\IeC {\'e}gation) d'une implication}{60}{subsection.401}%
\contentsline {subsection}{\numberline {2.2.6}Quantificateurs}{60}{subsection.404}%
\contentsline {subsubsection}{\numberline {2.2.6.1}Un pour tous : $\forall $}{60}{subsubsection.405}%
\contentsline {subsubsection}{\numberline {2.2.6.2}Un pour l'existence : $\exists $}{61}{subsubsection.406}%
\contentsline {subsubsection}{\numberline {2.2.6.3}Quantificateurs et n\IeC {\'e}gation}{61}{subsubsection.407}%
\contentsline {subsection}{\numberline {2.2.7}R\IeC {\'e}ciproque / \IeC {\'E}quivalence}{61}{subsection.409}%
\contentsline {section}{\numberline {2.3}R\IeC {\'e}currence}{62}{section.412}%
\contentsline {subsection}{\numberline {2.3.1}R\IeC {\'e}cursion, r\IeC {\'e}currence, induction}{62}{subsection.413}%
\contentsline {subsection}{\numberline {2.3.2}Un jeu}{63}{subsection.415}%
\contentsline {subsection}{\numberline {2.3.3}Les th\IeC {\'e}or\IeC {\`e}mes}{64}{subsection.420}%
\contentsline {section}{\numberline {2.4}Les grands types de raisonnements: le r\IeC {\'e}sum\IeC {\'e} }{65}{section.426}%
\contentsline {subsection}{\numberline {2.4.1}Avec les quantificateurs}{65}{subsection.427}%
\contentsline {subsection}{\numberline {2.4.2}Pour d\IeC {\'e}montrer une implication}{65}{subsection.428}%
\contentsline {subsection}{\numberline {2.4.3}Un raisonnement par r\IeC {\'e}currence}{65}{subsection.432}%
\contentsline {subsection}{\numberline {2.4.4}\IeC {\'E}quivalence}{65}{subsection.433}%
\contentsline {section}{\numberline {2.5}Exer\IeC {\c c}ons-nous}{66}{section.435}%
\contentsline {chapter}{\numberline {3}Ensembles - Applications}{71}{chapter.517}%
\contentsline {section}{\numberline {3.1}Ensembles}{72}{section.518}%
\contentsline {subsection}{\numberline {3.1.1}Appartenance}{72}{subsection.519}%
\contentsline {subsection}{\numberline {3.1.2}Inclusion}{73}{subsection.520}%
\contentsline {subsubsection}{\numberline {3.1.2.1}D\IeC {\'e}finition}{73}{subsubsection.521}%
\contentsline {subsubsection}{\numberline {3.1.2.2}Avec Python}{73}{subsubsection.523}%
\contentsline {subsection}{\numberline {3.1.3}\IeC {\'E}galit\IeC {\'e}}{74}{subsection.525}%
\contentsline {subsubsection}{\numberline {3.1.3.1}Axiome d'extensionalit\IeC {\'e}}{74}{subsubsection.526}%
\contentsline {subsubsection}{\numberline {3.1.3.2}Avec Python}{74}{subsubsection.528}%
\contentsline {subsection}{\numberline {3.1.4}D\IeC {\'e}finition par extension / compr\IeC {\'e}hension}{74}{subsection.530}%
\contentsline {subsection}{\numberline {3.1.5}Ensembles de nombres}{75}{subsection.532}%
\contentsline {subsection}{\numberline {3.1.6}Cardinal d'un ensemble}{75}{subsection.535}%
\contentsline {subsection}{\numberline {3.1.7}Ensemble des sous-ensembles d'un ensemble !}{76}{subsection.540}%
\contentsline {subsection}{\numberline {3.1.8}Op\IeC {\'e}rations sur les ensembles}{76}{subsection.545}%
\contentsline {subsubsection}{\numberline {3.1.8.1}Intersection}{76}{subsubsection.546}%
\contentsline {subsubsection}{\numberline {3.1.8.2}R\IeC {\'e}union}{77}{subsubsection.549}%
\contentsline {subsubsection}{\numberline {3.1.8.3}Diff\IeC {\'e}rence de deux ensembles}{77}{subsubsection.553}%
\contentsline {subsubsection}{\numberline {3.1.8.4}Compl\IeC {\'e}mentaire}{78}{subsubsection.556}%
\contentsline {subsubsection}{\numberline {3.1.8.5}Lois de De Morgan}{78}{subsubsection.560}%
\contentsline {subsection}{\numberline {3.1.9}Dualit\IeC {\'e}}{79}{subsection.562}%
\contentsline {subsection}{\numberline {3.1.10}Partition d'un ensemble}{79}{subsection.563}%
\contentsline {subsection}{\numberline {3.1.11}Produit cart\IeC {\'e}sien}{80}{subsection.568}%
\contentsline {subsubsection}{\numberline {3.1.11.1}\IeC {\`A} table}{80}{subsubsection.569}%
\contentsline {subsubsection}{\numberline {3.1.11.2}Produit cart\IeC {\'e}sien d'ensembles}{80}{subsubsection.570}%
\contentsline {subsubsection}{\numberline {3.1.11.3}n-uplets - Produit d'un nombre quelconque d'ensembles}{82}{subsubsection.574}%
\contentsline {section}{\numberline {3.2}Relations, Fonctions, Applications}{82}{section.578}%
\contentsline {subsection}{\numberline {3.2.1}Relations binaires}{82}{subsection.579}%
\contentsline {subsection}{\numberline {3.2.2}Fonctions, applications}{83}{subsection.581}%
\contentsline {subsection}{\numberline {3.2.3}Images directe et r\IeC {\'e}ciproque par une application}{84}{subsection.588}%
\contentsline {subsection}{\numberline {3.2.4}Compos\IeC {\'e}e de deux fonctions}{86}{subsection.595}%
\contentsline {subsection}{\numberline {3.2.5}injection, surjection, bijection}{87}{subsection.607}%
\contentsline {subsubsection}{\numberline {3.2.5.1}Fonction injective}{87}{subsubsection.608}%
\contentsline {subsubsection}{\numberline {3.2.5.2}Fonction surjective}{88}{subsubsection.614}%
\contentsline {subsubsection}{\numberline {3.2.5.3}Fonction bijective}{88}{subsubsection.617}%
\contentsline {subsubsection}{\numberline {3.2.5.4}bijection r\IeC {\'e}ciproque}{89}{subsubsection.621}%
\contentsline {section}{\numberline {3.3}Entra\IeC {\^\i }nement}{90}{section.627}%
\contentsline {subsection}{\numberline {3.3.1}Ensembles}{90}{subsection.628}%
\contentsline {subsection}{\numberline {3.3.2}Applications}{91}{subsection.692}%
\contentsline {chapter}{\numberline {4}Nombres r\IeC {\'e}els}{93}{chapter.727}%
\contentsline {section}{\numberline {4.1}Ordre dans R }{94}{section.728}%
\contentsline {subsection}{\numberline {4.1.1}En 2nde}{94}{subsection.729}%
\contentsline {subsection}{\numberline {4.1.2}Th\IeC {\'e}or\IeC {\`e}mes de rangement}{95}{subsection.731}%
\contentsline {subsection}{\numberline {4.1.3}Ordre et op\IeC {\'e}rations}{95}{subsection.736}%
\contentsline {section}{\numberline {4.2}Carr\IeC {\'e}s, puissances, racines, etc.}{97}{section.742}%
\contentsline {section}{\numberline {4.3}Valeur absolue}{97}{section.743}%
\contentsline {subsection}{\numberline {4.3.1}Partie enti\IeC {\`e}re}{98}{subsection.747}%
\contentsline {subsection}{\numberline {4.3.2}Th\IeC {\'e}or\IeC {\`e}me de la borne sup\IeC {\'e}rieure}{99}{subsection.752}%
\contentsline {subsection}{\numberline {4.3.3}Caract\IeC {\'e}risation de la borne sup\IeC {\'e}rieure}{100}{subsection.761}%
\contentsline {section}{\numberline {4.4}Entra\IeC {\^\i }nement}{101}{section.763}%
\contentsline {chapter}{\numberline {5}Trigonom\IeC {\'e}trie}{105}{chapter.856}%
\contentsline {section}{\numberline {5.1}Promenade sur le cercle}{106}{section.857}%
\contentsline {subsection}{\numberline {5.1.1}Enroulons la droite des r\IeC {\'e}els}{106}{subsection.858}%
\contentsline {subsection}{\numberline {5.1.2}Cercle trigonom\IeC {\'e}trique}{107}{subsection.859}%
\contentsline {subsection}{\numberline {5.1.3}La galette des rois}{107}{subsection.861}%
\contentsline {subsection}{\numberline {5.1.4}Le radian}{108}{subsection.862}%
\contentsline {subsection}{\numberline {5.1.5}Corespondance degr\IeC {\'e}/radian}{109}{subsection.869}%
\contentsline {subsection}{\numberline {5.1.6}Relation de Chasles}{109}{subsection.870}%
\contentsline {section}{\numberline {5.2}Sinus et cosinus}{109}{section.872}%
\contentsline {subsection}{\numberline {5.2.1}Approche g\IeC {\'e}om\IeC {\'e}trique de coll\IeC {\`e}ge}{109}{subsection.873}%
\contentsline {subsection}{\numberline {5.2.2}D\IeC {\'e}finition g\IeC {\'e}n\IeC {\'e}rale}{110}{subsection.882}%
\contentsline {subsection}{\numberline {5.2.3}Angles associ\IeC {\'e}s}{112}{subsection.887}%
\contentsline {section}{\numberline {5.3}Formulaire de trigonom\IeC {\'e}trie}{112}{section.888}%
\contentsline {subsection}{\numberline {5.3.1}Les formules}{112}{subsection.889}%
\contentsline {subsection}{\numberline {5.3.2}La formule magique}{113}{subsection.890}%
\contentsline {subsection}{\numberline {5.3.3}Un rappel de premi\IeC {\`e}re : le produit scalaire}{113}{subsection.891}%
\contentsline {subsection}{\numberline {5.3.4}formule sp\IeC {\'e}ciale onde}{113}{subsection.892}%
\contentsline {section}{\numberline {5.4}Fonctions sinus et cosinus}{113}{section.894}%
\contentsline {subsection}{\numberline {5.4.1}D\IeC {\'e}finitions}{113}{subsection.895}%
\contentsline {subsection}{\numberline {5.4.2}Parit\IeC {\'e}}{114}{subsection.897}%
\contentsline {subsection}{\numberline {5.4.3}P\IeC {\'e}riodicit\IeC {\'e}}{114}{subsection.898}%
\contentsline {subsection}{\numberline {5.4.4}Variations}{115}{subsection.899}%
\contentsline {section}{\numberline {5.5}R\IeC {\'e}solution d'\IeC {\'e}quations et d'in\IeC {\'e}quations trigonom\IeC {\'e}triques}{116}{section.900}%
\contentsline {subsection}{\numberline {5.5.1}$\qopname \relax o{cos}x = \qopname \relax o{cos}\IeC {\ensuremath {\alpha }}$}{116}{subsection.901}%
\contentsline {subsection}{\numberline {5.5.2} $\qopname \relax o{sin}x = \qopname \relax o{sin}\IeC {\ensuremath {\alpha }}$}{117}{subsection.904}%
\contentsline {subsection}{\numberline {5.5.3} $\qopname \relax o{tan}x = \qopname \relax o{tan}\IeC {\ensuremath {\alpha }}$}{117}{subsection.907}%
\contentsline {subsection}{\numberline {5.5.4}\IeC {\'E}quations se ramenant aux \IeC {\'e}quations pr\IeC {\'e}c\IeC {\'e}dentes}{118}{subsection.910}%
\contentsline {section}{\numberline {5.6}Entra\IeC {\^\i }nement}{119}{section.912}%
\contentsline {chapter}{\numberline {6}Nombres complexes}{123}{chapter.990}%
\contentsline {section}{\numberline {6.1}Br\IeC {\`e}ve introduction historique}{124}{section.991}%
\contentsline {subsection}{\numberline {6.1.1}Calculer avec des d\IeC {\'e}placements}{125}{subsection.992}%
\contentsline {subsection}{\numberline {6.1.2}Somme de d\IeC {\'e}placements}{125}{subsection.996}%
\contentsline {subsection}{\numberline {6.1.3}Produit de d\IeC {\'e}placements}{125}{subsection.999}%
\contentsline {section}{\numberline {6.2}Vocabulaire et premi\IeC {\`e}res propri\IeC {\'e}t\IeC {\'e}s}{127}{section.1003}%
\contentsline {subsection}{\numberline {6.2.1}Forme alg\IeC {\'e}brique}{127}{subsection.1005}%
\contentsline {subsection}{\numberline {6.2.2}Le plan complexe}{127}{subsection.1006}%
\contentsline {subsection}{\numberline {6.2.3}Premiers calculs g\IeC {\'e}om\IeC {\'e}triques}{128}{subsection.1008}%
\contentsline {subsection}{\numberline {6.2.4}Conjugu\IeC {\'e} d'un complexe}{128}{subsection.1013}%
\contentsline {subsection}{\numberline {6.2.5}\`A quoi servent les conjugu\IeC {\'e}s ?}{129}{subsection.1017}%
\contentsline {subsubsection}{\numberline {6.2.5.1}\`A montrer qu'un complexe est un r\IeC {\'e}el}{129}{subsubsection.1018}%
\contentsline {subsubsection}{\numberline {6.2.5.2}\`A rendre r\IeC {\'e}el des d\IeC {\'e}nominateurs pour obtenir des formes alg\IeC {\'e}briques}{129}{subsubsection.1019}%
\contentsline {subsection}{\numberline {6.2.6}Conjugu\IeC {\'e} de l'inverse}{129}{subsection.1021}%
\contentsline {subsection}{\numberline {6.2.7}Module d'un nombre complexe}{129}{subsection.1022}%
\contentsline {subsubsection}{\numberline {6.2.7.1}Interpr\IeC {\'e}tation g\IeC {\'e}om\IeC {\'e}trique}{130}{subsubsection.1025}%
\contentsline {subsubsection}{\numberline {6.2.7.2}Propri\IeC {\'e}t\IeC {\'e}s des modules}{130}{subsubsection.1029}%
\contentsline {section}{\numberline {6.3}R\'esolution d'\'equations du second degr\'e}{130}{section.1032}%
\contentsline {subsection}{\numberline {6.3.1}Racine carr\IeC {\'e}e d'un nombre complexe}{130}{subsection.1033}%
\contentsline {subsubsection}{\numberline {6.3.1.1}Racine carr\IeC {\'e}e d'un nombre r\IeC {\'e}el}{131}{subsubsection.1034}%
\contentsline {subsubsection}{\numberline {6.3.1.2}Racine carr\IeC {\'e}e d'un complexe non r\IeC {\'e}el}{131}{subsubsection.1038}%
\contentsline {subsection}{\numberline {6.3.2}R\IeC {\'e}solution de ax\up {2}+bx+c=0 avec a, b et c des r\IeC {\'e}els}{131}{subsection.1040}%
\contentsline {section}{\numberline {6.4}Forme trigonom\'etrique}{132}{section.1042}%
\contentsline {subsection}{\numberline {6.4.1}Argument d'un complexe non nul}{132}{subsection.1043}%
\contentsline {subsubsection}{\numberline {6.4.1.1}Forme trigonom\IeC {\'e}trique}{132}{subsubsection.1044}%
\contentsline {subsubsection}{\numberline {6.4.1.2}Congruence }{132}{subsubsection.1048}%
\contentsline {subsubsection}{\numberline {6.4.1.3}Mesure d'un angle de vecteurs}{133}{subsubsection.1050}%
\contentsline {subsubsection}{\numberline {6.4.1.4}Des formes trigonom\IeC {\'e}triques de r\IeC {\'e}f\IeC {\'e}rence}{133}{subsubsection.1052}%
\contentsline {subsection}{\numberline {6.4.2}Correspondance forme alg\IeC {\'e}brique - forme trigonom\IeC {\'e}trique}{133}{subsection.1053}%
\contentsline {subsection}{\numberline {6.4.3}Op\IeC {\'e}rations sur les formes trigonom\IeC {\'e}triques}{134}{subsection.1058}%
\contentsline {subsection}{\numberline {6.4.4}Coh\IeC {\'e}rence avec l'essai de Wessel}{135}{subsection.1063}%
\contentsline {section}{\numberline {6.5}Forme exponentielle d'un nombre complexe}{135}{section.1065}%
\contentsline {subsection}{\numberline {6.5.1}Formules d'Euler}{136}{subsection.1067}%
\contentsline {subsection}{\numberline {6.5.2}Racines n-i\IeC {\`e}mes de l'unit\IeC {\'e}}{136}{subsection.1069}%
\contentsline {subsection}{\numberline {6.5.3}Factorisation utile}{137}{subsection.1070}%
\contentsline {section}{\numberline {6.6}Formulaire de trigonom\IeC {\'e}trie }{137}{section.1071}%
\contentsline {section}{\numberline {6.7}Exercices}{138}{section.1072}%
\contentsline {subsection}{\numberline {6.7.1}De l'importance de savoir calculer...}{138}{subsection.1073}%
\contentsline {subsection}{\numberline {6.7.2}Calculs stakhanovistes de Terminale}{138}{subsection.1074}%
\contentsline {subsection}{\numberline {6.7.3}Aux concours}{142}{subsection.1225}%
\contentsline {subsection}{\numberline {6.7.4}Plus costaud}{143}{subsection.1231}%
\contentsline {subsection}{\numberline {6.7.5}Melting pot}{143}{subsection.1247}%
\contentsline {subsection}{\numberline {6.7.6}TD 2}{145}{subsection.1272}%
\contentsline {subsubsection}{\numberline {6.7.6.1}COURS AU BAC}{145}{subsubsection.1273}%
\contentsline {subsubsection}{\numberline {6.7.6.2}CALCULS}{146}{subsubsection.1283}%
\contentsline {subsubsection}{\numberline {6.7.6.3}COMPLEXES ET \IeC {\'E}LECTRONIQUE}{146}{subsubsection.1299}%
\contentsline {subsubsection}{\numberline {6.7.6.4}COMPLEXES POUR V\IeC {\'E}T\IeC {\'E}RINAIRES}{147}{subsubsection.1309}%
\contentsline {chapter}{\numberline {7}D\IeC {\'e}nombrements}{149}{chapter.1316}%
\contentsline {section}{\numberline {7.1}Sommes et produits}{150}{section.1317}%
\contentsline {subsection}{\numberline {7.1.1}notation $\DOTSB \sum@ \slimits@ $}{151}{subsection.1319}%
\contentsline {subsection}{\numberline {7.1.2}Sommes et puissances enti\IeC {\`e}res}{151}{subsection.1325}%
\contentsline {subsubsection}{\numberline {7.1.2.1}Sommes de puissances d'entiers successifs}{151}{subsubsection.1326}%
\contentsline {subsubsection}{\numberline {7.1.2.2}Somme des puissances successives d'un nombre quelconque}{152}{subsubsection.1328}%
\contentsline {subsection}{\numberline {7.1.3}Lin\IeC {\'e}arit\IeC {\'e} de la somme}{152}{subsection.1330}%
\contentsline {subsection}{\numberline {7.1.4}Changement d'indice (r\IeC {\'e}-indexation)}{152}{subsection.1336}%
\contentsline {subsection}{\numberline {7.1.5}Quelques applications utiles}{153}{subsection.1342}%
\contentsline {subsubsection}{\numberline {7.1.5.1}Sommes t\IeC {\'e}lescopiques}{153}{subsubsection.1343}%
\contentsline {subsubsection}{\numberline {7.1.5.2}Factorisation de Bernoulli}{153}{subsubsection.1346}%
\contentsline {subsection}{\numberline {7.1.6}Sommes doubles}{153}{subsection.1348}%
\contentsline {subsection}{\numberline {7.1.7}Produits}{154}{subsection.1351}%
\contentsline {subsubsection}{\numberline {7.1.7.1}D\IeC {\'e}finitions}{154}{subsubsection.1352}%
\contentsline {subsubsection}{\numberline {7.1.7.2}Transformation de produits en sommes}{155}{subsubsection.1361}%
\contentsline {subsubsection}{\numberline {7.1.7.3}Produit t\IeC {\'e}lescopique}{155}{subsubsection.1362}%
\contentsline {section}{\numberline {7.2}Quelques r\IeC {\'e}sultats sur les cardinaux}{156}{section.1364}%
\contentsline {subsection}{\numberline {7.2.1}Cardinal de $ \IeC {\ensuremath {\mathfrak P}}(E)$}{156}{subsection.1365}%
\contentsline {subsection}{\numberline {7.2.2}Cardinal d'une partition}{156}{subsection.1367}%
\contentsline {subsection}{\numberline {7.2.3}Cardinaux et inclusion}{156}{subsection.1369}%
\contentsline {subsection}{\numberline {7.2.4}Formule du crible de Poincar\IeC {\'e}}{156}{subsection.1371}%
\contentsline {subsection}{\numberline {7.2.5}Cardinal d'un produit cart\IeC {\'e}sien}{157}{subsection.1373}%
\contentsline {section}{\numberline {7.3}D\IeC {\'e}nombrement des ensembles}{157}{section.1375}%
\contentsline {subsection}{\numberline {7.3.1}Nombre de p-listes}{157}{subsection.1376}%
\contentsline {subsection}{\numberline {7.3.2}Nombre de p-listes SANS R\IeC {\'E}P\IeC {\'E}TITION}{158}{subsection.1378}%
\contentsline {subsection}{\numberline {7.3.3}Nombre de permutations}{159}{subsection.1383}%
\contentsline {subsection}{\numberline {7.3.4}Nombre de sous-ensembles}{160}{subsection.1387}%
\contentsline {subsection}{\numberline {7.3.5}Exemple de r\IeC {\'e}f\IeC {\'e}rence: les anagrammes}{161}{subsection.1392}%
\contentsline {section}{\numberline {7.4}Triangle de Pascal - Bin\IeC {\^o}me de Newton}{161}{section.1393}%
\contentsline {subsection}{\numberline {7.4.1}D\IeC {\'e}finition des coefficients binomiaux}{161}{subsection.1394}%
\contentsline {subsubsection}{\numberline {7.4.1.1}Avec Python}{161}{subsubsection.1398}%
\contentsline {subsection}{\numberline {7.4.2}Relation de Pascal}{162}{subsection.1399}%
\contentsline {subsection}{\numberline {7.4.3}Et pour quelques formules de plus}{164}{subsection.1405}%
\contentsline {section}{\numberline {7.5}Des m\IeC {\'e}thodes-miracle}{164}{section.1408}%
\contentsline {section}{\numberline {7.6}Entra\IeC {\^\i }nement}{165}{section.1409}%
\contentsline {subsection}{\numberline {7.6.1}Sommes et produits}{165}{subsection.1410}%
\contentsline {subsection}{\numberline {7.6.2}Des jeux}{167}{subsection.1462}%
\contentsline {subsection}{\numberline {7.6.3}Le retour des sommes}{169}{subsection.1513}%
\contentsline {chapter}{\numberline {8}Suites r\IeC {\'e}elles usuelles}{171}{chapter.1530}%
\contentsline {section}{\numberline {8.1}Le programme de BCPST}{172}{section.1531}%
\contentsline {section}{\numberline {8.2}Qu'est-ce qu'une suite num\IeC {\'e}rique\nobreakspace ?}{172}{section.1532}%
\contentsline {section}{\numberline {8.3}Suite dont le terme g\IeC {\'e}n\IeC {\'e}ral est donn\IeC {\'e} explicitement}{173}{section.1536}%
\contentsline {section}{\numberline {8.4}Suite d\IeC {\'e}finie par une relation de r\IeC {\'e}currence}{174}{section.1539}%
\contentsline {section}{\numberline {8.5}Op\IeC {\'e}rations sur les suites r\IeC {\'e}elles}{175}{section.1543}%
\contentsline {subsection}{\numberline {8.5.1}Somme de suites r\IeC {\'e}elles}{175}{subsection.1544}%
\contentsline {subsection}{\numberline {8.5.2}Produit de suites r\IeC {\'e}elles}{175}{subsection.1546}%
\contentsline {subsection}{\numberline {8.5.3}Quotient de suites r\IeC {\'e}elles}{175}{subsection.1548}%
\contentsline {section}{\numberline {8.6}Suites de r\IeC {\'e}f\IeC {\'e}rence}{175}{section.1550}%
\contentsline {subsection}{\numberline {8.6.1}Suites arithm\IeC {\'e}tiques}{175}{subsection.1551}%
\contentsline {subsubsection}{\numberline {8.6.1.1}D\IeC {\'e}finition}{175}{subsubsection.1552}%
\contentsline {subsubsection}{\numberline {8.6.1.2}Expression explicite du terme g\IeC {\'e}n\IeC {\'e}ral}{176}{subsubsection.1556}%
\contentsline {subsubsection}{\numberline {8.6.1.3}Repr\IeC {\'e}sentation graphique}{176}{subsubsection.1558}%
\contentsline {subsubsection}{\numberline {8.6.1.4}Somme des premiers termes d'une suite arithm\IeC {\'e}tique}{177}{subsubsection.1560}%
\contentsline {paragraph}{\numberline {8.6.1.4.1}Somme des $n$ premiers entiers naturels}{177}{paragraph.1561}%
\contentsline {paragraph}{\numberline {8.6.1.4.2}Somme des premiers termes d'une suite arithm\IeC {\'e}tique}{177}{paragraph.1563}%
\contentsline {subsection}{\numberline {8.6.2}Suites g\IeC {\'e}om\IeC {\'e}triques}{178}{subsection.1565}%
\contentsline {subsubsection}{\numberline {8.6.2.1}D\IeC {\'e}finition}{178}{subsubsection.1566}%
\contentsline {subsubsection}{\numberline {8.6.2.2}Expression explicite du terme g\IeC {\'e}n\IeC {\'e}ral}{178}{subsubsection.1569}%
\contentsline {subsubsection}{\numberline {8.6.2.3}Somme des premiers termes d'une suite g\IeC {\'e}om\IeC {\'e}trique}{178}{subsubsection.1571}%
\contentsline {subsection}{\numberline {8.6.3}Suites arithm\IeC {\'e}tico-g\IeC {\'e}om\IeC {\'e}triques}{178}{subsection.1573}%
\contentsline {subsection}{\numberline {8.6.4}Suites r\IeC {\'e}currentes lin\IeC {\'e}aires d'ordre 2}{179}{subsection.1577}%
\contentsline {section}{\numberline {8.7}Exercices}{180}{section.1585}%
\contentsline {subsection}{\numberline {8.7.1}L\IeC {\'e}gende}{180}{subsection.1586}%
\contentsline {subsection}{\numberline {8.7.2}Les \IeC {\'e}nonc\IeC {\'e}s}{180}{subsection.1587}%
\contentsline {chapter}{\numberline {9}D\IeC {\'e}riv\IeC {\'e}es et primitives: rappels}{197}{chapter.1810}%
\contentsline {section}{\numberline {9.1}D\IeC {\'e}rivation}{198}{section.1811}%
\contentsline {subsubsection}{\numberline {9.1.0.1}Fermat et le probl\IeC {\`e}me du maximum et du minimum}{198}{subsubsection.1812}%
\contentsline {subsubsection}{\numberline {9.1.0.2}\textsc {Newton}, \textsc {Leibniz} et \textsc {Bernoulli}}{199}{subsubsection.1815}%
\contentsline {subsubsection}{\numberline {9.1.0.3}D\IeC {\'e}riv\IeC {\'e}e d'une combinaison lin\IeC {\'e}aire}{200}{subsubsection.1819}%
\contentsline {subsubsection}{\numberline {9.1.0.4}D\IeC {\'e}riv\IeC {\'e}e d'un produit}{200}{subsubsection.1821}%
\contentsline {subsubsection}{\numberline {9.1.0.5}D\IeC {\'e}riv\IeC {\'e}e d'un quotient}{200}{subsubsection.1824}%
\contentsline {subsection}{\numberline {9.1.1}Le cours version longue: nombre d\IeC {\'e}riv\IeC {\'e}}{202}{subsection.1830}%
\contentsline {subsubsection}{\numberline {9.1.1.1}La bataille de la tangente}{202}{subsubsection.1831}%
\contentsline {subsubsection}{\numberline {9.1.1.2}Newton et la vitesse}{202}{subsubsection.1834}%
\contentsline {subsubsection}{\numberline {9.1.1.3}Leibniz et la tangente}{202}{subsubsection.1835}%
\contentsline {subsubsection}{\numberline {9.1.1.4}Qu'est-ce que la d\IeC {\'e}riv\IeC {\'e}e d'une fonction en un point ?}{203}{subsubsection.1837}%
\contentsline {subsubsection}{\numberline {9.1.1.5}Comment lever certaines ind\IeC {\'e}terminations avec un calcul de nombre d\IeC {\'e}riv\IeC {\'e}?}{204}{subsubsection.1839}%
\contentsline {subsubsection}{\numberline {9.1.1.6}Comment calculer la d\IeC {\'e}riv\IeC {\'e}e d'une fonction en a?}{204}{subsubsection.1846}%
\contentsline {subsubsection}{\numberline {9.1.1.7}L'id\IeC {\'e}e fondamentale du calcul diff\IeC {\'e}rentiel: l'approximation locale des fonctions par des fonctions affines}{205}{subsubsection.1847}%
\contentsline {subsection}{\numberline {9.1.2}Le cours version longue - suite: variations des fonctions}{206}{subsection.1849}%
\contentsline {subsubsection}{\numberline {9.1.2.1}Qu'est-ce qu'une fonction d\IeC {\'e}rivable sur un intervalle ?}{206}{subsubsection.1850}%
\contentsline {subsubsection}{\numberline {9.1.2.2}Quel est le signe de la d\IeC {\'e}riv\IeC {\'e}e d'une fonction croissante sur une partie de R ?}{206}{subsubsection.1851}%
\contentsline {subsubsection}{\numberline {9.1.2.3}Une fonction dont la d\IeC {\'e}riv\IeC {\'e}e est n\IeC {\'e}gative est-elle d\IeC {\'e}croissante ?}{206}{subsubsection.1853}%
\contentsline {subsubsection}{\numberline {9.1.2.4}Comment montrer qu'une fonction est strictement croissante ?}{207}{subsubsection.1855}%
\contentsline {subsubsection}{\numberline {9.1.2.5}Que dire de la derivee en un extremum local?}{208}{subsubsection.1858}%
\contentsline {subsubsection}{\numberline {9.1.2.6}Peut-on \IeC {\'e}tudier les variations d'une fonction sans calculer sa d\IeC {\'e}riv\IeC {\'e}e ?}{208}{subsubsection.1860}%
\contentsline {subsubsection}{\numberline {9.1.2.7}Utilisation de SymPy}{209}{subsubsection.1862}%
\contentsline {subsection}{\numberline {9.1.3}LE COURS: VERSION COURTE}{209}{subsection.1863}%
\contentsline {subsubsection}{\numberline {9.1.3.1}D\IeC {\'e}finitions et un th\IeC {\'e}or\IeC {\`e}me}{209}{subsubsection.1864}%
\contentsline {subsection}{\numberline {9.1.4}Nouveaut\IeC {\'e}s de Terminale}{210}{subsection.1871}%
\contentsline {subsubsection}{\numberline {9.1.4.1}D\IeC {\'e}riv\IeC {\'e}e de fonctions compos\IeC {\'e}es}{210}{subsubsection.1872}%
\contentsline {subsubsection}{\numberline {9.1.4.2}Les d\IeC {\'e}riv\IeC {\'e}es usuelles}{210}{subsubsection.1874}%
\contentsline {section}{\numberline {9.2}Primitives}{211}{section.1875}%
\contentsline {subsection}{\numberline {9.2.1}Une d\IeC {\'e}finition et des th\IeC {\'e}or\IeC {\`e}mes}{211}{subsection.1876}%
\contentsline {subsection}{\numberline {9.2.2}Primitives usuelles}{213}{subsection.1883}%
\contentsline {section}{\numberline {9.3}Entra\IeC {\^\i }nement}{214}{section.1884}%
\contentsline {subsection}{\numberline {9.3.1}Niveau Premi\IeC {\`e}re}{214}{subsection.1885}%
\contentsline {subsection}{\numberline {9.3.2}Nouveaut\IeC {\'e}s de Terminale}{221}{subsection.2032}%
\contentsline {chapter}{\numberline {10}Calcul int\IeC {\'e}gral: rappels}{225}{chapter.2066}%
\contentsline {section}{\numberline {10.1}Int\IeC {\'e}gration}{226}{section.2067}%
\contentsline {subsection}{\numberline {10.1.1}Le principe de sommation infinie}{226}{subsection.2068}%
\contentsline {subsubsection}{\numberline {10.1.1.1}Qu'est-ce qu'une int\IeC {\'e}grale ?}{226}{subsubsection.2069}%
\contentsline {subsubsection}{\numberline {10.1.1.2}Comment calculer la distance parcourue connaissant les vitesses instantan\IeC {\'e}es ?}{226}{subsubsection.2070}%
\contentsline {subsubsection}{\numberline {10.1.1.3}Quelle est l'aire d\IeC {\'e}limit\IeC {\'e}e par une courbe ?}{226}{subsubsection.2071}%
\contentsline {subsubsection}{\numberline {10.1.1.4}Quel est le volume int\IeC {\'e}rieur \IeC {\`a} une sph\IeC {\`e}re ?}{228}{subsubsection.2072}%
\contentsline {subsection}{\numberline {10.1.2}D\IeC {\'e}finition des int\IeC {\'e}grales}{228}{subsection.2073}%
\contentsline {subsubsection}{\numberline {10.1.2.1}D\IeC {\'e}finition}{228}{subsubsection.2074}%
\contentsline {subsubsection}{\numberline {10.1.2.2}Relation de Chasles}{229}{subsubsection.2077}%
\contentsline {subsection}{\numberline {10.1.3}Primitive et int\IeC {\'e}grale}{230}{subsection.2080}%
\contentsline {subsubsection}{\numberline {10.1.3.1}Int\IeC {\'e}grale fonction de sa borne sup\IeC {\'e}rieure}{230}{subsubsection.2081}%
\contentsline {subsubsection}{\numberline {10.1.3.2}Comment retrouver $\mbox {\boldmath $f$\unboldmath }$ connaissant $\mbox {\boldmath $S:\nobreakspace t\DOTSB \mapstochar \rightarrow \DOTSI \intop \ilimits@ _a^bf(u)\:\text {d}u$\unboldmath }$ ?}{230}{subsubsection.2082}%
\contentsline {paragraph}{\numberline {10.1.3.2.1}Approche intuitive}{230}{paragraph.2084}%
\contentsline {paragraph}{\numberline {10.1.3.2.2}Preuve de notre intuition}{231}{paragraph.2085}%
\contentsline {subsubsection}{\numberline {10.1.3.3}Comment calculer une int\IeC {\'e}grale \IeC {\`a} l'aide d'une primitive?}{231}{subsubsection.2087}%
\contentsline {subsection}{\numberline {10.1.4}Nouveaux outils de calcul d'int\IeC {\'e}grales}{231}{subsection.2090}%
\contentsline {subsubsection}{\numberline {10.1.4.1}Int\IeC {\'e}gration par parties}{231}{subsubsection.2091}%
\contentsline {subsubsection}{\numberline {10.1.4.2}Changement de variable}{232}{subsubsection.2095}%
\contentsline {paragraph}{\numberline {10.1.4.2.1}Avec SymPy}{232}{paragraph.2098}%
\contentsline {section}{\numberline {10.2}En route vers l'int\IeC {\'e}gration}{233}{section.2099}%
\contentsline {subsection}{\numberline {10.2.1}Int\IeC {\'e}gration sans primitives}{233}{subsection.2100}%
\contentsline {subsection}{\numberline {10.2.2}Int\IeC {\'e}gration avec primitives}{233}{subsection.2120}%
\contentsline {section}{\numberline {10.3}Des exercices avec corrig\IeC {\'e}s}{236}{section.2184}%
\contentsline {chapter}{\numberline {11}\IeC {\'E}quations diff\IeC {\'e}rentielles}{235}{chapter.2199}%
\contentsline {section}{\numberline {11.1}D\IeC {\'e}couverte \IeC {\`a} partir d'un exemple bien connu}{236}{section.2200}%
\contentsline {subsection}{\numberline {11.1.1}Des \IeC {\'e}quations diff\IeC {\'e}rentielles bien connues...quoique}{236}{subsection.2201}%
\contentsline {section}{\numberline {11.2}\IeC {\'E}quations diff\IeC {\'e}rentielles du premier ordre}{236}{section.2202}%
\contentsline {subsection}{\numberline {11.2.1}G\IeC {\'e}n\IeC {\'e}ralit\IeC {\'e}s}{236}{subsection.2203}%
\contentsline {subsection}{\numberline {11.2.2}\IeC {\'E}quations lin\IeC {\'e}aires homog\IeC {\`e}nes \IeC {\`a} coefficients constants}{237}{subsection.2205}%
\contentsline {subsection}{\numberline {11.2.3}\IeC {\'E}quations lin\IeC {\'e}aires}{238}{subsection.2208}%
\contentsline {subsubsection}{\numberline {11.2.3.1}\IeC {\'E}quation homog\IeC {\`e}nes}{238}{subsubsection.2209}%
\contentsline {subsubsection}{\numberline {11.2.3.2}Principe de superposition des solutions}{238}{subsubsection.2214}%
\contentsline {subsubsection}{\numberline {11.2.3.3}M\IeC {\'e}thode de variation de la constante}{239}{subsubsection.2216}%
\contentsline {paragraph}{\numberline {11.2.3.3.1}Avec SymPy}{239}{paragraph.2218}%
\contentsline {paragraph}{\numberline {11.2.3.3.2}Avec NumPy}{239}{paragraph.2219}%
\contentsline {section}{\numberline {11.3}\IeC {\'E}quations diff\IeC {\'e}rentielles du deuxi\IeC {\`e}me ordre}{239}{section.2220}%
\contentsline {subsection}{\numberline {11.3.1}G\IeC {\'e}n\IeC {\'e}ralit\IeC {\'e}s}{239}{subsection.2221}%
\contentsline {subsection}{\numberline {11.3.2}\'Equations diff\IeC {\'e}rentielles lin\IeC {\'e}aires du second ordre}{240}{subsection.2224}%
\contentsline {subsection}{\numberline {11.3.3}\'Equations lin\IeC {\'e}aires \IeC {\`a} coefficients constants}{240}{subsection.2226}%
\contentsline {subsection}{\numberline {11.3.4}R\IeC {\'e}solution de l'\IeC {\'e}quation sans second membre}{240}{subsection.2228}%
\contentsline {subsection}{\numberline {11.3.5}\IeC {\'E}quation avec second membre}{241}{subsection.2232}%
\contentsline {section}{\numberline {11.4}Petites activit\IeC {\'e}s pr\IeC {\'e}liminaires}{242}{section.2234}%
\contentsline {section}{\numberline {11.5}Bac et BTS}{242}{section.2244}%
\contentsline {section}{\numberline {11.6}Un soup\IeC {\c c}on de Bcpst quand m\IeC {\^e}me}{246}{section.2310}%
\contentsline {chapter}{\numberline {12}Calcul matriciel}{247}{chapter.2325}%
\contentsline {section}{\numberline {12.1}Un peu d'histoire}{248}{section.2326}%
\contentsline {section}{\numberline {12.2}Matrice}{249}{section.2328}%
\contentsline {subsection}{\numberline {12.2.1}D\IeC {\'e}finition}{249}{subsection.2329}%
\contentsline {subsection}{\numberline {12.2.2}Avec Python}{249}{subsection.2332}%
\contentsline {subsubsection}{\numberline {12.2.2.1}Avec des listes de listes}{249}{subsubsection.2333}%
\contentsline {subsubsection}{\numberline {12.2.2.2}Avec NumPy}{250}{subsubsection.2334}%
\contentsline {section}{\numberline {12.3}Quelques matrices particuli\IeC {\`e}res}{250}{section.2336}%
\contentsline {subsection}{\numberline {12.3.1}Matrice ligne/colonne}{250}{subsection.2337}%
\contentsline {subsection}{\numberline {12.3.2}Matrice carr\IeC {\'e}e}{251}{subsection.2340}%
\contentsline {subsection}{\numberline {12.3.3}Matrice nulle}{251}{subsection.2343}%
\contentsline {subsection}{\numberline {12.3.4}Matrices diagonales}{251}{subsection.2344}%
\contentsline {subsection}{\numberline {12.3.5}Matrices triangulaires}{252}{subsection.2352}%
\contentsline {subsection}{\numberline {12.3.6}Matrices sym\IeC {\'e}triques/antisym\IeC {\'e}triques}{253}{subsection.2356}%
\contentsline {subsection}{\numberline {12.3.7}Matrices \IeC {\'e}l\IeC {\'e}mentaires}{253}{subsection.2361}%
\contentsline {subsection}{\numberline {12.3.8}Matrices \IeC {\'e}chelonn\IeC {\'e}es}{253}{subsection.2363}%
\contentsline {section}{\numberline {12.4}Op\IeC {\'e}rations sur les matrices}{254}{section.2369}%
\contentsline {subsection}{\numberline {12.4.1}Transpos\IeC {\'e}e d'une matrice}{254}{subsection.2370}%
\contentsline {subsection}{\numberline {12.4.2}\IeC {\'E}galit\IeC {\'e}}{254}{subsection.2373}%
\contentsline {subsection}{\numberline {12.4.3}Op\IeC {\'e}ration terme \IeC {\`a} terme}{255}{subsection.2374}%
\contentsline {subsection}{\numberline {12.4.4}Multiplication par un scalaire}{255}{subsection.2376}%
\contentsline {subsection}{\numberline {12.4.5}Produit de matrices}{255}{subsection.2377}%
\contentsline {subsection}{\numberline {12.4.6}Puissance}{257}{subsection.2388}%
\contentsline {subsection}{\numberline {12.4.7}Formule du bin\IeC {\^o}me de Newton}{258}{subsection.2394}%
\contentsline {subsection}{\numberline {12.4.8}Matrices inversibles}{260}{subsection.2401}%
\contentsline {section}{\numberline {12.5}ENTRA\IeC {\^I}NEMENT et R\IeC {\'E}FLEXION}{261}{section.2409}%
\contentsline {subsection}{\numberline {12.5.1}Op\IeC {\'e}rations}{261}{subsection.2410}%
\contentsline {subsection}{\numberline {12.5.2}En s'aidant de Python}{264}{subsection.2455}%
\contentsline {subsection}{\numberline {12.5.3}Matrices inversibles}{266}{subsection.2465}%
\contentsline {subsection}{\numberline {12.5.4}Aux concours}{268}{subsection.2516}%
\contentsline {chapter}{\numberline {13}Syst\IeC {\`e}mes lin\IeC {\'e}aires}{271}{chapter.2530}%
\contentsline {section}{\numberline {13.1}Fangcheng}{272}{section.2531}%
\contentsline {section}{\numberline {13.2}G\IeC {\'e}n\IeC {\'e}ralit\IeC {\'e}s}{273}{section.2534}%
\contentsline {subsection}{\numberline {13.2.1}Syst\IeC {\`e}mes d'\IeC {\'e}quations lin\IeC {\'e}aires}{273}{subsection.2535}%
\contentsline {subsection}{\numberline {13.2.2}\IeC {\'E}criture matricielle d'un syst\IeC {\`e}me}{273}{subsection.2537}%
\contentsline {section}{\numberline {13.3}Syst\IeC {\`e}mes \IeC {\'e}quivalents}{275}{section.2542}%
\contentsline {subsection}{\numberline {13.3.1}Op\IeC {\'e}rations \IeC {\'e}l\IeC {\'e}mentaires sur les lignes}{275}{subsection.2543}%
\contentsline {subsection}{\numberline {13.3.2}Matrices et op\IeC {\'e}rations sur les lignes}{276}{subsection.2547}%
\contentsline {subsubsection}{\numberline {13.3.2.1}Dilatations de lignes}{276}{subsubsection.2548}%
\contentsline {subsubsection}{\numberline {13.3.2.2}Permutation de lignes}{276}{subsubsection.2550}%
\contentsline {subsubsection}{\numberline {13.3.2.3}Transvections de lignes}{276}{subsubsection.2552}%
\contentsline {subsubsection}{\numberline {13.3.2.4}Op\IeC {\'e}rations sur les lignes}{277}{subsubsection.2554}%
\contentsline {subsection}{\numberline {13.3.3}Application \IeC {\`a} la recherche des solutions d'un syst\IeC {\`e}me lin\IeC {\'e}aire}{277}{subsection.2556}%
\contentsline {subsection}{\numberline {13.3.4}Application \IeC {\`a} la recherche de l'inverse d'une matrice}{278}{subsection.2558}%
\contentsline {subsection}{\numberline {13.3.5}Rang d'une matrice}{278}{subsection.2560}%
\contentsline {section}{\numberline {13.4}Algorithme Fang Cheng}{279}{section.2567}%
\contentsline {section}{\numberline {13.5}M\IeC {\'e}thode de Gauss-Jordan et recherche de l'inverse d'une matrice}{280}{section.2569}%
\contentsline {section}{\numberline {13.6}R\IeC {\'e}solution de syst\IeC {\`e}mes}{281}{section.2571}%
\contentsline {subsection}{\numberline {13.6.1}Pour celles et ceux qui voudraient des justifications}{281}{subsection.2572}%
\contentsline {subsection}{\numberline {13.6.2}Pour tout le monde}{283}{subsection.2575}%
\contentsline {section}{\numberline {13.7}Des exemples pour comprendre}{283}{section.2578}%
\contentsline {section}{\numberline {13.8}ENTRA\IeC {\^I}NEMENT et R\IeC {\'E}FLEXION}{288}{section.2592}%
\contentsline {subsection}{\numberline {13.8.1}Un ancien DS}{290}{subsection.2642}%
\contentsline {subsection}{\numberline {13.8.2}Pour s'entra\IeC {\^\i }ner en autonomie}{292}{subsection.2669}%
\contentsline {subsubsection}{\numberline {13.8.2.1}Les corrections}{292}{subsubsection.2671}%
\contentsline {chapter}{\numberline {14}G\IeC {\'e}om\IeC {\'e}trie: rappels}{297}{chapter.2682}%
\contentsline {section}{\numberline {14.1}G\IeC {\'e}om\IeC {\'e}trieS}{298}{section.2683}%
\contentsline {section}{\numberline {14.2}En 2nde: les vecteurs}{298}{section.2685}%
\contentsline {subsection}{\numberline {14.2.1}Une introduction historique}{298}{subsection.2686}%
\contentsline {subsection}{\numberline {14.2.2}Qu'est-ce qu'un vecteur du plan?}{300}{subsection.2687}%
\contentsline {subsection}{\numberline {14.2.3}Somme de vecteurs}{301}{subsection.2690}%
\contentsline {subsection}{\numberline {14.2.4}Vecteur nul - Oppos\IeC {\'e} d'un vecteur}{301}{subsection.2693}%
\contentsline {subsection}{\numberline {14.2.5}Multiplication d'un vecteur par un nombre r\IeC {\'e}el}{302}{subsection.2697}%
\contentsline {subsection}{\numberline {14.2.6}Vecteurs colin\IeC {\'e}aires}{302}{subsection.2699}%
\contentsline {subsubsection}{\numberline {14.2.6.1}D\IeC {\'e}finition}{302}{subsubsection.2700}%
\contentsline {subsubsection}{\numberline {14.2.6.2}Cons\IeC {\'e}quences}{303}{subsubsection.2704}%
\contentsline {subsection}{\numberline {14.2.7}Base du plan vectoriel}{303}{subsection.2706}%
\contentsline {subsection}{\numberline {14.2.8}Des exercices\dots basiques.}{304}{subsection.2709}%
\contentsline {subsection}{\numberline {14.2.9}Vecteurs et rep\IeC {\`e}res du plan}{308}{subsection.2722}%
\contentsline {subsubsection}{\numberline {14.2.9.1}Coordonn\IeC {\'e}es d'un point dans un rep\IeC {\`e}re}{308}{subsubsection.2723}%
\contentsline {subsubsection}{\numberline {14.2.9.2}Coordonn\IeC {\'e}es d'un vecteur dans une base}{309}{subsubsection.2726}%
\contentsline {subsubsection}{\numberline {14.2.9.3}Coordonn\IeC {\'e}es du milieu d'un segment}{310}{subsubsection.2728}%
\contentsline {subsubsection}{\numberline {14.2.9.4}Colin\IeC {\'e}arit\IeC {\'e} et cons\IeC {\'e}quences}{310}{subsubsection.2730}%
\contentsline {subsubsection}{\numberline {14.2.9.5}Rep\IeC {\`e}re orthonormal}{311}{subsubsection.2734}%
\contentsline {subsection}{\numberline {14.2.10}Pour le fun: les couleurs et les vecteurs}{311}{subsection.2738}%
\contentsline {subsection}{\numberline {14.2.11}Exercices d'application directe du cours}{313}{subsection.2741}%
\contentsline {subsubsection}{\numberline {14.2.11.1}Vecteur et repr\IeC {\'e}sentants}{313}{subsubsection.2742}%
\contentsline {subsubsection}{\numberline {14.2.11.2}\IeC {\'E}galit\IeC {\'e} de vecteurs}{313}{subsubsection.2749}%
\contentsline {subsubsection}{\numberline {14.2.11.3}Somme de vecteurs}{314}{subsubsection.2760}%
\contentsline {subsubsection}{\numberline {14.2.11.4}Multiplication par un r\IeC {\'e}el}{315}{subsubsection.2766}%
\contentsline {subsection}{\numberline {14.2.12}Encore des exercices}{315}{subsection.2771}%
\contentsline {section}{\numberline {14.3}En 1\IeC {\`e}re: le produit scalaire}{319}{section.2823}%
\contentsline {subsection}{\numberline {14.3.1}Construisons le produit scalaire}{319}{subsection.2824}%
\contentsline {subsubsection}{\numberline {14.3.1.1}\IeC {\`A} la recherche d'une d\IeC {\'e}finition}{319}{subsubsection.2826}%
\contentsline {subsubsection}{\numberline {14.3.1.2}Produit scalaire et cosinus}{321}{subsubsection.2835}%
\contentsline {subsubsection}{\numberline {14.3.1.3}Produit scalaire et orthogonalit\IeC {\'e}}{323}{subsubsection.2841}%
\contentsline {subsection}{\numberline {14.3.2}Applications du produit scalaire}{323}{subsection.2843}%
\contentsline {subsubsection}{\numberline {14.3.2.1}Affine {\fontfamily {mvs}\fontencoding {U}\fontseries {m}\fontshape {n}\selectfont \char 69}Vectoriel}{323}{subsubsection.2844}%
\contentsline {subsubsection}{\numberline {14.3.2.2}Droites orthogonales}{323}{subsubsection.2846}%
\contentsline {subsubsection}{\numberline {14.3.2.3}Droites et plans orthogonaux}{324}{subsubsection.2848}%
\contentsline {subsubsection}{\numberline {14.3.2.4}Vecteur normal \IeC {\`a} un plan}{324}{subsubsection.2851}%
\contentsline {subsubsection}{\numberline {14.3.2.5}Projet\IeC {\'e} orthogonal sur un plan}{325}{subsubsection.2853}%
\contentsline {subsubsection}{\numberline {14.3.2.6}G\IeC {\'e}om\IeC {\'e}trie aux concours: projection orthogonale d'un vecteur sur un plan}{325}{subsubsection.2856}%
\contentsline {subsubsection}{\numberline {14.3.2.7}Distance d'un point \IeC {\`a} un plan}{326}{subsubsection.2861}%
\contentsline {subsubsection}{\numberline {14.3.2.8}Plans parall\IeC {\`e}les}{326}{subsubsection.2864}%
\contentsline {subsubsection}{\numberline {14.3.2.9}Plans perpendiculaires}{327}{subsubsection.2866}%
\contentsline {subsection}{\numberline {14.3.3}G\IeC {\'e}om\IeC {\'e}trie analytique}{327}{subsection.2868}%
\contentsline {subsubsection}{\numberline {14.3.3.1}Repr\IeC {\'e}sentation param\IeC {\'e}trique d'un plan}{327}{subsubsection.2869}%
\contentsline {subsubsection}{\numberline {14.3.3.2}\IeC {\'E}quation cart\IeC {\'e}sienne d'un plan}{328}{subsubsection.2870}%
\contentsline {subsubsection}{\numberline {14.3.3.3}Repr\IeC {\'e}sentation param\IeC {\'e}trique d'une droite}{328}{subsubsection.2872}%
\contentsline {subsubsection}{\numberline {14.3.3.4}Cercles et Sph\IeC {\`e}res}{328}{subsubsection.2873}%
\contentsline {section}{\numberline {14.4}ENTRA\IeC {\^I}NEMENT et R\IeC {\'E}FLEXION}{330}{section.2876}%
\contentsline {subsection}{\numberline {14.4.1}Exercices de 1\IeC {\`e}re}{330}{subsection.2877}%
\contentsline {subsection}{\numberline {14.4.2}En Terminale}{333}{subsection.2935}%
\contentsline {chapter}{\numberline {15}Statistique descriptive}{349}{chapter.3158}%
\contentsline {section}{\numberline {15.1}Les variables}{350}{section.3159}%
\contentsline {subsection}{\numberline {15.1.1}Vocabulaire}{350}{subsection.3160}%
\contentsline {subsection}{\numberline {15.1.2}Variables qualitatives}{350}{subsection.3161}%
\contentsline {subsection}{\numberline {15.1.3}Variables quantitatives}{350}{subsection.3162}%
\contentsline {section}{\numberline {15.2}Tableaux et graphiques}{350}{section.3163}%
\contentsline {subsection}{\numberline {15.2.1}Variables qualitatives ou quantitatives discr\IeC {\`e}tes (peu de valeurs distinctes)}{350}{subsection.3164}%
\contentsline {subsubsection}{\numberline {15.2.1.1}Tableau des effectifs/ des fr\IeC {\'e}quences}{350}{subsubsection.3165}%
\contentsline {paragraph}{\numberline {15.2.1.1.1}Avec Python}{351}{paragraph.3169}%
\contentsline {subsubsection}{\numberline {15.2.1.2}Repr\IeC {\'e}sentations graphiques}{351}{subsubsection.3170}%
\contentsline {paragraph}{\numberline {15.2.1.2.1}Diagramme en b\IeC {\^a}tons}{352}{paragraph.3172}%
\contentsline {paragraph}{\numberline {15.2.1.2.2}Diagramme \IeC {\`a} secteurs (\IeC {\guillemotleft }\nobreakspace camembert\nobreakspace \IeC {\guillemotright })}{352}{paragraph.3174}%
\contentsline {paragraph}{\numberline {15.2.1.2.3}Avec Python}{353}{paragraph.3176}%
\contentsline {subsection}{\numberline {15.2.2}Variables quantitatives discr\IeC {\`e}tes (grand nombre de valeurs) ou continues}{353}{subsection.3178}%
\contentsline {subsubsection}{\numberline {15.2.2.1}Groupement par classes}{353}{subsubsection.3179}%
\contentsline {subsubsection}{\numberline {15.2.2.2}Histogramme avec classes de m\IeC {\^e}me amplitude}{354}{subsubsection.3183}%
\contentsline {paragraph}{\numberline {15.2.2.2.1}Avec Python}{355}{paragraph.3185}%
\contentsline {subsubsection}{\numberline {15.2.2.3}Histogramme avec classes d'amplitudes diff\IeC {\'e}rentes}{355}{subsubsection.3186}%
\contentsline {paragraph}{\numberline {15.2.2.3.1}Avec Python}{356}{paragraph.3190}%
\contentsline {section}{\numberline {15.3}Tableaux \IeC {\`a} double entr\IeC {\'e}e}{357}{section.3191}%
\contentsline {section}{\numberline {15.4}S\IeC {\'e}ries chronologiques}{358}{section.3197}%
\contentsline {subsection}{\numberline {15.4.1}Mesures sur les s\IeC {\'e}ries chronologiques}{358}{subsection.3198}%
\contentsline {paragraph}{\numberline {15.4.1.0.1}Avec Python}{358}{paragraph.3200}%
\contentsline {subsubsection}{\numberline {15.4.1.1}Variation absolue}{359}{subsubsection.3201}%
\contentsline {subsubsection}{\numberline {15.4.1.2}Cas particulier des variables exprim\IeC {\'e}es en pourcentage}{359}{subsubsection.3203}%
\contentsline {subsubsection}{\numberline {15.4.1.3}Variation relative}{359}{subsubsection.3205}%
\contentsline {subsubsection}{\numberline {15.4.1.4}Variation moyenne}{360}{subsubsection.3208}%
\contentsline {subsubsection}{\numberline {15.4.1.5}Comment commenter une s\IeC {\'e}rie chronologique\nobreakspace ?}{360}{subsubsection.3210}%
\contentsline {subsection}{\numberline {15.4.2}Lissage par les moyennes mobiles}{360}{subsection.3211}%
\contentsline {section}{\numberline {15.5}Mesures de tendance centrale}{363}{section.3215}%
\contentsline {subsection}{\numberline {15.5.1}Le mode}{363}{subsection.3216}%
\contentsline {subsubsection}{\numberline {15.5.1.1}D\IeC {\'e}finition}{363}{subsubsection.3217}%
\contentsline {subsubsection}{\numberline {15.5.1.2}Donn\IeC {\'e}es group\IeC {\'e}es par valeurs ou modalit\IeC {\'e}s}{363}{subsubsection.3219}%
\contentsline {subsubsection}{\numberline {15.5.1.3}Donn\IeC {\'e}es group\IeC {\'e}es par classes}{363}{subsubsection.3220}%
\contentsline {subsubsection}{\numberline {15.5.1.4}Distribution polymodale}{363}{subsubsection.3221}%
\contentsline {subsection}{\numberline {15.5.2}La m\IeC {\'e}diane}{364}{subsection.3223}%
\contentsline {subsubsection}{\numberline {15.5.2.1}Conventions}{364}{subsubsection.3224}%
\contentsline {subsubsection}{\numberline {15.5.2.2}D\IeC {\'e}finition}{364}{subsubsection.3227}%
\contentsline {subsubsection}{\numberline {15.5.2.3}Cas des donn\IeC {\'e}es group\IeC {\'e}es par valeurs}{364}{subsubsection.3230}%
\contentsline {subsubsection}{\numberline {15.5.2.4}Cas des donn\IeC {\'e}es group\IeC {\'e}es par classes}{365}{subsubsection.3233}%
\contentsline {paragraph}{\numberline {15.5.2.4.1}M\IeC {\'e}thode graphique}{365}{paragraph.3235}%
\contentsline {paragraph}{\numberline {15.5.2.4.2}M\IeC {\'e}thode analytique}{366}{paragraph.3237}%
\contentsline {paragraph}{\numberline {15.5.2.4.3}Avec Python}{367}{paragraph.3238}%
\contentsline {subsection}{\numberline {15.5.3}Moyenne}{367}{subsection.3239}%
\contentsline {subsubsection}{\numberline {15.5.3.1}Donn\IeC {\'e}es non group\IeC {\'e}es}{367}{subsubsection.3240}%
\contentsline {subsubsection}{\numberline {15.5.3.2}Donn\IeC {\'e}es group\IeC {\'e}es par valeurs}{368}{subsubsection.3241}%
\contentsline {subsubsection}{\numberline {15.5.3.3}Donn\IeC {\'e}es group\IeC {\'e}es par classes}{368}{subsubsection.3242}%
\contentsline {section}{\numberline {15.6}Quartiles et diagrammes en bo\IeC {\^\i }te}{368}{section.3244}%
\contentsline {subsection}{\numberline {15.6.1}L'id\IeC {\'e}e}{368}{subsection.3245}%
\contentsline {subsection}{\numberline {15.6.2}Exp\IeC {\'e}rimentons}{368}{subsection.3246}%
\contentsline {subsection}{\numberline {15.6.3}D\IeC {\'e}finissons}{370}{subsection.3252}%
\contentsline {subsection}{\numberline {15.6.4}Lecture graphique dans le cas des donn\IeC {\'e}es group\IeC {\'e}es en classe}{370}{subsection.3254}%
\contentsline {subsection}{\numberline {15.6.5}Bo\IeC {\^\i }te \IeC {\`a} moustache}{371}{subsection.3256}%
\contentsline {subsubsection}{\numberline {15.6.5.1}Avec Python}{371}{subsubsection.3257}%
\contentsline {section}{\numberline {15.7}Mesures de dispersion}{372}{section.3258}%
\contentsline {subsection}{\numberline {15.7.1}\IeC {\'E}cart interquartile}{372}{subsection.3259}%
\contentsline {subsection}{\numberline {15.7.2}Variance et \IeC {\'e}cart-type}{373}{subsection.3263}%
\contentsline {subsection}{\numberline {15.7.3}Avec Python}{374}{subsection.3272}%
\contentsline {section}{\numberline {15.8}Statistique bivari\IeC {\'e}e}{375}{section.3273}%
\contentsline {subsection}{\numberline {15.8.1}Approche de 2nde}{375}{subsection.3274}%
\contentsline {subsubsection}{\numberline {15.8.1.1}Radioactivity}{375}{subsubsection.3275}%
\contentsline {subsubsection}{\numberline {15.8.1.2}Tenias}{376}{subsubsection.3287}%
\contentsline {subsubsection}{\numberline {15.8.1.3}Cobayes}{377}{subsubsection.3297}%
\contentsline {subsection}{\numberline {15.8.2}Corr\IeC {\'e}lation}{378}{subsection.3304}%
\contentsline {subsubsection}{\numberline {15.8.2.1}Galton et Pearson}{378}{subsubsection.3305}%
\contentsline {subsubsection}{\numberline {15.8.2.2}D\IeC {\'e}tour g\IeC {\'e}om\IeC {\'e}trique}{379}{subsubsection.3312}%
\contentsline {subsubsection}{\numberline {15.8.2.3}Ajustement affine}{379}{subsubsection.3313}%
\contentsline {subsubsection}{\numberline {15.8.2.4}Un exemple}{380}{subsubsection.3316}%
\contentsline {subsection}{\numberline {15.8.3}Avec Python}{380}{subsection.3318}%
\contentsline {section}{\numberline {15.9}ENTRA\IeC {\^I}NEMENT et R\IeC {\'E}FLEXION}{381}{section.3319}%
\contentsline {chapter}{\numberline {16}Polyn\IeC {\^o}mes}{383}{chapter.3320}%
\contentsline {section}{\numberline {16.1}Gavarit' Pa Roussky ? Souvenirs de 1\IeC {\`e}re}{384}{section.3321}%
\contentsline {section}{\numberline {16.2}Quelques d\IeC {\'e}finitions}{384}{section.3322}%
\contentsline {subsection}{\numberline {16.2.1}Remarques pr\IeC {\'e}liminaires}{384}{subsection.3323}%
\contentsline {subsection}{\numberline {16.2.2}D\IeC {\'e}finition g\IeC {\'e}n\IeC {\'e}rale}{384}{subsection.3324}%
\contentsline {subsection}{\numberline {16.2.3}Fonctions polynomiales}{385}{subsection.3326}%
\contentsline {subsection}{\numberline {16.2.4}Polyn\IeC {\^o}mes particuliers}{385}{subsection.3328}%
\contentsline {subsection}{\numberline {16.2.5}Op\IeC {\'e}rations sur les polyn\IeC {\^o}mes}{386}{subsection.3332}%
\contentsline {section}{\numberline {16.3}Racines d'un polyn\IeC {\^o}me}{388}{section.3347}%
\contentsline {subsection}{\numberline {16.3.1}\IeC {\'E}tymologie}{388}{subsection.3348}%
\contentsline {subsection}{\numberline {16.3.2}D\IeC {\'e}finitions}{388}{subsection.3349}%
\contentsline {subsection}{\numberline {16.3.3}Racines et divisibilit\IeC {\'e}}{389}{subsection.3353}%
\contentsline {subsection}{\numberline {16.3.4}Ordre de multiplicit\IeC {\'e} d'une racine}{389}{subsection.3359}%
\contentsline {section}{\numberline {16.4}Quelques petits jeux}{390}{section.3361}%
\contentsline {subsection}{\numberline {16.4.1}En Premi\IeC {\`e}re}{390}{subsection.3362}%
\contentsline {subsection}{\numberline {16.4.2}En BCPST}{394}{subsection.3466}%
\contentsline {chapter}{\numberline {17}Introduction aux espaces vectoriels}{397}{chapter.3510}%
\contentsline {section}{\numberline {17.1}Vers une d\IeC {\'e}finition}{398}{section.3511}%
\contentsline {section}{\numberline {17.2}Premiers exemples}{399}{section.3519}%
\contentsline {subsection}{\numberline {17.2.1}R\textsuperscript {2} en D2}{399}{subsection.3520}%
\contentsline {subsection}{\numberline {17.2.2}Les matrices}{400}{subsection.3530}%
\contentsline {subsection}{\numberline {17.2.3}Les autres exemples de r\IeC {\'e}f\IeC {\'e}rence}{400}{subsection.3531}%
\contentsline {section}{\numberline {17.3}Sous-espace vectoriel}{401}{section.3539}%
\contentsline {section}{\numberline {17.4}Familles de vecteurs d'un espace vectoriel $(V,\IeC {\ensuremath {\oplus }},\star )$}{402}{section.3547}%
\contentsline {subsection}{\numberline {17.4.1}Sous-espace engendr\IeC {\'e} par une famille}{402}{subsection.3548}%
\contentsline {subsection}{\numberline {17.4.2}Famille g\IeC {\'e}n\IeC {\'e}ratrice}{404}{subsection.3565}%
\contentsline {subsection}{\numberline {17.4.3}Familles libres}{405}{subsection.3574}%
\contentsline {subsection}{\numberline {17.4.4}Bases}{406}{subsection.3588}%
\contentsline {subsubsection}{\numberline {17.4.4.1}D\IeC {\'e}finition}{406}{subsubsection.3589}%
\contentsline {subsubsection}{\numberline {17.4.4.2}Bases de $\mathbb {K}^{n}$}{407}{subsubsection.3593}%
\contentsline {subsection}{\numberline {17.4.5}Bonus: Polyn\IeC {\^o}mes et alg\IeC {\`e}bre lin\IeC {\'e}aire}{408}{subsection.3600}%
\contentsline {section}{\numberline {17.5}Entra\IeC {\^\i }nement}{410}{section.3605}%
\contentsline {subsection}{\numberline {17.5.1}Interro de cours}{410}{subsection.3606}%
\contentsline {subsection}{\numberline {17.5.2}D\IeC {\'e}finition d'un EV}{410}{subsection.3617}%
\contentsline {subsection}{\numberline {17.5.3}SEV}{410}{subsection.3619}%
\contentsline {subsection}{\numberline {17.5.4}Familles de vecteurs}{412}{subsection.3666}%
\contentsline {chapter}{\numberline {18}Suites r\IeC {\'e}elles (suite)}{417}{chapter.3735}%
\contentsline {section}{\numberline {18.1}Convergence des suites r\IeC {\'e}elles}{418}{section.3736}%
\contentsline {subsection}{\numberline {18.1.1}La somme des entiers fait le buzz}{418}{subsection.3737}%
\contentsline {subsection}{\numberline {18.1.2}Qu'est-ce qu'une suite ?}{419}{subsection.3738}%
\contentsline {subsection}{\numberline {18.1.3}Comment traduire qu'une suite est born\IeC {\'e}e?}{419}{subsection.3741}%
\contentsline {subsection}{\numberline {18.1.4}Sens de variation d'une suite}{420}{subsection.3743}%
\contentsline {subsubsection}{\numberline {18.1.4.1}Le cours court}{420}{subsubsection.3744}%
\contentsline {subsubsection}{\numberline {18.1.4.2}Variations autour d'un exemple}{420}{subsubsection.3750}%
\contentsline {subsection}{\numberline {18.1.5}Comment traduire qu'une suite converge ?}{421}{subsection.3752}%
\contentsline {subsection}{\numberline {18.1.6}Comment traduire qu'une suite diverge vers l'infini ?}{422}{subsection.3756}%
\contentsline {subsection}{\numberline {18.1.7}Op\IeC {\'e}rations sur les limites}{423}{subsection.3762}%
\contentsline {subsection}{\numberline {18.1.8}Passage \IeC {\`a} la limite des in\IeC {\'e}galit\IeC {\'e}s}{423}{subsection.3763}%
\contentsline {subsection}{\numberline {18.1.9}Suite croissante convergente}{425}{subsection.3767}%
\contentsline {subsection}{\numberline {18.1.10}Croyable mais faux !}{427}{subsection.3771}%
\contentsline {subsection}{\numberline {18.1.11}Suites de rangs pairs et impairs}{428}{subsection.3772}%
\contentsline {section}{\numberline {18.2}Rappel des croissances compar\IeC {\'e}es}{428}{section.3774}%
\contentsline {section}{\numberline {18.3}R\IeC {\'e}sum\IeC {\'e} de quelques m\IeC {\'e}thodes utiles pour les exercices du chapitre}{429}{section.3778}%
\contentsline {section}{\numberline {18.4}Suites asymptotiquement \IeC {\'e}quivalentes}{429}{section.3779}%
\contentsline {subsection}{\numberline {18.4.1}D\IeC {\'e}finition}{429}{subsection.3780}%
\contentsline {subsection}{\numberline {18.4.2}\IeC {\'E}quivalents et propri\IeC {\'e}t\IeC {\'e}s des suites}{430}{subsection.3784}%
\contentsline {subsection}{\numberline {18.4.3}Op\IeC {\'e}rations sur les suites \IeC {\'e}quivalentes}{430}{subsection.3787}%
\contentsline {subsection}{\numberline {18.4.4}\IeC {\'E}quivalents de r\IeC {\'e}f\IeC {\'e}rence}{431}{subsection.3791}%
\contentsline {section}{\numberline {18.5}Suites adjacentes}{431}{section.3798}%
\contentsline {subsection}{\numberline {18.5.1}Que sont des suites adjacentes ?}{431}{subsection.3799}%
\contentsline {subsection}{\numberline {18.5.2}\`A quoi servent les suites adjacentes ?}{432}{subsection.3802}%
\contentsline {section}{\numberline {18.6}Pour chercher un peu}{433}{section.3804}%
\contentsline {subsection}{\numberline {18.6.1}Monotonie}{433}{subsection.3805}%
\contentsline {subsection}{\numberline {18.6.2}Convergence de suites}{433}{subsection.3816}%
\contentsline {subsection}{\numberline {18.6.3}Suites adjacentes}{436}{subsection.3897}%
\contentsline {subsection}{\numberline {18.6.4}Bac}{438}{subsection.3917}%
\contentsline {subsection}{\numberline {18.6.5}Avec des \IeC {\'e}quivalents}{439}{subsection.3941}%
\contentsline {subsection}{\numberline {18.6.6}Concours}{440}{subsection.3959}%
\contentsline {chapter}{\numberline {19}Limites et continuit\IeC {\'e}}{445}{chapter.4027}%
\contentsline {section}{\numberline {19.1}Voisinage}{446}{section.4028}%
\contentsline {section}{\numberline {19.2}Approche intuitive des diff\IeC {\'e}rentes d\IeC {\'e}finitions}{447}{section.4031}%
\contentsline {subsection}{\numberline {19.2.1}La fonction f est d\IeC {\'e}finie en a}{447}{subsection.4032}%
\contentsline {subsubsection}{\numberline {19.2.1.1}Il n'y a pas de \@FB@og saut\@FB@fg \xspace {} en a}{448}{subsubsection.4033}%
\contentsline {paragraph}{\numberline {19.2.1.1.1}Approche intuitive}{448}{paragraph.4034}%
\contentsline {paragraph}{\numberline {19.2.1.1.2}Formalisation math\IeC {\'e}matique}{448}{paragraph.4035}%
\contentsline {subsubsection}{\numberline {19.2.1.2}Il y a un \@FB@og saut\@FB@fg \xspace {} en a}{449}{subsubsection.4042}%
\contentsline {paragraph}{\numberline {19.2.1.2.1}Approche intuitive}{449}{paragraph.4043}%
\contentsline {subsection}{\numberline {19.2.2}La fonction f n'est pas d\IeC {\'e}finie en a}{449}{subsection.4044}%
\contentsline {subsubsection}{\numberline {19.2.2.1}Il y a un \@FB@og saut\@FB@fg \xspace {} en a}{450}{subsubsection.4045}%
\contentsline {paragraph}{\numberline {19.2.2.1.1}Approche intuitive}{450}{paragraph.4046}%
\contentsline {subsubsection}{\numberline {19.2.2.2}Il y a un \@FB@og vide\@FB@fg \xspace {} en a}{450}{subsubsection.4047}%
\contentsline {paragraph}{\numberline {19.2.2.2.1}Approche intuitive}{450}{paragraph.4048}%
\contentsline {paragraph}{\numberline {19.2.2.2.2}Formalisation math\IeC {\'e}matique}{450}{paragraph.4049}%
\contentsline {subsubsection}{\numberline {19.2.2.3}Il y a un \@FB@og mur vertical\@FB@fg \xspace {} en a}{450}{subsubsection.4050}%
\contentsline {paragraph}{\numberline {19.2.2.3.1}Un exemple}{450}{paragraph.4051}%
\contentsline {subsection}{\numberline {19.2.3}Limite finie en l'infini}{451}{subsection.4053}%
\contentsline {paragraph}{\numberline {19.2.3.0.1}Approche intuitive}{451}{paragraph.4054}%
\contentsline {paragraph}{\numberline {19.2.3.0.2}Formalisation math\IeC {\'e}matique}{452}{paragraph.4055}%
\contentsline {subsection}{\numberline {19.2.4}Limite infinie en l'infini}{452}{subsection.4057}%
\contentsline {section}{\numberline {19.3}Les th\IeC {\'e}or\IeC {\`e}mes sur les limites}{452}{section.4059}%
\contentsline {subsection}{\numberline {19.3.1}Op\IeC {\'e}rations sur les limites}{453}{subsection.4061}%
\contentsline {subsection}{\numberline {19.3.2}Limites et relation d'ordre}{455}{subsection.4066}%
\contentsline {subsection}{\numberline {19.3.3}Th\IeC {\'e}or\IeC {\`e}me d'encadrement des limites}{456}{subsection.4071}%
\contentsline {subsection}{\numberline {19.3.4}Prolongement par continuit\IeC {\'e} en $x_0$}{456}{subsection.4076}%
\contentsline {subsection}{\numberline {19.3.5}Limites et suites}{457}{subsection.4079}%
\contentsline {subsection}{\numberline {19.3.6}Limites de fonctions compos\IeC {\'e}es}{458}{subsection.4086}%
\contentsline {subsection}{\numberline {19.3.7}Th\IeC {\'e}or\IeC {\`e}me de la limite monotone (admis)}{458}{subsection.4088}%
\contentsline {section}{\numberline {19.4}Kit de survie...}{459}{section.4091}%
\contentsline {subsection}{\numberline {19.4.1}G\IeC {\'e}n\IeC {\'e}ralit\IeC {\'e}s}{459}{subsection.4092}%
\contentsline {section}{\numberline {19.5}Fonctions \IeC {\'e}quivalentes}{461}{section.4108}%
\contentsline {section}{\numberline {19.6}Continuit\IeC {\'e}}{463}{section.4128}%
\contentsline {subsection}{\numberline {19.6.1}M\IeC {\'e}thodes}{463}{subsection.4132}%
\contentsline {section}{\numberline {19.7}Fonctions continues sur un intervalle}{465}{section.4133}%
\contentsline {subsection}{\numberline {19.7.1}Quelles sont les fonctions dont le graphe est un trait continu ?}{465}{subsection.4135}%
\contentsline {subsection}{\numberline {19.7.2}Op\IeC {\'e}rations alg\IeC {\'e}briques et composition}{467}{subsection.4139}%
\contentsline {subsection}{\numberline {19.7.3}Fonctions continues par morceaux}{467}{subsection.4143}%
\contentsline {section}{\numberline {19.8}Les gros th\IeC {\'e}or\IeC {\`e}mes sur la continuit\IeC {\'e}}{468}{section.4147}%
\contentsline {subsection}{\numberline {19.8.1}Th\IeC {\'e}or\IeC {\`e}me des valeurs interm\IeC {\'e}diaires}{468}{subsection.4148}%
\contentsline {subsubsection}{\numberline {19.8.1.1}Application fondamentale: une fonction continue peut-elle changer de signe sans s'annuler ?}{468}{subsubsection.4149}%
\contentsline {subsection}{\numberline {19.8.2}Une fonction f continue sur [a,b] prend-elle toutes les valeurs comprises entre f(a) et f(b) ?}{468}{subsection.4153}%
\contentsline {subsection}{\numberline {19.8.3}Th\IeC {\'e}or\IeC {\`e}me des bornes}{469}{subsection.4156}%
\contentsline {subsection}{\numberline {19.8.4}Th\IeC {\'e}or\IeC {\`e}me de la bijection}{469}{subsection.4158}%
\contentsline {subsubsection}{\numberline {19.8.4.1} Comment montrer qu'une \IeC {\'e}quation admet une unique solution\nobreakspace ?}{469}{subsubsection.4159}%
\contentsline {subsubsection}{\numberline {19.8.4.2}Th\IeC {\'e}or\IeC {\`e}me de la bijection}{470}{subsubsection.4162}%
\contentsline {subsection}{\numberline {19.8.5}Application: d\IeC {\'e}finition de la fonction Arctan}{471}{subsection.4170}%
\contentsline {subsection}{\numberline {19.8.6}Comment r\IeC {\'e}soudre une \IeC {\'e}quation num\IeC {\'e}rique par dichotomie\nobreakspace ?}{472}{subsection.4176}%
\contentsline {section}{\numberline {19.9}Entra\IeC {\^\i }nement}{475}{section.4177}%
\contentsline {subsection}{\numberline {19.9.1}Limites}{475}{subsection.4178}%
\contentsline {subsection}{\numberline {19.9.2}\IeC {\'E}quivalents}{476}{subsection.4263}%
\contentsline {subsection}{\numberline {19.9.3}\IeC {\'E}tude globale}{477}{subsection.4289}%
\contentsline {subsection}{\numberline {19.9.4}\IeC {\`A} l'oral d'Agro-V\IeC {\'e}to}{481}{subsection.4359}%
\contentsline {chapter}{\numberline {20}D\IeC {\'e}rivation : approfondissements}{481}{chapter.4385}%
\contentsline {section}{\numberline {20.1}D\IeC {\'e}riv\IeC {\'e}es successives}{482}{section.4386}%
\contentsline {subsection}{\numberline {20.1.1}Pr\IeC {\'e}liminaire : variation des variations}{482}{subsection.4387}%
\contentsline {subsection}{\numberline {20.1.2}Fonction de classe $C^p$ sur un intervalle}{482}{subsection.4389}%
\contentsline {subsection}{\numberline {20.1.3}Un nouveau tableau}{483}{subsection.4397}%
\contentsline {subsection}{\numberline {20.1.4}Lin\IeC {\'e}arit\IeC {\'e}}{483}{subsection.4398}%
\contentsline {subsection}{\numberline {20.1.5}Formule de Leibniz}{483}{subsection.4401}%
\contentsline {subsection}{\numberline {20.1.6}Th\IeC {\'e}or\IeC {\`e}me de composition}{484}{subsection.4407}%
\contentsline {section}{\numberline {20.2}Les grands th\IeC {\'e}or\IeC {\`e}mes}{484}{section.4409}%
\contentsline {subsection}{\numberline {20.2.1} Que dire de la d\IeC {\'e}riv\IeC {\'e}e en un extremum local?}{484}{subsection.4410}%
\contentsline {subsection}{\numberline {20.2.2}Th\IeC {\'e}or\IeC {\`e}me de Rolle}{485}{subsection.4419}%
\contentsline {subsection}{\numberline {20.2.3}Accroissements finis}{486}{subsection.4422}%
\contentsline {subsection}{\numberline {20.2.4}Exemple d'application aux suites d\IeC {\'e}finies par $u_{n+1}=f(u_n)$}{487}{subsection.4426}%
\contentsline {section}{\numberline {20.3}Annexe: de nouvelles m\IeC {\'e}thodes en Analyse}{488}{section.4431}%
\contentsline {section}{\numberline {20.4}Jeux}{491}{section.4432}%
\contentsline {chapter}{\numberline {21}D\IeC {\'e}veloppements limit\IeC {\'e}s et applications}{497}{chapter.4554}%
\contentsline {section}{\numberline {21.1} Fonction n\IeC {\'e}gligeable devant une autre au voisinage d'un point}{498}{section.4555}%
\contentsline {section}{\numberline {21.2}D\IeC {\'e}veloppements limit\IeC {\'e}s}{499}{section.4562}%
\contentsline {subsection}{\numberline {21.2.1}(Re-)d\IeC {\'e}couverte des d\IeC {\'e}veloppements limit\IeC {\'e}s aux ordres 0 et 1}{499}{subsection.4563}%
\contentsline {subsubsection}{\numberline {21.2.1.1}Ordre 0}{500}{subsubsection.4564}%
\contentsline {subsubsection}{\numberline {21.2.1.2}Ordre 1}{500}{subsubsection.4565}%
\contentsline {subsection}{\numberline {21.2.2}Un peu d'ordre: notion de DL}{500}{subsection.4566}%
\contentsline {subsection}{\numberline {21.2.3}D\IeC {\'e}veloppement asymptotique}{500}{subsection.4577}%
\contentsline {subsection}{\numberline {21.2.4}Formule de Taylor-Young}{501}{subsection.4580}%
\contentsline {subsection}{\numberline {21.2.5}R\IeC {\`e}gles de calcul}{502}{subsection.4587}%
\contentsline {subsubsection}{\numberline {21.2.5.1}$\text {\large {\fontencoding {T1}\fontfamily {frc}\linespread {1.5}\selectfont o}}\left (x^n\right )$}{502}{subsubsection.4588}%
\contentsline {subsubsection}{\numberline {21.2.5.2}Lin\IeC {\'e}arit\IeC {\'e}}{502}{subsubsection.4596}%
\contentsline {subsubsection}{\numberline {21.2.5.3}Produit}{502}{subsubsection.4599}%
\contentsline {subsubsection}{\numberline {21.2.5.4}Substitution}{503}{subsubsection.4605}%
\contentsline {section}{\numberline {21.3}Application des DLs}{503}{section.4608}%
\contentsline {subsection}{\numberline {21.3.1}Calcul de limites}{503}{subsection.4609}%
\contentsline {subsection}{\numberline {21.3.2}Recherche d'un \IeC {\'e}quivalent de $f(x) - \displaystyle \qopname \relax m{lim}_{x\to x_0}f(x)$}{503}{subsection.4611}%
\contentsline {subsection}{\numberline {21.3.3}Asymptotes}{503}{subsection.4616}%
\contentsline {subsection}{\numberline {21.3.4}Lien avec la continuit\IeC {\'e} et la d\IeC {\'e}rivabilit\IeC {\'e}}{504}{subsection.4632}%
\contentsline {subsection}{\numberline {21.3.5}Avec Python}{504}{subsection.4640}%
\contentsline {section}{\numberline {21.4}La main \IeC {\`a} la p\IeC {\^a}te}{505}{section.4641}%
\contentsline {chapter}{\numberline {22}Int\IeC {\'e}gration: Niveau 2}{509}{chapter.4711}%
\contentsline {section}{\numberline {22.1}Quelques rappels du chapitre 10}{510}{section.4712}%
\contentsline {subsubsection}{\numberline {22.1.0.1}Relation de Chasles}{510}{subsubsection.4715}%
\contentsline {subsubsection}{\numberline {22.1.0.2}Lin\IeC {\'e}arit\IeC {\'e}}{511}{subsubsection.4717}%
\contentsline {section}{\numberline {22.2}Int\IeC {\'e}grales et relation d'ordre}{511}{section.4719}%
\contentsline {subsection}{\numberline {22.2.1}Valeur moyenne}{512}{subsection.4725}%
\contentsline {subsubsection}{\numberline {22.2.1.1}D\IeC {\'e}finition}{512}{subsubsection.4726}%
\contentsline {subsection}{\numberline {22.2.2}Est-ce que la valeur moyenne est une valeur prise par la fonction ?}{512}{subsection.4729}%
\contentsline {section}{\numberline {22.3}Primitive et int\IeC {\'e}grale}{513}{section.4731}%
\contentsline {subsection}{\numberline {22.3.1}Int\IeC {\'e}grale fonction de sa borne sup\IeC {\'e}rieure}{513}{subsection.4732}%
\contentsline {subsection}{\numberline {22.3.2}Th\IeC {\'e}or\IeC {\`e}me fondamental de l'Analyse}{513}{subsection.4733}%
\contentsline {subsection}{\numberline {22.3.3}Comment calculer une int\IeC {\'e}grale \IeC {\`a} l'aide d'une primitive?}{514}{subsection.4735}%
\contentsline {section}{\numberline {22.4}Fonction d\IeC {\'e}finie par une int\IeC {\'e}grale: approfondisssment}{515}{section.4737}%
\contentsline {section}{\numberline {22.5}Sommes de Riemann}{516}{section.4741}%
\contentsline {subsection}{\numberline {22.5.1}D\IeC {\'e}finition}{516}{subsection.4742}%
\contentsline {subsection}{\numberline {22.5.2}Cas des fonctions de classe $\mathscr {C}^1$}{516}{subsection.4744}%
\contentsline {subsection}{\numberline {22.5.3}Cas des fonctions continues}{517}{subsection.4746}%
\contentsline {subsection}{\numberline {22.5.4}Interpr\IeC {\'e}tation g\IeC {\'e}om\IeC {\'e}trique}{517}{subsection.4749}%
\contentsline {subsection}{\numberline {22.5.5}Python et les sommes de Riemann}{518}{subsection.4750}%
\contentsline {section}{\numberline {22.6}La main \IeC {\`a} la p\IeC {\^a}te}{519}{section.4751}%
\contentsline {chapter}{\numberline {23}Homomorphismes d'espaces vectoriels}{527}{chapter.4884}%
\contentsline {section}{\numberline {23.1}Conservation de la structure}{528}{section.4885}%
\contentsline {subsection}{\numberline {23.1.1}D\IeC {\'e}finition}{528}{subsection.4886}%
\contentsline {subsection}{\numberline {23.1.2}Conservation du neutre}{528}{subsection.4890}%
\contentsline {subsection}{\numberline {23.1.3}Caract\IeC {\'e}risation des applications lin\IeC {\'e}aires}{529}{subsection.4894}%
\contentsline {subsection}{\numberline {23.1.4}Espace vectoriel des applications lin\IeC {\'e}aires}{529}{subsection.4901}%
\contentsline {subsection}{\numberline {23.1.5}Composition des applications lin\IeC {\'e}aires}{530}{subsection.4904}%
\contentsline {subsection}{\numberline {23.1.6}Noyau d'un homomorphisme}{530}{subsection.4907}%
\contentsline {subsubsection}{\numberline {23.1.6.1}D\IeC {\'e}finition}{530}{subsubsection.4908}%
\contentsline {subsubsection}{\numberline {23.1.6.2}Avec Python}{531}{subsubsection.4912}%
\contentsline {paragraph}{\numberline {23.1.6.2.1}Avec SymPy}{531}{paragraph.4913}%
\contentsline {paragraph}{\numberline {23.1.6.2.2}Avec SciPy}{532}{paragraph.4914}%
\contentsline {subsubsection}{\numberline {23.1.6.3}Noyau et injectivit\IeC {\'e}}{532}{subsubsection.4915}%
\contentsline {subsection}{\numberline {23.1.7}Image d'un homomorphisme}{532}{subsection.4920}%
\contentsline {subsubsection}{\numberline {23.1.7.1}D\IeC {\'e}finition}{532}{subsubsection.4921}%
\contentsline {subsubsection}{\numberline {23.1.7.2}Avec Python}{533}{subsubsection.4925}%
\contentsline {subsubsection}{\numberline {23.1.7.3}Image et surjectivit\IeC {\'e}}{533}{subsubsection.4926}%
\contentsline {section}{\numberline {23.2}Homomorphismes particuliers}{533}{section.4930}%
\contentsline {subsection}{\numberline {23.2.1}{\LARGE \bfseries \begingroup \fontencoding {LGR}\selectfont \<isos\endgroup (\IeC {\'e}gal)}}{533}{subsection.4931}%
\contentsline {subsection}{\numberline {23.2.2}{\LARGE \bfseries \begingroup \fontencoding {LGR}\selectfont \<endov\endgroup (dans)}}{534}{subsection.4934}%
\contentsline {subsection}{\numberline {23.2.3}{\LARGE \bfseries \begingroup \fontencoding {LGR}\selectfont a\<utos\endgroup (lui-m\IeC {\^e}me)}}{534}{subsection.4939}%
\contentsline {subsection}{\numberline {23.2.4}Morphismes, libert\IeC {\'e}, g\IeC {\'e}n\IeC {\'e}ration}{534}{subsection.4941}%
\contentsline {section}{\numberline {23.3}Cas de la dimension finie}{534}{section.4946}%
\contentsline {subsection}{\numberline {23.3.1}D\IeC {\'e}termination d'une application lin\IeC {\'e}aire \IeC {\`a} l'aide d'une base}{534}{subsection.4947}%
\contentsline {subsection}{\numberline {23.3.2}Espaces isomorphes et dimension}{535}{subsection.4950}%
\contentsline {subsection}{\numberline {23.3.3}Rang d'une application lin\IeC {\'e}aire}{536}{subsection.4956}%
\contentsline {subsection}{\numberline {23.3.4}Injectivit\IeC {\'e} et surjectivit\IeC {\'e} en dimension finie}{537}{subsection.4959}%
\contentsline {section}{\numberline {23.4}Apart\IeC {\'e}: l'hyperplan, le noyau et la forme lin\IeC {\'e}aire}{537}{section.4961}%
\contentsline {section}{\numberline {23.5}Matrices et applications lin\IeC {\'e}aires}{538}{section.4964}%
\contentsline {subsection}{\numberline {23.5.1}Matrice d'une famille}{538}{subsection.4965}%
\contentsline {subsection}{\numberline {23.5.2}Matrice d'une application lin\IeC {\'e}aire}{539}{subsection.4968}%
\contentsline {subsubsection}{\numberline {23.5.2.1}d\IeC {\'e}finition}{539}{subsubsection.4969}%
\contentsline {subsubsection}{\numberline {23.5.2.2}Comprendre un \IeC {\'e}nonc\IeC {\'e}}{539}{subsubsection.4972}%
\contentsline {subsection}{\numberline {23.5.3}Calcul de l'image d'un vecteur et produit matriciel]}{539}{subsection.4974}%
\contentsline {subsubsection}{\numberline {23.5.3.1}Cas particulier}{539}{subsubsection.4975}%
\contentsline {subsubsection}{\numberline {23.5.3.2}Cas g\IeC {\'e}n\IeC {\'e}ral}{540}{subsubsection.4976}%
\contentsline {subsection}{\numberline {23.5.4}Application canoniquement associ\IeC {\'e}e \IeC {\`a} une matrice}{541}{subsection.4979}%
\contentsline {subsection}{\numberline {23.5.5}Correspondance entre points de vue vectoriel et matriciel sur les homomorphismes}{542}{subsection.4985}%
\contentsline {subsection}{\numberline {23.5.6}Rang d'une matrice}{543}{subsection.4994}%
\contentsline {subsection}{\numberline {23.5.7}Cas particulier des matrices d'endomorphismes}{544}{subsection.4998}%
\contentsline {subsubsection}{\numberline {23.5.7.1}Adaptation du cas g\IeC {\'e}n\IeC {\'e}ral \IeC {\`a} ce cas particulier}{544}{subsubsection.4999}%
\contentsline {subsubsection}{\numberline {23.5.7.2}Polyn\IeC {\^o}mes d'endomorphismes}{544}{subsubsection.5003}%
\contentsline {section}{\numberline {23.6}Entra\IeC {\^\i }nement}{546}{section.5010}%
\contentsline {subsection}{\numberline {23.6.1}Pour celles et ceux qui pensaient pouvoir survoler le cours ]:->}{546}{subsection.5011}%
\contentsline {subsection}{\numberline {23.6.2}Exercices classiques}{546}{subsection.5016}%
\contentsline {subsection}{\numberline {23.6.3}Matrices}{548}{subsection.5087}%
\contentsline {subsection}{\numberline {23.6.4}Aux concours}{550}{subsection.5119}%
\contentsline {chapter}{\numberline {24}Probabilit\IeC {\'e}s sur un espace fini}{553}{chapter.5168}%
\contentsline {section}{\numberline {24.1}Avant la formalisation}{554}{section.5169}%
\contentsline {section}{\numberline {24.2}Exp\IeC {\'e}rience al\IeC {\'e}atoire}{555}{section.5171}%
\contentsline {subsection}{\numberline {24.2.1}\IeC {\'E}tude de situation}{555}{subsection.5172}%
\contentsline {subsection}{\numberline {24.2.2}\IeC {\'E}v\IeC {\'e}nements}{556}{subsection.5176}%
\contentsline {subsection}{\numberline {24.2.3}Syst\IeC {\`e}me complet d'\IeC {\'e}v\IeC {\'e}nements}{557}{subsection.5184}%
\contentsline {section}{\numberline {24.3}Espace probabilisable - Espace probabilis\IeC {\'e}}{557}{section.5189}%
\contentsline {section}{\numberline {24.4}Probabilit\IeC {\'e}s conditionnelles}{559}{section.5210}%
\contentsline {subsection}{\numberline {24.4.1}Un exemple pour comprendre}{559}{subsection.5211}%
\contentsline {subsection}{\numberline {24.4.2}D\IeC {\'e}finition}{560}{subsection.5212}%
\contentsline {subsection}{\numberline {24.4.3}Arbre}{560}{subsection.5214}%
\contentsline {subsection}{\numberline {24.4.4}Formule des probabilit\IeC {\'e}s compos\IeC {\'e}es}{561}{subsection.5218}%
\contentsline {subsection}{\numberline {24.4.5}Formule de BAYES}{562}{subsection.5223}%
\contentsline {section}{\numberline {24.5}Ind\'ependance}{562}{section.5226}%
\contentsline {section}{\numberline {24.6}Avec Python}{564}{section.5241}%
\contentsline {subsection}{\numberline {24.6.1}Pile ou face?}{564}{subsection.5242}%
\contentsline {subsection}{\numberline {24.6.2}Tirage de boules dans des urnes}{565}{subsection.5243}%
\contentsline {subsection}{\numberline {24.6.3}Tirage de boules avec remise}{565}{subsection.5244}%
\contentsline {section}{\numberline {24.7}Entra\IeC {\^\i }nement}{567}{section.5245}%
\contentsline {subsection}{\numberline {24.7.1}Conditionnement et ind\IeC {\'e}pendance}{568}{subsection.5261}%
\contentsline {subsection}{\numberline {24.7.2}Probl\IeC {\`e}mes de synth\IeC {\`e}se}{570}{subsection.5290}%
\contentsline {subsection}{\numberline {24.7.3}Python}{576}{subsection.5398}%
\contentsline {subsection}{\numberline {24.7.4}Des solutions...}{577}{subsection.5401}%
\contentsline {chapter}{\numberline {25}Variables al\IeC {\'e}atoires r\IeC {\'e}elles finies}{583}{chapter.5417}%
\contentsline {section}{\numberline {25.1}Transport de mesures: s'approprier la dure r\IeC {\'e}alit\IeC {\'e}}{584}{section.5418}%
\contentsline {section}{\numberline {25.2}Loi de probabilit\IeC {\'e}}{585}{section.5420}%
\contentsline {section}{\numberline {25.3}Fonction de r\IeC {\'e}partition}{588}{section.5436}%
\contentsline {subsection}{\numberline {25.3.1}D\IeC {\'e}finition}{588}{subsection.5437}%
\contentsline {subsection}{\numberline {25.3.2}Propri\IeC {\'e}t\IeC {\'e}s}{588}{subsection.5442}%
\contentsline {subsection}{\numberline {25.3.3}Un exemple d'emploi non trivial}{589}{subsection.5452}%
\contentsline {section}{\numberline {25.4}Fonction d'une variable al\IeC {\'e}atoire}{589}{section.5454}%
\contentsline {section}{\numberline {25.5}Moments}{590}{section.5458}%
\contentsline {subsection}{\numberline {25.5.1}Esp\IeC {\'e}rance math\IeC {\'e}matique}{590}{subsection.5459}%
\contentsline {subsection}{\numberline {25.5.2}Th\IeC {\'e}or\IeC {\`e}me de transfert}{591}{subsection.5462}%
\contentsline {subsection}{\numberline {25.5.3}Lin\IeC {\'e}arit\IeC {\'e} de l'esp\IeC {\'e}rance}{591}{subsection.5464}%
\contentsline {subsection}{\numberline {25.5.4}Moments d'une variable al\IeC {\'e}atoire}{592}{subsection.5467}%
\contentsline {subsection}{\numberline {25.5.5}Fonction indicatrice d'un \IeC {\'e}v\IeC {\`e}nement}{592}{subsection.5470}%
\contentsline {subsection}{\numberline {25.5.6}Variance}{592}{subsection.5474}%
\contentsline {subsection}{\numberline {25.5.7}V.a.r. centr\IeC {\'e}e r\IeC {\'e}duite}{593}{subsection.5480}%
\contentsline {section}{\numberline {25.6}Quelques lois discr\IeC {\`e}tes classiques}{593}{section.5482}%
\contentsline {subsection}{\numberline {25.6.1}Variable al\IeC {\'e}atoire certaine}{593}{subsection.5483}%
\contentsline {subsection}{\numberline {25.6.2}Loi uniforme sur [1, n]}{594}{subsection.5487}%
\contentsline {subsection}{\numberline {25.6.3}Loi de Bernoulli: to be or not to be}{595}{subsection.5491}%
\contentsline {subsection}{\numberline {25.6.4}Loi binomiale}{595}{subsection.5494}%
\contentsline {subsubsection}{\numberline {25.6.4.1}D\IeC {\'e}finition}{595}{subsubsection.5495}%
\contentsline {subsubsection}{\numberline {25.6.4.2}Simulation}{596}{subsubsection.5499}%
\contentsline {section}{\numberline {25.7}Jouons aux probabilit\IeC {\'e}s}{598}{section.5500}%
\contentsline {chapter}{\numberline {26}Fonctions de 2 variables}{607}{chapter.5621}%
\contentsline {section}{\numberline {26.1}Pr\IeC {\'e}ambule}{608}{section.5622}%
\contentsline {subsection}{\numberline {26.1.1}D\IeC {\'e}j\IeC {\`a} vu}{608}{subsection.5623}%
\contentsline {subsection}{\numberline {26.1.2}Lignes de niveaux sur une carte}{609}{subsection.5624}%
\contentsline {section}{\numberline {26.2}Repr\IeC {\'e}sentations graphiques}{610}{section.5632}%
\contentsline {subsection}{\numberline {26.2.1}Repr\IeC {\'e}sentations graphiques de fonctions \IeC {\`a} deux variables}{610}{subsection.5633}%
\contentsline {subsection}{\numberline {26.2.2}Fonctions partielles}{613}{subsection.5640}%
\contentsline {subsubsection}{\numberline {26.2.2.1}D\IeC {\'e}finition}{613}{subsubsection.5641}%
\contentsline {subsection}{\numberline {26.2.3}Coupe par des plans}{613}{subsection.5643}%
\contentsline {section}{\numberline {26.3}Approche intuitive de la continuit\IeC {\'e}}{614}{section.5647}%
\contentsline {section}{\numberline {26.4}Recherche d'extrema}{614}{section.5656}%
\contentsline {section}{\numberline {26.5}D\IeC {\'e}riv\IeC {\'e}es partielles d'ordre 1 et applications}{615}{section.5659}%
\contentsline {subsection}{\numberline {26.5.1}D\IeC {\'e}riv\IeC {\'e}es partielles}{615}{subsection.5660}%
\contentsline {subsection}{\numberline {26.5.2}Gradient}{616}{subsection.5664}%
\contentsline {subsection}{\numberline {26.5.3}Condition n\IeC {\'e}cessaire d'existence d'un extremum}{616}{subsection.5666}%
\contentsline {section}{\numberline {26.6}Fonctions de classe $\mathscr C^1$}{617}{section.5672}%
\contentsline {subsection}{\numberline {26.6.1}Approximation locale d'une fonction $\mathscr {C}^1$}{618}{subsection.5675}%
\contentsline {section}{\numberline {26.7}D\IeC {\'e}rivation d'une expression de la forme $f(x(t),y(t))$}{619}{section.5681}%
\contentsline {section}{\numberline {26.8}D\IeC {\'e}riv\IeC {\'e}es partielles d'ordre 2}{619}{section.5684}%
\contentsline {section}{\numberline {26.9}Petits calculs et petits dessins}{621}{section.5695}%
\contentsfinish 
