\relax 
\providecommand\hyper@newdestlabel[2]{}
\providecommand\zref@newlabel[2]{}
\@writefile{toc}{\contentsline {chapter}{\numberline {24}Probabilit\IeC {\'e}s sur un espace fini}{553}{chapter.5168}\protected@file@percent }
\@writefile{lof}{\addvspace {10\p@ }}
\@writefile{lot}{\addvspace {10\p@ }}
\@writefile{lof}{\contentsline {xchapter}{Probabilit\IeC {\'e}s sur un espace fini}{554}{chapter.5168}\protected@file@percent }
\@writefile{lot}{\contentsline {xchapter}{Probabilit\IeC {\'e}s sur un espace fini}{554}{chapter.5168}\protected@file@percent }
\@writefile{toc}{\contentsline {section}{\numberline {24.1}Avant la formalisation}{554}{section.5169}\protected@file@percent }
\@writefile{toc}{\contentsline {section}{\numberline {24.2}Exp\IeC {\'e}rience al\IeC {\'e}atoire}{555}{section.5171}\protected@file@percent }
\@writefile{toc}{\contentsline {subsection}{\numberline {24.2.1}\IeC {\'E}tude de situation}{555}{subsection.5172}\protected@file@percent }
\@writefile{toc}{\contentsline {subsection}{\numberline {24.2.2}\IeC {\'E}v\IeC {\'e}nements}{556}{subsection.5176}\protected@file@percent }
\@writefile{toc}{\contentsline {subsection}{\numberline {24.2.3}Syst\IeC {\`e}me complet d'\IeC {\'e}v\IeC {\'e}nements}{557}{subsection.5184}\protected@file@percent }
\@writefile{toc}{\contentsline {section}{\numberline {24.3}Espace probabilisable - Espace probabilis\IeC {\'e}}{557}{section.5189}\protected@file@percent }
\newlabel{probadef}{{24-5}{557}{Espace probabilisable - Espace probabilisé}{definition.5190}{}}
\@writefile{toc}{\contentsline {section}{\numberline {24.4}Probabilit\IeC {\'e}s conditionnelles}{559}{section.5210}\protected@file@percent }
\@writefile{toc}{\contentsline {subsection}{\numberline {24.4.1}Un exemple pour comprendre}{559}{subsection.5211}\protected@file@percent }
\newlabel{exprobacon}{{24.4.1}{559}{Un exemple pour comprendre}{subsection.5211}{}}
\@writefile{toc}{\contentsline {subsection}{\numberline {24.4.2}D\IeC {\'e}finition}{560}{subsection.5212}\protected@file@percent }
\newlabel{45@xvr}{{}{560}}
\newlabel{45@vr}{{}{560}}
\@writefile{toc}{\contentsline {subsection}{\numberline {24.4.3}Arbre}{560}{subsection.5214}\protected@file@percent }
\newlabel{46@xvr}{{}{560}}
\newlabel{46@vr}{{}{560}}
\@writefile{toc}{\contentsline {subsection}{\numberline {24.4.4}Formule des probabilit\IeC {\'e}s compos\IeC {\'e}es}{561}{subsection.5218}\protected@file@percent }
\@writefile{toc}{\contentsline {subsection}{\numberline {24.4.5}Formule de BAYES}{562}{subsection.5223}\protected@file@percent }
\@writefile{toc}{\contentsline {section}{\numberline {24.5}Ind\'ependance}{562}{section.5226}\protected@file@percent }
\@writefile{toc}{\contentsline {section}{\numberline {24.6}Avec Python}{564}{section.5241}\protected@file@percent }
\@writefile{toc}{\contentsline {subsection}{\numberline {24.6.1}Pile ou face?}{564}{subsection.5242}\protected@file@percent }
\@writefile{toc}{\contentsline {subsection}{\numberline {24.6.2}Tirage de boules dans des urnes}{565}{subsection.5243}\protected@file@percent }
\@writefile{toc}{\contentsline {subsection}{\numberline {24.6.3}Tirage de boules avec remise}{565}{subsection.5244}\protected@file@percent }
\@writefile{toc}{\contentsline {section}{\numberline {24.7}Entra\IeC {\^\i }nement}{567}{section.5245}\protected@file@percent }
\@writefile{toc}{\contentsline {subsection}{\numberline {24.7.1}Conditionnement et ind\IeC {\'e}pendance}{568}{subsection.5261}\protected@file@percent }
\@writefile{toc}{\contentsline {subsection}{\numberline {24.7.2}Probl\IeC {\`e}mes de synth\IeC {\`e}se}{570}{subsection.5290}\protected@file@percent }
\newlabel{eq1}{{24.1}{574}{Problèmes de synthèse}{equation.5358}{}}
\newlabel{eq2}{{24.2}{574}{Problèmes de synthèse}{equation.5365}{}}
\@writefile{toc}{\contentsline {subsection}{\numberline {24.7.3}Python}{576}{subsection.5398}\protected@file@percent }
\@writefile{toc}{\contentsline {subsection}{\numberline {24.7.4}Des solutions...}{577}{subsection.5401}\protected@file@percent }
\@setckpt{probasIntro21}{
\setcounter{page}{582}
\setcounter{equation}{2}
\setcounter{enumi}{3}
\setcounter{enumii}{4}
\setcounter{enumiii}{1}
\setcounter{enumiv}{0}
\setcounter{footnote}{3}
\setcounter{mpfootnote}{0}
\setcounter{part}{0}
\setcounter{chapter}{24}
\setcounter{section}{7}
\setcounter{subsection}{4}
\setcounter{subsubsection}{0}
\setcounter{paragraph}{0}
\setcounter{subparagraph}{0}
\setcounter{figure}{0}
\setcounter{table}{0}
\setcounter{chapterstar}{1}
\setcounter{@stackindex}{0}
\setcounter{ROWcellindex@}{0}
\setcounter{tcbbreakpart}{0}
\setcounter{tcblayer}{0}
\setcounter{tcolorbox@number}{0}
\setcounter{parentequation}{0}
\setcounter{ifsymcnt}{0}
\setcounter{lstnumber}{2}
\setcounter{vrcnt}{46}
\setcounter{tw@hyphen@char@num}{0}
\setcounter{float@type}{64}
\setcounter{subfigure}{0}
\setcounter{lofdepth}{1}
\setcounter{subtable}{0}
\setcounter{lotdepth}{1}
\setcounter{Item}{2954}
\setcounter{Hfootnote}{24}
\setcounter{bookmark@seq@number}{534}
\setcounter{mdf@globalstyle@cnt}{1}
\setcounter{mdfcountframes}{0}
\setcounter{mdf@env@i}{0}
\setcounter{mdf@env@ii}{0}
\setcounter{mdf@zref@counter}{0}
\setcounter{bclogocompteur}{0}
\setcounter{BAenumi}{0}
\setcounter{caption@flags}{0}
\setcounter{continuedfloat}{0}
\setcounter{tabularnote}{0}
\setcounter{num}{0}
\setcounter{qcm}{0}
\setcounter{FancyVerbLine}{16}
\setcounter{linenumber}{3}
\setcounter{LN@truepage}{587}
\setcounter{minted@FancyVerbLineTemp}{0}
\setcounter{listing}{0}
\setcounter{numquestion}{0}
\setcounter{qcm@numb}{0}
\setcounter{numprop}{0}
\setcounter{LT@tables}{0}
\setcounter{LT@chunks}{0}
\setcounter{@LCDdotx}{0}
\setcounter{@LCDdoty}{0}
\setcounter{@LCDchrx}{0}
\setcounter{@LCDlines}{0}
\setcounter{@LCDlower}{0}
\setcounter{nprt@mantissa@digitsbefore}{0}
\setcounter{nprt@mantissa@digitsafter}{0}
\setcounter{nprt@exponent@digitsbefore}{0}
\setcounter{nprt@exponent@digitsafter}{0}
\setcounter{nprt@digitsfirstblock}{8}
\setcounter{nprt@blockcnt}{8}
\setcounter{nprt@cntprint}{2}
\setcounter{tkz@gr@a}{0}
\setcounter{tkz@gr@b}{0}
\setcounter{tkz@gr@c}{0}
\setcounter{tkz@gr@e}{0}
\setcounter{tkz@gr@d}{0}
\setcounter{tkz@gr@p}{1}
\setcounter{tkz@gr@i}{0}
\setcounter{tkz@gr@n}{0}
\setcounter{tkz@gr@ta}{0}
\setcounter{tkz@gr@tb}{0}
\setcounter{tkz@cnt@line}{3}
\setcounter{tkz@cnt@lg}{2}
\setcounter{tkz@cnt@cl}{2}
\setcounter{tkz@cnt@pred}{1}
\setcounter{tkz@cnt@temp}{0}
\setcounter{tkz@cnt@arrow}{2}
\setcounter{tkz@cnt@zone}{0}
\setcounter{tkz@cnt@lgnext}{3}
\setcounter{tkz@cnt@clnext}{2}
\setcounter{tkz@cnt@pair}{2}
\setcounter{tkz@cnt@impair}{2}
\setcounter{tkz@cnt@aw}{2}
\setcounter{C@NumTab}{0}
\setcounter{C@NumGroup}{0}
\setcounter{C@NextNode}{0}
\setcounter{NumC@Node}{0}
\setcounter{NumC@Stop}{0}
\setcounter{C@CurrentStop}{0}
\setcounter{C@CurrentNode}{0}
\setcounter{C@CurrentGroup}{0}
\setcounter{r@tfl@t}{0}
\setcounter{c@imbrication}{-1}
\setcounter{c@indentation}{0}
\setcounter{c@instruction}{20}
\setcounter{c@algo}{2}
\setcounter{c@tabdim}{0}
\setcounter{c@chaineouverte}{0}
\setcounter{floatalgo}{0}
\setcounter{aide}{0}
\setcounter{sol}{0}
\setcounter{mtc}{25}
\setcounter{minitocdepth}{3}
\setcounter{ptc}{0}
\setcounter{parttocdepth}{2}
\setcounter{asy}{0}
\setcounter{theoreme}{13}
\setcounter{lemme}{0}
\setcounter{corollaire}{0}
\setcounter{propriete}{0}
\setcounter{definition}{8}
\setcounter{exemple}{6}
\setcounter{remarque}{82}
\setcounter{recherche}{31}
\setcounter{exercicea}{0}
\setcounter{exerciceb}{0}
\setcounter{exercicec}{0}
\setcounter{pyquestions}{0}
\setcounter{pyxercice}{0}
\setcounter{lstlisting}{0}
\setcounter{section@level}{0}
\setcounter{tabularnotesi}{0}
\setcounter{tabularnotes*i}{0}
\setcounter{minilofdepth}{2}
\setcounter{minilotdepth}{2}
\setcounter{partlofdepth}{2}
\setcounter{partlotdepth}{2}
\setcounter{sectlofdepth}{2}
\setcounter{sectlotdepth}{2}
}
