\relax 
\providecommand\hyper@newdestlabel[2]{}
\providecommand\zref@newlabel[2]{}
\@writefile{toc}{\contentsline {chapter}{\numberline {4}Nombres r\IeC {\'e}els}{93}{chapter.727}\protected@file@percent }
\@writefile{lof}{\addvspace {10\p@ }}
\@writefile{lot}{\addvspace {10\p@ }}
\@writefile{lof}{\contentsline {xchapter}{Nombres r\IeC {\'e}els}{94}{chapter.727}\protected@file@percent }
\@writefile{lot}{\contentsline {xchapter}{Nombres r\IeC {\'e}els}{94}{chapter.727}\protected@file@percent }
\@writefile{toc}{\contentsline {section}{\numberline {4.1}Ordre dans R }{94}{section.728}\protected@file@percent }
\@writefile{toc}{\contentsline {subsection}{\numberline {4.1.1}En 2nde}{94}{subsection.729}\protected@file@percent }
\newlabel{def}{{4-1}{94}{En 2nde}{definition.730}{}}
\@writefile{toc}{\contentsline {subsection}{\numberline {4.1.2}Th\IeC {\'e}or\IeC {\`e}mes de rangement}{95}{subsection.731}\protected@file@percent }
\@writefile{toc}{\contentsline {subsection}{\numberline {4.1.3}Ordre et op\IeC {\'e}rations}{95}{subsection.736}\protected@file@percent }
\newlabel{8@xvr}{{}{96}}
\newlabel{8@vr}{{}{96}}
\@writefile{toc}{\contentsline {section}{\numberline {4.2}Carr\IeC {\'e}s, puissances, racines, etc.}{97}{section.742}\protected@file@percent }
\@writefile{toc}{\contentsline {section}{\numberline {4.3}Valeur absolue}{97}{section.743}\protected@file@percent }
\@writefile{toc}{\contentsline {subsection}{\numberline {4.3.1}Partie enti\IeC {\`e}re}{98}{subsection.747}\protected@file@percent }
\newlabel{pe}{{4-11}{98}{Partie entière}{theoreme.748}{}}
\newlabel{9@xvr}{{}{99}}
\newlabel{9@vr}{{}{99}}
\@writefile{toc}{\contentsline {subsection}{\numberline {4.3.2}Th\IeC {\'e}or\IeC {\`e}me de la borne sup\IeC {\'e}rieure}{99}{subsection.752}\protected@file@percent }
\@writefile{toc}{\contentsline {subsection}{\numberline {4.3.3}Caract\IeC {\'e}risation de la borne sup\IeC {\'e}rieure}{100}{subsection.761}\protected@file@percent }
\@writefile{toc}{\contentsline {section}{\numberline {4.4}Entra\IeC {\^\i }nement}{101}{section.763}\protected@file@percent }
\@setckpt{Reels22}{
\setcounter{page}{104}
\setcounter{equation}{0}
\setcounter{enumi}{5}
\setcounter{enumii}{2}
\setcounter{enumiii}{4}
\setcounter{enumiv}{0}
\setcounter{footnote}{1}
\setcounter{mpfootnote}{0}
\setcounter{part}{0}
\setcounter{chapter}{4}
\setcounter{section}{4}
\setcounter{subsection}{0}
\setcounter{subsubsection}{0}
\setcounter{paragraph}{0}
\setcounter{subparagraph}{0}
\setcounter{figure}{0}
\setcounter{table}{0}
\setcounter{chapterstar}{1}
\setcounter{@stackindex}{0}
\setcounter{ROWcellindex@}{0}
\setcounter{tcbbreakpart}{0}
\setcounter{tcblayer}{0}
\setcounter{tcolorbox@number}{0}
\setcounter{parentequation}{0}
\setcounter{ifsymcnt}{0}
\setcounter{lstnumber}{1}
\setcounter{vrcnt}{9}
\setcounter{tw@hyphen@char@num}{0}
\setcounter{float@type}{64}
\setcounter{subfigure}{0}
\setcounter{lofdepth}{1}
\setcounter{subtable}{0}
\setcounter{lotdepth}{1}
\setcounter{Item}{450}
\setcounter{Hfootnote}{3}
\setcounter{bookmark@seq@number}{84}
\setcounter{mdf@globalstyle@cnt}{1}
\setcounter{mdfcountframes}{0}
\setcounter{mdf@env@i}{0}
\setcounter{mdf@env@ii}{0}
\setcounter{mdf@zref@counter}{0}
\setcounter{bclogocompteur}{0}
\setcounter{BAenumi}{0}
\setcounter{caption@flags}{0}
\setcounter{continuedfloat}{0}
\setcounter{tabularnote}{0}
\setcounter{num}{0}
\setcounter{qcm}{0}
\setcounter{FancyVerbLine}{19}
\setcounter{linenumber}{3}
\setcounter{LN@truepage}{103}
\setcounter{minted@FancyVerbLineTemp}{0}
\setcounter{listing}{0}
\setcounter{numquestion}{0}
\setcounter{qcm@numb}{0}
\setcounter{numprop}{0}
\setcounter{LT@tables}{0}
\setcounter{LT@chunks}{0}
\setcounter{@LCDdotx}{0}
\setcounter{@LCDdoty}{0}
\setcounter{@LCDchrx}{0}
\setcounter{@LCDlines}{0}
\setcounter{@LCDlower}{0}
\setcounter{nprt@mantissa@digitsbefore}{0}
\setcounter{nprt@mantissa@digitsafter}{0}
\setcounter{nprt@exponent@digitsbefore}{0}
\setcounter{nprt@exponent@digitsafter}{0}
\setcounter{nprt@digitsfirstblock}{0}
\setcounter{nprt@blockcnt}{0}
\setcounter{nprt@cntprint}{0}
\setcounter{tkz@gr@a}{0}
\setcounter{tkz@gr@b}{0}
\setcounter{tkz@gr@c}{0}
\setcounter{tkz@gr@e}{0}
\setcounter{tkz@gr@d}{0}
\setcounter{tkz@gr@p}{1}
\setcounter{tkz@gr@i}{0}
\setcounter{tkz@gr@n}{0}
\setcounter{tkz@gr@ta}{0}
\setcounter{tkz@gr@tb}{0}
\setcounter{tkz@cnt@line}{3}
\setcounter{tkz@cnt@lg}{2}
\setcounter{tkz@cnt@cl}{2}
\setcounter{tkz@cnt@pred}{1}
\setcounter{tkz@cnt@temp}{0}
\setcounter{tkz@cnt@arrow}{2}
\setcounter{tkz@cnt@zone}{0}
\setcounter{tkz@cnt@lgnext}{3}
\setcounter{tkz@cnt@clnext}{2}
\setcounter{tkz@cnt@pair}{2}
\setcounter{tkz@cnt@impair}{2}
\setcounter{tkz@cnt@aw}{2}
\setcounter{C@NumTab}{0}
\setcounter{C@NumGroup}{0}
\setcounter{C@NextNode}{0}
\setcounter{NumC@Node}{0}
\setcounter{NumC@Stop}{0}
\setcounter{C@CurrentStop}{0}
\setcounter{C@CurrentNode}{0}
\setcounter{C@CurrentGroup}{0}
\setcounter{r@tfl@t}{0}
\setcounter{c@imbrication}{-1}
\setcounter{c@indentation}{0}
\setcounter{c@instruction}{20}
\setcounter{c@algo}{2}
\setcounter{c@tabdim}{0}
\setcounter{c@chaineouverte}{0}
\setcounter{floatalgo}{0}
\setcounter{aide}{0}
\setcounter{sol}{0}
\setcounter{mtc}{5}
\setcounter{minitocdepth}{3}
\setcounter{ptc}{0}
\setcounter{parttocdepth}{2}
\setcounter{asy}{0}
\setcounter{theoreme}{15}
\setcounter{lemme}{0}
\setcounter{corollaire}{0}
\setcounter{propriete}{0}
\setcounter{definition}{5}
\setcounter{exemple}{0}
\setcounter{remarque}{13}
\setcounter{recherche}{25}
\setcounter{exercicea}{0}
\setcounter{exerciceb}{0}
\setcounter{exercicec}{0}
\setcounter{pyquestions}{0}
\setcounter{pyxercice}{0}
\setcounter{lstlisting}{0}
\setcounter{section@level}{0}
\setcounter{tabularnotesi}{0}
\setcounter{tabularnotes*i}{0}
\setcounter{minilofdepth}{2}
\setcounter{minilotdepth}{2}
\setcounter{partlofdepth}{2}
\setcounter{partlotdepth}{2}
\setcounter{sectlofdepth}{2}
\setcounter{sectlotdepth}{2}
}
