\relax 
\providecommand\hyper@newdestlabel[2]{}
\providecommand\zref@newlabel[2]{}
\@writefile{toc}{\contentsline {chapter}{\numberline {3}Ensembles - Applications}{71}{chapter.517}\protected@file@percent }
\@writefile{lof}{\addvspace {10\p@ }}
\@writefile{lot}{\addvspace {10\p@ }}
\@writefile{lof}{\contentsline {xchapter}{Ensembles - Applications}{72}{chapter.517}\protected@file@percent }
\@writefile{lot}{\contentsline {xchapter}{Ensembles - Applications}{72}{chapter.517}\protected@file@percent }
\@writefile{toc}{\contentsline {section}{\numberline {3.1}Ensembles}{72}{section.518}\protected@file@percent }
\@writefile{toc}{\contentsline {subsection}{\numberline {3.1.1}Appartenance}{72}{subsection.519}\protected@file@percent }
\@writefile{toc}{\contentsline {subsection}{\numberline {3.1.2}Inclusion}{73}{subsection.520}\protected@file@percent }
\@writefile{toc}{\contentsline {subsubsection}{\numberline {3.1.2.1}D\IeC {\'e}finition}{73}{subsubsection.521}\protected@file@percent }
\@writefile{toc}{\contentsline {subsubsection}{\numberline {3.1.2.2}Avec Python}{73}{subsubsection.523}\protected@file@percent }
\@writefile{toc}{\contentsline {subsection}{\numberline {3.1.3}\IeC {\'E}galit\IeC {\'e}}{74}{subsection.525}\protected@file@percent }
\@writefile{toc}{\contentsline {subsubsection}{\numberline {3.1.3.1}Axiome d'extensionalit\IeC {\'e}}{74}{subsubsection.526}\protected@file@percent }
\@writefile{toc}{\contentsline {subsubsection}{\numberline {3.1.3.2}Avec Python}{74}{subsubsection.528}\protected@file@percent }
\@writefile{toc}{\contentsline {subsection}{\numberline {3.1.4}D\IeC {\'e}finition par extension / compr\IeC {\'e}hension}{74}{subsection.530}\protected@file@percent }
\@writefile{toc}{\contentsline {subsection}{\numberline {3.1.5}Ensembles de nombres}{75}{subsection.532}\protected@file@percent }
\@writefile{toc}{\contentsline {subsection}{\numberline {3.1.6}Cardinal d'un ensemble}{75}{subsection.535}\protected@file@percent }
\@writefile{toc}{\contentsline {subsection}{\numberline {3.1.7}Ensemble des sous-ensembles d'un ensemble !}{76}{subsection.540}\protected@file@percent }
\@writefile{toc}{\contentsline {subsection}{\numberline {3.1.8}Op\IeC {\'e}rations sur les ensembles}{76}{subsection.545}\protected@file@percent }
\@writefile{toc}{\contentsline {subsubsection}{\numberline {3.1.8.1}Intersection}{76}{subsubsection.546}\protected@file@percent }
\@writefile{toc}{\contentsline {subsubsection}{\numberline {3.1.8.2}R\IeC {\'e}union}{77}{subsubsection.549}\protected@file@percent }
\@writefile{toc}{\contentsline {subsubsection}{\numberline {3.1.8.3}Diff\IeC {\'e}rence de deux ensembles}{77}{subsubsection.553}\protected@file@percent }
\@writefile{toc}{\contentsline {subsubsection}{\numberline {3.1.8.4}Compl\IeC {\'e}mentaire}{78}{subsubsection.556}\protected@file@percent }
\@writefile{toc}{\contentsline {subsubsection}{\numberline {3.1.8.5}Lois de De Morgan}{78}{subsubsection.560}\protected@file@percent }
\@writefile{toc}{\contentsline {subsection}{\numberline {3.1.9}Dualit\IeC {\'e}}{79}{subsection.562}\protected@file@percent }
\newlabel{dualite}{{3.1.9}{79}{Dualité}{subsection.562}{}}
\@writefile{toc}{\contentsline {subsection}{\numberline {3.1.10}Partition d'un ensemble}{79}{subsection.563}\protected@file@percent }
\@writefile{toc}{\contentsline {subsection}{\numberline {3.1.11}Produit cart\IeC {\'e}sien}{80}{subsection.568}\protected@file@percent }
\@writefile{toc}{\contentsline {subsubsection}{\numberline {3.1.11.1}\IeC {\`A} table}{80}{subsubsection.569}\protected@file@percent }
\@writefile{toc}{\contentsline {subsubsection}{\numberline {3.1.11.2}Produit cart\IeC {\'e}sien d'ensembles}{80}{subsubsection.570}\protected@file@percent }
\@writefile{toc}{\contentsline {subsubsection}{\numberline {3.1.11.3}n-uplets - Produit d'un nombre quelconque d'ensembles}{82}{subsubsection.574}\protected@file@percent }
\@writefile{toc}{\contentsline {section}{\numberline {3.2}Relations, Fonctions, Applications}{82}{section.578}\protected@file@percent }
\@writefile{toc}{\contentsline {subsection}{\numberline {3.2.1}Relations binaires}{82}{subsection.579}\protected@file@percent }
\newlabel{ce1}{{3.2.1}{82}{Relations binaires}{subsection.579}{}}
\newlabel{6@xvr}{{}{82}}
\newlabel{6@vr}{{}{82}}
\@writefile{toc}{\contentsline {subsection}{\numberline {3.2.2}Fonctions, applications}{83}{subsection.581}\protected@file@percent }
\@writefile{lof}{\contentsline {figure}{\numberline {3.1}{\ignorespaces $f$\relax }}{84}{figure.caption.585}\protected@file@percent }
\@writefile{lof}{\contentsline {figure}{\numberline {3.2}{\ignorespaces $g$\relax }}{84}{figure.caption.586}\protected@file@percent }
\@writefile{toc}{\contentsline {subsection}{\numberline {3.2.3}Images directe et r\IeC {\'e}ciproque par une application}{84}{subsection.588}\protected@file@percent }
\@writefile{lof}{\contentsline {figure}{\numberline {3.3}{\ignorespaces Image et contre-image (image r\IeC {\'e}ciproque)\relax }}{85}{figure.caption.594}\protected@file@percent }
\@writefile{toc}{\contentsline {subsection}{\numberline {3.2.4}Compos\IeC {\'e}e de deux fonctions}{86}{subsection.595}\protected@file@percent }
\@writefile{lof}{\contentsline {figure}{\numberline {3.4}{\ignorespaces $f$\relax }}{86}{figure.caption.597}\protected@file@percent }
\@writefile{lof}{\contentsline {figure}{\numberline {3.5}{\ignorespaces $g$\relax }}{86}{figure.caption.598}\protected@file@percent }
\@writefile{lof}{\contentsline {figure}{\numberline {3.6}{\ignorespaces $g \circ f$\relax }}{86}{figure.caption.599}\protected@file@percent }
\@writefile{lof}{\contentsline {figure}{\numberline {3.7}{\ignorespaces $f$\relax }}{87}{figure.caption.603}\protected@file@percent }
\@writefile{lof}{\contentsline {figure}{\numberline {3.8}{\ignorespaces $g$\relax }}{87}{figure.caption.604}\protected@file@percent }
\@writefile{lof}{\contentsline {figure}{\numberline {3.9}{\ignorespaces $g \circ f$\relax }}{87}{figure.caption.605}\protected@file@percent }
\@writefile{toc}{\contentsline {subsection}{\numberline {3.2.5}injection, surjection, bijection}{87}{subsection.607}\protected@file@percent }
\@writefile{toc}{\contentsline {subsubsection}{\numberline {3.2.5.1}Fonction injective}{87}{subsubsection.608}\protected@file@percent }
\@writefile{lof}{\contentsline {figure}{\numberline {3.10}{\ignorespaces Injection\relax }}{87}{figure.caption.610}\protected@file@percent }
\@writefile{lof}{\contentsline {figure}{\numberline {3.11}{\ignorespaces Ceci n'est pas une injection\relax }}{88}{figure.caption.612}\protected@file@percent }
\@writefile{toc}{\contentsline {subsubsection}{\numberline {3.2.5.2}Fonction surjective}{88}{subsubsection.614}\protected@file@percent }
\@writefile{lof}{\contentsline {figure}{\numberline {3.12}{\ignorespaces Surjection\relax }}{88}{figure.caption.616}\protected@file@percent }
\@writefile{toc}{\contentsline {subsubsection}{\numberline {3.2.5.3}Fonction bijective}{88}{subsubsection.617}\protected@file@percent }
\@writefile{toc}{\contentsline {subsubsection}{\numberline {3.2.5.4}bijection r\IeC {\'e}ciproque}{89}{subsubsection.621}\protected@file@percent }
\@writefile{toc}{\contentsline {section}{\numberline {3.3}Entra\IeC {\^\i }nement}{90}{section.627}\protected@file@percent }
\@writefile{toc}{\contentsline {subsection}{\numberline {3.3.1}Ensembles}{90}{subsection.628}\protected@file@percent }
\newlabel{7@xvr}{{}{91}}
\newlabel{7@vr}{{}{91}}
\@writefile{toc}{\contentsline {subsection}{\numberline {3.3.2}Applications}{91}{subsection.692}\protected@file@percent }
\@setckpt{sets_22}{
\setcounter{page}{93}
\setcounter{equation}{0}
\setcounter{enumi}{3}
\setcounter{enumii}{2}
\setcounter{enumiii}{4}
\setcounter{enumiv}{0}
\setcounter{footnote}{0}
\setcounter{mpfootnote}{0}
\setcounter{part}{0}
\setcounter{chapter}{3}
\setcounter{section}{3}
\setcounter{subsection}{2}
\setcounter{subsubsection}{0}
\setcounter{paragraph}{0}
\setcounter{subparagraph}{0}
\setcounter{figure}{12}
\setcounter{table}{0}
\setcounter{chapterstar}{1}
\setcounter{@stackindex}{0}
\setcounter{ROWcellindex@}{0}
\setcounter{tcbbreakpart}{0}
\setcounter{tcblayer}{0}
\setcounter{tcolorbox@number}{0}
\setcounter{parentequation}{0}
\setcounter{ifsymcnt}{0}
\setcounter{lstnumber}{1}
\setcounter{vrcnt}{7}
\setcounter{tw@hyphen@char@num}{0}
\setcounter{float@type}{64}
\setcounter{subfigure}{0}
\setcounter{lofdepth}{1}
\setcounter{subtable}{0}
\setcounter{lotdepth}{1}
\setcounter{Item}{379}
\setcounter{Hfootnote}{2}
\setcounter{bookmark@seq@number}{73}
\setcounter{mdf@globalstyle@cnt}{1}
\setcounter{mdfcountframes}{0}
\setcounter{mdf@env@i}{0}
\setcounter{mdf@env@ii}{0}
\setcounter{mdf@zref@counter}{0}
\setcounter{bclogocompteur}{0}
\setcounter{BAenumi}{0}
\setcounter{caption@flags}{0}
\setcounter{continuedfloat}{0}
\setcounter{tabularnote}{0}
\setcounter{num}{0}
\setcounter{qcm}{0}
\setcounter{FancyVerbLine}{2}
\setcounter{linenumber}{3}
\setcounter{LN@truepage}{92}
\setcounter{minted@FancyVerbLineTemp}{0}
\setcounter{listing}{0}
\setcounter{numquestion}{0}
\setcounter{qcm@numb}{0}
\setcounter{numprop}{0}
\setcounter{LT@tables}{0}
\setcounter{LT@chunks}{0}
\setcounter{@LCDdotx}{0}
\setcounter{@LCDdoty}{0}
\setcounter{@LCDchrx}{0}
\setcounter{@LCDlines}{0}
\setcounter{@LCDlower}{0}
\setcounter{nprt@mantissa@digitsbefore}{0}
\setcounter{nprt@mantissa@digitsafter}{0}
\setcounter{nprt@exponent@digitsbefore}{0}
\setcounter{nprt@exponent@digitsafter}{0}
\setcounter{nprt@digitsfirstblock}{0}
\setcounter{nprt@blockcnt}{0}
\setcounter{nprt@cntprint}{0}
\setcounter{tkz@gr@a}{0}
\setcounter{tkz@gr@b}{0}
\setcounter{tkz@gr@c}{0}
\setcounter{tkz@gr@e}{0}
\setcounter{tkz@gr@d}{0}
\setcounter{tkz@gr@p}{1}
\setcounter{tkz@gr@i}{0}
\setcounter{tkz@gr@n}{0}
\setcounter{tkz@gr@ta}{0}
\setcounter{tkz@gr@tb}{0}
\setcounter{tkz@cnt@line}{3}
\setcounter{tkz@cnt@lg}{2}
\setcounter{tkz@cnt@cl}{2}
\setcounter{tkz@cnt@pred}{1}
\setcounter{tkz@cnt@temp}{0}
\setcounter{tkz@cnt@arrow}{2}
\setcounter{tkz@cnt@zone}{0}
\setcounter{tkz@cnt@lgnext}{3}
\setcounter{tkz@cnt@clnext}{2}
\setcounter{tkz@cnt@pair}{2}
\setcounter{tkz@cnt@impair}{2}
\setcounter{tkz@cnt@aw}{2}
\setcounter{C@NumTab}{0}
\setcounter{C@NumGroup}{0}
\setcounter{C@NextNode}{0}
\setcounter{NumC@Node}{0}
\setcounter{NumC@Stop}{0}
\setcounter{C@CurrentStop}{0}
\setcounter{C@CurrentNode}{0}
\setcounter{C@CurrentGroup}{0}
\setcounter{r@tfl@t}{0}
\setcounter{c@imbrication}{-1}
\setcounter{c@indentation}{0}
\setcounter{c@instruction}{20}
\setcounter{c@algo}{2}
\setcounter{c@tabdim}{0}
\setcounter{c@chaineouverte}{0}
\setcounter{floatalgo}{0}
\setcounter{aide}{0}
\setcounter{sol}{0}
\setcounter{mtc}{4}
\setcounter{minitocdepth}{3}
\setcounter{ptc}{0}
\setcounter{parttocdepth}{2}
\setcounter{asy}{0}
\setcounter{theoreme}{9}
\setcounter{lemme}{0}
\setcounter{corollaire}{0}
\setcounter{propriete}{0}
\setcounter{definition}{27}
\setcounter{exemple}{0}
\setcounter{remarque}{12}
\setcounter{recherche}{40}
\setcounter{exercicea}{0}
\setcounter{exerciceb}{0}
\setcounter{exercicec}{0}
\setcounter{pyquestions}{0}
\setcounter{pyxercice}{0}
\setcounter{lstlisting}{0}
\setcounter{section@level}{0}
\setcounter{tabularnotesi}{0}
\setcounter{tabularnotes*i}{0}
\setcounter{minilofdepth}{2}
\setcounter{minilotdepth}{2}
\setcounter{partlofdepth}{2}
\setcounter{partlotdepth}{2}
\setcounter{sectlofdepth}{2}
\setcounter{sectlotdepth}{2}
}
