\relax 
\providecommand\hyper@newdestlabel[2]{}
\providecommand\zref@newlabel[2]{}
\@writefile{toc}{\contentsline {chapter}{\numberline {15}Statistique descriptive}{349}{chapter.3158}\protected@file@percent }
\@writefile{lof}{\addvspace {10\p@ }}
\@writefile{lot}{\addvspace {10\p@ }}
\@writefile{lof}{\contentsline {xchapter}{Statistique descriptive}{350}{chapter.3158}\protected@file@percent }
\@writefile{lot}{\contentsline {xchapter}{Statistique descriptive}{350}{chapter.3158}\protected@file@percent }
\@writefile{toc}{\contentsline {section}{\numberline {15.1}Les variables}{350}{section.3159}\protected@file@percent }
\@writefile{toc}{\contentsline {subsection}{\numberline {15.1.1}Vocabulaire}{350}{subsection.3160}\protected@file@percent }
\@writefile{toc}{\contentsline {subsection}{\numberline {15.1.2}Variables qualitatives}{350}{subsection.3161}\protected@file@percent }
\@writefile{toc}{\contentsline {subsection}{\numberline {15.1.3}Variables quantitatives}{350}{subsection.3162}\protected@file@percent }
\@writefile{toc}{\contentsline {section}{\numberline {15.2}Tableaux et graphiques}{350}{section.3163}\protected@file@percent }
\@writefile{toc}{\contentsline {subsection}{\numberline {15.2.1}Variables qualitatives ou quantitatives discr\IeC {\`e}tes (peu de valeurs distinctes)}{350}{subsection.3164}\protected@file@percent }
\@writefile{toc}{\contentsline {subsubsection}{\numberline {15.2.1.1}Tableau des effectifs/ des fr\IeC {\'e}quences}{350}{subsubsection.3165}\protected@file@percent }
\@writefile{lof}{\contentsline {figure}{\numberline {15.1}{\ignorespaces Sexe des 75 personnes ayant \IeC {\'e}t\IeC {\'e} emprisonn\IeC {\'e}es\ ({\footnotesize  \itshape Source : minist\IeC {\`e}re syldave des la justice - BO n\IeC {\textdegree }57 p. 42})\relax }}{350}{figure.caption.3166}\protected@file@percent }
\@writefile{lof}{\contentsline {figure}{\numberline {15.2}{\ignorespaces R\IeC {\'e}partition des 75 emprisonn\IeC {\'e}s selon le sexe\ ({\footnotesize  \itshape Source : minist\IeC {\`e}re syldave des la justice - BO n\IeC {\textdegree }57 p. 42})\relax }}{351}{figure.caption.3167}\protected@file@percent }
\@writefile{lof}{\contentsline {figure}{\numberline {15.3}{\ignorespaces R\IeC {\'e}partition en pourcentage des 75 emprisonn\IeC {\'e}s selon le sexe\ ({\footnotesize  \itshape Source : minist\IeC {\`e}re syldave des la justice - BO n\IeC {\textdegree }57 p. 42})\relax }}{351}{figure.caption.3168}\protected@file@percent }
\@writefile{toc}{\contentsline {paragraph}{\numberline {15.2.1.1.1}Avec Python}{351}{paragraph.3169}\protected@file@percent }
\@writefile{toc}{\contentsline {subsubsection}{\numberline {15.2.1.2}Repr\IeC {\'e}sentations graphiques}{351}{subsubsection.3170}\protected@file@percent }
\@writefile{lof}{\contentsline {figure}{\numberline {15.4}{\ignorespaces R\IeC {\'e}partition en pourcentage des Syldaves selon leur degr\IeC {\'e} de satisfaction \IeC {\`a} l'\IeC {\'e}gard du GPS\ ({\footnotesize  \itshape Source : minist\IeC {\`e}re syldave des la justice - BO n\IeC {\textdegree }58 p. 554})\relax }}{352}{figure.caption.3171}\protected@file@percent }
\newlabel{election}{{15.4}{352}{Répartition en pourcentage des Syldaves selon leur degré de satisfaction à l'égard du GPS\ ({\footnotesize \itshape Source : ministère syldave des la justice - BO n°58 p. 554})\relax }{figure.caption.3171}{}}
\@writefile{toc}{\contentsline {paragraph}{\numberline {15.2.1.2.1}Diagramme en b\IeC {\^a}tons}{352}{paragraph.3172}\protected@file@percent }
\@writefile{lof}{\contentsline {figure}{\numberline {15.5}{\ignorespaces R\IeC {\'e}partition en pourcentage des Syldaves selon leur degr\IeC {\'e} de satisfaction \IeC {\`a} l'\IeC {\'e}gard du GPS\ ({\footnotesize  \itshape Source : minist\IeC {\`e}re syldave des la justice - BO n\IeC {\textdegree }58 p. 554}) - Diagramme en b\IeC {\^a}tons\relax }}{352}{figure.caption.3173}\protected@file@percent }
\@writefile{toc}{\contentsline {paragraph}{\numberline {15.2.1.2.2}Diagramme \IeC {\`a} secteurs (\IeC {\guillemotleft }\nobreakspace  camembert\nobreakspace  \IeC {\guillemotright })}{352}{paragraph.3174}\protected@file@percent }
\@writefile{lof}{\contentsline {figure}{\numberline {15.6}{\ignorespaces R\IeC {\'e}partition en pourcentage des Syldaves selon leur degr\IeC {\'e} de satisfaction \IeC {\`a} l'\IeC {\'e}gard du GPS\ ({\footnotesize  \itshape Source : minist\IeC {\`e}re syldave des la justice - BO n\IeC {\textdegree }58 p. 554}) - Calcul des angles du diagramme circulaire\relax }}{353}{figure.caption.3175}\protected@file@percent }
\@writefile{toc}{\contentsline {paragraph}{\numberline {15.2.1.2.3}Avec Python}{353}{paragraph.3176}\protected@file@percent }
\@writefile{lof}{\contentsline {figure}{\numberline {15.7}{\ignorespaces R\IeC {\'e}partition en pourcentage des Syldaves selon leur degr\IeC {\'e} de satisfaction \IeC {\`a} l'\IeC {\'e}gard du GPS\ ({\footnotesize  \itshape Source : minist\IeC {\`e}re syldave des la justice - BO n\IeC {\textdegree }58 p. 554}) - Diagramme circulaire \relax }}{353}{figure.caption.3177}\protected@file@percent }
\@writefile{toc}{\contentsline {subsection}{\numberline {15.2.2}Variables quantitatives discr\IeC {\`e}tes (grand nombre de valeurs) ou continues}{353}{subsection.3178}\protected@file@percent }
\@writefile{toc}{\contentsline {subsubsection}{\numberline {15.2.2.1}Groupement par classes}{353}{subsubsection.3179}\protected@file@percent }
\@writefile{lof}{\contentsline {figure}{\numberline {15.8}{\ignorespaces Nombre annuel de blouses vendues par la femme du Grand Protecteur de la Syldavie de 1974 \IeC {\`a} 2022 ({\footnotesize  \itshape Source : minist\IeC {\`e}re syldave de la culture - BO n\IeC {\textdegree }51 p. 1254559})\relax }}{353}{figure.caption.3180}\protected@file@percent }
\@writefile{lof}{\contentsline {figure}{\numberline {15.9}{\ignorespaces R\IeC {\'e}partition de 49 ann\IeC {\'e}es selon le nombre annuel de blouses vendues par la femme du Grand Protecteur de la Syldavie de 1974 \IeC {\`a} 2008 ({\footnotesize  \itshape Source : minist\IeC {\`e}re syldave de la culture - BO n\IeC {\textdegree }51 p. 1254559})\relax }}{354}{figure.caption.3181}\protected@file@percent }
\@writefile{lof}{\contentsline {figure}{\numberline {15.10}{\ignorespaces R\IeC {\'e}partition en pourcentage de 49 ann\IeC {\'e}es selon le nombre annuel de disques vendus par la femme du Grand Protecteur de la Syldavie de 1960 \IeC {\`a} 2008 ({\footnotesize  \itshape Source : minist\IeC {\`e}re syldave de la culture - BO n\IeC {\textdegree }51 p. 1254559})\relax }}{354}{figure.caption.3182}\protected@file@percent }
\@writefile{toc}{\contentsline {subsubsection}{\numberline {15.2.2.2}Histogramme avec classes de m\IeC {\^e}me amplitude}{354}{subsubsection.3183}\protected@file@percent }
\@writefile{lof}{\contentsline {figure}{\numberline {15.11}{\ignorespaces R\IeC {\'e}partition de 49 ann\IeC {\'e}es selon le nombre annuel de disques vendus par la femme du Grand Protecteur de la Syldavie de 1960 \IeC {\`a} 2022 ({\footnotesize  \itshape Source : minist\IeC {\`e}re syldave de la culture - BO n\IeC {\textdegree }51 p. 1254559}) - Histogramme\relax }}{355}{figure.caption.3184}\protected@file@percent }
\newlabel{disque}{{15.11}{355}{Répartition de 49 années selon le nombre annuel de disques vendus par la femme du Grand Protecteur de la Syldavie de 1960 à 2022 ({\footnotesize \itshape Source : ministère syldave de la culture - BO n°51 p. 1254559}) - Histogramme\relax }{figure.caption.3184}{}}
\@writefile{toc}{\contentsline {paragraph}{\numberline {15.2.2.2.1}Avec Python}{355}{paragraph.3185}\protected@file@percent }
\@writefile{toc}{\contentsline {subsubsection}{\numberline {15.2.2.3}Histogramme avec classes d'amplitudes diff\IeC {\'e}rentes}{355}{subsubsection.3186}\protected@file@percent }
\@writefile{lof}{\contentsline {figure}{\numberline {15.12}{\ignorespaces R\IeC {\'e}partition des femmes du harem du Grand Protecteur de la Syldavie selon l'\IeC {\^a}ge({\footnotesize  \itshape Source : minist\IeC {\`e}re syldave du travail- BO n\IeC {\textdegree }7})\relax }}{355}{figure.caption.3187}\protected@file@percent }
\newlabel{harem}{{15.12}{355}{Répartition des femmes du harem du Grand Protecteur de la Syldavie selon l'âge({\footnotesize \itshape Source : ministère syldave du travail- BO n°7})\relax }{figure.caption.3187}{}}
\@writefile{lof}{\contentsline {figure}{\numberline {15.13}{\ignorespaces Construction d'un histogramme \IeC {\`a} pas non constant\relax }}{356}{figure.caption.3188}\protected@file@percent }
\@writefile{toc}{\contentsline {paragraph}{\numberline {15.2.2.3.1}Avec Python}{356}{paragraph.3190}\protected@file@percent }
\@writefile{toc}{\contentsline {section}{\numberline {15.3}Tableaux \IeC {\`a} double entr\IeC {\'e}e}{357}{section.3191}\protected@file@percent }
\@writefile{lof}{\contentsline {figure}{\numberline {15.14}{\ignorespaces R\IeC {\'e}partition des d\IeC {\'e}tenus d'une prison syldave selon l'anciennet\IeC {\'e} et le sexe ({\footnotesize  \itshape Source : minist\IeC {\`e}re syldave des loisirs - BO n\IeC {\textdegree }0})\relax }}{357}{figure.caption.3192}\protected@file@percent }
\@writefile{lof}{\contentsline {figure}{\numberline {15.15}{\ignorespaces R\IeC {\'e}partition en pourcentage des d\IeC {\'e}tenus d'une prison syldave selon l'anciennet\IeC {\'e} et le sexe ({\footnotesize  \itshape Source : minist\IeC {\`e}re syldave des loisirs - BO n\IeC {\textdegree }0})\relax }}{357}{figure.caption.3193}\protected@file@percent }
\@writefile{lof}{\contentsline {figure}{\numberline {15.16}{\ignorespaces R\IeC {\'e}partition en pourcentage des d\IeC {\'e}tenus d'une prison syldave par sexe selon l'anciennet\IeC {\'e}({\footnotesize  \itshape Source : minist\IeC {\`e}re syldave des loisirs - BO n\IeC {\textdegree }0})\relax }}{357}{figure.caption.3194}\protected@file@percent }
\@writefile{lof}{\contentsline {figure}{\numberline {15.17}{\ignorespaces R\IeC {\'e}partition en pourcentage des d\IeC {\'e}tenus d'une prison syldave par cat\IeC {\'e}gorie d'anciennet\IeC {\'e} selon le sexe ({\footnotesize  \itshape Source : minist\IeC {\`e}re syldave des loisirs - BO n\IeC {\textdegree }0})\relax }}{358}{figure.caption.3195}\protected@file@percent }
\@writefile{toc}{\contentsline {section}{\numberline {15.4}S\IeC {\'e}ries chronologiques}{358}{section.3197}\protected@file@percent }
\@writefile{toc}{\contentsline {subsection}{\numberline {15.4.1}Mesures sur les s\IeC {\'e}ries chronologiques}{358}{subsection.3198}\protected@file@percent }
\@writefile{lof}{\contentsline {figure}{\numberline {15.18}{\ignorespaces \IeC {\'E}volution du nombre d'invit\IeC {\'e}s \IeC {\`a} la garden party annuelle du GPS ({\footnotesize  \itshape Source : minist\IeC {\`e}re syldave du protocole - BO n\IeC {\textdegree }2})\relax }}{358}{figure.caption.3199}\protected@file@percent }
\newlabel{garden}{{15.18}{358}{Évolution du nombre d'invités à la garden party annuelle du GPS ({\footnotesize \itshape Source : ministère syldave du protocole - BO n°2})\relax }{figure.caption.3199}{}}
\@writefile{toc}{\contentsline {paragraph}{\numberline {15.4.1.0.1}Avec Python}{358}{paragraph.3200}\protected@file@percent }
\@writefile{toc}{\contentsline {subsubsection}{\numberline {15.4.1.1}Variation absolue}{359}{subsubsection.3201}\protected@file@percent }
\newlabel{18@xvr}{{}{359}}
\newlabel{18@vr}{{}{359}}
\@writefile{toc}{\contentsline {subsubsection}{\numberline {15.4.1.2}Cas particulier des variables exprim\IeC {\'e}es en pourcentage}{359}{subsubsection.3203}\protected@file@percent }
\newlabel{vp}{{15.4.1.2}{359}{Cas particulier des variables exprimées en pourcentage}{subsubsection.3203}{}}
\@writefile{lof}{\contentsline {figure}{\numberline {15.19}{\ignorespaces \IeC {\'E}volution de la proportion des personnes ayant vot\IeC {\'e} pour le GPS lors des 4 derni\IeC {\`e}res \IeC {\'e}lections dans l'ensemble des votants ({\footnotesize  \itshape Source : minist\IeC {\`e}re syldave des services secrets - BO n\IeC {\textdegree }56})\relax }}{359}{figure.caption.3204}\protected@file@percent }
\newlabel{election}{{15.19}{359}{Évolution de la proportion des personnes ayant voté pour le GPS lors des 4 dernières élections dans l'ensemble des votants ({\footnotesize \itshape Source : ministère syldave des services secrets - BO n°56})\relax }{figure.caption.3204}{}}
\@writefile{toc}{\contentsline {subsubsection}{\numberline {15.4.1.3}Variation relative}{359}{subsubsection.3205}\protected@file@percent }
\newlabel{19@xvr}{{}{359}}
\newlabel{19@vr}{{}{359}}
\newlabel{20@xvr}{{}{360}}
\newlabel{20@vr}{{}{360}}
\@writefile{toc}{\contentsline {subsubsection}{\numberline {15.4.1.4}Variation moyenne}{360}{subsubsection.3208}\protected@file@percent }
\newlabel{21@xvr}{{}{360}}
\newlabel{21@vr}{{}{360}}
\@writefile{toc}{\contentsline {subsubsection}{\numberline {15.4.1.5}Comment commenter une s\IeC {\'e}rie chronologique\nobreakspace  ?}{360}{subsubsection.3210}\protected@file@percent }
\newlabel{22@xvr}{{}{360}}
\newlabel{22@vr}{{}{360}}
\@writefile{toc}{\contentsline {subsection}{\numberline {15.4.2}Lissage par les moyennes mobiles}{360}{subsection.3211}\protected@file@percent }
\newlabel{banquise}{{15.4.2}{360}{Lissage par les moyennes mobiles}{subsection.3211}{}}
\@writefile{toc}{\contentsline {section}{\numberline {15.5}Mesures de tendance centrale}{363}{section.3215}\protected@file@percent }
\@writefile{toc}{\contentsline {subsection}{\numberline {15.5.1}Le mode}{363}{subsection.3216}\protected@file@percent }
\@writefile{toc}{\contentsline {subsubsection}{\numberline {15.5.1.1}D\IeC {\'e}finition}{363}{subsubsection.3217}\protected@file@percent }
\@writefile{toc}{\contentsline {subsubsection}{\numberline {15.5.1.2}Donn\IeC {\'e}es group\IeC {\'e}es par valeurs ou modalit\IeC {\'e}s}{363}{subsubsection.3219}\protected@file@percent }
\newlabel{23@xvr}{{}{363}}
\newlabel{23@vr}{{}{363}}
\@writefile{toc}{\contentsline {subsubsection}{\numberline {15.5.1.3}Donn\IeC {\'e}es group\IeC {\'e}es par classes}{363}{subsubsection.3220}\protected@file@percent }
\newlabel{24@xvr}{{}{363}}
\newlabel{24@vr}{{}{363}}
\@writefile{toc}{\contentsline {subsubsection}{\numberline {15.5.1.4}Distribution polymodale}{363}{subsubsection.3221}\protected@file@percent }
\@writefile{lof}{\contentsline {figure}{\numberline {15.20}{\ignorespaces R\IeC {\'e}partition des prisonniers syldaves selon la dur\IeC {\'e}e de leur peine (en ann\IeC {\'e}es)\relax }}{363}{figure.caption.3222}\protected@file@percent }
\@writefile{toc}{\contentsline {subsection}{\numberline {15.5.2}La m\IeC {\'e}diane}{364}{subsection.3223}\protected@file@percent }
\@writefile{toc}{\contentsline {subsubsection}{\numberline {15.5.2.1}Conventions}{364}{subsubsection.3224}\protected@file@percent }
\@writefile{toc}{\contentsline {subsubsection}{\numberline {15.5.2.2}D\IeC {\'e}finition}{364}{subsubsection.3227}\protected@file@percent }
\@writefile{toc}{\contentsline {subsubsection}{\numberline {15.5.2.3}Cas des donn\IeC {\'e}es group\IeC {\'e}es par valeurs}{364}{subsubsection.3230}\protected@file@percent }
\@writefile{lof}{\contentsline {figure}{\numberline {15.21}{\ignorespaces  R\IeC {\'e}partition des ministres syldaves selon le nombre d'ann\IeC {\'e}es qu'ils ont \IeC {\'e}tudi\IeC {\'e} apr\IeC {\`e}s leur Brevet des Coll\IeC {\`e}ges\relax }}{364}{figure.caption.3231}\protected@file@percent }
\newlabel{brevet}{{15.21}{364}{Répartition des ministres syldaves selon le nombre d'années qu'ils ont étudié après leur Brevet des Collèges\relax }{figure.caption.3231}{}}
\@writefile{lof}{\contentsline {figure}{\numberline {15.22}{\ignorespaces  R\IeC {\'e}partition en pourcentage des ministres syldaves selon le nombre d'ann\IeC {\'e}es qu'ils ont \IeC {\'e}tudi\IeC {\'e} apr\IeC {\`e}s leur Brevet des Coll\IeC {\`e}ges\relax }}{365}{figure.caption.3232}\protected@file@percent }
\@writefile{toc}{\contentsline {subsubsection}{\numberline {15.5.2.4}Cas des donn\IeC {\'e}es group\IeC {\'e}es par classes}{365}{subsubsection.3233}\protected@file@percent }
\@writefile{lof}{\contentsline {figure}{\numberline {15.23}{\ignorespaces R\IeC {\'e}partition et r\IeC {\'e}partition cumul\IeC {\'e}e des 2000 \IeC {\'e}l\IeC {\`e}ves du lyc\IeC {\'e}e Ottokar de Klow selon le nombre d'heures de travail personnel par mois.\relax }}{365}{figure.caption.3234}\protected@file@percent }
\newlabel{tcc}{{15.23}{365}{Répartition et répartition cumulée des \nombre {2000} élèves du lycée Ottokar de Klow selon le nombre d'heures de travail personnel par mois.\relax }{figure.caption.3234}{}}
\@writefile{toc}{\contentsline {paragraph}{\numberline {15.5.2.4.1}M\IeC {\'e}thode graphique}{365}{paragraph.3235}\protected@file@percent }
\@writefile{lof}{\contentsline {figure}{\numberline {15.24}{\ignorespaces Polygone des fr\IeC {\'e}quences cumul\IeC {\'e}es croissantes des 2000 \IeC {\'e}l\IeC {\`e}ves du lyc\IeC {\'e}e Ottokar de Klow selon le nombre d'heures de travail personnel par mois.\relax }}{366}{figure.caption.3236}\protected@file@percent }
\newlabel{pcc}{{15.24}{366}{Polygone des fréquences cumulées croissantes des \nombre {2000} élèves du lycée Ottokar de Klow selon le nombre d'heures de travail personnel par mois.\relax }{figure.caption.3236}{}}
\@writefile{toc}{\contentsline {paragraph}{\numberline {15.5.2.4.2}M\IeC {\'e}thode analytique}{366}{paragraph.3237}\protected@file@percent }
\@writefile{toc}{\contentsline {paragraph}{\numberline {15.5.2.4.3}Avec Python}{367}{paragraph.3238}\protected@file@percent }
\@writefile{toc}{\contentsline {subsection}{\numberline {15.5.3}Moyenne}{367}{subsection.3239}\protected@file@percent }
\@writefile{toc}{\contentsline {subsubsection}{\numberline {15.5.3.1}Donn\IeC {\'e}es non group\IeC {\'e}es}{367}{subsubsection.3240}\protected@file@percent }
\@writefile{toc}{\contentsline {subsubsection}{\numberline {15.5.3.2}Donn\IeC {\'e}es group\IeC {\'e}es par valeurs}{368}{subsubsection.3241}\protected@file@percent }
\newlabel{25@xvr}{{}{368}}
\newlabel{25@vr}{{}{368}}
\@writefile{toc}{\contentsline {subsubsection}{\numberline {15.5.3.3}Donn\IeC {\'e}es group\IeC {\'e}es par classes}{368}{subsubsection.3242}\protected@file@percent }
\newlabel{mc}{{15.5.3.3}{368}{Données groupées par classes}{subsubsection.3242}{}}
\newlabel{26@xvr}{{}{368}}
\newlabel{26@vr}{{}{368}}
\@writefile{lof}{\contentsline {figure}{\numberline {15.25}{\ignorespaces R\IeC {\'e}partition des femmes du harem du Grand Protecteur de la Syldavie selon l'\IeC {\^a}ge avec le milieu des classes\relax }}{368}{figure.caption.3243}\protected@file@percent }
\newlabel{haremcc}{{15.25}{368}{Répartition des femmes du harem du Grand Protecteur de la Syldavie selon l'âge avec le milieu des classes\relax }{figure.caption.3243}{}}
\@writefile{toc}{\contentsline {section}{\numberline {15.6}Quartiles et diagrammes en bo\IeC {\^\i }te}{368}{section.3244}\protected@file@percent }
\@writefile{toc}{\contentsline {subsection}{\numberline {15.6.1}L'id\IeC {\'e}e}{368}{subsection.3245}\protected@file@percent }
\@writefile{toc}{\contentsline {subsection}{\numberline {15.6.2}Exp\IeC {\'e}rimentons}{368}{subsection.3246}\protected@file@percent }
\newlabel{onze}{{15.5}{369}{Expérimentons}{exemple.3249}{}}
\@writefile{toc}{\contentsline {subsection}{\numberline {15.6.3}D\IeC {\'e}finissons}{370}{subsection.3252}\protected@file@percent }
\@writefile{toc}{\contentsline {subsection}{\numberline {15.6.4}Lecture graphique dans le cas des donn\IeC {\'e}es group\IeC {\'e}es en classe}{370}{subsection.3254}\protected@file@percent }
\newlabel{27@xvr}{{}{370}}
\newlabel{27@vr}{{}{370}}
\newlabel{28@xvr}{{}{370}}
\newlabel{28@vr}{{}{370}}
\@writefile{toc}{\contentsline {subsection}{\numberline {15.6.5}Bo\IeC {\^\i }te \IeC {\`a} moustache}{371}{subsection.3256}\protected@file@percent }
\@writefile{toc}{\contentsline {subsubsection}{\numberline {15.6.5.1}Avec Python}{371}{subsubsection.3257}\protected@file@percent }
\@writefile{toc}{\contentsline {section}{\numberline {15.7}Mesures de dispersion}{372}{section.3258}\protected@file@percent }
\@writefile{toc}{\contentsline {subsection}{\numberline {15.7.1}\IeC {\'E}cart interquartile}{372}{subsection.3259}\protected@file@percent }
\newlabel{comp}{{15.7}{372}{Écart interquartile}{exemple.3261}{}}
\@writefile{toc}{\contentsline {subsection}{\numberline {15.7.2}Variance et \IeC {\'e}cart-type}{373}{subsection.3263}\protected@file@percent }
\@writefile{lof}{\contentsline {figure}{\numberline {15.26}{\ignorespaces S\IeC {\'e}rie statistique quelconque\relax }}{373}{figure.caption.3264}\protected@file@percent }
\newlabel{tabqcq}{{15.26}{373}{Série statistique quelconque\relax }{figure.caption.3264}{}}
\@writefile{lof}{\contentsline {figure}{\numberline {15.27}{\ignorespaces Essais de mesures de dispersion par rapport \IeC {\`a} la moyenne\relax }}{373}{figure.caption.3265}\protected@file@percent }
\@writefile{lof}{\contentsline {figure}{\numberline {15.28}{\ignorespaces Visualisation de l'\IeC {\'e}cart par rapport \IeC {\`a} la moyenne\relax }}{373}{figure.caption.3266}\protected@file@percent }
\newlabel{29@xvr}{{}{373}}
\newlabel{29@vr}{{}{373}}
\newlabel{30@xvr}{{}{373}}
\newlabel{30@vr}{{}{373}}
\newlabel{31@xvr}{{}{374}}
\newlabel{31@vr}{{}{374}}
\@writefile{lof}{\contentsline {figure}{\numberline {15.29}{\ignorespaces Notes au Bac de la classe B\relax }}{374}{figure.caption.3270}\protected@file@percent }
\@writefile{lof}{\contentsline {figure}{\numberline {15.30}{\ignorespaces Notes au Bac de la classe B\relax }}{374}{figure.caption.3271}\protected@file@percent }
\@writefile{toc}{\contentsline {subsection}{\numberline {15.7.3}Avec Python}{374}{subsection.3272}\protected@file@percent }
\newlabel{32@xvr}{{}{375}}
\newlabel{32@vr}{{}{375}}
\@writefile{toc}{\contentsline {section}{\numberline {15.8}Statistique bivari\IeC {\'e}e}{375}{section.3273}\protected@file@percent }
\@writefile{toc}{\contentsline {subsection}{\numberline {15.8.1}Approche de 2nde}{375}{subsection.3274}\protected@file@percent }
\@writefile{toc}{\contentsline {subsubsection}{\numberline {15.8.1.1}Radioactivity}{375}{subsubsection.3275}\protected@file@percent }
\@writefile{toc}{\contentsline {subsubsection}{\numberline {15.8.1.2}Tenias}{376}{subsubsection.3287}\protected@file@percent }
\@writefile{lof}{\contentsline {figure}{\numberline {15.31}{\ignorespaces \'Evolution de la taille d'un t\IeC {\'e}nia en fonction de son \IeC {\^a}ge\relax }}{377}{figure.caption.3296}\protected@file@percent }
\@writefile{toc}{\contentsline {subsubsection}{\numberline {15.8.1.3}Cobayes}{377}{subsubsection.3297}\protected@file@percent }
\@writefile{toc}{\contentsline {subsection}{\numberline {15.8.2}Corr\IeC {\'e}lation}{378}{subsection.3304}\protected@file@percent }
\@writefile{toc}{\contentsline {subsubsection}{\numberline {15.8.2.1}Galton et Pearson}{378}{subsubsection.3305}\protected@file@percent }
\@writefile{toc}{\contentsline {subsubsection}{\numberline {15.8.2.2}D\IeC {\'e}tour g\IeC {\'e}om\IeC {\'e}trique}{379}{subsubsection.3312}\protected@file@percent }
\@writefile{toc}{\contentsline {subsubsection}{\numberline {15.8.2.3}Ajustement affine}{379}{subsubsection.3313}\protected@file@percent }
\@writefile{toc}{\contentsline {subsubsection}{\numberline {15.8.2.4}Un exemple}{380}{subsubsection.3316}\protected@file@percent }
\@writefile{toc}{\contentsline {subsection}{\numberline {15.8.3}Avec Python}{380}{subsection.3318}\protected@file@percent }
\@writefile{toc}{\contentsline {section}{\numberline {15.9}ENTRA\IeC {\^I}NEMENT et R\IeC {\'E}FLEXION}{381}{section.3319}\protected@file@percent }
\@setckpt{stats_21}{
\setcounter{page}{382}
\setcounter{equation}{0}
\setcounter{enumi}{3}
\setcounter{enumii}{3}
\setcounter{enumiii}{4}
\setcounter{enumiv}{0}
\setcounter{footnote}{1}
\setcounter{mpfootnote}{0}
\setcounter{part}{0}
\setcounter{chapter}{15}
\setcounter{section}{9}
\setcounter{subsection}{0}
\setcounter{subsubsection}{0}
\setcounter{paragraph}{0}
\setcounter{subparagraph}{0}
\setcounter{figure}{31}
\setcounter{table}{0}
\setcounter{chapterstar}{1}
\setcounter{@stackindex}{0}
\setcounter{ROWcellindex@}{0}
\setcounter{tcbbreakpart}{0}
\setcounter{tcblayer}{0}
\setcounter{tcolorbox@number}{0}
\setcounter{parentequation}{0}
\setcounter{ifsymcnt}{0}
\setcounter{lstnumber}{1}
\setcounter{vrcnt}{32}
\setcounter{tw@hyphen@char@num}{0}
\setcounter{float@type}{64}
\setcounter{subfigure}{0}
\setcounter{lofdepth}{1}
\setcounter{subtable}{0}
\setcounter{lotdepth}{1}
\setcounter{Item}{1738}
\setcounter{Hfootnote}{19}
\setcounter{bookmark@seq@number}{331}
\setcounter{mdf@globalstyle@cnt}{1}
\setcounter{mdfcountframes}{0}
\setcounter{mdf@env@i}{0}
\setcounter{mdf@env@ii}{0}
\setcounter{mdf@zref@counter}{0}
\setcounter{bclogocompteur}{0}
\setcounter{BAenumi}{0}
\setcounter{caption@flags}{0}
\setcounter{continuedfloat}{0}
\setcounter{tabularnote}{0}
\setcounter{num}{0}
\setcounter{qcm}{0}
\setcounter{FancyVerbLine}{2}
\setcounter{linenumber}{3}
\setcounter{LN@truepage}{385}
\setcounter{minted@FancyVerbLineTemp}{0}
\setcounter{listing}{0}
\setcounter{numquestion}{0}
\setcounter{qcm@numb}{0}
\setcounter{numprop}{0}
\setcounter{LT@tables}{0}
\setcounter{LT@chunks}{0}
\setcounter{@LCDdotx}{0}
\setcounter{@LCDdoty}{0}
\setcounter{@LCDchrx}{0}
\setcounter{@LCDlines}{0}
\setcounter{@LCDlower}{0}
\setcounter{nprt@mantissa@digitsbefore}{0}
\setcounter{nprt@mantissa@digitsafter}{0}
\setcounter{nprt@exponent@digitsbefore}{0}
\setcounter{nprt@exponent@digitsafter}{0}
\setcounter{nprt@digitsfirstblock}{1}
\setcounter{nprt@blockcnt}{1}
\setcounter{nprt@cntprint}{0}
\setcounter{tkz@gr@a}{0}
\setcounter{tkz@gr@b}{0}
\setcounter{tkz@gr@c}{0}
\setcounter{tkz@gr@e}{0}
\setcounter{tkz@gr@d}{0}
\setcounter{tkz@gr@p}{1}
\setcounter{tkz@gr@i}{0}
\setcounter{tkz@gr@n}{0}
\setcounter{tkz@gr@ta}{0}
\setcounter{tkz@gr@tb}{0}
\setcounter{tkz@cnt@line}{3}
\setcounter{tkz@cnt@lg}{2}
\setcounter{tkz@cnt@cl}{2}
\setcounter{tkz@cnt@pred}{1}
\setcounter{tkz@cnt@temp}{0}
\setcounter{tkz@cnt@arrow}{2}
\setcounter{tkz@cnt@zone}{0}
\setcounter{tkz@cnt@lgnext}{3}
\setcounter{tkz@cnt@clnext}{2}
\setcounter{tkz@cnt@pair}{2}
\setcounter{tkz@cnt@impair}{2}
\setcounter{tkz@cnt@aw}{2}
\setcounter{C@NumTab}{0}
\setcounter{C@NumGroup}{0}
\setcounter{C@NextNode}{0}
\setcounter{NumC@Node}{0}
\setcounter{NumC@Stop}{0}
\setcounter{C@CurrentStop}{0}
\setcounter{C@CurrentNode}{0}
\setcounter{C@CurrentGroup}{0}
\setcounter{r@tfl@t}{0}
\setcounter{c@imbrication}{-1}
\setcounter{c@indentation}{0}
\setcounter{c@instruction}{20}
\setcounter{c@algo}{2}
\setcounter{c@tabdim}{0}
\setcounter{c@chaineouverte}{0}
\setcounter{floatalgo}{0}
\setcounter{aide}{0}
\setcounter{sol}{0}
\setcounter{mtc}{16}
\setcounter{minitocdepth}{3}
\setcounter{ptc}{0}
\setcounter{parttocdepth}{2}
\setcounter{asy}{0}
\setcounter{theoreme}{2}
\setcounter{lemme}{0}
\setcounter{corollaire}{0}
\setcounter{propriete}{0}
\setcounter{definition}{14}
\setcounter{exemple}{7}
\setcounter{remarque}{49}
\setcounter{recherche}{2}
\setcounter{exercicea}{0}
\setcounter{exerciceb}{0}
\setcounter{exercicec}{0}
\setcounter{pyquestions}{0}
\setcounter{pyxercice}{0}
\setcounter{lstlisting}{0}
\setcounter{section@level}{0}
\setcounter{tabularnotesi}{0}
\setcounter{tabularnotes*i}{0}
\setcounter{minilofdepth}{2}
\setcounter{minilotdepth}{2}
\setcounter{partlofdepth}{2}
\setcounter{partlotdepth}{2}
\setcounter{sectlofdepth}{2}
\setcounter{sectlotdepth}{2}
}
