\relax 
\providecommand\hyper@newdestlabel[2]{}
\providecommand\zref@newlabel[2]{}
\@writefile{toc}{\contentsline {chapter}{\numberline {8}Suites r\IeC {\'e}elles usuelles}{171}{chapter.1530}\protected@file@percent }
\@writefile{lof}{\addvspace {10\p@ }}
\@writefile{lot}{\addvspace {10\p@ }}
\@writefile{lof}{\contentsline {xchapter}{Suites r\IeC {\'e}elles usuelles}{172}{chapter.1530}\protected@file@percent }
\@writefile{lot}{\contentsline {xchapter}{Suites r\IeC {\'e}elles usuelles}{172}{chapter.1530}\protected@file@percent }
\@writefile{toc}{\contentsline {section}{\numberline {8.1}Le programme de BCPST}{172}{section.1531}\protected@file@percent }
\@writefile{toc}{\contentsline {section}{\numberline {8.2}Qu'est-ce qu'une suite num\IeC {\'e}rique\nobreakspace  ?}{172}{section.1532}\protected@file@percent }
\@writefile{toc}{\contentsline {section}{\numberline {8.3}Suite dont le terme g\IeC {\'e}n\IeC {\'e}ral est donn\IeC {\'e} explicitement}{173}{section.1536}\protected@file@percent }
\@writefile{toc}{\contentsline {section}{\numberline {8.4}Suite d\IeC {\'e}finie par une relation de r\IeC {\'e}currence}{174}{section.1539}\protected@file@percent }
\@writefile{toc}{\contentsline {section}{\numberline {8.5}Op\IeC {\'e}rations sur les suites r\IeC {\'e}elles}{175}{section.1543}\protected@file@percent }
\@writefile{toc}{\contentsline {subsection}{\numberline {8.5.1}Somme de suites r\IeC {\'e}elles}{175}{subsection.1544}\protected@file@percent }
\@writefile{toc}{\contentsline {subsection}{\numberline {8.5.2}Produit de suites r\IeC {\'e}elles}{175}{subsection.1546}\protected@file@percent }
\@writefile{toc}{\contentsline {subsection}{\numberline {8.5.3}Quotient de suites r\IeC {\'e}elles}{175}{subsection.1548}\protected@file@percent }
\@writefile{toc}{\contentsline {section}{\numberline {8.6}Suites de r\IeC {\'e}f\IeC {\'e}rence}{175}{section.1550}\protected@file@percent }
\@writefile{toc}{\contentsline {subsection}{\numberline {8.6.1}Suites arithm\IeC {\'e}tiques}{175}{subsection.1551}\protected@file@percent }
\@writefile{toc}{\contentsline {subsubsection}{\numberline {8.6.1.1}D\IeC {\'e}finition}{175}{subsubsection.1552}\protected@file@percent }
\newlabel{mamie}{{8.5}{175}{Définition}{exemple.1553}{}}
\newlabel{12@xvr}{{}{176}}
\newlabel{12@vr}{{}{176}}
\newlabel{thm::unicite_suite}{{8-1}{176}{Définition}{theoreme.1555}{}}
\@writefile{toc}{\contentsline {subsubsection}{\numberline {8.6.1.2}Expression explicite du terme g\IeC {\'e}n\IeC {\'e}ral}{176}{subsubsection.1556}\protected@file@percent }
\newlabel{13@xvr}{{}{176}}
\newlabel{13@vr}{{}{176}}
\@writefile{toc}{\contentsline {subsubsection}{\numberline {8.6.1.3}Repr\IeC {\'e}sentation graphique}{176}{subsubsection.1558}\protected@file@percent }
\@writefile{toc}{\contentsline {subsubsection}{\numberline {8.6.1.4}Somme des premiers termes d'une suite arithm\IeC {\'e}tique}{177}{subsubsection.1560}\protected@file@percent }
\@writefile{toc}{\contentsline {paragraph}{\numberline {8.6.1.4.1}Somme des $n$ premiers entiers naturels}{177}{paragraph.1561}\protected@file@percent }
\@writefile{toc}{\contentsline {paragraph}{\numberline {8.6.1.4.2}Somme des premiers termes d'une suite arithm\IeC {\'e}tique}{177}{paragraph.1563}\protected@file@percent }
\@writefile{toc}{\contentsline {subsection}{\numberline {8.6.2}Suites g\IeC {\'e}om\IeC {\'e}triques}{178}{subsection.1565}\protected@file@percent }
\@writefile{toc}{\contentsline {subsubsection}{\numberline {8.6.2.1}D\IeC {\'e}finition}{178}{subsubsection.1566}\protected@file@percent }
\newlabel{thm::unicite_suite}{{8-6}{178}{Définition}{theoreme.1568}{}}
\@writefile{toc}{\contentsline {subsubsection}{\numberline {8.6.2.2}Expression explicite du terme g\IeC {\'e}n\IeC {\'e}ral}{178}{subsubsection.1569}\protected@file@percent }
\@writefile{toc}{\contentsline {subsubsection}{\numberline {8.6.2.3}Somme des premiers termes d'une suite g\IeC {\'e}om\IeC {\'e}trique}{178}{subsubsection.1571}\protected@file@percent }
\@writefile{toc}{\contentsline {subsection}{\numberline {8.6.3}Suites arithm\IeC {\'e}tico-g\IeC {\'e}om\IeC {\'e}triques}{178}{subsection.1573}\protected@file@percent }
\@writefile{toc}{\contentsline {subsection}{\numberline {8.6.4}Suites r\IeC {\'e}currentes lin\IeC {\'e}aires d'ordre 2}{179}{subsection.1577}\protected@file@percent }
\newlabel{eq:1}{{8.1}{179}{Suites récurrentes linéaires d'ordre 2}{equation.1579}{}}
\@writefile{toc}{\contentsline {section}{\numberline {8.7}Exercices}{180}{section.1585}\protected@file@percent }
\@writefile{toc}{\contentsline {subsection}{\numberline {8.7.1}L\IeC {\'e}gende}{180}{subsection.1586}\protected@file@percent }
\@writefile{toc}{\contentsline {subsection}{\numberline {8.7.2}Les \IeC {\'e}nonc\IeC {\'e}s}{180}{subsection.1587}\protected@file@percent }
\@setckpt{suites1_21}{
\setcounter{page}{196}
\setcounter{equation}{1}
\setcounter{enumi}{4}
\setcounter{enumii}{2}
\setcounter{enumiii}{4}
\setcounter{enumiv}{0}
\setcounter{footnote}{2}
\setcounter{mpfootnote}{0}
\setcounter{part}{0}
\setcounter{chapter}{8}
\setcounter{section}{7}
\setcounter{subsection}{2}
\setcounter{subsubsection}{0}
\setcounter{paragraph}{0}
\setcounter{subparagraph}{0}
\setcounter{figure}{0}
\setcounter{table}{0}
\setcounter{chapterstar}{1}
\setcounter{@stackindex}{0}
\setcounter{ROWcellindex@}{0}
\setcounter{tcbbreakpart}{0}
\setcounter{tcblayer}{0}
\setcounter{tcolorbox@number}{0}
\setcounter{parentequation}{0}
\setcounter{ifsymcnt}{0}
\setcounter{lstnumber}{1}
\setcounter{vrcnt}{13}
\setcounter{tw@hyphen@char@num}{0}
\setcounter{float@type}{64}
\setcounter{subfigure}{0}
\setcounter{lofdepth}{1}
\setcounter{subtable}{0}
\setcounter{lotdepth}{1}
\setcounter{Item}{956}
\setcounter{Hfootnote}{10}
\setcounter{bookmark@seq@number}{192}
\setcounter{mdf@globalstyle@cnt}{1}
\setcounter{mdfcountframes}{0}
\setcounter{mdf@env@i}{0}
\setcounter{mdf@env@ii}{0}
\setcounter{mdf@zref@counter}{0}
\setcounter{bclogocompteur}{0}
\setcounter{BAenumi}{0}
\setcounter{caption@flags}{0}
\setcounter{continuedfloat}{0}
\setcounter{tabularnote}{0}
\setcounter{num}{0}
\setcounter{qcm}{0}
\setcounter{FancyVerbLine}{1}
\setcounter{linenumber}{3}
\setcounter{LN@truepage}{195}
\setcounter{minted@FancyVerbLineTemp}{0}
\setcounter{listing}{0}
\setcounter{numquestion}{0}
\setcounter{qcm@numb}{0}
\setcounter{numprop}{0}
\setcounter{LT@tables}{0}
\setcounter{LT@chunks}{0}
\setcounter{@LCDdotx}{0}
\setcounter{@LCDdoty}{0}
\setcounter{@LCDchrx}{0}
\setcounter{@LCDlines}{0}
\setcounter{@LCDlower}{0}
\setcounter{nprt@mantissa@digitsbefore}{0}
\setcounter{nprt@mantissa@digitsafter}{0}
\setcounter{nprt@exponent@digitsbefore}{0}
\setcounter{nprt@exponent@digitsafter}{0}
\setcounter{nprt@digitsfirstblock}{8}
\setcounter{nprt@blockcnt}{8}
\setcounter{nprt@cntprint}{2}
\setcounter{tkz@gr@a}{0}
\setcounter{tkz@gr@b}{0}
\setcounter{tkz@gr@c}{0}
\setcounter{tkz@gr@e}{0}
\setcounter{tkz@gr@d}{0}
\setcounter{tkz@gr@p}{1}
\setcounter{tkz@gr@i}{0}
\setcounter{tkz@gr@n}{0}
\setcounter{tkz@gr@ta}{0}
\setcounter{tkz@gr@tb}{0}
\setcounter{tkz@cnt@line}{3}
\setcounter{tkz@cnt@lg}{2}
\setcounter{tkz@cnt@cl}{2}
\setcounter{tkz@cnt@pred}{1}
\setcounter{tkz@cnt@temp}{0}
\setcounter{tkz@cnt@arrow}{2}
\setcounter{tkz@cnt@zone}{0}
\setcounter{tkz@cnt@lgnext}{3}
\setcounter{tkz@cnt@clnext}{2}
\setcounter{tkz@cnt@pair}{2}
\setcounter{tkz@cnt@impair}{2}
\setcounter{tkz@cnt@aw}{2}
\setcounter{C@NumTab}{0}
\setcounter{C@NumGroup}{0}
\setcounter{C@NextNode}{0}
\setcounter{NumC@Node}{0}
\setcounter{NumC@Stop}{0}
\setcounter{C@CurrentStop}{0}
\setcounter{C@CurrentNode}{0}
\setcounter{C@CurrentGroup}{0}
\setcounter{r@tfl@t}{0}
\setcounter{c@imbrication}{-1}
\setcounter{c@indentation}{0}
\setcounter{c@instruction}{20}
\setcounter{c@algo}{2}
\setcounter{c@tabdim}{0}
\setcounter{c@chaineouverte}{0}
\setcounter{floatalgo}{0}
\setcounter{aide}{0}
\setcounter{sol}{0}
\setcounter{mtc}{9}
\setcounter{minitocdepth}{3}
\setcounter{ptc}{0}
\setcounter{parttocdepth}{2}
\setcounter{asy}{0}
\setcounter{theoreme}{10}
\setcounter{lemme}{0}
\setcounter{corollaire}{0}
\setcounter{propriete}{0}
\setcounter{definition}{10}
\setcounter{exemple}{5}
\setcounter{remarque}{30}
\setcounter{recherche}{61}
\setcounter{exercicea}{0}
\setcounter{exerciceb}{0}
\setcounter{exercicec}{0}
\setcounter{pyquestions}{0}
\setcounter{pyxercice}{0}
\setcounter{lstlisting}{0}
\setcounter{section@level}{0}
\setcounter{tabularnotesi}{0}
\setcounter{tabularnotes*i}{0}
\setcounter{minilofdepth}{2}
\setcounter{minilotdepth}{2}
\setcounter{partlofdepth}{2}
\setcounter{partlotdepth}{2}
\setcounter{sectlofdepth}{2}
\setcounter{sectlotdepth}{2}
}
