\relax 
\providecommand\hyper@newdestlabel[2]{}
\providecommand\zref@newlabel[2]{}
\@writefile{toc}{\contentsline {chapter}{\numberline {18}Suites r\IeC {\'e}elles (suite)}{417}{chapter.3735}\protected@file@percent }
\@writefile{lof}{\addvspace {10\p@ }}
\@writefile{lot}{\addvspace {10\p@ }}
\@writefile{lof}{\contentsline {xchapter}{Suites r\IeC {\'e}elles (suite)}{418}{chapter.3735}\protected@file@percent }
\@writefile{lot}{\contentsline {xchapter}{Suites r\IeC {\'e}elles (suite)}{418}{chapter.3735}\protected@file@percent }
\@writefile{toc}{\contentsline {section}{\numberline {18.1}Convergence des suites r\IeC {\'e}elles}{418}{section.3736}\protected@file@percent }
\@writefile{toc}{\contentsline {subsection}{\numberline {18.1.1}La somme des entiers fait le buzz}{418}{subsection.3737}\protected@file@percent }
\@writefile{toc}{\contentsline {subsection}{\numberline {18.1.2}Qu'est-ce qu'une suite ?}{419}{subsection.3738}\protected@file@percent }
\@writefile{toc}{\contentsline {subsection}{\numberline {18.1.3}Comment traduire qu'une suite est born\IeC {\'e}e?}{419}{subsection.3741}\protected@file@percent }
\@writefile{toc}{\contentsline {subsection}{\numberline {18.1.4}Sens de variation d'une suite}{420}{subsection.3743}\protected@file@percent }
\@writefile{toc}{\contentsline {subsubsection}{\numberline {18.1.4.1}Le cours court}{420}{subsubsection.3744}\protected@file@percent }
\@writefile{toc}{\contentsline {subsubsection}{\numberline {18.1.4.2}Variations autour d'un exemple}{420}{subsubsection.3750}\protected@file@percent }
\@writefile{toc}{\contentsline {subsection}{\numberline {18.1.5}Comment traduire qu'une suite converge ?}{421}{subsection.3752}\protected@file@percent }
\@writefile{toc}{\contentsline {subsection}{\numberline {18.1.6}Comment traduire qu'une suite diverge vers l'infini ?}{422}{subsection.3756}\protected@file@percent }
\@writefile{toc}{\contentsline {subsection}{\numberline {18.1.7}Op\IeC {\'e}rations sur les limites}{423}{subsection.3762}\protected@file@percent }
\@writefile{toc}{\contentsline {subsection}{\numberline {18.1.8}Passage \IeC {\`a} la limite des in\IeC {\'e}galit\IeC {\'e}s}{423}{subsection.3763}\protected@file@percent }
\newlabel{ineg}{{18-5}{423}{Passage à la limite des inégalités}{theoreme.3764}{}}
\newlabel{passage}{{18-6}{424}{Passage à la limite des inégalités}{theoreme.3765}{}}
\newlabel{37@xvr}{{}{424}}
\newlabel{37@vr}{{}{424}}
\newlabel{38@xvr}{{}{424}}
\newlabel{38@vr}{{}{424}}
\@writefile{toc}{\contentsline {subsection}{\numberline {18.1.9}Suite croissante convergente}{425}{subsection.3767}\protected@file@percent }
\@writefile{toc}{\contentsline {subsection}{\numberline {18.1.10}Croyable mais faux !}{427}{subsection.3771}\protected@file@percent }
\@writefile{toc}{\contentsline {subsection}{\numberline {18.1.11}Suites de rangs pairs et impairs}{428}{subsection.3772}\protected@file@percent }
\@writefile{toc}{\contentsline {section}{\numberline {18.2}Rappel des croissances compar\IeC {\'e}es}{428}{section.3774}\protected@file@percent }
\@writefile{toc}{\contentsline {section}{\numberline {18.3}R\IeC {\'e}sum\IeC {\'e} de quelques m\IeC {\'e}thodes utiles pour les exercices du chapitre}{429}{section.3778}\protected@file@percent }
\@writefile{toc}{\contentsline {section}{\numberline {18.4}Suites asymptotiquement \IeC {\'e}quivalentes}{429}{section.3779}\protected@file@percent }
\@writefile{toc}{\contentsline {subsection}{\numberline {18.4.1}D\IeC {\'e}finition}{429}{subsection.3780}\protected@file@percent }
\newlabel{th::sim_def_eq}{{18-11}{429}{Définition}{theoreme.3782}{}}
\@writefile{toc}{\contentsline {subsection}{\numberline {18.4.2}\IeC {\'E}quivalents et propri\IeC {\'e}t\IeC {\'e}s des suites}{430}{subsection.3784}\protected@file@percent }
\@writefile{toc}{\contentsline {subsection}{\numberline {18.4.3}Op\IeC {\'e}rations sur les suites \IeC {\'e}quivalentes}{430}{subsection.3787}\protected@file@percent }
\@writefile{toc}{\contentsline {subsection}{\numberline {18.4.4}\IeC {\'E}quivalents de r\IeC {\'e}f\IeC {\'e}rence}{431}{subsection.3791}\protected@file@percent }
\@writefile{toc}{\contentsline {section}{\numberline {18.5}Suites adjacentes}{431}{section.3798}\protected@file@percent }
\@writefile{toc}{\contentsline {subsection}{\numberline {18.5.1}Que sont des suites adjacentes ?}{431}{subsection.3799}\protected@file@percent }
\@writefile{toc}{\contentsline {subsection}{\numberline {18.5.2}\`A quoi servent les suites adjacentes ?}{432}{subsection.3802}\protected@file@percent }
\@writefile{toc}{\contentsline {section}{\numberline {18.6}Pour chercher un peu}{433}{section.3804}\protected@file@percent }
\@writefile{toc}{\contentsline {subsection}{\numberline {18.6.1}Monotonie}{433}{subsection.3805}\protected@file@percent }
\newlabel{exo3.2}{{18.8}{433}{Monotonie}{Item.3813}{}}
\@writefile{toc}{\contentsline {subsection}{\numberline {18.6.2}Convergence de suites}{433}{subsection.3816}\protected@file@percent }
\newlabel{exo3.3}{{18.18}{435}{Convergence de suites}{Item.3861}{}}
\newlabel{exo3.4}{{18.19}{435}{Convergence de suites}{Item.3865}{}}
\newlabel{exo3.5}{{18.20}{435}{Convergence de suites}{recherche.3869}{}}
\newlabel{exo3.9}{{18.21}{435}{Convergence de suites}{Item.3873}{}}
\newlabel{exo3.10}{{18.25}{436}{Convergence de suites}{Item.3890}{}}
\@writefile{toc}{\contentsline {subsection}{\numberline {18.6.3}Suites adjacentes}{436}{subsection.3897}\protected@file@percent }
\newlabel{exo3.12}{{18.31}{437}{Suites adjacentes}{recherche.3915}{}}
\newlabel{exo3.15}{{18.32}{438}{Suites adjacentes}{recherche.3916}{}}
\@writefile{toc}{\contentsline {subsection}{\numberline {18.6.4}Bac}{438}{subsection.3917}\protected@file@percent }
\@writefile{toc}{\contentsline {subsection}{\numberline {18.6.5}Avec des \IeC {\'e}quivalents}{439}{subsection.3941}\protected@file@percent }
\@writefile{toc}{\contentsline {subsection}{\numberline {18.6.6}Concours}{440}{subsection.3959}\protected@file@percent }
\@setckpt{suites_conv_21}{
\setcounter{page}{444}
\setcounter{equation}{0}
\setcounter{enumi}{4}
\setcounter{enumii}{3}
\setcounter{enumiii}{4}
\setcounter{enumiv}{0}
\setcounter{footnote}{0}
\setcounter{mpfootnote}{0}
\setcounter{part}{0}
\setcounter{chapter}{18}
\setcounter{section}{6}
\setcounter{subsection}{6}
\setcounter{subsubsection}{0}
\setcounter{paragraph}{0}
\setcounter{subparagraph}{0}
\setcounter{figure}{0}
\setcounter{table}{0}
\setcounter{chapterstar}{1}
\setcounter{@stackindex}{0}
\setcounter{ROWcellindex@}{0}
\setcounter{tcbbreakpart}{0}
\setcounter{tcblayer}{0}
\setcounter{tcolorbox@number}{0}
\setcounter{parentequation}{0}
\setcounter{ifsymcnt}{0}
\setcounter{lstnumber}{1}
\setcounter{vrcnt}{38}
\setcounter{tw@hyphen@char@num}{0}
\setcounter{float@type}{64}
\setcounter{subfigure}{0}
\setcounter{lofdepth}{1}
\setcounter{subtable}{0}
\setcounter{lotdepth}{1}
\setcounter{Item}{2152}
\setcounter{Hfootnote}{19}
\setcounter{bookmark@seq@number}{395}
\setcounter{mdf@globalstyle@cnt}{1}
\setcounter{mdfcountframes}{0}
\setcounter{mdf@env@i}{0}
\setcounter{mdf@env@ii}{0}
\setcounter{mdf@zref@counter}{0}
\setcounter{bclogocompteur}{0}
\setcounter{BAenumi}{0}
\setcounter{caption@flags}{0}
\setcounter{continuedfloat}{0}
\setcounter{tabularnote}{0}
\setcounter{num}{0}
\setcounter{qcm}{0}
\setcounter{FancyVerbLine}{4}
\setcounter{linenumber}{3}
\setcounter{LN@truepage}{447}
\setcounter{minted@FancyVerbLineTemp}{0}
\setcounter{listing}{0}
\setcounter{numquestion}{0}
\setcounter{qcm@numb}{0}
\setcounter{numprop}{0}
\setcounter{LT@tables}{0}
\setcounter{LT@chunks}{0}
\setcounter{@LCDdotx}{0}
\setcounter{@LCDdoty}{0}
\setcounter{@LCDchrx}{0}
\setcounter{@LCDlines}{0}
\setcounter{@LCDlower}{0}
\setcounter{nprt@mantissa@digitsbefore}{0}
\setcounter{nprt@mantissa@digitsafter}{0}
\setcounter{nprt@exponent@digitsbefore}{0}
\setcounter{nprt@exponent@digitsafter}{0}
\setcounter{nprt@digitsfirstblock}{1}
\setcounter{nprt@blockcnt}{1}
\setcounter{nprt@cntprint}{0}
\setcounter{tkz@gr@a}{0}
\setcounter{tkz@gr@b}{0}
\setcounter{tkz@gr@c}{0}
\setcounter{tkz@gr@e}{0}
\setcounter{tkz@gr@d}{0}
\setcounter{tkz@gr@p}{1}
\setcounter{tkz@gr@i}{0}
\setcounter{tkz@gr@n}{0}
\setcounter{tkz@gr@ta}{0}
\setcounter{tkz@gr@tb}{0}
\setcounter{tkz@cnt@line}{3}
\setcounter{tkz@cnt@lg}{2}
\setcounter{tkz@cnt@cl}{2}
\setcounter{tkz@cnt@pred}{1}
\setcounter{tkz@cnt@temp}{0}
\setcounter{tkz@cnt@arrow}{2}
\setcounter{tkz@cnt@zone}{0}
\setcounter{tkz@cnt@lgnext}{3}
\setcounter{tkz@cnt@clnext}{2}
\setcounter{tkz@cnt@pair}{2}
\setcounter{tkz@cnt@impair}{2}
\setcounter{tkz@cnt@aw}{2}
\setcounter{C@NumTab}{0}
\setcounter{C@NumGroup}{0}
\setcounter{C@NextNode}{0}
\setcounter{NumC@Node}{0}
\setcounter{NumC@Stop}{0}
\setcounter{C@CurrentStop}{0}
\setcounter{C@CurrentNode}{0}
\setcounter{C@CurrentGroup}{0}
\setcounter{r@tfl@t}{0}
\setcounter{c@imbrication}{-1}
\setcounter{c@indentation}{0}
\setcounter{c@instruction}{20}
\setcounter{c@algo}{2}
\setcounter{c@tabdim}{0}
\setcounter{c@chaineouverte}{0}
\setcounter{floatalgo}{0}
\setcounter{aide}{0}
\setcounter{sol}{0}
\setcounter{mtc}{19}
\setcounter{minitocdepth}{3}
\setcounter{ptc}{0}
\setcounter{parttocdepth}{2}
\setcounter{asy}{0}
\setcounter{theoreme}{17}
\setcounter{lemme}{0}
\setcounter{corollaire}{0}
\setcounter{propriete}{2}
\setcounter{definition}{9}
\setcounter{exemple}{2}
\setcounter{remarque}{58}
\setcounter{recherche}{42}
\setcounter{exercicea}{0}
\setcounter{exerciceb}{0}
\setcounter{exercicec}{0}
\setcounter{pyquestions}{0}
\setcounter{pyxercice}{0}
\setcounter{lstlisting}{0}
\setcounter{section@level}{0}
\setcounter{tabularnotesi}{0}
\setcounter{tabularnotes*i}{0}
\setcounter{minilofdepth}{2}
\setcounter{minilotdepth}{2}
\setcounter{partlofdepth}{2}
\setcounter{partlotdepth}{2}
\setcounter{sectlofdepth}{2}
\setcounter{sectlotdepth}{2}
}
