\relax 
\providecommand\hyper@newdestlabel[2]{}
\providecommand\zref@newlabel[2]{}
\@writefile{toc}{\contentsline {chapter}{\numberline {13}Syst\IeC {\`e}mes lin\IeC {\'e}aires}{271}{chapter.2530}\protected@file@percent }
\@writefile{lof}{\addvspace {10\p@ }}
\@writefile{lot}{\addvspace {10\p@ }}
\@writefile{lof}{\contentsline {xchapter}{Syst\IeC {\`e}mes lin\IeC {\'e}aires}{272}{chapter.2530}\protected@file@percent }
\@writefile{lot}{\contentsline {xchapter}{Syst\IeC {\`e}mes lin\IeC {\'e}aires}{272}{chapter.2530}\protected@file@percent }
\@writefile{toc}{\contentsline {section}{\numberline {13.1}Fangcheng}{272}{section.2531}\protected@file@percent }
\@writefile{toc}{\contentsline {section}{\numberline {13.2}G\IeC {\'e}n\IeC {\'e}ralit\IeC {\'e}s}{273}{section.2534}\protected@file@percent }
\@writefile{toc}{\contentsline {subsection}{\numberline {13.2.1}Syst\IeC {\`e}mes d'\IeC {\'e}quations lin\IeC {\'e}aires}{273}{subsection.2535}\protected@file@percent }
\@writefile{toc}{\contentsline {subsection}{\numberline {13.2.2}\IeC {\'E}criture matricielle d'un syst\IeC {\`e}me}{273}{subsection.2537}\protected@file@percent }
\@writefile{toc}{\contentsline {section}{\numberline {13.3}Syst\IeC {\`e}mes \IeC {\'e}quivalents}{275}{section.2542}\protected@file@percent }
\@writefile{toc}{\contentsline {subsection}{\numberline {13.3.1}Op\IeC {\'e}rations \IeC {\'e}l\IeC {\'e}mentaires sur les lignes}{275}{subsection.2543}\protected@file@percent }
\@writefile{toc}{\contentsline {subsection}{\numberline {13.3.2}Matrices et op\IeC {\'e}rations sur les lignes}{276}{subsection.2547}\protected@file@percent }
\@writefile{toc}{\contentsline {subsubsection}{\numberline {13.3.2.1}Dilatations de lignes}{276}{subsubsection.2548}\protected@file@percent }
\@writefile{toc}{\contentsline {subsubsection}{\numberline {13.3.2.2}Permutation de lignes}{276}{subsubsection.2550}\protected@file@percent }
\@writefile{toc}{\contentsline {subsubsection}{\numberline {13.3.2.3}Transvections de lignes}{276}{subsubsection.2552}\protected@file@percent }
\@writefile{toc}{\contentsline {subsubsection}{\numberline {13.3.2.4}Op\IeC {\'e}rations sur les lignes}{277}{subsubsection.2554}\protected@file@percent }
\@writefile{toc}{\contentsline {subsection}{\numberline {13.3.3}Application \IeC {\`a} la recherche des solutions d'un syst\IeC {\`e}me lin\IeC {\'e}aire}{277}{subsection.2556}\protected@file@percent }
\@writefile{toc}{\contentsline {subsection}{\numberline {13.3.4}Application \IeC {\`a} la recherche de l'inverse d'une matrice}{278}{subsection.2558}\protected@file@percent }
\@writefile{toc}{\contentsline {subsection}{\numberline {13.3.5}Rang d'une matrice}{278}{subsection.2560}\protected@file@percent }
\@writefile{toc}{\contentsline {section}{\numberline {13.4}Algorithme Fang Cheng}{279}{section.2567}\protected@file@percent }
\@writefile{lof}{\contentsline {figure}{\numberline {13.1}{\ignorespaces Wilhelm \bsc  {Jordan}   (1842-1899)\relax }}{279}{figure.caption.2568}\protected@file@percent }
\@writefile{toc}{\contentsline {section}{\numberline {13.5}M\IeC {\'e}thode de Gauss-Jordan et recherche de l'inverse d'une matrice}{280}{section.2569}\protected@file@percent }
\@writefile{toc}{\contentsline {section}{\numberline {13.6}R\IeC {\'e}solution de syst\IeC {\`e}mes}{281}{section.2571}\protected@file@percent }
\@writefile{toc}{\contentsline {subsection}{\numberline {13.6.1}Pour celles et ceux qui voudraient des justifications}{281}{subsection.2572}\protected@file@percent }
\@writefile{toc}{\contentsline {subsection}{\numberline {13.6.2}Pour tout le monde}{283}{subsection.2575}\protected@file@percent }
\@writefile{toc}{\contentsline {section}{\numberline {13.7}Des exemples pour comprendre}{283}{section.2578}\protected@file@percent }
\@writefile{toc}{\contentsline {section}{\numberline {13.8}ENTRA\IeC {\^I}NEMENT et R\IeC {\'E}FLEXION}{288}{section.2592}\protected@file@percent }
\@writefile{toc}{\contentsline {subsection}{\numberline {13.8.1}Un ancien DS}{290}{subsection.2642}\protected@file@percent }
\@writefile{toc}{\contentsline {subsection}{\numberline {13.8.2}Pour s'entra\IeC {\^\i }ner en autonomie}{292}{subsection.2669}\protected@file@percent }
\newlabel{exo8:systeme}{{13.22}{292}{Pour s'entraîner en autonomie}{recherche.2670}{}}
\@writefile{toc}{\contentsline {subsubsection}{\numberline {13.8.2.1}Les corrections}{292}{subsubsection.2671}\protected@file@percent }
\@setckpt{systemes_21}{
\setcounter{page}{296}
\setcounter{equation}{0}
\setcounter{enumi}{10}
\setcounter{enumii}{3}
\setcounter{enumiii}{4}
\setcounter{enumiv}{0}
\setcounter{footnote}{0}
\setcounter{mpfootnote}{0}
\setcounter{part}{0}
\setcounter{chapter}{13}
\setcounter{section}{8}
\setcounter{subsection}{2}
\setcounter{subsubsection}{1}
\setcounter{paragraph}{0}
\setcounter{subparagraph}{0}
\setcounter{figure}{1}
\setcounter{table}{0}
\setcounter{chapterstar}{1}
\setcounter{@stackindex}{0}
\setcounter{ROWcellindex@}{0}
\setcounter{tcbbreakpart}{0}
\setcounter{tcblayer}{0}
\setcounter{tcolorbox@number}{0}
\setcounter{parentequation}{0}
\setcounter{ifsymcnt}{0}
\setcounter{lstnumber}{1}
\setcounter{vrcnt}{15}
\setcounter{tw@hyphen@char@num}{0}
\setcounter{float@type}{64}
\setcounter{subfigure}{0}
\setcounter{lofdepth}{1}
\setcounter{subtable}{0}
\setcounter{lotdepth}{1}
\setcounter{Item}{1421}
\setcounter{Hfootnote}{13}
\setcounter{bookmark@seq@number}{278}
\setcounter{mdf@globalstyle@cnt}{1}
\setcounter{mdfcountframes}{0}
\setcounter{mdf@env@i}{0}
\setcounter{mdf@env@ii}{0}
\setcounter{mdf@zref@counter}{0}
\setcounter{bclogocompteur}{0}
\setcounter{BAenumi}{0}
\setcounter{caption@flags}{0}
\setcounter{continuedfloat}{0}
\setcounter{tabularnote}{0}
\setcounter{num}{0}
\setcounter{qcm}{0}
\setcounter{FancyVerbLine}{1}
\setcounter{linenumber}{3}
\setcounter{LN@truepage}{299}
\setcounter{minted@FancyVerbLineTemp}{0}
\setcounter{listing}{0}
\setcounter{numquestion}{0}
\setcounter{qcm@numb}{0}
\setcounter{numprop}{0}
\setcounter{LT@tables}{0}
\setcounter{LT@chunks}{0}
\setcounter{@LCDdotx}{0}
\setcounter{@LCDdoty}{0}
\setcounter{@LCDchrx}{0}
\setcounter{@LCDlines}{0}
\setcounter{@LCDlower}{0}
\setcounter{nprt@mantissa@digitsbefore}{0}
\setcounter{nprt@mantissa@digitsafter}{0}
\setcounter{nprt@exponent@digitsbefore}{0}
\setcounter{nprt@exponent@digitsafter}{0}
\setcounter{nprt@digitsfirstblock}{1}
\setcounter{nprt@blockcnt}{1}
\setcounter{nprt@cntprint}{0}
\setcounter{tkz@gr@a}{0}
\setcounter{tkz@gr@b}{0}
\setcounter{tkz@gr@c}{0}
\setcounter{tkz@gr@e}{0}
\setcounter{tkz@gr@d}{0}
\setcounter{tkz@gr@p}{1}
\setcounter{tkz@gr@i}{0}
\setcounter{tkz@gr@n}{0}
\setcounter{tkz@gr@ta}{0}
\setcounter{tkz@gr@tb}{0}
\setcounter{tkz@cnt@line}{3}
\setcounter{tkz@cnt@lg}{2}
\setcounter{tkz@cnt@cl}{2}
\setcounter{tkz@cnt@pred}{1}
\setcounter{tkz@cnt@temp}{0}
\setcounter{tkz@cnt@arrow}{2}
\setcounter{tkz@cnt@zone}{0}
\setcounter{tkz@cnt@lgnext}{3}
\setcounter{tkz@cnt@clnext}{2}
\setcounter{tkz@cnt@pair}{2}
\setcounter{tkz@cnt@impair}{2}
\setcounter{tkz@cnt@aw}{2}
\setcounter{C@NumTab}{0}
\setcounter{C@NumGroup}{0}
\setcounter{C@NextNode}{0}
\setcounter{NumC@Node}{0}
\setcounter{NumC@Stop}{0}
\setcounter{C@CurrentStop}{0}
\setcounter{C@CurrentNode}{0}
\setcounter{C@CurrentGroup}{0}
\setcounter{r@tfl@t}{0}
\setcounter{c@imbrication}{-1}
\setcounter{c@indentation}{0}
\setcounter{c@instruction}{20}
\setcounter{c@algo}{2}
\setcounter{c@tabdim}{0}
\setcounter{c@chaineouverte}{0}
\setcounter{floatalgo}{0}
\setcounter{aide}{0}
\setcounter{sol}{0}
\setcounter{mtc}{14}
\setcounter{minitocdepth}{3}
\setcounter{ptc}{0}
\setcounter{parttocdepth}{2}
\setcounter{asy}{0}
\setcounter{theoreme}{5}
\setcounter{lemme}{0}
\setcounter{corollaire}{0}
\setcounter{propriete}{0}
\setcounter{definition}{5}
\setcounter{exemple}{1}
\setcounter{remarque}{36}
\setcounter{recherche}{22}
\setcounter{exercicea}{0}
\setcounter{exerciceb}{0}
\setcounter{exercicec}{0}
\setcounter{pyquestions}{0}
\setcounter{pyxercice}{0}
\setcounter{lstlisting}{0}
\setcounter{section@level}{0}
\setcounter{tabularnotesi}{0}
\setcounter{tabularnotes*i}{0}
\setcounter{minilofdepth}{2}
\setcounter{minilotdepth}{2}
\setcounter{partlofdepth}{2}
\setcounter{partlotdepth}{2}
\setcounter{sectlofdepth}{2}
\setcounter{sectlotdepth}{2}
}
