\relax 
\providecommand\hyper@newdestlabel[2]{}
\providecommand\zref@newlabel[2]{}
\@writefile{toc}{\contentsline {chapter}{\numberline {5}Trigonom\IeC {\'e}trie}{105}{chapter.856}\protected@file@percent }
\@writefile{lof}{\addvspace {10\p@ }}
\@writefile{lot}{\addvspace {10\p@ }}
\@writefile{lof}{\contentsline {xchapter}{Trigonom\IeC {\'e}trie}{106}{chapter.856}\protected@file@percent }
\@writefile{lot}{\contentsline {xchapter}{Trigonom\IeC {\'e}trie}{106}{chapter.856}\protected@file@percent }
\@writefile{toc}{\contentsline {section}{\numberline {5.1}Promenade sur le cercle}{106}{section.857}\protected@file@percent }
\@writefile{toc}{\contentsline {subsection}{\numberline {5.1.1}Enroulons la droite des r\IeC {\'e}els}{106}{subsection.858}\protected@file@percent }
\@writefile{toc}{\contentsline {subsection}{\numberline {5.1.2}Cercle trigonom\IeC {\'e}trique}{107}{subsection.859}\protected@file@percent }
\@writefile{toc}{\contentsline {subsection}{\numberline {5.1.3}La galette des rois}{107}{subsection.861}\protected@file@percent }
\@writefile{toc}{\contentsline {subsection}{\numberline {5.1.4}Le radian}{108}{subsection.862}\protected@file@percent }
\@writefile{toc}{\contentsline {subsection}{\numberline {5.1.5}Corespondance degr\IeC {\'e}/radian}{109}{subsection.869}\protected@file@percent }
\@writefile{toc}{\contentsline {subsection}{\numberline {5.1.6}Relation de Chasles}{109}{subsection.870}\protected@file@percent }
\@writefile{toc}{\contentsline {section}{\numberline {5.2}Sinus et cosinus}{109}{section.872}\protected@file@percent }
\@writefile{toc}{\contentsline {subsection}{\numberline {5.2.1}Approche g\IeC {\'e}om\IeC {\'e}trique de coll\IeC {\`e}ge}{109}{subsection.873}\protected@file@percent }
\@writefile{toc}{\contentsline {subsection}{\numberline {5.2.2}D\IeC {\'e}finition g\IeC {\'e}n\IeC {\'e}rale}{110}{subsection.882}\protected@file@percent }
\@writefile{toc}{\contentsline {subsection}{\numberline {5.2.3}Angles associ\IeC {\'e}s}{112}{subsection.887}\protected@file@percent }
\@writefile{toc}{\contentsline {section}{\numberline {5.3}Formulaire de trigonom\IeC {\'e}trie}{112}{section.888}\protected@file@percent }
\@writefile{toc}{\contentsline {subsection}{\numberline {5.3.1}Les formules}{112}{subsection.889}\protected@file@percent }
\@writefile{toc}{\contentsline {subsection}{\numberline {5.3.2}La formule magique}{113}{subsection.890}\protected@file@percent }
\@writefile{toc}{\contentsline {subsection}{\numberline {5.3.3}Un rappel de premi\IeC {\`e}re : le produit scalaire}{113}{subsection.891}\protected@file@percent }
\@writefile{toc}{\contentsline {subsection}{\numberline {5.3.4}formule sp\IeC {\'e}ciale onde}{113}{subsection.892}\protected@file@percent }
\@writefile{toc}{\contentsline {section}{\numberline {5.4}Fonctions sinus et cosinus}{113}{section.894}\protected@file@percent }
\@writefile{toc}{\contentsline {subsection}{\numberline {5.4.1}D\IeC {\'e}finitions}{113}{subsection.895}\protected@file@percent }
\@writefile{toc}{\contentsline {subsection}{\numberline {5.4.2}Parit\IeC {\'e}}{114}{subsection.897}\protected@file@percent }
\@writefile{toc}{\contentsline {subsection}{\numberline {5.4.3}P\IeC {\'e}riodicit\IeC {\'e}}{114}{subsection.898}\protected@file@percent }
\@writefile{toc}{\contentsline {subsection}{\numberline {5.4.4}Variations}{115}{subsection.899}\protected@file@percent }
\@writefile{toc}{\contentsline {section}{\numberline {5.5}R\IeC {\'e}solution d'\IeC {\'e}quations et d'in\IeC {\'e}quations trigonom\IeC {\'e}triques}{116}{section.900}\protected@file@percent }
\@writefile{toc}{\contentsline {subsection}{\numberline {5.5.1}$\qopname  \relax o{cos}x = \qopname  \relax o{cos}\IeC {\ensuremath  {\alpha }}$}{116}{subsection.901}\protected@file@percent }
\@writefile{toc}{\contentsline {subsection}{\numberline {5.5.2} $\qopname  \relax o{sin}x = \qopname  \relax o{sin}\IeC {\ensuremath  {\alpha }}$}{117}{subsection.904}\protected@file@percent }
\@writefile{toc}{\contentsline {subsection}{\numberline {5.5.3} $\qopname  \relax o{tan}x = \qopname  \relax o{tan}\IeC {\ensuremath  {\alpha }}$}{117}{subsection.907}\protected@file@percent }
\@writefile{toc}{\contentsline {subsection}{\numberline {5.5.4}\IeC {\'E}quations se ramenant aux \IeC {\'e}quations pr\IeC {\'e}c\IeC {\'e}dentes}{118}{subsection.910}\protected@file@percent }
\@writefile{toc}{\contentsline {section}{\numberline {5.6}Entra\IeC {\^\i }nement}{119}{section.912}\protected@file@percent }
\@setckpt{trigo_22}{
\setcounter{page}{122}
\setcounter{equation}{0}
\setcounter{enumi}{2}
\setcounter{enumii}{2}
\setcounter{enumiii}{4}
\setcounter{enumiv}{0}
\setcounter{footnote}{0}
\setcounter{mpfootnote}{0}
\setcounter{part}{0}
\setcounter{chapter}{5}
\setcounter{section}{6}
\setcounter{subsection}{0}
\setcounter{subsubsection}{0}
\setcounter{paragraph}{0}
\setcounter{subparagraph}{0}
\setcounter{figure}{0}
\setcounter{table}{0}
\setcounter{chapterstar}{1}
\setcounter{@stackindex}{0}
\setcounter{ROWcellindex@}{0}
\setcounter{tcbbreakpart}{0}
\setcounter{tcblayer}{0}
\setcounter{tcolorbox@number}{0}
\setcounter{parentequation}{0}
\setcounter{ifsymcnt}{0}
\setcounter{lstnumber}{1}
\setcounter{vrcnt}{9}
\setcounter{tw@hyphen@char@num}{0}
\setcounter{float@type}{64}
\setcounter{subfigure}{0}
\setcounter{lofdepth}{1}
\setcounter{subtable}{0}
\setcounter{lotdepth}{1}
\setcounter{Item}{524}
\setcounter{Hfootnote}{3}
\setcounter{bookmark@seq@number}{112}
\setcounter{mdf@globalstyle@cnt}{1}
\setcounter{mdfcountframes}{0}
\setcounter{mdf@env@i}{0}
\setcounter{mdf@env@ii}{0}
\setcounter{mdf@zref@counter}{0}
\setcounter{bclogocompteur}{0}
\setcounter{BAenumi}{0}
\setcounter{caption@flags}{0}
\setcounter{continuedfloat}{0}
\setcounter{tabularnote}{0}
\setcounter{num}{0}
\setcounter{qcm}{0}
\setcounter{FancyVerbLine}{19}
\setcounter{linenumber}{3}
\setcounter{LN@truepage}{121}
\setcounter{minted@FancyVerbLineTemp}{0}
\setcounter{listing}{0}
\setcounter{numquestion}{0}
\setcounter{qcm@numb}{0}
\setcounter{numprop}{0}
\setcounter{LT@tables}{0}
\setcounter{LT@chunks}{0}
\setcounter{@LCDdotx}{0}
\setcounter{@LCDdoty}{0}
\setcounter{@LCDchrx}{0}
\setcounter{@LCDlines}{0}
\setcounter{@LCDlower}{0}
\setcounter{nprt@mantissa@digitsbefore}{0}
\setcounter{nprt@mantissa@digitsafter}{0}
\setcounter{nprt@exponent@digitsbefore}{0}
\setcounter{nprt@exponent@digitsafter}{0}
\setcounter{nprt@digitsfirstblock}{0}
\setcounter{nprt@blockcnt}{0}
\setcounter{nprt@cntprint}{0}
\setcounter{tkz@gr@a}{0}
\setcounter{tkz@gr@b}{0}
\setcounter{tkz@gr@c}{0}
\setcounter{tkz@gr@e}{0}
\setcounter{tkz@gr@d}{0}
\setcounter{tkz@gr@p}{1}
\setcounter{tkz@gr@i}{0}
\setcounter{tkz@gr@n}{0}
\setcounter{tkz@gr@ta}{0}
\setcounter{tkz@gr@tb}{0}
\setcounter{tkz@cnt@line}{3}
\setcounter{tkz@cnt@lg}{2}
\setcounter{tkz@cnt@cl}{2}
\setcounter{tkz@cnt@pred}{1}
\setcounter{tkz@cnt@temp}{0}
\setcounter{tkz@cnt@arrow}{2}
\setcounter{tkz@cnt@zone}{0}
\setcounter{tkz@cnt@lgnext}{3}
\setcounter{tkz@cnt@clnext}{2}
\setcounter{tkz@cnt@pair}{2}
\setcounter{tkz@cnt@impair}{2}
\setcounter{tkz@cnt@aw}{2}
\setcounter{C@NumTab}{0}
\setcounter{C@NumGroup}{0}
\setcounter{C@NextNode}{0}
\setcounter{NumC@Node}{0}
\setcounter{NumC@Stop}{0}
\setcounter{C@CurrentStop}{0}
\setcounter{C@CurrentNode}{0}
\setcounter{C@CurrentGroup}{0}
\setcounter{r@tfl@t}{0}
\setcounter{c@imbrication}{-1}
\setcounter{c@indentation}{0}
\setcounter{c@instruction}{20}
\setcounter{c@algo}{2}
\setcounter{c@tabdim}{0}
\setcounter{c@chaineouverte}{0}
\setcounter{floatalgo}{0}
\setcounter{aide}{0}
\setcounter{sol}{0}
\setcounter{mtc}{6}
\setcounter{minitocdepth}{3}
\setcounter{ptc}{0}
\setcounter{parttocdepth}{2}
\setcounter{asy}{0}
\setcounter{theoreme}{11}
\setcounter{lemme}{0}
\setcounter{corollaire}{0}
\setcounter{propriete}{0}
\setcounter{definition}{6}
\setcounter{exemple}{0}
\setcounter{remarque}{13}
\setcounter{recherche}{15}
\setcounter{exercicea}{0}
\setcounter{exerciceb}{0}
\setcounter{exercicec}{0}
\setcounter{pyquestions}{0}
\setcounter{pyxercice}{0}
\setcounter{lstlisting}{0}
\setcounter{section@level}{0}
\setcounter{tabularnotesi}{0}
\setcounter{tabularnotes*i}{0}
\setcounter{minilofdepth}{2}
\setcounter{minilotdepth}{2}
\setcounter{partlofdepth}{2}
\setcounter{partlotdepth}{2}
\setcounter{sectlofdepth}{2}
\setcounter{sectlotdepth}{2}
}
