\relax 
\providecommand\hyper@newdestlabel[2]{}
\providecommand\zref@newlabel[2]{}
\@writefile{toc}{\contentsline {chapter}{\numberline {25}Variables al\IeC {\'e}atoires r\IeC {\'e}elles finies}{583}{chapter.5417}\protected@file@percent }
\@writefile{lof}{\addvspace {10\p@ }}
\@writefile{lot}{\addvspace {10\p@ }}
\@writefile{lof}{\contentsline {xchapter}{Variables al\IeC {\'e}atoires r\IeC {\'e}elles finies}{584}{chapter.5417}\protected@file@percent }
\@writefile{lot}{\contentsline {xchapter}{Variables al\IeC {\'e}atoires r\IeC {\'e}elles finies}{584}{chapter.5417}\protected@file@percent }
\@writefile{toc}{\contentsline {section}{\numberline {25.1}Transport de mesures: s'approprier la dure r\IeC {\'e}alit\IeC {\'e}}{584}{section.5418}\protected@file@percent }
\@writefile{toc}{\contentsline {section}{\numberline {25.2}Loi de probabilit\IeC {\'e}}{585}{section.5420}\protected@file@percent }
\newlabel{vapi\IeC {\`e}ces}{{25.1}{586}{Loi de probabilité}{exemple.5423}{}}
\newlabel{vad\IeC {\'e}s}{{25.2}{586}{Loi de probabilité}{recherche.5427}{}}
\@writefile{toc}{\contentsline {section}{\numberline {25.3}Fonction de r\IeC {\'e}partition}{588}{section.5436}\protected@file@percent }
\@writefile{toc}{\contentsline {subsection}{\numberline {25.3.1}D\IeC {\'e}finition}{588}{subsection.5437}\protected@file@percent }
\@writefile{toc}{\contentsline {subsection}{\numberline {25.3.2}Propri\IeC {\'e}t\IeC {\'e}s}{588}{subsection.5442}\protected@file@percent }
\newlabel{th:fonc_rep}{{25-4}{589}{Propriétés}{theoreme.5443}{}}
\@writefile{toc}{\contentsline {subsection}{\numberline {25.3.3}Un exemple d'emploi non trivial}{589}{subsection.5452}\protected@file@percent }
\@writefile{toc}{\contentsline {section}{\numberline {25.4}Fonction d'une variable al\IeC {\'e}atoire}{589}{section.5454}\protected@file@percent }
\newlabel{vacarre}{{25.3}{590}{Fonction d'une variable aléatoire}{exemple.5457}{}}
\newlabel{47@xvr}{{}{590}}
\newlabel{47@vr}{{}{590}}
\@writefile{toc}{\contentsline {section}{\numberline {25.5}Moments}{590}{section.5458}\protected@file@percent }
\@writefile{toc}{\contentsline {subsection}{\numberline {25.5.1}Esp\IeC {\'e}rance math\IeC {\'e}matique}{590}{subsection.5459}\protected@file@percent }
\@writefile{toc}{\contentsline {subsection}{\numberline {25.5.2}Th\IeC {\'e}or\IeC {\`e}me de transfert}{591}{subsection.5462}\protected@file@percent }
\newlabel{48@xvr}{{}{591}}
\newlabel{48@vr}{{}{591}}
\@writefile{toc}{\contentsline {subsection}{\numberline {25.5.3}Lin\IeC {\'e}arit\IeC {\'e} de l'esp\IeC {\'e}rance}{591}{subsection.5464}\protected@file@percent }
\@writefile{toc}{\contentsline {subsection}{\numberline {25.5.4}Moments d'une variable al\IeC {\'e}atoire}{592}{subsection.5467}\protected@file@percent }
\@writefile{toc}{\contentsline {subsection}{\numberline {25.5.5}Fonction indicatrice d'un \IeC {\'e}v\IeC {\`e}nement}{592}{subsection.5470}\protected@file@percent }
\@writefile{toc}{\contentsline {subsection}{\numberline {25.5.6}Variance}{592}{subsection.5474}\protected@file@percent }
\@writefile{toc}{\contentsline {subsection}{\numberline {25.5.7}V.a.r. centr\IeC {\'e}e r\IeC {\'e}duite}{593}{subsection.5480}\protected@file@percent }
\@writefile{toc}{\contentsline {section}{\numberline {25.6}Quelques lois discr\IeC {\`e}tes classiques}{593}{section.5482}\protected@file@percent }
\@writefile{toc}{\contentsline {subsection}{\numberline {25.6.1}Variable al\IeC {\'e}atoire certaine}{593}{subsection.5483}\protected@file@percent }
\@writefile{toc}{\contentsline {subsection}{\numberline {25.6.2}Loi uniforme sur [1, n]}{594}{subsection.5487}\protected@file@percent }
\@writefile{toc}{\contentsline {subsection}{\numberline {25.6.3}Loi de Bernoulli: to be or not to be}{595}{subsection.5491}\protected@file@percent }
\@writefile{toc}{\contentsline {subsection}{\numberline {25.6.4}Loi binomiale}{595}{subsection.5494}\protected@file@percent }
\@writefile{toc}{\contentsline {subsubsection}{\numberline {25.6.4.1}D\IeC {\'e}finition}{595}{subsubsection.5495}\protected@file@percent }
\@writefile{toc}{\contentsline {subsubsection}{\numberline {25.6.4.2}Simulation}{596}{subsubsection.5499}\protected@file@percent }
\@writefile{toc}{\contentsline {section}{\numberline {25.7}Jouons aux probabilit\IeC {\'e}s}{598}{section.5500}\protected@file@percent }
\@setckpt{VAR21}{
\setcounter{page}{606}
\setcounter{equation}{0}
\setcounter{enumi}{3}
\setcounter{enumii}{4}
\setcounter{enumiii}{1}
\setcounter{enumiv}{0}
\setcounter{footnote}{0}
\setcounter{mpfootnote}{0}
\setcounter{part}{0}
\setcounter{chapter}{25}
\setcounter{section}{7}
\setcounter{subsection}{0}
\setcounter{subsubsection}{0}
\setcounter{paragraph}{0}
\setcounter{subparagraph}{0}
\setcounter{figure}{0}
\setcounter{table}{0}
\setcounter{chapterstar}{1}
\setcounter{@stackindex}{0}
\setcounter{ROWcellindex@}{0}
\setcounter{tcbbreakpart}{0}
\setcounter{tcblayer}{0}
\setcounter{tcolorbox@number}{0}
\setcounter{parentequation}{0}
\setcounter{ifsymcnt}{0}
\setcounter{lstnumber}{2}
\setcounter{vrcnt}{48}
\setcounter{tw@hyphen@char@num}{0}
\setcounter{float@type}{64}
\setcounter{subfigure}{0}
\setcounter{lofdepth}{1}
\setcounter{subtable}{0}
\setcounter{lotdepth}{1}
\setcounter{Item}{3069}
\setcounter{Hfootnote}{24}
\setcounter{bookmark@seq@number}{556}
\setcounter{mdf@globalstyle@cnt}{1}
\setcounter{mdfcountframes}{0}
\setcounter{mdf@env@i}{0}
\setcounter{mdf@env@ii}{0}
\setcounter{mdf@zref@counter}{0}
\setcounter{bclogocompteur}{0}
\setcounter{BAenumi}{0}
\setcounter{caption@flags}{0}
\setcounter{continuedfloat}{0}
\setcounter{tabularnote}{0}
\setcounter{num}{0}
\setcounter{qcm}{0}
\setcounter{FancyVerbLine}{12}
\setcounter{linenumber}{3}
\setcounter{LN@truepage}{611}
\setcounter{minted@FancyVerbLineTemp}{0}
\setcounter{listing}{0}
\setcounter{numquestion}{0}
\setcounter{qcm@numb}{0}
\setcounter{numprop}{0}
\setcounter{LT@tables}{0}
\setcounter{LT@chunks}{0}
\setcounter{@LCDdotx}{0}
\setcounter{@LCDdoty}{0}
\setcounter{@LCDchrx}{0}
\setcounter{@LCDlines}{0}
\setcounter{@LCDlower}{0}
\setcounter{nprt@mantissa@digitsbefore}{0}
\setcounter{nprt@mantissa@digitsafter}{0}
\setcounter{nprt@exponent@digitsbefore}{0}
\setcounter{nprt@exponent@digitsafter}{0}
\setcounter{nprt@digitsfirstblock}{8}
\setcounter{nprt@blockcnt}{8}
\setcounter{nprt@cntprint}{2}
\setcounter{tkz@gr@a}{0}
\setcounter{tkz@gr@b}{0}
\setcounter{tkz@gr@c}{0}
\setcounter{tkz@gr@e}{0}
\setcounter{tkz@gr@d}{0}
\setcounter{tkz@gr@p}{1}
\setcounter{tkz@gr@i}{0}
\setcounter{tkz@gr@n}{0}
\setcounter{tkz@gr@ta}{0}
\setcounter{tkz@gr@tb}{0}
\setcounter{tkz@cnt@line}{3}
\setcounter{tkz@cnt@lg}{2}
\setcounter{tkz@cnt@cl}{2}
\setcounter{tkz@cnt@pred}{1}
\setcounter{tkz@cnt@temp}{0}
\setcounter{tkz@cnt@arrow}{2}
\setcounter{tkz@cnt@zone}{0}
\setcounter{tkz@cnt@lgnext}{3}
\setcounter{tkz@cnt@clnext}{2}
\setcounter{tkz@cnt@pair}{2}
\setcounter{tkz@cnt@impair}{2}
\setcounter{tkz@cnt@aw}{2}
\setcounter{C@NumTab}{0}
\setcounter{C@NumGroup}{0}
\setcounter{C@NextNode}{0}
\setcounter{NumC@Node}{0}
\setcounter{NumC@Stop}{0}
\setcounter{C@CurrentStop}{0}
\setcounter{C@CurrentNode}{0}
\setcounter{C@CurrentGroup}{0}
\setcounter{r@tfl@t}{0}
\setcounter{c@imbrication}{-1}
\setcounter{c@indentation}{0}
\setcounter{c@instruction}{20}
\setcounter{c@algo}{2}
\setcounter{c@tabdim}{0}
\setcounter{c@chaineouverte}{0}
\setcounter{floatalgo}{0}
\setcounter{aide}{0}
\setcounter{sol}{0}
\setcounter{mtc}{26}
\setcounter{minitocdepth}{3}
\setcounter{ptc}{0}
\setcounter{parttocdepth}{2}
\setcounter{asy}{0}
\setcounter{theoreme}{17}
\setcounter{lemme}{0}
\setcounter{corollaire}{0}
\setcounter{propriete}{0}
\setcounter{definition}{14}
\setcounter{exemple}{4}
\setcounter{remarque}{84}
\setcounter{recherche}{28}
\setcounter{exercicea}{0}
\setcounter{exerciceb}{0}
\setcounter{exercicec}{0}
\setcounter{pyquestions}{0}
\setcounter{pyxercice}{0}
\setcounter{lstlisting}{0}
\setcounter{section@level}{0}
\setcounter{tabularnotesi}{0}
\setcounter{tabularnotes*i}{0}
\setcounter{minilofdepth}{2}
\setcounter{minilotdepth}{2}
\setcounter{partlofdepth}{2}
\setcounter{partlotdepth}{2}
\setcounter{sectlofdepth}{2}
\setcounter{sectlotdepth}{2}
}
