<?xml version="1.0" encoding="UTF-8"?>
<svg xmlns="http://www.w3.org/2000/svg" xmlns:xlink="http://www.w3.org/1999/xlink" width="349.4118pt" height="238.1109pt" viewBox="0 0 349.4118 238.1109" version="1.1">
<defs>
<g>
<symbol overflow="visible" id="glyph0-0">
<path style="stroke:none;" d=""/>
</symbol>
<symbol overflow="visible" id="glyph0-1">
<path style="stroke:none;" d="M 3.328125 -3.015625 C 3.390625 -3.265625 3.625 -4.1875 4.3125 -4.1875 C 4.359375 -4.1875 4.609375 -4.1875 4.8125 -4.0625 C 4.53125 -4 4.34375 -3.765625 4.34375 -3.515625 C 4.34375 -3.359375 4.453125 -3.171875 4.71875 -3.171875 C 4.9375 -3.171875 5.25 -3.34375 5.25 -3.75 C 5.25 -4.265625 4.671875 -4.40625 4.328125 -4.40625 C 3.75 -4.40625 3.40625 -3.875 3.28125 -3.65625 C 3.03125 -4.3125 2.5 -4.40625 2.203125 -4.40625 C 1.171875 -4.40625 0.59375 -3.125 0.59375 -2.875 C 0.59375 -2.765625 0.703125 -2.765625 0.71875 -2.765625 C 0.796875 -2.765625 0.828125 -2.796875 0.84375 -2.875 C 1.1875 -3.9375 1.84375 -4.1875 2.1875 -4.1875 C 2.375 -4.1875 2.71875 -4.09375 2.71875 -3.515625 C 2.71875 -3.203125 2.546875 -2.546875 2.1875 -1.140625 C 2.03125 -0.53125 1.671875 -0.109375 1.234375 -0.109375 C 1.171875 -0.109375 0.953125 -0.109375 0.734375 -0.234375 C 0.984375 -0.296875 1.203125 -0.5 1.203125 -0.78125 C 1.203125 -1.046875 0.984375 -1.125 0.84375 -1.125 C 0.53125 -1.125 0.296875 -0.875 0.296875 -0.546875 C 0.296875 -0.09375 0.78125 0.109375 1.21875 0.109375 C 1.890625 0.109375 2.25 -0.59375 2.265625 -0.640625 C 2.390625 -0.28125 2.75 0.109375 3.34375 0.109375 C 4.375 0.109375 4.9375 -1.171875 4.9375 -1.421875 C 4.9375 -1.53125 4.859375 -1.53125 4.828125 -1.53125 C 4.734375 -1.53125 4.71875 -1.484375 4.6875 -1.421875 C 4.359375 -0.34375 3.6875 -0.109375 3.375 -0.109375 C 2.984375 -0.109375 2.828125 -0.421875 2.828125 -0.765625 C 2.828125 -0.984375 2.875 -1.203125 2.984375 -1.640625 Z M 3.328125 -3.015625 "/>
</symbol>
<symbol overflow="visible" id="glyph0-2">
<path style="stroke:none;" d="M 4.84375 -3.796875 C 4.890625 -3.9375 4.890625 -3.953125 4.890625 -4.03125 C 4.890625 -4.203125 4.75 -4.296875 4.59375 -4.296875 C 4.5 -4.296875 4.34375 -4.234375 4.25 -4.09375 C 4.234375 -4.03125 4.140625 -3.734375 4.109375 -3.546875 C 4.03125 -3.296875 3.96875 -3.015625 3.90625 -2.75 L 3.453125 -0.953125 C 3.421875 -0.8125 2.984375 -0.109375 2.328125 -0.109375 C 1.828125 -0.109375 1.71875 -0.546875 1.71875 -0.921875 C 1.71875 -1.375 1.890625 -2 2.21875 -2.875 C 2.375 -3.28125 2.421875 -3.390625 2.421875 -3.59375 C 2.421875 -4.03125 2.109375 -4.40625 1.609375 -4.40625 C 0.65625 -4.40625 0.296875 -2.953125 0.296875 -2.875 C 0.296875 -2.765625 0.390625 -2.765625 0.40625 -2.765625 C 0.515625 -2.765625 0.515625 -2.796875 0.5625 -2.953125 C 0.84375 -3.890625 1.234375 -4.1875 1.578125 -4.1875 C 1.65625 -4.1875 1.828125 -4.1875 1.828125 -3.875 C 1.828125 -3.625 1.71875 -3.359375 1.65625 -3.171875 C 1.25 -2.109375 1.078125 -1.546875 1.078125 -1.078125 C 1.078125 -0.1875 1.703125 0.109375 2.296875 0.109375 C 2.6875 0.109375 3.015625 -0.0625 3.296875 -0.34375 C 3.171875 0.171875 3.046875 0.671875 2.65625 1.203125 C 2.390625 1.53125 2.015625 1.828125 1.5625 1.828125 C 1.421875 1.828125 0.96875 1.796875 0.796875 1.40625 C 0.953125 1.40625 1.09375 1.40625 1.21875 1.28125 C 1.328125 1.203125 1.421875 1.0625 1.421875 0.875 C 1.421875 0.5625 1.15625 0.53125 1.0625 0.53125 C 0.828125 0.53125 0.5 0.6875 0.5 1.171875 C 0.5 1.671875 0.9375 2.046875 1.5625 2.046875 C 2.578125 2.046875 3.609375 1.140625 3.890625 0.015625 Z M 4.84375 -3.796875 "/>
</symbol>
<symbol overflow="visible" id="glyph1-0">
<path style="stroke:none;" d=""/>
</symbol>
<symbol overflow="visible" id="glyph1-1">
<path style="stroke:none;" d="M 8.421875 -2.828125 L 8.484375 -3.296875 L 0.640625 -3.296875 L 0.546875 -2.828125 Z M 8.421875 -2.828125 "/>
</symbol>
<symbol overflow="visible" id="glyph1-2">
<path style="stroke:none;" d="M 3.59375 1.953125 C 2.0625 1.65625 1.96875 -1.25 1.96875 -3.28125 C 1.96875 -5.078125 2.078125 -8.109375 3.59375 -8.5 L 3.59375 -8.828125 C 2.359375 -8.609375 1.8125 -7.25 1.59375 -6.09375 C 1.40625 -5.203125 1.34375 -4.265625 1.34375 -3.34375 C 1.34375 -2.375 1.40625 -1.40625 1.5625 -0.453125 C 1.765625 0.6875 2.34375 2.125 3.59375 2.234375 Z M 3.59375 1.953125 "/>
</symbol>
<symbol overflow="visible" id="glyph1-3">
<path style="stroke:none;" d="M 1.03125 -8.46875 C 2 -8.125 2.265625 -7 2.453125 -6.109375 C 2.625 -5.1875 2.671875 -4.234375 2.671875 -3.296875 C 2.671875 -1.9375 2.703125 -0.484375 2.265625 0.796875 C 2.03125 1.515625 1.578125 1.828125 1.03125 1.96875 L 1.03125 2.265625 C 3.171875 1.984375 3.296875 -1.203125 3.296875 -3.25 C 3.296875 -5.25 3.046875 -8.375 1.03125 -8.796875 Z M 1.03125 -8.46875 "/>
</symbol>
<symbol overflow="visible" id="glyph2-0">
<path style="stroke:none;" d=""/>
</symbol>
<symbol overflow="visible" id="glyph2-1">
<path style="stroke:none;" d="M 5.046875 -5.515625 C 5.015625 -5.546875 5 -5.546875 4.96875 -5.546875 C 4.9375 -5.546875 4.90625 -5.546875 4.90625 -5.515625 C 4.375 -4.90625 3.671875 -4.078125 3.234375 -3.5 L 3.171875 -3.515625 C 2.828125 -4.1875 2.328125 -5.046875 2.078125 -5.3125 C 1.90625 -5.5 1.640625 -5.546875 1.4375 -5.546875 C 1.046875 -5.546875 0.4375 -5.109375 0.03125 -4.78125 L 0.1875 -4.5625 C 0.40625 -4.703125 0.703125 -4.859375 0.953125 -4.859375 C 1.546875 -4.859375 2.109375 -3.578125 2.5625 -2.671875 C 1.984375 -1.90625 1.390625 -1.078125 0.875 -0.25 L 0.875 -0.15625 L 1.203125 0.140625 L 1.40625 0.09375 C 1.75 -0.828125 2.234375 -1.5625 2.703125 -2.28125 L 2.78125 -2.28125 C 3.578125 -0.734375 3.984375 0.140625 4.59375 0.140625 C 5.09375 0.140625 5.703125 -0.53125 6.125 -0.984375 L 6.03125 -1.203125 L 5.921875 -1.203125 C 5.6875 -1 5.359375 -0.75 5.078125 -0.75 C 4.546875 -0.75 3.84375 -2.015625 3.359375 -3.09375 C 3.984375 -3.828125 4.75 -4.609375 5.421875 -5.0625 C 5.4375 -5.078125 5.453125 -5.09375 5.453125 -5.125 C 5.453125 -5.140625 5.421875 -5.15625 5.421875 -5.171875 Z M 5.046875 -5.515625 "/>
</symbol>
<symbol overflow="visible" id="glyph2-2">
<path style="stroke:none;" d="M 0.5625 -5.1875 L 0.484375 -5.109375 L 0.4375 -4.859375 L 0.484375 -4.765625 L 1.828125 -4.765625 L 1.90625 -4.671875 L 1.90625 -3.375 C 1.90625 -2.296875 1.828125 -1.171875 1.75 0.015625 L 1.953125 0.140625 L 2.890625 -0.140625 C 2.8125 -1.109375 2.765625 -2.25 2.765625 -3.375 L 2.765625 -4.703125 L 2.84375 -4.765625 L 4.21875 -4.765625 L 4.296875 -4.84375 L 4.390625 -5.109375 L 4.328125 -5.1875 L 2.84375 -5.1875 L 2.796875 -5.265625 C 2.796875 -6.484375 3 -7.515625 3.515625 -7.515625 C 4.078125 -7.515625 4.15625 -7 4.203125 -6.75 L 4.34375 -6.703125 L 5.046875 -7.34375 C 4.890625 -7.671875 4.578125 -8 3.9375 -8 C 3.171875 -8 2.46875 -7.546875 2.109375 -6.71875 C 1.90625 -6.28125 1.890625 -5.671875 1.890625 -5.265625 L 1.8125 -5.1875 Z M 0.5625 -5.1875 "/>
</symbol>
<symbol overflow="visible" id="glyph3-0">
<path style="stroke:none;" d=""/>
</symbol>
<symbol overflow="visible" id="glyph3-1">
<path style="stroke:none;" d="M 8.59375 -4.03125 C 8.640625 -6.640625 6.921875 -8.28125 4.578125 -8.3125 C 2.09375 -8.328125 0.53125 -6.640625 0.53125 -4.09375 C 0.53125 -1.625 2.265625 0.140625 4.53125 0.140625 C 6.984375 0.140625 8.546875 -1.59375 8.59375 -4.03125 Z M 7.15625 -4.0625 C 7.15625 -2.125 6.3125 -0.28125 4.53125 -0.28125 C 2.734375 -0.28125 1.90625 -2.203125 1.953125 -4.109375 C 1.96875 -5.984375 2.78125 -7.90625 4.578125 -7.90625 C 6.40625 -7.890625 7.15625 -5.875 7.15625 -4.0625 Z M 7.15625 -4.0625 "/>
</symbol>
</g>
<clipPath id="clip1">
  <path d="M 0 0 L 178.582031 0 L 178.582031 238.109375 L 0 238.109375 Z M 0 0 "/>
</clipPath>
<clipPath id="clip2">
  <path d="M 7 118 L 349.410156 118 L 349.410156 120 L 7 120 Z M 7 118 "/>
</clipPath>
<clipPath id="clip3">
  <path d="M 344 116 L 349.410156 116 L 349.410156 122 L 344 122 Z M 344 116 "/>
</clipPath>
<clipPath id="clip4">
  <path d="M 177 4 L 349.410156 4 L 349.410156 120 L 177 120 Z M 177 4 "/>
</clipPath>
</defs>
<g id="surface1">
<g clip-path="url(#clip1)" clip-rule="nonzero">
<path style=" stroke:none;fill-rule:nonzero;fill:rgb(100%,50%,0%);fill-opacity:1;" d="M -76.535156 289.132812 L 178.582031 289.132812 L 178.582031 -51.023438 L -76.535156 -51.023438 Z M -76.535156 289.132812 "/>
</g>
<g clip-path="url(#clip2)" clip-rule="nonzero">
<path style="fill:none;stroke-width:1.1;stroke-linecap:round;stroke-linejoin:round;stroke:rgb(100%,100%,100%);stroke-opacity:1;stroke-miterlimit:10;" d="M -170.079254 0.0007725 L 170.076996 0.0007725 " transform="matrix(1,0,0,-1,178.58316,119.05546)"/>
</g>
<path style=" stroke:none;fill-rule:nonzero;fill:rgb(100%,100%,100%);fill-opacity:1;" d="M 344.964844 120.585938 L 348.660156 119.054688 L 344.964844 117.523438 Z M 344.964844 120.585938 "/>
<g clip-path="url(#clip3)" clip-rule="nonzero">
<path style="fill:none;stroke-width:1.1;stroke-linecap:round;stroke-linejoin:round;stroke:rgb(100%,100%,100%);stroke-opacity:1;stroke-miterlimit:10;" d="M 166.381684 -1.530478 L 170.076996 0.0007725 L 166.381684 1.532022 Z M 166.381684 -1.530478 " transform="matrix(1,0,0,-1,178.58316,119.05546)"/>
</g>
<path style="fill:none;stroke-width:1.1;stroke-linecap:round;stroke-linejoin:round;stroke:rgb(100%,100%,100%);stroke-opacity:1;stroke-miterlimit:10;" d="M -0.00112875 -113.385946 L -0.00112875 113.387491 " transform="matrix(1,0,0,-1,178.58316,119.05546)"/>
<path style="fill-rule:nonzero;fill:rgb(100%,100%,100%);fill-opacity:1;stroke-width:1.1;stroke-linecap:round;stroke-linejoin:round;stroke:rgb(100%,100%,100%);stroke-opacity:1;stroke-miterlimit:10;" d="M 1.530121 109.692179 L -0.00112875 113.387491 L -1.532379 109.692179 Z M 1.530121 109.692179 " transform="matrix(1,0,0,-1,178.58316,119.05546)"/>
<g style="fill:rgb(100%,100%,100%);fill-opacity:1;">
  <use xlink:href="#glyph0-1" x="342.98026" y="128.34496"/>
</g>
<g style="fill:rgb(100%,100%,100%);fill-opacity:1;">
  <use xlink:href="#glyph0-2" x="168.34126" y="9.68046"/>
</g>
<g clip-path="url(#clip4)" clip-rule="nonzero">
<path style="fill:none;stroke-width:1.5;stroke-linecap:round;stroke-linejoin:round;stroke:rgb(100%,69.999695%,69.999695%);stroke-opacity:1;stroke-miterlimit:10;" d="M -0.00112875 0.0007725 L 0.338715 0.0007725 C 0.451996 0.0007725 0.596528 0.0007725 0.678559 0.0007725 C 0.79184 0.0007725 0.94809 0.0007725 1.018403 0.0007725 C 1.131684 0.0007725 1.287934 0.0007725 1.358246 0.0007725 C 1.471528 0.0007725 1.627778 0.0007725 1.69809 0.0007725 C 1.811371 0.0007725 1.967621 0.0007725 2.037934 0.0007725 C 2.155121 0.0007725 2.311371 0.0007725 2.381684 0.0007725 L 2.721528 0.0007725 C 2.780121 0.0007725 2.94809 0.0007725 3.061371 0.0007725 L 3.401215 0.0007725 C 3.514496 0.0007725 3.686371 0.0007725 3.741059 0.0007725 L 4.420746 0.0007725 C 4.534028 0.0007725 4.647309 0.0007725 4.76059 0.0007725 L 5.100434 0.00467875 L 5.440278 0.00467875 C 5.514496 0.00467875 5.66684 0.00467875 5.784028 0.00467875 L 6.123871 0.00467875 C 6.237153 0.00467875 6.451996 0.00467875 6.463715 0.00467875 C 6.576996 0.00467875 6.733246 0.008585 6.803559 0.008585 L 7.483246 0.008585 L 7.82309 0.0124912 L 8.502778 0.0124912 C 8.616059 0.0124912 8.842621 0.0163975 8.842621 0.0163975 L 9.182465 0.0163975 L 9.526215 0.0203037 L 9.866059 0.02421 L 10.205903 0.02421 C 10.213715 0.02421 10.432465 0.02421 10.545746 0.0281162 L 10.88559 0.0281162 L 11.565278 0.0359287 C 11.655121 0.0359287 11.79184 0.0359287 11.905121 0.039835 L 12.244965 0.0437412 C 12.358246 0.0437412 12.502778 0.0437412 12.584809 0.0476475 L 12.928559 0.0515537 L 13.268403 0.05546 C 13.272309 0.05546 13.494965 0.05546 13.608246 0.0593662 C 13.721528 0.0593662 13.944184 0.0632725 13.94809 0.0632725 L 14.627778 0.071085 L 14.967621 0.0788975 L 15.647309 0.08671 C 15.72934 0.0906162 15.873871 0.0906162 15.987153 0.0945225 L 16.326996 0.0984287 C 16.440278 0.102335 16.584809 0.106241 16.670746 0.106241 C 16.748871 0.106241 16.897309 0.110147 17.01059 0.114054 L 17.350434 0.121866 C 17.463715 0.121866 17.600434 0.125772 17.690278 0.125772 C 17.776215 0.129679 17.91684 0.133585 18.030121 0.133585 L 18.369965 0.141397 C 18.483246 0.145304 18.623871 0.14921 18.709809 0.14921 L 19.049653 0.160929 C 19.162934 0.160929 19.35434 0.168741 19.389496 0.168741 L 20.069184 0.184366 L 20.748871 0.207804 C 20.756684 0.207804 20.975434 0.21171 21.088715 0.215616 L 21.432465 0.227335 C 21.51059 0.227335 21.659028 0.235147 21.772309 0.239054 L 22.112153 0.250772 C 22.225434 0.254679 22.35434 0.258585 22.451996 0.258585 L 22.79184 0.27421 L 23.471528 0.297647 L 23.811371 0.313272 L 24.491059 0.33671 C 24.57309 0.340616 24.717621 0.348429 24.830903 0.352335 L 25.170746 0.36796 C 25.284028 0.371866 25.424653 0.379679 25.51059 0.383585 L 25.850434 0.39921 L 26.194184 0.414835 C 26.307465 0.418741 26.451996 0.426554 26.534028 0.43046 C 26.647309 0.434366 26.799653 0.442179 26.873871 0.446085 C 26.897309 0.449991 27.100434 0.457804 27.213715 0.465616 L 27.553559 0.481241 L 27.893403 0.500772 C 27.97934 0.504679 28.119965 0.512491 28.233246 0.520304 L 28.57309 0.539835 C 28.686371 0.543741 28.830903 0.551554 28.912934 0.55546 L 29.252778 0.578897 C 29.366059 0.582804 29.545746 0.594522 29.592621 0.598429 L 30.272309 0.637491 L 30.612153 0.660929 L 30.955903 0.684366 L 31.295746 0.707804 L 31.63559 0.727335 C 31.678559 0.731241 31.862153 0.746866 31.975434 0.754679 L 32.315278 0.778116 C 32.315278 0.778116 32.54184 0.793741 32.655121 0.801554 L 32.994965 0.828897 L 33.334809 0.852335 C 33.44809 0.864054 33.631684 0.875772 33.674653 0.879679 L 34.35434 0.934366 C 34.436371 0.942179 34.580903 0.953897 34.694184 0.96171 L 35.034028 0.99296 C 35.147309 1.000772 35.284028 1.012491 35.373871 1.020304 C 35.444184 1.02421 35.60434 1.039835 35.717621 1.051554 C 35.830903 1.059366 36.026215 1.078897 36.057465 1.078897 C 36.084809 1.082804 36.284028 1.102335 36.397309 1.110147 L 36.737153 1.141397 L 37.076996 1.176554 L 37.41684 1.207804 C 37.530121 1.219522 37.737153 1.239054 37.756684 1.239054 L 39.116059 1.379679 C 39.22934 1.391397 39.381684 1.407022 39.455903 1.414835 L 39.795746 1.453897 C 39.819184 1.453897 40.022309 1.477335 40.13559 1.489054 L 40.47934 1.528116 L 41.159028 1.606241 C 41.272309 1.621866 41.47934 1.645304 41.498871 1.645304 L 41.838715 1.688272 L 42.178559 1.727335 L 43.19809 1.856241 L 43.537934 1.903116 L 43.877778 1.946085 L 44.217621 1.99296 C 44.334809 2.008585 44.518403 2.032022 44.561371 2.039835 C 44.655121 2.051554 44.787934 2.071085 44.901215 2.08671 C 45.014496 2.102335 45.178559 2.125772 45.241059 2.133585 L 45.580903 2.184366 L 45.920746 2.231241 L 46.600434 2.332804 C 46.713715 2.348429 46.932465 2.383585 46.940278 2.383585 L 47.280121 2.434366 L 47.619965 2.489054 L 47.963715 2.543741 L 48.983246 2.707804 L 49.32309 2.766397 L 49.662934 2.821085 L 50.002778 2.879679 L 50.342621 2.942179 C 50.455903 2.96171 50.631684 2.99296 50.682465 3.000772 L 51.022309 3.063272 L 51.362153 3.121866 C 51.409028 3.129679 51.592621 3.164835 51.705903 3.184366 L 52.045746 3.250772 L 52.38559 3.313272 L 52.725434 3.379679 L 53.065278 3.442179 C 53.178559 3.465616 53.346528 3.496866 53.405121 3.508585 C 53.483246 3.52421 53.631684 3.55546 53.744965 3.578897 L 54.084809 3.645304 C 54.19809 3.668741 54.32309 3.692179 54.424653 3.715616 L 54.764496 3.785929 L 55.108246 3.856241 L 55.44809 3.926554 L 56.127778 4.074991 C 56.16684 4.082804 56.35434 4.125772 56.467621 4.14921 L 56.807465 4.223429 L 57.487153 4.379679 C 57.54184 4.391397 57.713715 4.43046 57.826996 4.457804 L 58.506684 4.614054 C 58.565278 4.629679 58.733246 4.668741 58.846528 4.696085 C 58.959809 4.723429 59.139496 4.766397 59.190278 4.778116 L 59.530121 4.860147 L 60.209809 5.032022 L 60.549653 5.114054 L 60.889496 5.203897 L 61.22934 5.289835 C 61.342621 5.321085 61.557465 5.375772 61.569184 5.379679 C 61.584809 5.383585 61.795746 5.438272 61.909028 5.469522 L 62.588715 5.64921 L 63.268403 5.83671 C 63.303559 5.848429 63.494965 5.89921 63.608246 5.93046 C 63.721528 5.965616 63.924653 6.020304 63.951996 6.028116 L 65.311371 6.418741 L 65.651215 6.520304 C 65.764496 6.55546 65.987153 6.621866 65.991059 6.621866 C 66.096528 6.653116 66.217621 6.692179 66.330903 6.727335 C 66.444184 6.758585 66.565278 6.797647 66.670746 6.828897 C 66.674653 6.828897 66.897309 6.89921 67.01059 6.934366 L 67.350434 7.039835 C 67.455903 7.074991 67.576996 7.114054 67.690278 7.14921 C 67.803559 7.184366 67.924653 7.223429 68.030121 7.254679 C 68.057465 7.266397 68.256684 7.328897 68.369965 7.36796 L 68.713715 7.477335 L 69.053559 7.58671 L 69.393403 7.699991 C 69.506684 7.739054 69.713715 7.809366 69.733246 7.813272 C 69.838715 7.852335 69.959809 7.891397 70.07309 7.93046 C 70.186371 7.969522 70.307465 8.008585 70.412934 8.047647 L 70.752778 8.164835 C 70.866059 8.203897 71.092621 8.282022 71.092621 8.282022 C 71.201996 8.321085 71.319184 8.360147 71.432465 8.39921 C 71.545746 8.442179 71.662934 8.481241 71.772309 8.520304 L 72.112153 8.641397 L 72.451996 8.766397 L 72.79184 8.887491 L 73.131684 9.012491 L 73.475434 9.141397 C 73.588715 9.184366 73.787934 9.258585 73.815278 9.270304 L 74.155121 9.395304 C 74.256684 9.434366 74.381684 9.485147 74.494965 9.528116 C 74.608246 9.571085 74.811371 9.64921 74.834809 9.660929 L 75.174653 9.789835 L 75.514496 9.926554 L 75.85434 10.059366 C 75.967621 10.106241 76.16684 10.184366 76.194184 10.196085 L 76.873871 10.469522 L 77.893403 10.891397 L 78.237153 11.035929 L 78.576996 11.18046 L 78.91684 11.328897 L 79.256684 11.473429 L 79.596528 11.621866 C 79.709809 11.672647 79.893403 11.754679 79.936371 11.770304 C 79.94809 11.778116 80.162934 11.871866 80.276215 11.922647 L 80.616059 12.074991 C 80.709809 12.11796 80.842621 12.176554 80.955903 12.227335 C 81.069184 12.282022 81.213715 12.344522 81.295746 12.383585 L 81.63559 12.539835 C 81.748871 12.590616 81.944184 12.68046 81.975434 12.696085 C 82.006684 12.707804 82.201996 12.801554 82.315278 12.856241 L 82.655121 13.016397 L 82.998871 13.176554 C 83.10434 13.227335 83.225434 13.285929 83.338715 13.340616 C 83.451996 13.395304 83.569184 13.449991 83.678559 13.504679 L 84.018403 13.668741 C 84.131684 13.723429 84.346528 13.828897 84.358246 13.83671 C 84.362153 13.83671 84.584809 13.949991 84.69809 14.004679 C 84.811371 14.059366 85.037934 14.172647 85.037934 14.172647 L 85.377778 14.344522 C 85.491059 14.403116 85.717621 14.516397 85.717621 14.516397 L 86.057465 14.688272 C 86.170746 14.746866 86.373871 14.852335 86.397309 14.864054 L 86.741059 15.039835 L 87.080903 15.215616 L 87.420746 15.39921 L 87.76059 15.578897 C 87.873871 15.637491 88.034028 15.723429 88.100434 15.758585 C 88.143403 15.782022 88.326996 15.883585 88.440278 15.942179 L 88.780121 16.129679 C 88.866059 16.172647 89.006684 16.250772 89.119965 16.313272 C 89.233246 16.375772 89.369965 16.449991 89.459809 16.500772 L 89.799653 16.692179 C 89.912934 16.754679 90.116059 16.86796 90.143403 16.879679 C 90.209809 16.918741 90.369965 17.008585 90.483246 17.071085 C 90.487153 17.074991 90.709809 17.199991 90.82309 17.266397 L 91.162934 17.457804 L 91.502778 17.657022 L 91.842621 17.852335 C 91.91684 17.89921 92.069184 17.989054 92.182465 18.05546 C 92.295746 18.121866 92.420746 18.192179 92.522309 18.254679 C 92.623871 18.313272 92.748871 18.387491 92.862153 18.457804 C 92.975434 18.52421 93.112153 18.606241 93.201996 18.660929 C 93.295746 18.715616 93.432465 18.797647 93.545746 18.864054 C 93.659028 18.934366 93.784028 19.012491 93.88559 19.071085 C 93.983246 19.133585 94.112153 19.21171 94.225434 19.278116 C 94.338715 19.348429 94.471528 19.434366 94.565278 19.489054 C 94.651215 19.543741 94.79184 19.629679 94.905121 19.699991 C 95.018403 19.770304 95.147309 19.852335 95.244965 19.910929 L 95.584809 20.125772 C 95.69809 20.199991 95.897309 20.324991 95.924653 20.340616 C 95.97934 20.375772 96.151215 20.485147 96.264496 20.559366 L 96.944184 20.996866 C 97.053559 21.067179 97.174653 21.145304 97.287934 21.219522 C 97.401215 21.293741 97.522309 21.375772 97.627778 21.442179 L 98.307465 21.895304 L 98.647309 22.125772 L 98.987153 22.352335 L 99.326996 22.582804 L 99.66684 22.817179 C 99.76059 22.883585 99.893403 22.973429 100.006684 23.051554 C 100.119965 23.129679 100.241059 23.215616 100.346528 23.285929 C 100.455903 23.364054 100.57309 23.446085 100.686371 23.52421 C 100.799653 23.602335 100.920746 23.692179 101.026215 23.762491 L 101.366059 24.004679 L 101.709809 24.246866 C 101.82309 24.328897 101.994965 24.453897 102.049653 24.49296 L 102.72934 24.985147 L 103.409028 25.485147 L 103.748871 25.739054 L 104.088715 25.989054 C 104.170746 26.051554 104.315278 26.160929 104.428559 26.246866 C 104.54184 26.332804 104.717621 26.465616 104.768403 26.504679 C 104.869965 26.582804 104.994965 26.676554 105.108246 26.762491 C 105.221528 26.848429 105.358246 26.953897 105.44809 27.02421 L 106.127778 27.547647 L 106.471528 27.817179 L 106.811371 28.082804 L 107.151215 28.352335 L 107.491059 28.625772 C 107.60434 28.715616 107.795746 28.86796 107.830903 28.895304 C 107.85434 28.914835 108.057465 29.078897 108.170746 29.172647 L 108.51059 29.446085 C 108.549653 29.481241 108.737153 29.629679 108.850434 29.723429 C 108.963715 29.817179 109.116059 29.938272 109.190278 30.000772 L 109.530121 30.285929 L 109.869965 30.567179 C 109.91684 30.606241 110.096528 30.758585 110.209809 30.852335 C 110.32309 30.946085 110.47934 31.078897 110.549653 31.137491 C 110.57309 31.157022 110.776215 31.328897 110.889496 31.426554 L 111.233246 31.719522 L 111.57309 32.008585 C 111.659028 32.08671 111.799653 32.207804 111.912934 32.30546 C 112.026215 32.403116 112.159028 32.516397 112.252778 32.598429 C 112.334809 32.672647 112.47934 32.797647 112.592621 32.895304 C 112.705903 32.996866 112.846528 33.121866 112.932465 33.196085 C 112.994965 33.250772 113.159028 33.395304 113.272309 33.496866 C 113.38559 33.598429 113.534028 33.727335 113.612153 33.797647 C 113.63559 33.821085 113.838715 34.000772 113.951996 34.102335 L 114.29184 34.407022 C 114.362153 34.473429 114.518403 34.614054 114.631684 34.715616 C 114.744965 34.821085 114.897309 34.957804 114.971528 35.02421 C 115.07309 35.11796 115.19809 35.235147 115.311371 35.33671 C 115.424653 35.442179 115.596528 35.598429 115.651215 35.64921 L 115.994965 35.969522 L 116.334809 36.285929 L 116.674653 36.606241 C 116.741059 36.664835 116.901215 36.817179 117.014496 36.926554 C 117.127778 37.032022 117.307465 37.203897 117.35434 37.250772 L 118.034028 37.89921 C 118.100434 37.96171 118.26059 38.11796 118.373871 38.227335 C 118.487153 38.340616 118.655121 38.500772 118.713715 38.559366 L 119.053559 38.891397 C 119.16684 39.000772 119.373871 39.203897 119.393403 39.223429 C 119.41684 39.24296 119.619965 39.449991 119.733246 39.563272 L 120.07309 39.89921 C 120.116059 39.938272 120.299653 40.125772 120.412934 40.239054 L 120.756684 40.582804 L 121.096528 40.926554 L 122.116059 41.969522 L 122.455903 42.321085 L 122.795746 42.676554 L 123.13559 43.028116 C 123.217621 43.114054 123.362153 43.270304 123.475434 43.387491 C 123.588715 43.508585 123.780121 43.707804 123.815278 43.746866 C 123.858246 43.789835 124.04184 43.989054 124.155121 44.110147 C 124.268403 44.231241 124.420746 44.387491 124.494965 44.469522 L 124.834809 44.83671 L 125.178559 45.203897 L 125.518403 45.574991 L 125.858246 45.949991 C 125.971528 46.071085 126.19809 46.317179 126.19809 46.321085 L 126.537934 46.696085 L 127.557465 47.832804 L 127.897309 48.219522 L 128.237153 48.602335 L 128.576996 48.99296 L 128.920746 49.379679 L 129.26059 49.77421 L 129.600434 50.164835 L 129.940278 50.567179 L 130.280121 50.965616 C 130.393403 51.098429 130.600434 51.33671 130.619965 51.364054 C 130.686371 51.438272 130.846528 51.629679 130.959809 51.766397 C 131.07309 51.89921 131.264496 52.125772 131.299653 52.168741 L 131.639496 52.574991 L 131.97934 52.985147 L 132.32309 53.395304 L 132.662934 53.80546 C 132.764496 53.934366 132.889496 54.082804 133.002778 54.223429 C 133.116059 54.360147 133.248871 54.52421 133.342621 54.637491 C 133.420746 54.739054 133.569184 54.918741 133.682465 55.059366 C 133.795746 55.199991 133.936371 55.375772 134.022309 55.477335 L 134.362153 55.903116 L 134.701996 56.332804 C 134.815278 56.473429 134.955903 56.64921 135.04184 56.758585 L 135.381684 57.188272 C 135.494965 57.332804 135.717621 57.614054 135.725434 57.621866 C 135.756684 57.660929 135.951996 57.910929 136.065278 58.05546 L 136.405121 58.489054 L 137.424653 59.813272 C 137.537934 59.96171 137.725434 60.207804 137.764496 60.258585 C 137.768403 60.262491 137.991059 60.55546 138.10434 60.703897 C 138.217621 60.856241 138.377778 61.063272 138.444184 61.153116 L 139.123871 62.059366 L 139.467621 62.520304 L 139.807465 62.977335 C 139.920746 63.129679 140.096528 63.371866 140.147309 63.438272 L 140.826996 64.36796 L 141.16684 64.83671 L 141.506684 65.301554 L 142.186371 66.246866 C 142.205903 66.27421 142.412934 66.567179 142.526215 66.727335 L 142.866059 67.203897 L 143.205903 67.684366 C 143.319184 67.844522 143.54184 68.164835 143.545746 68.168741 C 143.639496 68.301554 143.772309 68.49296 143.88559 68.653116 L 144.22934 69.145304 C 144.342621 69.309366 144.455903 69.473429 144.569184 69.633585 C 144.569184 69.633585 144.795746 69.96171 144.909028 70.129679 C 145.022309 70.293741 145.244965 70.61796 145.248871 70.621866 L 145.588715 71.121866 L 145.928559 71.61796 C 145.987153 71.703897 146.155121 71.953897 146.268403 72.121866 C 146.381684 72.289835 146.569184 72.571085 146.608246 72.625772 L 146.94809 73.133585 C 147.061371 73.301554 147.284028 73.633585 147.287934 73.641397 L 147.627778 74.153116 C 147.741059 74.321085 147.955903 74.645304 147.967621 74.664835 C 148.018403 74.739054 148.194184 75.008585 148.307465 75.18046 L 148.647309 75.699991 L 148.991059 76.223429 L 149.670746 77.270304 L 150.01059 77.797647 L 150.350434 78.328897 L 150.690278 78.864054 C 150.803559 79.039835 151.026215 79.391397 151.030121 79.395304 L 151.709809 80.473429 C 151.764496 80.559366 151.936371 80.83671 152.049653 81.016397 C 152.162934 81.196085 152.35434 81.500772 152.389496 81.559366 L 152.72934 82.110147 L 153.069184 82.657022 C 153.170746 82.821085 153.295746 83.02421 153.409028 83.207804 L 153.752778 83.770304 C 153.866059 83.953897 153.994965 84.164835 154.092621 84.324991 L 154.432465 84.883585 L 154.772309 85.446085 C 154.830903 85.547647 154.998871 85.821085 155.112153 86.012491 C 155.225434 86.199991 155.405121 86.496866 155.451996 86.574991 C 155.506684 86.668741 155.678559 86.957804 155.79184 87.145304 C 155.905121 87.33671 156.076996 87.621866 156.131684 87.719522 C 156.159028 87.766397 156.358246 88.102335 156.471528 88.293741 C 156.584809 88.485147 156.752778 88.770304 156.811371 88.86796 L 157.151215 89.449991 L 157.491059 90.028116 L 158.170746 91.199991 L 158.514496 91.793741 L 158.85434 92.387491 C 158.967621 92.582804 159.131684 92.86796 159.194184 92.981241 L 159.873871 94.176554 C 159.963715 94.332804 160.100434 94.578897 160.213715 94.778116 C 160.326996 94.981241 160.47934 95.250772 160.553559 95.383585 L 160.893403 95.99296 C 161.006684 96.196085 161.213715 96.567179 161.233246 96.598429 L 161.57309 97.215616 L 161.912934 97.828897 L 162.252778 98.446085 L 162.592621 99.067179 C 162.655121 99.176554 162.819184 99.481241 162.932465 99.692179 C 163.01059 99.832804 163.162934 100.110147 163.276215 100.321085 L 163.616059 100.946085 C 163.66684 101.039835 163.842621 101.36796 163.955903 101.578897 C 164.069184 101.789835 164.244965 102.114054 164.295746 102.21171 L 164.63559 102.848429 C 164.748871 103.059366 164.94809 103.43046 164.975434 103.485147 L 165.315278 104.125772 L 165.655121 104.770304 L 166.334809 106.067179 L 166.674653 106.719522 C 166.787934 106.934366 166.983246 107.30546 167.014496 107.371866 L 167.358246 108.032022 C 167.362153 108.043741 167.584809 108.469522 167.69809 108.688272 L 168.037934 109.352335 L 168.377778 110.02421 L 168.717621 110.688272 C 168.780121 110.80546 168.944184 111.133585 169.057465 111.360147 C 169.170746 111.582804 169.38559 112.004679 169.397309 112.032022 C 169.487153 112.203897 169.623871 112.481241 169.737153 112.707804 L 170.076996 113.387491 " transform="matrix(1,0,0,-1,178.58316,119.05546)"/>
</g>
<path style="fill:none;stroke-width:1.5;stroke-linecap:round;stroke-linejoin:round;stroke:rgb(100%,69.999695%,69.999695%);stroke-opacity:1;stroke-dasharray:0,2.5;stroke-dashoffset:1.25;stroke-miterlimit:10;" d="M -170.079254 -113.385946 L -169.73941 -112.710165 C -169.626129 -112.483603 -169.485504 -112.202353 -169.399566 -112.030478 C -169.383941 -112.00704 -169.173004 -111.581259 -169.059722 -111.358603 C -168.946441 -111.135946 -168.778472 -110.803915 -168.719879 -110.686728 L -168.380035 -110.022665 L -168.040191 -109.354696 L -167.696441 -108.686728 C -167.58316 -108.467978 -167.360504 -108.03829 -167.356597 -108.030478 L -167.016754 -107.370321 C -166.985504 -107.307821 -166.790191 -106.936728 -166.67691 -106.717978 L -166.337066 -106.065634 L -165.657379 -104.768759 L -165.317535 -104.128134 L -164.977691 -103.483603 C -164.946441 -103.428915 -164.751129 -103.061728 -164.637847 -102.846884 L -164.298004 -102.210165 C -164.243316 -102.112509 -164.071441 -101.78829 -163.95816 -101.577353 C -163.844879 -101.366415 -163.669097 -101.042196 -163.618316 -100.948446 L -163.278472 -100.31954 C -163.161285 -100.112509 -163.008941 -99.827353 -162.934722 -99.690634 C -162.821441 -99.483603 -162.657379 -99.178915 -162.594879 -99.065634 L -162.255035 -98.448446 L -161.915191 -97.827353 L -161.235504 -96.60079 C -161.215972 -96.56954 -161.008941 -96.19454 -160.89566 -95.991415 L -160.555816 -95.385946 C -160.481597 -95.253134 -160.329254 -94.979696 -160.215972 -94.780478 C -160.102691 -94.577353 -159.962066 -94.335165 -159.876129 -94.178915 L -159.536285 -93.577353 L -159.192535 -92.979696 C -159.130035 -92.870321 -158.969879 -92.585165 -158.852691 -92.385946 L -158.512847 -91.796103 L -158.173004 -91.198446 L -157.83316 -90.616415 L -157.493316 -90.030478 L -157.153472 -89.448446 L -156.813629 -88.870321 C -156.755035 -88.768759 -156.587066 -88.483603 -156.473785 -88.292196 C -156.360504 -88.10079 -156.161285 -87.764853 -156.133941 -87.717978 C -156.075347 -87.624228 -155.907379 -87.335165 -155.794097 -87.147665 C -155.680816 -86.956259 -155.508941 -86.671103 -155.450347 -86.577353 C -155.407379 -86.499228 -155.223785 -86.198446 -155.110504 -86.010946 C -154.997222 -85.823446 -154.83316 -85.542196 -154.77066 -85.44454 L -154.430816 -84.885946 L -154.090972 -84.323446 C -153.993316 -84.16329 -153.86441 -83.952353 -153.751129 -83.768759 L -153.411285 -83.210165 C -153.298004 -83.026571 -153.173004 -82.81954 -153.071441 -82.655478 L -152.391754 -81.561728 C -152.352691 -81.499228 -152.165191 -81.198446 -152.048004 -81.014853 C -151.934722 -80.835165 -151.766754 -80.561728 -151.70816 -80.471884 L -151.028472 -79.393759 C -151.024566 -79.389853 -150.80191 -79.042196 -150.688629 -78.862509 L -150.348785 -78.327353 L -149.329254 -76.745321 L -148.98941 -76.221884 L -148.64566 -75.698446 L -148.305816 -75.182821 C -148.192535 -75.00704 -148.016754 -74.737509 -147.965972 -74.66329 C -147.95816 -74.647665 -147.73941 -74.323446 -147.626129 -74.151571 L -147.286285 -73.639853 C -147.282379 -73.63204 -147.059722 -73.300009 -146.946441 -73.13204 L -146.606597 -72.624228 C -146.571441 -72.56954 -146.380035 -72.28829 -146.266754 -72.120321 C -146.153472 -71.952353 -145.985504 -71.706259 -145.92691 -71.616415 L -145.587066 -71.120321 L -145.247222 -70.620321 C -145.243316 -70.616415 -145.02066 -70.292196 -144.907379 -70.128134 C -144.794097 -69.964071 -144.567535 -69.635946 -144.567535 -69.635946 C -144.45816 -69.47579 -144.340972 -69.307821 -144.227691 -69.143759 L -143.883941 -68.655478 C -143.77066 -68.491415 -143.641754 -68.303915 -143.544097 -68.167196 C -143.544097 -68.16329 -143.317535 -67.846884 -143.204254 -67.686728 L -142.86441 -67.202353 L -142.524566 -66.72579 C -142.411285 -66.565634 -142.204254 -66.276571 -142.184722 -66.249228 L -141.505035 -65.303915 L -140.825347 -64.366415 L -140.14566 -63.436728 C -140.098785 -63.374228 -139.919097 -63.13204 -139.805816 -62.979696 L -139.465972 -62.518759 L -139.122222 -62.057821 L -138.782379 -61.608603 L -138.442535 -61.151571 C -138.376129 -61.065634 -138.215972 -60.854696 -138.102691 -60.706259 C -137.98941 -60.557821 -137.766754 -60.264853 -137.762847 -60.25704 C -137.727691 -60.210165 -137.536285 -59.960165 -137.423004 -59.815634 L -137.08316 -59.370321 L -136.743316 -58.928915 L -136.063629 -58.053915 C -135.950347 -57.909384 -135.755035 -57.659384 -135.723785 -57.620321 C -135.715972 -57.612509 -135.497222 -57.331259 -135.383941 -57.190634 L -135.044097 -56.75704 C -134.95816 -56.651571 -134.817535 -56.47579 -134.704254 -56.331259 L -134.360504 -55.901571 L -134.02066 -55.479696 C -133.938629 -55.374228 -133.794097 -55.198446 -133.680816 -55.057821 C -133.567535 -54.917196 -133.423004 -54.737509 -133.340972 -54.639853 C -133.247222 -54.522665 -133.11441 -54.362509 -133.001129 -54.221884 C -132.887847 -54.085165 -132.766754 -53.932821 -132.661285 -53.807821 L -132.321441 -53.397665 L -131.981597 -52.983603 L -131.30191 -52.171103 C -131.262847 -52.124228 -131.075347 -51.901571 -130.962066 -51.764853 C -130.848785 -51.63204 -130.684722 -51.436728 -130.622222 -51.362509 C -130.598785 -51.339071 -130.39566 -51.096884 -130.282379 -50.964071 L -129.942535 -50.565634 L -129.598785 -50.167196 L -129.258941 -49.772665 L -128.579254 -48.991415 L -127.899566 -48.217978 L -127.559722 -47.835165 L -127.219879 -47.456259 L -126.880035 -47.073446 L -126.540191 -46.698446 L -126.200347 -46.31954 C -126.196441 -46.31954 -125.973785 -46.073446 -125.860504 -45.948446 L -125.52066 -45.577353 L -125.17691 -45.202353 L -124.837066 -44.839071 L -124.497222 -44.471884 C -124.419097 -44.389853 -124.27066 -44.229696 -124.157379 -44.108603 C -124.044097 -43.987509 -123.856597 -43.78829 -123.817535 -43.745321 C -123.782379 -43.710165 -123.590972 -43.50704 -123.477691 -43.389853 C -123.36441 -43.268759 -123.215972 -43.112509 -123.137847 -43.030478 L -122.798004 -42.675009 L -121.778472 -41.620321 L -121.438629 -41.272665 L -120.758941 -40.585165 L -120.415191 -40.241415 C -120.30191 -40.128134 -120.11441 -39.940634 -120.075347 -39.897665 L -119.735504 -39.561728 C -119.622222 -39.448446 -119.415191 -39.245321 -119.39566 -39.22579 C -119.372222 -39.202353 -119.169097 -39.003134 -119.055816 -38.889853 L -118.715972 -38.557821 C -118.653472 -38.499228 -118.48941 -38.339071 -118.376129 -38.229696 C -118.262847 -38.120321 -118.098785 -37.964071 -118.036285 -37.901571 L -117.696441 -37.573446 L -117.356597 -37.249228 C -117.305816 -37.202353 -117.130035 -37.034384 -117.012847 -36.925009 C -116.903472 -36.81954 -116.73941 -36.667196 -116.673004 -36.604696 L -116.33316 -36.28829 L -115.993316 -35.967978 L -115.653472 -35.651571 C -115.594879 -35.60079 -115.42691 -35.440634 -115.313629 -35.339071 C -115.200347 -35.233603 -115.075347 -35.120321 -114.973785 -35.026571 C -114.89566 -34.956259 -114.747222 -34.81954 -114.633941 -34.717978 C -114.52066 -34.612509 -114.360504 -34.471884 -114.294097 -34.409384 L -113.954254 -34.104696 C -113.840972 -34.003134 -113.633941 -33.81954 -113.61441 -33.800009 C -113.532379 -33.72579 -113.387847 -33.596884 -113.27066 -33.495321 C -113.157379 -33.397665 -112.997222 -33.249228 -112.930816 -33.19454 C -112.848785 -33.120321 -112.704254 -32.995321 -112.590972 -32.897665 C -112.477691 -32.796103 -112.337066 -32.671103 -112.251129 -32.60079 C -112.157379 -32.518759 -112.024566 -32.401571 -111.911285 -32.303915 C -111.798004 -32.206259 -111.661285 -32.085165 -111.571441 -32.010946 L -110.891754 -31.425009 C -110.778472 -31.331259 -110.575347 -31.159384 -110.55191 -31.135946 C -110.477691 -31.077353 -110.325347 -30.948446 -110.212066 -30.85079 C -110.098785 -30.75704 -109.915191 -30.604696 -109.868316 -30.565634 L -109.188629 -30.003134 C -109.11441 -29.940634 -108.962066 -29.815634 -108.848785 -29.721884 C -108.735504 -29.63204 -108.55191 -29.479696 -108.508941 -29.44454 L -108.169097 -29.171103 C -108.055816 -29.077353 -107.852691 -28.91329 -107.829254 -28.897665 C -107.798004 -28.870321 -107.602691 -28.714071 -107.48941 -28.624228 L -107.149566 -28.35079 L -106.809722 -28.085165 L -106.469879 -27.815634 L -106.126129 -27.550009 L -105.786285 -27.284384 L -105.446441 -27.022665 C -105.356597 -26.952353 -105.219879 -26.85079 -105.106597 -26.760946 C -104.993316 -26.675009 -104.872222 -26.581259 -104.766754 -26.503134 C -104.715972 -26.464071 -104.540191 -26.331259 -104.42691 -26.245321 C -104.313629 -26.159384 -104.169097 -26.050009 -104.087066 -25.991415 L -103.407379 -25.483603 L -102.727691 -24.983603 L -102.048004 -24.491415 C -101.993316 -24.452353 -101.821441 -24.331259 -101.70816 -24.249228 L -101.36441 -24.003134 L -101.024566 -23.764853 C -100.919097 -23.690634 -100.798004 -23.604696 -100.684722 -23.522665 C -100.571441 -23.44454 -100.45816 -23.362509 -100.344879 -23.28829 C -100.243316 -23.214071 -100.118316 -23.128134 -100.005035 -23.050009 C -99.891754 -22.971884 -99.762847 -22.88204 -99.665191 -22.815634 L -98.305816 -21.893759 L -97.965972 -21.667196 L -97.626129 -21.44454 C -97.52066 -21.374228 -97.399566 -21.296103 -97.286285 -21.221884 C -97.173004 -21.147665 -97.05191 -21.06954 -96.946441 -20.999228 L -96.602691 -20.776571 L -96.262847 -20.557821 C -96.149566 -20.487509 -95.977691 -20.374228 -95.923004 -20.342978 C -95.89566 -20.323446 -95.696441 -20.198446 -95.58316 -20.128134 L -95.243316 -19.91329 C -95.14566 -19.85079 -95.016754 -19.768759 -94.903472 -19.698446 C -94.790191 -19.628134 -94.64566 -19.542196 -94.563629 -19.487509 C -94.469879 -19.432821 -94.337066 -19.35079 -94.223785 -19.280478 C -94.110504 -19.210165 -93.985504 -19.13204 -93.883941 -19.06954 C -93.782379 -19.010946 -93.657379 -18.932821 -93.544097 -18.866415 C -93.430816 -18.796103 -93.298004 -18.717978 -93.204254 -18.659384 C -93.110504 -18.604696 -92.977691 -18.526571 -92.86441 -18.456259 C -92.751129 -18.389853 -92.622222 -18.311728 -92.524566 -18.253134 C -92.423004 -18.19454 -92.298004 -18.120321 -92.184722 -18.053915 C -92.071441 -17.987509 -91.915191 -17.897665 -91.840972 -17.854696 L -91.501129 -17.655478 L -90.821441 -17.264853 C -90.70816 -17.202353 -90.481597 -17.073446 -90.481597 -17.073446 C -90.368316 -17.00704 -90.212066 -16.917196 -90.141754 -16.878134 C -90.118316 -16.866415 -89.915191 -16.753134 -89.80191 -16.690634 L -89.462066 -16.499228 C -89.368316 -16.448446 -89.235504 -16.378134 -89.122222 -16.315634 C -89.008941 -16.253134 -88.86441 -16.171103 -88.782379 -16.128134 L -88.442535 -15.94454 C -88.329254 -15.88204 -88.141754 -15.780478 -88.102691 -15.760946 C -88.036285 -15.72579 -87.876129 -15.639853 -87.762847 -15.577353 L -87.423004 -15.397665 L -87.079254 -15.217978 L -86.73941 -15.042196 L -86.399566 -14.862509 C -86.376129 -14.85079 -86.173004 -14.749228 -86.059722 -14.690634 L -85.719879 -14.514853 C -85.719879 -14.514853 -85.493316 -14.401571 -85.380035 -14.342978 L -85.040191 -14.175009 C -85.036285 -14.171103 -84.813629 -14.061728 -84.700347 -14.003134 C -84.587066 -13.948446 -84.360504 -13.835165 -84.360504 -13.835165 C -84.348785 -13.831259 -84.133941 -13.72579 -84.02066 -13.671103 L -83.680816 -13.503134 C -83.567535 -13.448446 -83.454254 -13.393759 -83.340972 -13.339071 C -83.227691 -13.284384 -83.102691 -13.22579 -83.001129 -13.178915 L -82.657379 -13.014853 L -82.317535 -12.854696 C -82.204254 -12.803915 -82.005035 -12.710165 -81.977691 -12.698446 C -81.942535 -12.682821 -81.751129 -12.592978 -81.637847 -12.53829 L -81.298004 -12.38204 C -81.212066 -12.346884 -81.071441 -12.280478 -80.95816 -12.229696 C -80.844879 -12.178915 -80.712066 -12.116415 -80.618316 -12.073446 L -80.278472 -11.925009 C -80.165191 -11.874228 -79.946441 -11.776571 -79.938629 -11.772665 C -79.89566 -11.753134 -79.712066 -11.671103 -79.598785 -11.624228 L -78.919097 -11.327353 L -78.579254 -11.182821 L -78.235504 -11.03829 L -77.555816 -10.749228 L -77.215972 -10.608603 L -76.876129 -10.471884 L -76.536285 -10.331259 L -76.196441 -10.19454 C -76.165191 -10.182821 -75.969879 -10.104696 -75.856597 -10.061728 L -75.516754 -9.925009 L -75.17691 -9.792196 L -74.83316 -9.659384 C -74.809722 -9.647665 -74.606597 -9.573446 -74.493316 -9.526571 C -74.380035 -9.483603 -74.255035 -9.436728 -74.153472 -9.397665 L -73.813629 -9.268759 C -73.790191 -9.260946 -73.587066 -9.182821 -73.473785 -9.143759 L -73.133941 -9.014853 L -72.454254 -8.764853 L -71.774566 -8.522665 C -71.665191 -8.483603 -71.548004 -8.440634 -71.430816 -8.401571 C -71.317535 -8.362509 -71.200347 -8.31954 -71.090972 -8.280478 L -70.751129 -8.16329 C -70.637847 -8.124228 -70.411285 -8.046103 -70.411285 -8.046103 C -70.305816 -8.010946 -70.184722 -7.967978 -70.071441 -7.928915 C -69.95816 -7.889853 -69.837066 -7.85079 -69.731597 -7.815634 C -69.712066 -7.807821 -69.505035 -7.737509 -69.391754 -7.702353 L -68.712066 -7.47579 L -68.372222 -7.366415 C -68.258941 -7.331259 -68.059722 -7.264853 -68.032379 -7.25704 C -67.923004 -7.221884 -67.80191 -7.182821 -67.688629 -7.147665 C -67.575347 -7.112509 -67.45816 -7.073446 -67.348785 -7.042196 L -67.008941 -6.936728 C -66.89566 -6.901571 -66.673004 -6.831259 -66.669097 -6.831259 C -66.563629 -6.796103 -66.442535 -6.760946 -66.329254 -6.72579 C -66.215972 -6.690634 -66.094879 -6.655478 -65.98941 -6.624228 C -65.985504 -6.620321 -65.762847 -6.553915 -65.649566 -6.522665 L -64.969879 -6.31954 L -63.950347 -6.026571 C -63.92691 -6.018759 -63.723785 -5.964071 -63.606597 -5.932821 C -63.493316 -5.901571 -63.305816 -5.846884 -63.266754 -5.835165 L -62.92691 -5.741415 L -62.587066 -5.651571 L -62.247222 -5.557821 L -61.907379 -5.467978 C -61.794097 -5.440634 -61.58316 -5.38204 -61.567535 -5.378134 C -61.555816 -5.374228 -61.340972 -5.31954 -61.227691 -5.292196 L -60.887847 -5.202353 L -59.868316 -4.94454 L -59.188629 -4.780478 C -59.141754 -4.768759 -58.962066 -4.721884 -58.844879 -4.69454 C -58.731597 -4.671103 -58.563629 -4.628134 -58.505035 -4.616415 L -58.165191 -4.534384 L -57.825347 -4.456259 C -57.712066 -4.428915 -57.544097 -4.389853 -57.485504 -4.378134 L -57.14566 -4.300009 L -56.465972 -4.151571 C -56.352691 -4.124228 -56.165191 -4.081259 -56.126129 -4.073446 L -55.786285 -3.999228 L -55.446441 -3.928915 L -55.106597 -3.854696 L -54.766754 -3.78829 L -54.42691 -3.714071 C -54.321441 -3.69454 -54.196441 -3.667196 -54.08316 -3.647665 L -53.743316 -3.577353 C -53.630035 -3.553915 -53.481597 -3.526571 -53.403472 -3.510946 C -53.348785 -3.499228 -53.17691 -3.464071 -53.063629 -3.44454 L -52.383941 -3.311728 L -51.704254 -3.186728 C -51.590972 -3.16329 -51.411285 -3.13204 -51.36441 -3.124228 L -50.684722 -2.999228 C -50.630035 -2.991415 -50.45816 -2.960165 -50.344879 -2.940634 L -49.665191 -2.823446 L -49.321441 -2.764853 L -48.981597 -2.710165 L -48.641754 -2.651571 L -47.622222 -2.487509 L -46.942535 -2.385946 C -46.930816 -2.38204 -46.715972 -2.35079 -46.602691 -2.331259 L -46.262847 -2.280478 L -45.923004 -2.233603 L -45.58316 -2.182821 L -45.243316 -2.135946 C -45.173004 -2.124228 -45.016754 -2.10079 -44.903472 -2.085165 C -44.786285 -2.06954 -44.653472 -2.053915 -44.559722 -2.03829 C -44.516754 -2.034384 -44.33316 -2.00704 -44.219879 -1.991415 L -43.880035 -1.948446 L -43.540191 -1.901571 L -41.840972 -1.686728 L -41.501129 -1.647665 C -41.481597 -1.643759 -41.274566 -1.620321 -41.161285 -1.608603 L -40.821441 -1.565634 L -40.481597 -1.530478 L -40.137847 -1.491415 C -40.024566 -1.479696 -39.817535 -1.456259 -39.798004 -1.452353 L -39.45816 -1.417196 C -39.380035 -1.405478 -39.231597 -1.389853 -39.118316 -1.378134 L -38.778472 -1.342978 C -38.665191 -1.331259 -38.548004 -1.31954 -38.438629 -1.307821 L -38.098785 -1.272665 L -37.758941 -1.241415 C -37.73941 -1.237509 -37.532379 -1.217978 -37.419097 -1.206259 L -36.73941 -1.143759 L -36.39566 -1.112509 C -36.282379 -1.10079 -36.08316 -1.081259 -36.055816 -1.081259 C -36.028472 -1.077353 -35.829254 -1.061728 -35.715972 -1.050009 C -35.602691 -1.03829 -35.446441 -1.026571 -35.376129 -1.018759 C -35.282379 -1.010946 -35.149566 -0.999228 -35.036285 -0.991415 L -34.696441 -0.964071 C -34.58316 -0.952353 -34.434722 -0.940634 -34.356597 -0.932821 L -34.016754 -0.909384 L -33.67691 -0.878134 C -33.630035 -0.878134 -33.450347 -0.862509 -33.337066 -0.854696 L -32.997222 -0.827353 L -32.653472 -0.803915 L -32.313629 -0.776571 L -31.973785 -0.753134 C -31.860504 -0.745321 -31.67691 -0.733603 -31.633941 -0.729696 L -30.61441 -0.659384 L -29.934722 -0.620321 L -29.594879 -0.596884 C -29.548004 -0.592978 -29.36441 -0.585165 -29.251129 -0.577353 L -28.911285 -0.557821 C -28.83316 -0.553915 -28.684722 -0.546103 -28.571441 -0.53829 L -28.231597 -0.518759 C -28.118316 -0.510946 -27.981597 -0.503134 -27.891754 -0.499228 L -27.55191 -0.483603 L -27.212066 -0.464071 C -27.098785 -0.460165 -26.891754 -0.448446 -26.872222 -0.448446 C -26.80191 -0.44454 -26.64566 -0.436728 -26.532379 -0.428915 C -26.450347 -0.425009 -26.305816 -0.421103 -26.192535 -0.41329 L -25.852691 -0.397665 L -25.508941 -0.38204 C -25.423004 -0.378134 -25.282379 -0.374228 -25.169097 -0.366415 L -24.829254 -0.354696 C -24.715972 -0.346884 -24.571441 -0.342978 -24.48941 -0.339071 L -24.149566 -0.323446 L -23.809722 -0.311728 L -23.469879 -0.296103 L -22.450347 -0.260946 C -22.356597 -0.25704 -22.223785 -0.253134 -22.110504 -0.249228 L -21.77066 -0.237509 C -21.657379 -0.233603 -21.508941 -0.229696 -21.430816 -0.22579 L -21.087066 -0.217978 C -20.973785 -0.214071 -20.755035 -0.206259 -20.747222 -0.206259 L -20.407379 -0.19454 L -19.727691 -0.178915 L -19.387847 -0.167196 C -19.356597 -0.167196 -19.161285 -0.16329 -19.048004 -0.159384 L -18.70816 -0.151571 C -18.622222 -0.147665 -18.481597 -0.143759 -18.368316 -0.143759 L -18.028472 -0.135946 C -17.915191 -0.13204 -17.774566 -0.128134 -17.688629 -0.128134 C -17.598785 -0.124228 -17.462066 -0.124228 -17.348785 -0.120321 L -17.008941 -0.112509 C -16.89566 -0.112509 -16.751129 -0.108603 -16.669097 -0.104696 C -16.587066 -0.104696 -16.438629 -0.10079 -16.325347 -0.10079 L -15.985504 -0.0929775 C -15.872222 -0.0929775 -15.727691 -0.0890713 -15.64566 -0.0890713 L -15.305816 -0.0812588 L -14.626129 -0.0734463 L -14.286285 -0.0656338 L -13.946441 -0.0617275 C -13.942535 -0.0617275 -13.719879 -0.0578213 -13.606597 -0.0578213 C -13.493316 -0.0578213 -13.274566 -0.053915 -13.266754 -0.053915 L -12.587066 -0.0461025 C -12.505035 -0.0461025 -12.360504 -0.0421963 -12.247222 -0.0421963 L -11.907379 -0.03829 C -11.794097 -0.03829 -11.653472 -0.0343838 -11.563629 -0.0343838 L -11.223785 -0.0343838 L -10.544097 -0.0265713 C -10.430816 -0.0265713 -10.212066 -0.022665 -10.204254 -0.022665 L -9.86441 -0.022665 L -9.524566 -0.0187588 L -9.184722 -0.0187588 L -8.844879 -0.0148525 C -8.840972 -0.0148525 -8.618316 -0.0148525 -8.505035 -0.0148525 L -8.165191 -0.0109463 L -7.485504 -0.0109463 L -7.14566 -0.00704 L -6.80191 -0.00704 C -6.731597 -0.00704 -6.575347 -0.00704 -6.462066 -0.00704 C -6.450347 -0.00704 -6.235504 -0.00704 -6.122222 -0.00704 L -5.782379 -0.00313375 C -5.669097 -0.00313375 -5.512847 -0.00313375 -5.442535 -0.00313375 L -4.762847 -0.00313375 C -4.649566 -0.00313375 -4.532379 -0.00313375 -4.423004 -0.00313375 L -4.08316 -0.00313375 L -3.743316 0.0007725 C -3.684722 0.0007725 -3.516754 0.0007725 -3.403472 0.0007725 L -3.063629 0.0007725 C -2.950347 0.0007725 -2.778472 0.0007725 -2.723785 0.0007725 L -2.383941 0.0007725 C -2.309722 0.0007725 -2.153472 0.0007725 -2.040191 0.0007725 C -1.969879 0.0007725 -1.813629 0.0007725 -1.700347 0.0007725 C -1.626129 0.0007725 -1.473785 0.0007725 -1.360504 0.0007725 C -1.286285 0.0007725 -1.133941 0.0007725 -1.02066 0.0007725 C -0.946441 0.0007725 -0.794097 0.0007725 -0.680816 0.0007725 C -0.594879 0.0007725 -0.454254 0.0007725 -0.340972 0.0007725 L -0.00112875 0.0007725 " transform="matrix(1,0,0,-1,178.58316,119.05546)"/>
<path style="fill:none;stroke-width:0.49814;stroke-linecap:round;stroke-linejoin:round;stroke:rgb(100%,100%,100%);stroke-opacity:1;stroke-miterlimit:10;" d="M -127.559722 0.0007725 L -127.559722 -47.835165 " transform="matrix(1,0,0,-1,178.58316,119.05546)"/>
<path style="fill-rule:nonzero;fill:rgb(100%,100%,100%);fill-opacity:1;stroke-width:0.49814;stroke-linecap:round;stroke-linejoin:round;stroke:rgb(100%,100%,100%);stroke-opacity:1;stroke-miterlimit:10;" d="M -129.090972 -44.139853 L -127.559722 -47.835165 L -126.028472 -44.139853 Z M -129.090972 -44.139853 " transform="matrix(1,0,0,-1,178.58316,119.05546)"/>
<path style="fill:none;stroke-width:0.49814;stroke-linecap:round;stroke-linejoin:round;stroke:rgb(100%,100%,100%);stroke-opacity:1;stroke-miterlimit:10;" d="M -127.559722 -47.835165 L -0.00112875 -47.835165 " transform="matrix(1,0,0,-1,178.58316,119.05546)"/>
<path style="fill-rule:nonzero;fill:rgb(100%,100%,100%);fill-opacity:1;stroke-width:0.49814;stroke-linecap:round;stroke-linejoin:round;stroke:rgb(100%,100%,100%);stroke-opacity:1;stroke-miterlimit:10;" d="M -3.696441 -49.366415 L -0.00112875 -47.835165 L -3.696441 -46.303915 Z M -3.696441 -49.366415 " transform="matrix(1,0,0,-1,178.58316,119.05546)"/>
<path style="fill:none;stroke-width:0.49814;stroke-linecap:round;stroke-linejoin:round;stroke:rgb(100%,100%,100%);stroke-opacity:1;stroke-miterlimit:10;" d="M 127.557465 47.832804 L -0.00112875 47.832804 " transform="matrix(1,0,0,-1,178.58316,119.05546)"/>
<path style="fill-rule:nonzero;fill:rgb(100%,100%,100%);fill-opacity:1;stroke-width:0.49814;stroke-linecap:round;stroke-linejoin:round;stroke:rgb(100%,100%,100%);stroke-opacity:1;stroke-miterlimit:10;" d="M 3.694184 49.364054 L -0.00112875 47.832804 L 3.694184 46.30546 Z M 3.694184 49.364054 " transform="matrix(1,0,0,-1,178.58316,119.05546)"/>
<path style="fill:none;stroke-width:0.49814;stroke-linecap:round;stroke-linejoin:round;stroke:rgb(100%,100%,100%);stroke-opacity:1;stroke-miterlimit:10;" d="M 127.557465 0.0007725 L 127.557465 47.832804 " transform="matrix(1,0,0,-1,178.58316,119.05546)"/>
<path style="fill-rule:nonzero;fill:rgb(100%,100%,100%);fill-opacity:1;stroke-width:0.49814;stroke-linecap:round;stroke-linejoin:round;stroke:rgb(100%,100%,100%);stroke-opacity:1;stroke-miterlimit:10;" d="M 129.088715 44.137491 L 127.557465 47.832804 L 126.030121 44.137491 Z M 129.088715 44.137491 " transform="matrix(1,0,0,-1,178.58316,119.05546)"/>
<path style="fill:none;stroke-width:0.49814;stroke-linecap:round;stroke-linejoin:round;stroke:rgb(100%,100%,100%);stroke-opacity:1;stroke-miterlimit:10;" d="M 127.557465 47.832804 L -127.559722 -47.835165 " transform="matrix(1,0,0,-1,178.58316,119.05546)"/>
<path style="fill:none;stroke-width:0.49814;stroke-linecap:round;stroke-linejoin:round;stroke:rgb(100%,100%,100%);stroke-opacity:1;stroke-miterlimit:10;" d="M -64.059722 -20.323446 L -65.372222 -28.214071 " transform="matrix(1,0,0,-1,178.58316,119.05546)"/>
<path style="fill:none;stroke-width:0.49814;stroke-linecap:round;stroke-linejoin:round;stroke:rgb(100%,100%,100%);stroke-opacity:1;stroke-miterlimit:10;" d="M -62.188629 -19.620321 L -63.501129 -27.510946 " transform="matrix(1,0,0,-1,178.58316,119.05546)"/>
<path style="fill:none;stroke-width:0.49814;stroke-linecap:round;stroke-linejoin:round;stroke:rgb(100%,100%,100%);stroke-opacity:1;stroke-miterlimit:10;" d="M 63.498871 27.512491 L 62.186371 19.621866 " transform="matrix(1,0,0,-1,178.58316,119.05546)"/>
<path style="fill:none;stroke-width:0.49814;stroke-linecap:round;stroke-linejoin:round;stroke:rgb(100%,100%,100%);stroke-opacity:1;stroke-miterlimit:10;" d="M 65.373871 28.215616 L 64.061371 20.321085 " transform="matrix(1,0,0,-1,178.58316,119.05546)"/>
<g style="fill:rgb(100%,100%,100%);fill-opacity:1;">
  <use xlink:href="#glyph1-1" x="43.35886" y="113.06096"/>
</g>
<g style="fill:rgb(100%,100%,100%);fill-opacity:1;">
  <use xlink:href="#glyph2-1" x="52.39966" y="113.06096"/>
</g>
<path style="fill:none;stroke-width:3;stroke-linecap:round;stroke-linejoin:round;stroke:rgb(100%,100%,100%);stroke-opacity:1;stroke-miterlimit:10;" d="M -127.559722 0.0007725 L -127.559722 0.0007725 " transform="matrix(1,0,0,-1,178.58316,119.05546)"/>
<g style="fill:rgb(100%,100%,100%);fill-opacity:1;">
  <use xlink:href="#glyph2-1" x="302.99726" y="129.54456"/>
</g>
<path style="fill:none;stroke-width:3;stroke-linecap:round;stroke-linejoin:round;stroke:rgb(100%,100%,100%);stroke-opacity:1;stroke-miterlimit:10;" d="M 127.557465 0.0007725 L 127.557465 0.0007725 " transform="matrix(1,0,0,-1,178.58316,119.05546)"/>
<g style="fill:rgb(100%,100%,100%);fill-opacity:1;">
  <use xlink:href="#glyph2-2" x="182.08316" y="179.35016"/>
</g>
<g style="fill:rgb(100%,100%,100%);fill-opacity:1;">
  <use xlink:href="#glyph1-2" x="187.10406" y="179.35016"/>
  <use xlink:href="#glyph1-1" x="191.749812" y="179.35016"/>
</g>
<g style="fill:rgb(100%,100%,100%);fill-opacity:1;">
  <use xlink:href="#glyph2-1" x="200.79116" y="179.35016"/>
</g>
<g style="fill:rgb(100%,100%,100%);fill-opacity:1;">
  <use xlink:href="#glyph1-3" x="207.08096" y="179.35016"/>
</g>
<path style="fill:none;stroke-width:3;stroke-linecap:round;stroke-linejoin:round;stroke:rgb(100%,100%,100%);stroke-opacity:1;stroke-miterlimit:10;" d="M -0.00112875 -47.835165 L -0.00112875 -47.835165 " transform="matrix(1,0,0,-1,178.58316,119.05546)"/>
<g style="fill:rgb(100%,100%,100%);fill-opacity:1;">
  <use xlink:href="#glyph2-2" x="154.47986" y="83.68096"/>
</g>
<g style="fill:rgb(100%,100%,100%);fill-opacity:1;">
  <use xlink:href="#glyph1-2" x="159.50076" y="83.68096"/>
</g>
<g style="fill:rgb(100%,100%,100%);fill-opacity:1;">
  <use xlink:href="#glyph2-1" x="164.14706" y="83.68096"/>
</g>
<g style="fill:rgb(100%,100%,100%);fill-opacity:1;">
  <use xlink:href="#glyph1-3" x="170.43686" y="83.68096"/>
</g>
<path style="fill:none;stroke-width:3;stroke-linecap:round;stroke-linejoin:round;stroke:rgb(100%,100%,100%);stroke-opacity:1;stroke-miterlimit:10;" d="M -0.00112875 47.832804 L -0.00112875 47.832804 " transform="matrix(1,0,0,-1,178.58316,119.05546)"/>
<g style="fill:rgb(100%,100%,100%);fill-opacity:1;">
  <use xlink:href="#glyph3-1" x="182.08316" y="128.24946"/>
</g>
</g>
</svg>
