<?xml version="1.0" encoding="UTF-8" standalone="no"?>
<svg
   xmlns:dc="http://purl.org/dc/elements/1.1/"
   xmlns:cc="http://creativecommons.org/ns#"
   xmlns:rdf="http://www.w3.org/1999/02/22-rdf-syntax-ns#"
   xmlns:svg="http://www.w3.org/2000/svg"
   xmlns="http://www.w3.org/2000/svg"
   xmlns:xlink="http://www.w3.org/1999/xlink"
   xmlns:sodipodi="http://sodipodi.sourceforge.net/DTD/sodipodi-0.dtd"
   xmlns:inkscape="http://www.inkscape.org/namespaces/inkscape"
   width="238.6096pt"
   height="238.6096pt"
   viewBox="0 0 238.6096 238.6096"
   version="1.1"
   id="svg2524"
   sodipodi:docname="trigo-8.pdf_b.svg"
   inkscape:version="1.0.1 (3bc2e813f5, 2020-09-07)">
  <metadata
     id="metadata2528">
    <rdf:RDF>
      <cc:Work
         rdf:about="">
        <dc:format>image/svg+xml</dc:format>
        <dc:type
           rdf:resource="http://purl.org/dc/dcmitype/StillImage" />
        <dc:title></dc:title>
      </cc:Work>
    </rdf:RDF>
  </metadata>
  <sodipodi:namedview
     pagecolor="#ffffff"
     bordercolor="#666666"
     borderopacity="1"
     objecttolerance="10"
     gridtolerance="10"
     guidetolerance="10"
     inkscape:pageopacity="0"
     inkscape:pageshadow="2"
     inkscape:window-width="1918"
     inkscape:window-height="1044"
     id="namedview2526"
     showgrid="false"
     inkscape:zoom="1.8104887"
     inkscape:cx="46.948649"
     inkscape:cy="159.07307"
     inkscape:window-x="0"
     inkscape:window-y="34"
     inkscape:window-maximized="0"
     inkscape:current-layer="svg2524"
     inkscape:document-rotation="0" />
  <defs
     id="defs2427">
    <g
       id="g2413">
      <symbol
         overflow="visible"
         id="glyph0-0">
        <path
           style="stroke:none"
           d=""
           id="path2371" />
      </symbol>
      <symbol
         overflow="visible"
         id="glyph0-1">
        <path
           style="stroke:none"
           d="M 6.265625 -4.0625 C 6.265625 -5.5 5.734375 -8.28125 3.390625 -8.28125 C 1.0625 -8.28125 0.515625 -5.5 0.515625 -4.0625 C 0.515625 -2.5625 1.0625 0.171875 3.390625 0.171875 C 5.734375 0.171875 6.265625 -2.5625 6.265625 -4.0625 Z M 5.046875 -4.0625 C 5.046875 -3.078125 5.015625 -0.140625 3.390625 -0.140625 C 1.765625 -0.140625 1.75 -3.0625 1.75 -4.0625 C 1.75 -4.890625 1.765625 -7.953125 3.390625 -7.953125 C 5.015625 -7.953125 5.046875 -4.890625 5.046875 -4.0625 Z M 5.046875 -4.0625 "
           id="path2374" />
      </symbol>
      <symbol
         overflow="visible"
         id="glyph0-2">
        <path
           style="stroke:none"
           d="M 4.640625 -1.4375 C 4.640625 -2.15625 4.25 -2.640625 3.625 -2.9375 C 2.921875 -3.296875 1.5625 -3.671875 1.53125 -4.4375 C 1.484375 -5 1.90625 -5.375 2.8125 -5.328125 C 3.328125 -5.296875 3.984375 -4.828125 4.078125 -3.859375 L 4.390625 -3.859375 L 4.328125 -5.65625 L 4.078125 -5.65625 C 4.09375 -5.65625 4.0625 -5.421875 3.953125 -5.421875 C 3.734375 -5.421875 3.359375 -5.65625 2.828125 -5.671875 C 1.484375 -5.75 0.59375 -5.140625 0.59375 -4.1875 C 0.59375 -3.21875 1.40625 -2.796875 2.265625 -2.421875 L 3.171875 -1.921875 C 3.59375 -1.734375 3.78125 -1.40625 3.78125 -1.015625 C 3.78125 -0.3125 3.25 -0.171875 2.828125 -0.171875 C 1.625 -0.171875 1.046875 -1.15625 0.953125 -1.8125 L 0.671875 -1.828125 L 0.78125 0.09375 L 1.03125 0.09375 C 1.109375 -0.015625 1.125 -0.078125 1.265625 -0.0625 C 1.640625 0 2.328125 0.140625 2.875 0.15625 C 3.734375 0.171875 4.640625 -0.359375 4.640625 -1.4375 Z M 4.640625 -1.4375 "
           id="path2377" />
      </symbol>
      <symbol
         overflow="visible"
         id="glyph0-3">
        <path
           style="stroke:none"
           d="M 2.28125 -7.625 C 2.28125 -8 1.953125 -8.328125 1.578125 -8.328125 C 1.1875 -8.328125 0.875 -8 0.875 -7.625 C 0.875 -7.25 1.1875 -6.921875 1.578125 -6.921875 C 1.953125 -6.921875 2.28125 -7.25 2.28125 -7.625 Z M 3.640625 -1.71875 L 3.34375 -1.8125 C 3.109375 -1.15625 2.828125 -0.59375 2.421875 -0.625 C 1.828125 -0.6875 1.953125 -1.4375 1.953125 -2.28125 C 1.953125 -3.546875 2.09375 -4.921875 2.171875 -5.71875 C 1.6875 -5.5625 0.65625 -5.609375 0.515625 -5.65625 L 0.515625 -5.3125 C 0.78125 -5.3125 1.015625 -5.234375 1.078125 -5.078125 C 1.15625 -4.84375 1.0625 -3.78125 1.046875 -2.9375 C 1.015625 -1.84375 1.046875 -1.015625 1.203125 -0.5 C 1.390625 0.03125 1.78125 0.140625 2.140625 0.140625 C 2.484375 0.140625 3.15625 -0.046875 3.640625 -1.71875 Z M 3.640625 -1.71875 "
           id="path2380" />
      </symbol>
      <symbol
         overflow="visible"
         id="glyph0-4">
        <path
           style="stroke:none"
           d="M 6.875 -1.671875 L 6.578125 -1.8125 C 6.515625 -1.625 6.234375 -0.609375 5.640625 -0.59375 C 5.234375 -0.59375 5.25 -0.8125 5.359375 -2.484375 C 5.5 -4.921875 5.515625 -5.78125 4.21875 -5.671875 C 3.4375 -5.609375 2.3125 -4.53125 2.03125 -4.109375 C 2.015625 -4.328125 2.03125 -5.140625 2.140625 -5.65625 C 1.671875 -5.484375 0.609375 -5.5625 0.453125 -5.609375 L 0.453125 -5.265625 C 0.71875 -5.28125 0.953125 -5.234375 1.015625 -5.046875 C 1.109375 -4.8125 1.15625 -3.71875 1.140625 -2.890625 C 1.140625 -2.046875 1.015625 -0.234375 0.96875 0.015625 C 1.203125 -0.078125 1.90625 -0.046875 2.0625 0 C 2.015625 -1.109375 1.953125 -2.21875 2.015625 -3.671875 C 2.015625 -3.671875 3.140625 -5.1875 4.140625 -4.90625 C 4.390625 -4.828125 4.484375 -4.375 4.4375 -3.078125 C 4.390625 -1.90625 4.15625 -0.734375 4.5 -0.171875 C 4.703125 0.125 5.125 0.203125 5.34375 0.1875 C 5.546875 0.171875 6.25 0.265625 6.875 -1.671875 Z M 6.875 -1.671875 "
           id="path2383" />
      </symbol>
      <symbol
         overflow="visible"
         id="glyph0-5">
        <path
           style="stroke:none"
           d="M 5.1875 -1.8125 L 5 -1.90625 C 4.59375 -1.296875 4.140625 -0.78125 3.265625 -0.78125 C 2.234375 -0.78125 1.390625 -1.6875 1.390625 -3.109375 C 1.390625 -4.90625 2.515625 -5.234375 2.96875 -5.28125 C 3.40625 -5.328125 3.84375 -5.109375 3.921875 -4.765625 C 4.015625 -4.4375 3.859375 -4.25 3.75 -4.125 C 3.859375 -4.0625 4.046875 -3.828125 4.40625 -3.828125 C 4.90625 -3.859375 5.015625 -4.515625 4.8125 -4.90625 C 4.671875 -5.234375 4.328125 -5.640625 3.1875 -5.65625 C 1.859375 -5.65625 0.453125 -4.625 0.453125 -2.609375 C 0.453125 -0.6875 1.765625 0.125 2.75 0.125 C 3.734375 0.125 4.53125 -0.40625 5.1875 -1.8125 Z M 5.1875 -1.8125 "
           id="path2386" />
      </symbol>
      <symbol
         overflow="visible"
         id="glyph0-6">
        <path
           style="stroke:none"
           d="M 5.984375 -2.703125 C 5.984375 -4.625 4.8125 -5.5625 3.1875 -5.59375 C 1.34375 -5.625 0.4375 -4.390625 0.453125 -2.8125 C 0.484375 -1.078125 1.578125 0.140625 3.15625 0.171875 C 5 0.203125 6 -1.296875 5.984375 -2.703125 Z M 4.8125 -2.34375 C 4.765625 -0.59375 3.953125 -0.171875 3.3125 -0.15625 C 1.78125 -0.15625 1.53125 -2.34375 1.625 -3.34375 C 1.765625 -4.625 2.328125 -5.25 3.125 -5.234375 C 4.234375 -5.234375 4.828125 -3.875 4.8125 -2.34375 Z M 4.8125 -2.34375 "
           id="path2389" />
      </symbol>
      <symbol
         overflow="visible"
         id="glyph1-0">
        <path
           style="stroke:none"
           d=""
           id="path2392" />
      </symbol>
      <symbol
         overflow="visible"
         id="glyph1-1">
        <path
           style="stroke:none"
           d="M 4.140625 0.015625 L 4.15625 -0.28125 C 4.140625 -0.28125 3.640625 -0.40625 3.375 -0.484375 C 2.875 -0.609375 3.015625 -1.5 3 -2.015625 C 2.984375 -2.75 2.96875 -3.484375 2.96875 -4.296875 C 2.96875 -5.21875 2.90625 -6.640625 3.015625 -7.34375 C 3.03125 -7.5 3.125 -7.625 3.28125 -7.65625 L 4.078125 -7.84375 L 4.078125 -8.09375 L 4 -8.15625 L 1.015625 -8.15625 L 0.9375 -8.09375 L 0.9375 -7.828125 C 1.890625 -7.609375 1.96875 -7.671875 2 -7.3125 C 2.03125 -6.859375 2.03125 -6.40625 2.03125 -5.9375 L 2.03125 -1.609375 C 1.984375 -0.609375 2.140625 -0.53125 0.96875 -0.296875 L 0.96875 0.015625 Z M 4.140625 0.015625 "
           id="path2395" />
      </symbol>
      <symbol
         overflow="visible"
         id="glyph1-2">
        <path
           style="stroke:none"
           d="M 3.109375 -7.265625 C 3.109375 -7.484375 3.21875 -7.6875 3.359375 -7.71875 L 4.171875 -7.890625 L 4.203125 -8.171875 L 4.109375 -8.25 L 1.125 -8.25 L 1.046875 -8.171875 L 1.046875 -7.921875 L 1.90625 -7.703125 C 2.046875 -7.671875 2.09375 -7.40625 2.09375 -7.265625 L 2.09375 -1.140625 C 2.09375 1.265625 1.53125 2 0.59375 2.578125 L 0.765625 2.796875 C 2.359375 1.96875 3.109375 0.765625 3.109375 -1.09375 Z M 3.109375 -7.265625 "
           id="path2398" />
      </symbol>
      <symbol
         overflow="visible"
         id="glyph1-3">
        <path
           style="stroke:none"
           d="M 5.046875 -5.515625 C 5.015625 -5.546875 5 -5.546875 4.96875 -5.546875 C 4.9375 -5.546875 4.90625 -5.546875 4.90625 -5.515625 C 4.375 -4.90625 3.671875 -4.078125 3.234375 -3.5 L 3.171875 -3.515625 C 2.828125 -4.1875 2.328125 -5.046875 2.078125 -5.3125 C 1.90625 -5.5 1.640625 -5.546875 1.4375 -5.546875 C 1.046875 -5.546875 0.4375 -5.109375 0.03125 -4.78125 L 0.1875 -4.5625 C 0.40625 -4.703125 0.703125 -4.859375 0.953125 -4.859375 C 1.546875 -4.859375 2.109375 -3.578125 2.5625 -2.671875 C 1.984375 -1.90625 1.390625 -1.078125 0.875 -0.25 L 0.875 -0.15625 L 1.203125 0.140625 L 1.40625 0.09375 C 1.75 -0.828125 2.234375 -1.5625 2.703125 -2.28125 L 2.78125 -2.28125 C 3.578125 -0.734375 3.984375 0.140625 4.59375 0.140625 C 5.09375 0.140625 5.703125 -0.53125 6.125 -0.984375 L 6.03125 -1.203125 L 5.921875 -1.203125 C 5.6875 -1 5.359375 -0.75 5.078125 -0.75 C 4.546875 -0.75 3.84375 -2.015625 3.359375 -3.09375 C 3.984375 -3.828125 4.75 -4.609375 5.421875 -5.0625 C 5.4375 -5.078125 5.453125 -5.09375 5.453125 -5.125 C 5.453125 -5.140625 5.421875 -5.15625 5.421875 -5.171875 Z M 5.046875 -5.515625 "
           id="path2401" />
      </symbol>
      <symbol
         overflow="visible"
         id="glyph2-0">
        <path
           style="stroke:none"
           d=""
           id="path2404" />
      </symbol>
      <symbol
         overflow="visible"
         id="glyph2-1">
        <path
           style="stroke:none"
           d="M 3.59375 1.953125 C 2.0625 1.65625 1.96875 -1.25 1.96875 -3.28125 C 1.96875 -5.078125 2.078125 -8.109375 3.59375 -8.5 L 3.59375 -8.828125 C 2.359375 -8.609375 1.8125 -7.25 1.59375 -6.09375 C 1.40625 -5.203125 1.34375 -4.265625 1.34375 -3.34375 C 1.34375 -2.375 1.40625 -1.40625 1.5625 -0.453125 C 1.765625 0.6875 2.34375 2.125 3.59375 2.234375 Z M 3.59375 1.953125 "
           id="path2407" />
      </symbol>
      <symbol
         overflow="visible"
         id="glyph2-2">
        <path
           style="stroke:none"
           d="M 1.03125 -8.46875 C 2 -8.125 2.265625 -7 2.453125 -6.109375 C 2.625 -5.1875 2.671875 -4.234375 2.671875 -3.296875 C 2.671875 -1.9375 2.703125 -0.484375 2.265625 0.796875 C 2.03125 1.515625 1.578125 1.828125 1.03125 1.96875 L 1.03125 2.265625 C 3.171875 1.984375 3.296875 -1.203125 3.296875 -3.25 C 3.296875 -5.25 3.046875 -8.375 1.03125 -8.796875 Z M 1.03125 -8.46875 "
           id="path2410" />
      </symbol>
    </g>
    <clipPath
       id="clip1">
      <path
         d="M 0 119 L 238.609375 119 L 238.609375 120 L 0 120 Z M 0 119 "
         id="path2415" />
    </clipPath>
    <clipPath
       id="clip2">
      <path
         d="M 234 117 L 238.609375 117 L 238.609375 121 L 234 121 Z M 234 117 "
         id="path2418" />
    </clipPath>
    <clipPath
       id="clip3">
      <path
         d="M 234 117 L 238.609375 117 L 238.609375 122 L 234 122 Z M 234 117 "
         id="path2421" />
    </clipPath>
    <clipPath
       id="clip4">
      <path
         d="M 119 0 L 120 0 L 120 238.609375 L 119 238.609375 Z M 119 0 "
         id="path2424" />
    </clipPath>
  </defs>
  <g
     id="surface1">
    <g
       clip-path="url(#clip1)"
       clip-rule="nonzero"
       id="g2431">
      <path
         style="fill:none;stroke-width:0.5;stroke-linecap:round;stroke-linejoin:round;stroke:#000000;stroke-opacity:1;stroke-miterlimit:10"
         d="M -119.0548 0.0001125 L 119.054575 0.0001125 "
         transform="matrix(1,0,0,-1,119.3048,119.3048)"
         id="path2429" />
    </g>
    <g
       clip-path="url(#clip2)"
       clip-rule="nonzero"
       id="g2435">
      <path
         style="stroke:none;fill-rule:nonzero;fill:#000000;fill-opacity:1"
         d="M 234.664062 120.835938 L 238.359375 119.304688 L 234.664062 117.773438 Z M 234.664062 120.835938 "
         id="path2433" />
    </g>
    <g
       clip-path="url(#clip3)"
       clip-rule="nonzero"
       id="g2439">
      <path
         style="fill:none;stroke-width:0.5;stroke-linecap:round;stroke-linejoin:round;stroke:#000000;stroke-opacity:1;stroke-miterlimit:10"
         d="M 115.359262 -1.531138 L 119.054575 0.0001125 L 115.359262 1.531362 Z M 115.359262 -1.531138 "
         transform="matrix(1,0,0,-1,119.3048,119.3048)"
         id="path2437" />
    </g>
    <g
       clip-path="url(#clip4)"
       clip-rule="nonzero"
       id="g2443">
      <path
         style="fill:none;stroke-width:0.5;stroke-linecap:round;stroke-linejoin:round;stroke:#000000;stroke-opacity:1;stroke-miterlimit:10"
         d="M -0.0001125 -119.054575 L -0.0001125 119.0548 "
         transform="matrix(1,0,0,-1,119.3048,119.3048)"
         id="path2441" />
    </g>
    <path
       style="fill-rule:nonzero;fill:#000000;fill-opacity:1;stroke-width:0.5;stroke-linecap:round;stroke-linejoin:round;stroke:#000000;stroke-opacity:1;stroke-miterlimit:10"
       d="M 1.531137 115.359487 L -0.0001125 119.0548 L -1.531363 115.359487 Z M 1.531137 115.359487 "
       transform="matrix(1,0,0,-1,119.3048,119.3048)"
       id="path2445" />
    <path
       style="fill:none;stroke-width:0.5;stroke-linecap:round;stroke-linejoin:round;stroke:#ffff00;stroke-opacity:1;stroke-miterlimit:10"
       d="M 99.210825 0.0001125 C 99.210825 26.312612 88.7577 51.546987 70.152231 70.152456 C 51.546762 88.757925 26.312387 99.21105 -0.0001125 99.21105 C -26.312613 99.21105 -51.546988 88.757925 -70.152456 70.152456 C -88.757925 51.546987 -99.21105 26.312612 -99.21105 0.0001125 C -99.21105 -26.312388 -88.757925 -51.546763 -70.152456 -70.152231 C -51.546988 -88.7577 -26.312613 -99.210825 -0.0001125 -99.210825 C 26.312387 -99.210825 51.546762 -88.7577 70.152231 -70.152231 C 88.7577 -51.546763 99.210825 -26.312388 99.210825 0.0001125 Z M 99.210825 0.0001125 "
       transform="matrix(1,0,0,-1,119.3048,119.3048)"
       id="path2447" />
    <path
       style="fill:none;stroke-width:1.2;stroke-linecap:round;stroke-linejoin:round;stroke:#000000;stroke-opacity:1;stroke-miterlimit:10"
       d="M -0.0001125 0.0001125 L 75.999887 63.77355 "
       transform="matrix(1,0,0,-1,119.3048,119.3048)"
       id="path2449" />
    <path
       style="fill:none;stroke-width:1.2;stroke-linecap:round;stroke-linejoin:round;stroke:#004d4d;stroke-opacity:1;stroke-dasharray:3,3;stroke-miterlimit:10"
       d="M -0.0001125 63.77355 L 75.999887 63.77355 "
       transform="matrix(1,0,0,-1,119.3048,119.3048)"
       id="path2451" />
    <path
       style="fill:none;stroke-width:1.2;stroke-linecap:round;stroke-linejoin:round;stroke:#0080ff;stroke-opacity:1;stroke-dasharray:3,3;stroke-miterlimit:10"
       d="M 75.999887 0.0001125 L 75.999887 63.77355 "
       transform="matrix(1,0,0,-1,119.3048,119.3048)"
       id="path2453" />
    <path
       style="fill:none;stroke-width:0.5;stroke-linecap:round;stroke-linejoin:round;stroke:#000000;stroke-opacity:1;stroke-miterlimit:10"
       d="M 19.843637 0.0001125 C 19.843637 4.664175 18.199106 9.1798 15.199106 12.754019 "
       transform="matrix(1,0,0,-1,119.3048,119.3048)"
       id="path2455" />
    <path
       style="fill-rule:nonzero;fill:#000000;fill-opacity:1;stroke-width:0.5;stroke-linecap:round;stroke-linejoin:round;stroke:#000000;stroke-opacity:1;stroke-miterlimit:10"
       d="M 18.542856 10.558706 C 17.511606 11.39855 16.394419 12.132925 15.199106 12.754019 C 15.605356 11.472769 15.874887 10.160269 16.011606 8.83605 Z M 18.542856 10.558706 "
       transform="matrix(1,0,0,-1,119.3048,119.3048)"
       id="path2457" />
    <g
       style="fill:#000000;fill-opacity:1"
       id="g2461">
      <use
         xlink:href="#glyph0-1"
         x="109.0212"
         y="131.088"
         id="use2459" />
    </g>
    <path
       style="fill:none;stroke-width:3;stroke-linecap:round;stroke-linejoin:round;stroke:#000000;stroke-opacity:1;stroke-miterlimit:10"
       d="M -0.0001125 0.0001125 L -0.0001125 0.0001125 "
       transform="matrix(1,0,0,-1,119.3048,119.3048)"
       id="path2463" />
    <g
       style="fill:#000000;fill-opacity:1"
       id="g2467">
      <use
         xlink:href="#glyph1-1"
         x="222.0174"
         y="131.0707"
         id="use2465" />
    </g>
    <path
       style="fill:none;stroke-width:3;stroke-linecap:round;stroke-linejoin:round;stroke:#000000;stroke-opacity:1;stroke-miterlimit:10"
       d="M 99.210825 0.0001125 L 99.210825 0.0001125 "
       transform="matrix(1,0,0,-1,119.3048,119.3048)"
       id="path2469" />
    <g
       style="fill:#000000;fill-opacity:1"
       id="g2473">
      <use
         xlink:href="#glyph1-2"
         x="110.997"
         y="15.0854"
         id="use2471" />
    </g>
    <path
       style="fill:none;stroke-width:3;stroke-linecap:round;stroke-linejoin:round;stroke:#000000;stroke-opacity:1;stroke-miterlimit:10"
       d="M -0.0001125 99.21105 L -0.0001125 99.21105 "
       transform="matrix(1,0,0,-1,119.3048,119.3048)"
       id="path2475" />
    <g
       style="fill:#004d4d;fill-opacity:1"
       id="g2483">
      <use
         xlink:href="#glyph0-2"
         x="82.8003"
         y="58.5185"
         id="use2477" />
      <use
         xlink:href="#glyph0-3"
         x="87.931908"
         y="58.5185"
         id="use2479" />
      <use
         xlink:href="#glyph0-4"
         x="91.716176"
         y="58.5185"
         id="use2481" />
    </g>
    <g
       style="fill:#004d4d;fill-opacity:1"
       id="g2487">
      <use
         xlink:href="#glyph2-1"
         x="98.7223"
         y="58.5185"
         id="use2485" />
    </g>
    <g
       style="fill:#004d4d;fill-opacity:1"
       id="g2491">
      <use
         xlink:href="#glyph1-3"
         x="103.3687"
         y="58.5185"
         id="use2489" />
    </g>
    <g
       style="fill:#004d4d;fill-opacity:1"
       id="g2495">
      <use
         xlink:href="#glyph2-2"
         x="109.6585"
         y="58.5185"
         id="use2493" />
    </g>
    <g
       style="fill:#0080ff;fill-opacity:1"
       id="g2503">
      <use
         xlink:href="#glyph0-5"
         x="179.0259"
         y="133.2649"
         id="use2497" />
      <use
         xlink:href="#glyph0-6"
         x="184.426976"
         y="133.2649"
         id="use2499" />
      <use
         xlink:href="#glyph0-2"
         x="190.870776"
         y="133.2649"
         id="use2501" />
    </g>
    <g
       style="fill:#0080ff;fill-opacity:1"
       id="g2507">
      <use
         xlink:href="#glyph2-1"
         x="196.0024"
         y="133.2649"
         id="use2505" />
    </g>
    <g
       style="fill:#0080ff;fill-opacity:1"
       id="g2511">
      <use
         xlink:href="#glyph1-3"
         x="200.6487"
         y="133.2649"
         id="use2509" />
    </g>
    <g
       style="fill:#0080ff;fill-opacity:1"
       id="g2515">
      <use
         xlink:href="#glyph2-2"
         x="206.9385"
         y="133.2649"
         id="use2513" />
    </g>
    <g
       style="fill:#000000;fill-opacity:1"
       id="g2519">
      <use
         xlink:href="#glyph1-3"
         x="192.1604"
         y="50.5318"
         id="use2517" />
    </g>
    <path
       style="fill:none;stroke-width:3;stroke-linecap:round;stroke-linejoin:round;stroke:#000000;stroke-opacity:1;stroke-miterlimit:10"
       d="M 75.999887 63.77355 L 75.999887 63.77355 "
       transform="matrix(1,0,0,-1,119.3048,119.3048)"
       id="path2521" />
  </g>
</svg>
