<?xml version="1.0" encoding="UTF-8"?>
<svg xmlns="http://www.w3.org/2000/svg" xmlns:xlink="http://www.w3.org/1999/xlink" width="298.4898pt" height="295.3037pt" viewBox="0 0 298.4898 295.3037" version="1.1">
<defs>
<g>
<symbol overflow="visible" id="glyph0-0">
<path style="stroke:none;" d=""/>
</symbol>
<symbol overflow="visible" id="glyph0-1">
<path style="stroke:none;" d="M 6.265625 -4.0625 C 6.265625 -5.5 5.734375 -8.28125 3.390625 -8.28125 C 1.0625 -8.28125 0.515625 -5.5 0.515625 -4.0625 C 0.515625 -2.5625 1.0625 0.171875 3.390625 0.171875 C 5.734375 0.171875 6.265625 -2.5625 6.265625 -4.0625 Z M 5.046875 -4.0625 C 5.046875 -3.078125 5.015625 -0.140625 3.390625 -0.140625 C 1.765625 -0.140625 1.75 -3.0625 1.75 -4.0625 C 1.75 -4.890625 1.765625 -7.953125 3.390625 -7.953125 C 5.015625 -7.953125 5.046875 -4.890625 5.046875 -4.0625 Z M 5.046875 -4.0625 "/>
</symbol>
<symbol overflow="visible" id="glyph0-2">
<path style="stroke:none;" d="M 3.75 -1.71875 L 3.453125 -1.8125 C 3.21875 -1.15625 2.96875 -0.625 2.578125 -0.625 C 2.140625 -0.625 2.0625 -0.96875 2.0625 -1.4375 C 2.0625 -1.9375 2.140625 -4.578125 2.140625 -5.140625 L 2.140625 -5.1875 L 3.40625 -5.1875 L 3.40625 -5.5625 L 2.15625 -5.5625 L 2.15625 -7.125 C 1.984375 -6.84375 1.890625 -6.6875 1.46875 -6.171875 C 1.046875 -5.65625 0.6875 -5.359375 0.453125 -5.171875 L 1.203125 -5.171875 L 1.203125 -4.625 C 1.203125 -3.921875 1.15625 -2.921875 1.15625 -2.28125 C 1.15625 -0.34375 1.40625 0.140625 2.25 0.140625 C 2.59375 0.140625 3.25 -0.03125 3.75 -1.71875 Z M 3.75 -1.71875 "/>
</symbol>
<symbol overflow="visible" id="glyph0-3">
<path style="stroke:none;" d="M 6.140625 -1.296875 L 5.828125 -1.390625 C 5.828125 -1.390625 5.6875 -0.578125 5.28125 -0.578125 C 4.8125 -0.578125 4.953125 -1.453125 4.953125 -2.296875 L 4.953125 -3.71875 C 4.953125 -3.71875 5.03125 -4.640625 4.53125 -5.140625 C 4.140625 -5.53125 3.640625 -5.6875 2.859375 -5.671875 C 1.59375 -5.65625 1.046875 -5.171875 0.875 -4.8125 C 0.6875 -4.390625 0.890625 -3.796875 1.390625 -3.78125 C 1.765625 -3.75 2.09375 -3.984375 2.1875 -4.15625 C 2.09375 -4.28125 1.859375 -4.296875 1.90625 -4.671875 C 1.9375 -5.046875 2.28125 -5.296875 2.890625 -5.296875 C 3.46875 -5.296875 4.046875 -5.015625 4.03125 -4.34375 L 4.015625 -3.609375 C 1.34375 -3.15625 0.453125 -2.390625 0.484375 -1.171875 C 0.5 -0.171875 1.21875 0.171875 1.859375 0.171875 C 2.5 0.171875 3.5 -0.296875 4.03125 -0.828125 C 4.046875 -0.140625 4.328125 0.21875 5.046875 0.171875 C 5.53125 0.140625 5.9375 -0.21875 6.140625 -1.296875 Z M 4.015625 -3.3125 L 4.015625 -1.203125 C 3.734375 -0.859375 2.734375 -0.578125 2.359375 -0.609375 C 1.90625 -0.640625 1.484375 -0.921875 1.53125 -1.578125 L 1.53125 -1.59375 C 1.578125 -2 1.90625 -2.78125 4.015625 -3.3125 Z M 4.015625 -3.3125 "/>
</symbol>
<symbol overflow="visible" id="glyph0-4">
<path style="stroke:none;" d="M 6.875 -1.671875 L 6.578125 -1.8125 C 6.515625 -1.625 6.234375 -0.609375 5.640625 -0.59375 C 5.234375 -0.59375 5.25 -0.8125 5.359375 -2.484375 C 5.5 -4.921875 5.515625 -5.78125 4.21875 -5.671875 C 3.4375 -5.609375 2.3125 -4.53125 2.03125 -4.109375 C 2.015625 -4.328125 2.03125 -5.140625 2.140625 -5.65625 C 1.671875 -5.484375 0.609375 -5.5625 0.453125 -5.609375 L 0.453125 -5.265625 C 0.71875 -5.28125 0.953125 -5.234375 1.015625 -5.046875 C 1.109375 -4.8125 1.15625 -3.71875 1.140625 -2.890625 C 1.140625 -2.046875 1.015625 -0.234375 0.96875 0.015625 C 1.203125 -0.078125 1.90625 -0.046875 2.0625 0 C 2.015625 -1.109375 1.953125 -2.21875 2.015625 -3.671875 C 2.015625 -3.671875 3.140625 -5.1875 4.140625 -4.90625 C 4.390625 -4.828125 4.484375 -4.375 4.4375 -3.078125 C 4.390625 -1.90625 4.15625 -0.734375 4.5 -0.171875 C 4.703125 0.125 5.125 0.203125 5.34375 0.1875 C 5.546875 0.171875 6.25 0.265625 6.875 -1.671875 Z M 6.875 -1.671875 "/>
</symbol>
<symbol overflow="visible" id="glyph1-0">
<path style="stroke:none;" d=""/>
</symbol>
<symbol overflow="visible" id="glyph1-1">
<path style="stroke:none;" d="M 4.140625 0.015625 L 4.15625 -0.28125 C 4.140625 -0.28125 3.640625 -0.40625 3.375 -0.484375 C 2.875 -0.609375 3.015625 -1.5 3 -2.015625 C 2.984375 -2.75 2.96875 -3.484375 2.96875 -4.296875 C 2.96875 -5.21875 2.90625 -6.640625 3.015625 -7.34375 C 3.03125 -7.5 3.125 -7.625 3.28125 -7.65625 L 4.078125 -7.84375 L 4.078125 -8.09375 L 4 -8.15625 L 1.015625 -8.15625 L 0.9375 -8.09375 L 0.9375 -7.828125 C 1.890625 -7.609375 1.96875 -7.671875 2 -7.3125 C 2.03125 -6.859375 2.03125 -6.40625 2.03125 -5.9375 L 2.03125 -1.609375 C 1.984375 -0.609375 2.140625 -0.53125 0.96875 -0.296875 L 0.96875 0.015625 Z M 4.140625 0.015625 "/>
</symbol>
<symbol overflow="visible" id="glyph1-2">
<path style="stroke:none;" d="M 3.109375 -7.265625 C 3.109375 -7.484375 3.21875 -7.6875 3.359375 -7.71875 L 4.171875 -7.890625 L 4.203125 -8.171875 L 4.109375 -8.25 L 1.125 -8.25 L 1.046875 -8.171875 L 1.046875 -7.921875 L 1.90625 -7.703125 C 2.046875 -7.671875 2.09375 -7.40625 2.09375 -7.265625 L 2.09375 -1.140625 C 2.09375 1.265625 1.53125 2 0.59375 2.578125 L 0.765625 2.796875 C 2.359375 1.96875 3.109375 0.765625 3.109375 -1.09375 Z M 3.109375 -7.265625 "/>
</symbol>
<symbol overflow="visible" id="glyph1-3">
<path style="stroke:none;" d="M 5.046875 -5.515625 C 5.015625 -5.546875 5 -5.546875 4.96875 -5.546875 C 4.9375 -5.546875 4.90625 -5.546875 4.90625 -5.515625 C 4.375 -4.90625 3.671875 -4.078125 3.234375 -3.5 L 3.171875 -3.515625 C 2.828125 -4.1875 2.328125 -5.046875 2.078125 -5.3125 C 1.90625 -5.5 1.640625 -5.546875 1.4375 -5.546875 C 1.046875 -5.546875 0.4375 -5.109375 0.03125 -4.78125 L 0.1875 -4.5625 C 0.40625 -4.703125 0.703125 -4.859375 0.953125 -4.859375 C 1.546875 -4.859375 2.109375 -3.578125 2.5625 -2.671875 C 1.984375 -1.90625 1.390625 -1.078125 0.875 -0.25 L 0.875 -0.15625 L 1.203125 0.140625 L 1.40625 0.09375 C 1.75 -0.828125 2.234375 -1.5625 2.703125 -2.28125 L 2.78125 -2.28125 C 3.578125 -0.734375 3.984375 0.140625 4.59375 0.140625 C 5.09375 0.140625 5.703125 -0.53125 6.125 -0.984375 L 6.03125 -1.203125 L 5.921875 -1.203125 C 5.6875 -1 5.359375 -0.75 5.078125 -0.75 C 4.546875 -0.75 3.84375 -2.015625 3.359375 -3.09375 C 3.984375 -3.828125 4.75 -4.609375 5.421875 -5.0625 C 5.4375 -5.078125 5.453125 -5.09375 5.453125 -5.125 C 5.453125 -5.140625 5.421875 -5.15625 5.421875 -5.171875 Z M 5.046875 -5.515625 "/>
</symbol>
<symbol overflow="visible" id="glyph2-0">
<path style="stroke:none;" d=""/>
</symbol>
<symbol overflow="visible" id="glyph2-1">
<path style="stroke:none;" d="M 3.875 -1.1875 C 3.875 -1.796875 3.53125 -2.203125 3.015625 -2.453125 C 2.4375 -2.75 1.296875 -3.0625 1.265625 -3.6875 C 1.234375 -4.171875 1.59375 -4.46875 2.34375 -4.4375 C 2.78125 -4.421875 3.328125 -4.03125 3.40625 -3.21875 L 3.65625 -3.21875 L 3.609375 -4.703125 L 3.40625 -4.703125 C 3.40625 -4.703125 3.375 -4.515625 3.296875 -4.515625 C 3.109375 -4.515625 2.796875 -4.703125 2.359375 -4.734375 C 1.234375 -4.78125 0.5 -4.28125 0.5 -3.484375 C 0.484375 -2.6875 1.171875 -2.328125 1.890625 -2.015625 L 2.640625 -1.609375 C 2.984375 -1.453125 3.15625 -1.171875 3.15625 -0.84375 C 3.15625 -0.265625 2.703125 -0.140625 2.359375 -0.140625 C 1.34375 -0.140625 0.875 -0.96875 0.796875 -1.515625 L 0.5625 -1.53125 L 0.65625 0.078125 L 0.859375 0.078125 C 0.921875 -0.015625 0.9375 -0.0625 1.0625 -0.046875 C 1.375 0 1.9375 0.125 2.390625 0.125 C 3.109375 0.140625 3.875 -0.296875 3.875 -1.1875 Z M 3.875 -1.1875 "/>
</symbol>
<symbol overflow="visible" id="glyph2-2">
<path style="stroke:none;" d="M 1.890625 -6.34375 C 1.890625 -6.671875 1.625 -6.9375 1.3125 -6.9375 C 0.984375 -6.9375 0.71875 -6.671875 0.71875 -6.34375 C 0.71875 -6.03125 0.984375 -5.765625 1.3125 -5.765625 C 1.625 -5.765625 1.890625 -6.03125 1.890625 -6.34375 Z M 3.03125 -1.4375 L 2.78125 -1.515625 C 2.59375 -0.953125 2.359375 -0.484375 2.015625 -0.515625 C 1.53125 -0.5625 1.625 -1.203125 1.625 -1.90625 C 1.625 -2.953125 1.75 -4.109375 1.8125 -4.765625 C 1.40625 -4.625 0.546875 -4.671875 0.4375 -4.703125 L 0.4375 -4.421875 C 0.65625 -4.421875 0.84375 -4.359375 0.90625 -4.234375 C 0.96875 -4.03125 0.890625 -3.140625 0.875 -2.453125 C 0.84375 -1.53125 0.875 -0.84375 1 -0.421875 C 1.15625 0.03125 1.484375 0.125 1.78125 0.125 C 2.078125 0.125 2.625 -0.046875 3.03125 -1.4375 Z M 3.03125 -1.4375 "/>
</symbol>
<symbol overflow="visible" id="glyph2-3">
<path style="stroke:none;" d="M 5.71875 -1.390625 L 5.484375 -1.5 C 5.4375 -1.34375 5.203125 -0.515625 4.703125 -0.5 C 4.359375 -0.484375 4.375 -0.671875 4.46875 -2.078125 C 4.578125 -4.109375 4.59375 -4.8125 3.515625 -4.734375 C 2.859375 -4.671875 1.921875 -3.78125 1.6875 -3.421875 C 1.6875 -3.609375 1.6875 -4.28125 1.78125 -4.71875 C 1.390625 -4.578125 0.515625 -4.625 0.375 -4.671875 L 0.375 -4.390625 C 0.59375 -4.390625 0.796875 -4.359375 0.84375 -4.203125 C 0.921875 -4 0.953125 -3.09375 0.953125 -2.40625 C 0.953125 -1.703125 0.84375 -0.203125 0.796875 0.015625 C 1 -0.0625 1.59375 -0.046875 1.71875 0 C 1.6875 -0.921875 1.625 -1.84375 1.6875 -3.0625 C 1.6875 -3.0625 2.625 -4.328125 3.453125 -4.09375 C 3.65625 -4.03125 3.734375 -3.640625 3.703125 -2.5625 C 3.65625 -1.578125 3.46875 -0.609375 3.75 -0.140625 C 3.921875 0.09375 4.265625 0.171875 4.453125 0.15625 C 4.625 0.140625 5.203125 0.21875 5.71875 -1.390625 Z M 5.71875 -1.390625 "/>
</symbol>
<symbol overflow="visible" id="glyph2-4">
<path style="stroke:none;" d="M 4.328125 -1.5 L 4.171875 -1.59375 C 3.828125 -1.078125 3.453125 -0.640625 2.71875 -0.640625 C 1.859375 -0.640625 1.15625 -1.40625 1.15625 -2.59375 C 1.15625 -4.09375 2.09375 -4.359375 2.46875 -4.390625 C 2.84375 -4.4375 3.203125 -4.265625 3.265625 -3.96875 C 3.34375 -3.703125 3.21875 -3.546875 3.125 -3.4375 C 3.21875 -3.375 3.375 -3.1875 3.671875 -3.1875 C 4.09375 -3.21875 4.1875 -3.765625 4.015625 -4.09375 C 3.890625 -4.359375 3.609375 -4.703125 2.65625 -4.703125 C 1.546875 -4.71875 0.375 -3.84375 0.375 -2.171875 C 0.375 -0.5625 1.46875 0.09375 2.28125 0.09375 C 3.109375 0.09375 3.765625 -0.34375 4.328125 -1.5 Z M 4.328125 -1.5 "/>
</symbol>
<symbol overflow="visible" id="glyph2-5">
<path style="stroke:none;" d="M 4.984375 -2.25 C 4.984375 -3.859375 4 -4.625 2.65625 -4.65625 C 1.109375 -4.6875 0.359375 -3.65625 0.375 -2.34375 C 0.40625 -0.90625 1.3125 0.125 2.625 0.140625 C 4.171875 0.171875 5 -1.078125 4.984375 -2.25 Z M 4 -1.953125 C 3.96875 -0.5 3.296875 -0.140625 2.765625 -0.125 C 1.484375 -0.125 1.28125 -1.953125 1.359375 -2.78125 C 1.46875 -3.84375 1.9375 -4.375 2.59375 -4.359375 C 3.53125 -4.359375 4.03125 -3.234375 4 -1.953125 Z M 4 -1.953125 "/>
</symbol>
<symbol overflow="visible" id="glyph3-0">
<path style="stroke:none;" d=""/>
</symbol>
<symbol overflow="visible" id="glyph3-1">
<path style="stroke:none;" d="M 3 1.625 C 1.71875 1.375 1.640625 -1.046875 1.640625 -2.734375 C 1.640625 -4.234375 1.734375 -6.765625 3 -7.09375 L 3 -7.359375 C 1.96875 -7.171875 1.515625 -6.046875 1.328125 -5.078125 C 1.171875 -4.34375 1.125 -3.5625 1.125 -2.796875 C 1.125 -1.984375 1.171875 -1.171875 1.3125 -0.375 C 1.46875 0.5625 1.953125 1.78125 3 1.859375 Z M 3 1.625 "/>
</symbol>
<symbol overflow="visible" id="glyph3-2">
<path style="stroke:none;" d="M 0.859375 -7.0625 C 1.671875 -6.78125 1.890625 -5.84375 2.046875 -5.09375 C 2.1875 -4.328125 2.234375 -3.53125 2.234375 -2.75 C 2.234375 -1.609375 2.25 -0.40625 1.890625 0.671875 C 1.6875 1.265625 1.3125 1.53125 0.859375 1.640625 L 0.859375 1.890625 C 2.640625 1.65625 2.75 -1 2.75 -2.71875 C 2.75 -4.375 2.546875 -6.984375 0.859375 -7.34375 Z M 0.859375 -7.0625 "/>
</symbol>
<symbol overflow="visible" id="glyph3-3">
<path style="stroke:none;" d="M 7.015625 -2.359375 L 7.078125 -2.75 L 0.53125 -2.75 L 0.453125 -2.359375 Z M 7.015625 -2.359375 "/>
</symbol>
<symbol overflow="visible" id="glyph4-0">
<path style="stroke:none;" d=""/>
</symbol>
<symbol overflow="visible" id="glyph4-1">
<path style="stroke:none;" d="M 4.203125 -4.609375 C 4.1875 -4.625 4.171875 -4.625 4.140625 -4.625 C 4.109375 -4.625 4.09375 -4.625 4.09375 -4.609375 C 3.65625 -4.09375 3.0625 -3.40625 2.703125 -2.921875 L 2.640625 -2.9375 C 2.359375 -3.484375 1.9375 -4.203125 1.734375 -4.4375 C 1.59375 -4.578125 1.359375 -4.625 1.203125 -4.625 C 0.875 -4.625 0.375 -4.25 0.015625 -3.984375 L 0.15625 -3.8125 C 0.34375 -3.921875 0.59375 -4.0625 0.796875 -4.0625 C 1.28125 -4.0625 1.765625 -2.984375 2.140625 -2.21875 C 1.65625 -1.578125 1.15625 -0.890625 0.734375 -0.203125 L 0.734375 -0.125 L 1 0.125 L 1.171875 0.078125 C 1.46875 -0.6875 1.859375 -1.3125 2.25 -1.90625 L 2.328125 -1.90625 C 2.984375 -0.625 3.3125 0.125 3.828125 0.125 C 4.25 0.125 4.75 -0.4375 5.109375 -0.8125 L 5.03125 -1 L 4.9375 -1 C 4.75 -0.84375 4.46875 -0.625 4.234375 -0.625 C 3.796875 -0.625 3.203125 -1.6875 2.796875 -2.578125 C 3.3125 -3.1875 3.953125 -3.84375 4.515625 -4.234375 C 4.53125 -4.234375 4.546875 -4.25 4.546875 -4.28125 C 4.546875 -4.28125 4.53125 -4.3125 4.515625 -4.3125 Z M 4.203125 -4.609375 "/>
</symbol>
<symbol overflow="visible" id="glyph5-0">
<path style="stroke:none;" d=""/>
</symbol>
<symbol overflow="visible" id="glyph5-1">
<path style="stroke:none;" d="M 3.59375 1.953125 C 2.0625 1.65625 1.96875 -1.25 1.96875 -3.28125 C 1.96875 -5.078125 2.078125 -8.109375 3.59375 -8.5 L 3.59375 -8.828125 C 2.359375 -8.609375 1.8125 -7.25 1.59375 -6.09375 C 1.40625 -5.203125 1.34375 -4.265625 1.34375 -3.34375 C 1.34375 -2.375 1.40625 -1.40625 1.5625 -0.453125 C 1.765625 0.6875 2.34375 2.125 3.59375 2.234375 Z M 3.59375 1.953125 "/>
</symbol>
<symbol overflow="visible" id="glyph5-2">
<path style="stroke:none;" d="M 1.03125 -8.46875 C 2 -8.125 2.265625 -7 2.453125 -6.109375 C 2.625 -5.1875 2.671875 -4.234375 2.671875 -3.296875 C 2.671875 -1.9375 2.703125 -0.484375 2.265625 0.796875 C 2.03125 1.515625 1.578125 1.828125 1.03125 1.96875 L 1.03125 2.265625 C 3.171875 1.984375 3.296875 -1.203125 3.296875 -3.25 C 3.296875 -5.25 3.046875 -8.375 1.03125 -8.796875 Z M 1.03125 -8.46875 "/>
</symbol>
<symbol overflow="visible" id="glyph5-3">
<path style="stroke:none;" d="M 8.421875 -2.828125 L 8.484375 -3.296875 L 0.640625 -3.296875 L 0.546875 -2.828125 Z M 8.421875 -2.828125 "/>
</symbol>
</g>
<clipPath id="clip1">
  <path d="M 249 0 L 250 0 L 250 295.304688 L 249 295.304688 Z M 249 0 "/>
</clipPath>
</defs>
<g id="surface1">
<path style="fill:none;stroke-width:0.5;stroke-linecap:round;stroke-linejoin:round;stroke:rgb(100%,100%,100%);stroke-opacity:1;stroke-miterlimit:10;" d="M -136.06262 -0.00053375 L 136.06238 -0.00053375 " transform="matrix(1,0,0,-1,136.31262,147.65181)"/>
<path style="fill-rule:nonzero;fill:rgb(100%,100%,100%);fill-opacity:1;stroke-width:0.5;stroke-linecap:round;stroke-linejoin:round;stroke:rgb(100%,100%,100%);stroke-opacity:1;stroke-miterlimit:10;" d="M 132.367067 -1.531784 L 136.06238 -0.00053375 L 132.367067 1.530716 Z M 132.367067 -1.531784 " transform="matrix(1,0,0,-1,136.31262,147.65181)"/>
<path style="fill:none;stroke-width:0.5;stroke-linecap:round;stroke-linejoin:round;stroke:rgb(100%,100%,100%);stroke-opacity:1;stroke-miterlimit:10;" d="M -0.00012 -136.063034 L -0.00012 136.061966 " transform="matrix(1,0,0,-1,136.31262,147.65181)"/>
<path style="fill-rule:nonzero;fill:rgb(100%,100%,100%);fill-opacity:1;stroke-width:0.5;stroke-linecap:round;stroke-linejoin:round;stroke:rgb(100%,100%,100%);stroke-opacity:1;stroke-miterlimit:10;" d="M 1.53113 132.366654 L -0.00012 136.061966 L -1.53137 132.366654 Z M 1.53113 132.366654 " transform="matrix(1,0,0,-1,136.31262,147.65181)"/>
<path style="fill:none;stroke-width:0.5;stroke-linecap:round;stroke-linejoin:round;stroke:rgb(0%,100%,100%);stroke-opacity:1;stroke-miterlimit:10;" d="M 113.386599 -0.00053375 C 113.386599 30.073685 101.43738 58.909622 80.175661 80.175247 C 58.910036 101.436966 30.074099 113.386185 -0.00012 113.386185 C -30.074339 113.386185 -58.910276 101.436966 -80.175901 80.175247 C -101.43762 58.909622 -113.386839 30.073685 -113.386839 -0.00053375 C -113.386839 -30.074753 -101.43762 -58.91069 -80.175901 -80.172409 C -58.910276 -101.438034 -30.074339 -113.387253 -0.00012 -113.387253 C 30.074099 -113.387253 58.910036 -101.438034 80.175661 -80.172409 C 101.43738 -58.91069 113.386599 -30.074753 113.386599 -0.00053375 Z M 113.386599 -0.00053375 " transform="matrix(1,0,0,-1,136.31262,147.65181)"/>
<path style="fill:none;stroke-width:0.5;stroke-linecap:round;stroke-linejoin:round;stroke:rgb(100%,69.999695%,69.999695%);stroke-opacity:1;stroke-miterlimit:10;" d="M -0.00012 -0.00053375 L 113.386599 113.386185 " transform="matrix(1,0,0,-1,136.31262,147.65181)"/>
<path style="fill:none;stroke-width:0.5;stroke-linecap:round;stroke-linejoin:round;stroke:rgb(0%,79.000854%,33.999634%);stroke-opacity:1;stroke-miterlimit:10;" d="M -0.00012 -0.00053375 L 113.386599 -113.387253 " transform="matrix(1,0,0,-1,136.31262,147.65181)"/>
<path style="fill:none;stroke-width:0.5;stroke-linecap:round;stroke-linejoin:round;stroke:rgb(100%,100%,100%);stroke-opacity:1;stroke-dasharray:3,3;stroke-miterlimit:10;" d="M 80.175661 -80.176315 L 80.175661 80.175247 " transform="matrix(1,0,0,-1,136.31262,147.65181)"/>
<path style="fill:none;stroke-width:0.5;stroke-linecap:round;stroke-linejoin:round;stroke:rgb(100%,100%,100%);stroke-opacity:1;stroke-dasharray:3,3;stroke-miterlimit:10;" d="M -0.00012 -80.176315 L 80.175661 -80.176315 " transform="matrix(1,0,0,-1,136.31262,147.65181)"/>
<path style="fill:none;stroke-width:0.5;stroke-linecap:round;stroke-linejoin:round;stroke:rgb(100%,100%,100%);stroke-opacity:1;stroke-dasharray:3,3;stroke-miterlimit:10;" d="M -0.00012 80.175247 L 80.175661 80.175247 " transform="matrix(1,0,0,-1,136.31262,147.65181)"/>
<g clip-path="url(#clip1)" clip-rule="nonzero">
<path style="fill:none;stroke-width:0.5;stroke-linecap:round;stroke-linejoin:round;stroke:rgb(100%,100%,100%);stroke-opacity:1;stroke-miterlimit:10;" d="M 113.386599 -147.402878 L 113.386599 147.40181 " transform="matrix(1,0,0,-1,136.31262,147.65181)"/>
</g>
<path style="fill:none;stroke-width:0.5;stroke-linecap:round;stroke-linejoin:round;stroke:rgb(100%,100%,100%);stroke-opacity:1;stroke-miterlimit:10;" d="M 22.675661 -0.00053375 C 22.675661 6.015091 20.288942 11.780716 16.035036 16.034622 " transform="matrix(1,0,0,-1,136.31262,147.65181)"/>
<path style="fill-rule:nonzero;fill:rgb(100%,100%,100%);fill-opacity:1;stroke-width:0.5;stroke-linecap:round;stroke-linejoin:round;stroke:rgb(100%,100%,100%);stroke-opacity:1;stroke-miterlimit:10;" d="M 19.581911 14.18306 C 18.464724 14.897904 17.277224 15.518997 16.035036 16.034622 C 16.550661 14.792435 16.949099 13.515091 17.234255 12.218216 Z M 19.581911 14.18306 " transform="matrix(1,0,0,-1,136.31262,147.65181)"/>
<path style="fill:none;stroke-width:0.5;stroke-linecap:round;stroke-linejoin:round;stroke:rgb(100%,100%,100%);stroke-opacity:1;stroke-miterlimit:10;" d="M 22.675661 -0.00053375 C 22.675661 -6.016159 20.288942 -11.781784 16.035036 -16.03569 " transform="matrix(1,0,0,-1,136.31262,147.65181)"/>
<path style="fill-rule:nonzero;fill:rgb(100%,100%,100%);fill-opacity:1;stroke-width:0.5;stroke-linecap:round;stroke-linejoin:round;stroke:rgb(100%,100%,100%);stroke-opacity:1;stroke-miterlimit:10;" d="M 17.234255 -12.219284 C 16.949099 -13.516159 16.550661 -14.793503 16.035036 -16.03569 C 17.277224 -15.520065 18.464724 -14.898971 19.581911 -14.184128 Z M 17.234255 -12.219284 " transform="matrix(1,0,0,-1,136.31262,147.65181)"/>
<g style="fill:rgb(100%,100%,100%);fill-opacity:1;">
  <use xlink:href="#glyph0-1" x="126.02902" y="143.98781"/>
</g>
<path style="fill:none;stroke-width:3;stroke-linecap:round;stroke-linejoin:round;stroke:rgb(100%,100%,100%);stroke-opacity:1;stroke-miterlimit:10;" d="M -0.00012 -0.00053375 L -0.00012 -0.00053375 " transform="matrix(1,0,0,-1,136.31262,147.65181)"/>
<g style="fill:rgb(100%,100%,100%);fill-opacity:1;">
  <use xlink:href="#glyph1-1" x="253.19842" y="159.41771"/>
</g>
<path style="fill:none;stroke-width:3;stroke-linecap:round;stroke-linejoin:round;stroke:rgb(100%,100%,100%);stroke-opacity:1;stroke-miterlimit:10;" d="M 113.386599 -0.00053375 L 113.386599 -0.00053375 " transform="matrix(1,0,0,-1,136.31262,147.65181)"/>
<g style="fill:rgb(100%,100%,100%);fill-opacity:1;">
  <use xlink:href="#glyph1-2" x="128.00482" y="29.25921"/>
</g>
<path style="fill:none;stroke-width:3;stroke-linecap:round;stroke-linejoin:round;stroke:rgb(100%,100%,100%);stroke-opacity:1;stroke-miterlimit:10;" d="M -0.00012 113.386185 L -0.00012 113.386185 " transform="matrix(1,0,0,-1,136.31262,147.65181)"/>
<g style="fill:rgb(100%,100%,100%);fill-opacity:1;">
  <use xlink:href="#glyph2-1" x="105.05882" y="69.96481"/>
  <use xlink:href="#glyph2-2" x="109.335145" y="69.96481"/>
  <use xlink:href="#glyph2-3" x="112.488691" y="69.96481"/>
</g>
<g style="fill:rgb(100%,100%,100%);fill-opacity:1;">
  <use xlink:href="#glyph3-1" x="118.32722" y="69.96481"/>
</g>
<g style="fill:rgb(100%,100%,100%);fill-opacity:1;">
  <use xlink:href="#glyph4-1" x="122.19912" y="69.96481"/>
</g>
<g style="fill:rgb(100%,100%,100%);fill-opacity:1;">
  <use xlink:href="#glyph3-2" x="127.44062" y="69.96481"/>
</g>
<path style="fill:none;stroke-width:3;stroke-linecap:round;stroke-linejoin:round;stroke:rgb(100%,100%,100%);stroke-opacity:1;stroke-miterlimit:10;" d="M -0.00012 80.175247 L -0.00012 80.175247 " transform="matrix(1,0,0,-1,136.31262,147.65181)"/>
<g style="fill:rgb(100%,100%,100%);fill-opacity:1;">
  <use xlink:href="#glyph3-3" x="95.86442" y="230.31671"/>
</g>
<g style="fill:rgb(100%,100%,100%);fill-opacity:1;">
  <use xlink:href="#glyph2-1" x="105.05882" y="230.31671"/>
  <use xlink:href="#glyph2-2" x="109.335145" y="230.31671"/>
  <use xlink:href="#glyph2-3" x="112.488691" y="230.31671"/>
</g>
<g style="fill:rgb(100%,100%,100%);fill-opacity:1;">
  <use xlink:href="#glyph3-1" x="118.32722" y="230.31671"/>
</g>
<g style="fill:rgb(100%,100%,100%);fill-opacity:1;">
  <use xlink:href="#glyph4-1" x="122.19912" y="230.31671"/>
</g>
<g style="fill:rgb(100%,100%,100%);fill-opacity:1;">
  <use xlink:href="#glyph3-2" x="127.44062" y="230.31671"/>
</g>
<path style="fill:none;stroke-width:3;stroke-linecap:round;stroke-linejoin:round;stroke:rgb(100%,100%,100%);stroke-opacity:1;stroke-miterlimit:10;" d="M -0.00012 -80.176315 L -0.00012 -80.176315 " transform="matrix(1,0,0,-1,136.31262,147.65181)"/>
<g style="fill:rgb(100%,100%,100%);fill-opacity:1;">
  <use xlink:href="#glyph2-4" x="219.98852" y="141.66291"/>
  <use xlink:href="#glyph2-5" x="224.489401" y="141.66291"/>
  <use xlink:href="#glyph2-1" x="229.859216" y="141.66291"/>
</g>
<g style="fill:rgb(100%,100%,100%);fill-opacity:1;">
  <use xlink:href="#glyph3-1" x="234.13562" y="141.66291"/>
</g>
<g style="fill:rgb(100%,100%,100%);fill-opacity:1;">
  <use xlink:href="#glyph4-1" x="238.00752" y="141.66291"/>
</g>
<g style="fill:rgb(100%,100%,100%);fill-opacity:1;">
  <use xlink:href="#glyph3-2" x="243.24902" y="141.66291"/>
</g>
<path style="fill:none;stroke-width:3;stroke-linecap:round;stroke-linejoin:round;stroke:rgb(100%,100%,100%);stroke-opacity:1;stroke-miterlimit:10;" d="M 80.175661 -0.00053375 L 80.175661 -0.00053375 " transform="matrix(1,0,0,-1,136.31262,147.65181)"/>
<g style="fill:rgb(100%,100%,100%);fill-opacity:1;">
  <use xlink:href="#glyph0-2" x="254.69842" y="37.25271"/>
  <use xlink:href="#glyph0-3" x="258.588132" y="37.25271"/>
  <use xlink:href="#glyph0-4" x="264.867908" y="37.25271"/>
</g>
<g style="fill:rgb(100%,100%,100%);fill-opacity:1;">
  <use xlink:href="#glyph5-1" x="271.87412" y="37.25271"/>
</g>
<g style="fill:rgb(100%,100%,100%);fill-opacity:1;">
  <use xlink:href="#glyph1-3" x="276.52042" y="37.25271"/>
</g>
<g style="fill:rgb(100%,100%,100%);fill-opacity:1;">
  <use xlink:href="#glyph5-2" x="282.81022" y="37.25271"/>
</g>
<path style="fill:none;stroke-width:3;stroke-linecap:round;stroke-linejoin:round;stroke:rgb(100%,100%,100%);stroke-opacity:1;stroke-miterlimit:10;" d="M 113.386599 113.386185 L 113.386599 113.386185 " transform="matrix(1,0,0,-1,136.31262,147.65181)"/>
<g style="fill:rgb(100%,100%,100%);fill-opacity:1;">
  <use xlink:href="#glyph5-3" x="254.69842" y="264.02431"/>
</g>
<g style="fill:rgb(100%,100%,100%);fill-opacity:1;">
  <use xlink:href="#glyph0-2" x="265.73172" y="264.02431"/>
  <use xlink:href="#glyph0-3" x="269.621432" y="264.02431"/>
  <use xlink:href="#glyph0-4" x="275.901208" y="264.02431"/>
</g>
<g style="fill:rgb(100%,100%,100%);fill-opacity:1;">
  <use xlink:href="#glyph5-1" x="282.90742" y="264.02431"/>
</g>
<g style="fill:rgb(100%,100%,100%);fill-opacity:1;">
  <use xlink:href="#glyph1-3" x="287.55372" y="264.02431"/>
</g>
<g style="fill:rgb(100%,100%,100%);fill-opacity:1;">
  <use xlink:href="#glyph5-2" x="293.84352" y="264.02431"/>
</g>
<path style="fill:none;stroke-width:3;stroke-linecap:round;stroke-linejoin:round;stroke:rgb(100%,100%,100%);stroke-opacity:1;stroke-miterlimit:10;" d="M 113.386599 -113.387253 L 113.386599 -113.387253 " transform="matrix(1,0,0,-1,136.31262,147.65181)"/>
<g style="fill:rgb(100%,100%,100%);fill-opacity:1;">
  <use xlink:href="#glyph1-3" x="213.34372" y="62.47591"/>
</g>
<g style="fill:rgb(100%,100%,100%);fill-opacity:1;">
  <use xlink:href="#glyph5-3" x="208.82332" y="245.46531"/>
</g>
<g style="fill:rgb(100%,100%,100%);fill-opacity:1;">
  <use xlink:href="#glyph1-3" x="217.86412" y="245.46531"/>
</g>
</g>
</svg>
