% verbatimtex
% %&latex
% \documentclass{article}
% \usepackage[latin1]{inputenc}
% \usepackage[T1]{fontenc}
% \usepackage{amsmath}
% \usepackage[frenchb]{babel}
% \usepackage[boldsans]{ccfonts}
% \usepackage{stmaryrd}
% \begin{document}
%   etex
  
input newcourbes_white;
input couleur;
input geometriesyr16;





verbatimtex
%&latex
  \documentclass[12pt]{article}
  \usepackage{itek}
  \usepackage[euler]{preambuleMp}
  \begin{document}
etex


 beginfig(1)



 numeric u ;
 u=5.5cm;
 drawarrow (-1.2*u,0)--(1.2*u,0) withcolor white;
 drawarrow (0,-1.2*u)--(0,1.2*u) withcolor white;
 draw fullcircle scaled 9cm withpen pencircle scaled 1.3bp withcolor rose;
 drawoptions(dashed evenly);
 path t[] ;
 t[1]=(u,0)--(cosd(60)*u,sind(60)*u)--(0,0);
 draw t[1] withcolor rose;
 for k=2 upto 6 : t[k]=t[1] rotatedaround ((0,0),60*(k-1));
   draw t[k] withcolor rose;
 endfor;
 path c[] ;
 c1 =(cosd(60)*u,-sind(60)*u)--(cosd(60)*u,sind(60)*u) ;
 draw c1 dashed evenly withcolor rose;
 c2 = c1 shifted (-u,0) ;
 draw c2 dashed evenly withcolor rose;
 z[1]=(u,0);
 for l=2 upto 6:
   z[l]=z[1] rotatedaround ((0,0),60(l-1));
 endfor;
 drawoptions();
 dotlabel.lrt(btex $0$ etex,(u,0)) withcolor white ;
 label.lrt(btex $1 \over2$ etex,(u/2,0)) withcolor rose;
 label.lrt(btex $- {1 \over 2}$ etex,(-u/2,0))withcolor rose;
 dotlabel.llft(btex $\pi$ etex,(-u,0)) withcolor white;

 label.urt(btex {${\pi \over 3}$} etex, z[2])withcolor rose;
 label.ulft(btex {${2\pi \over 3}$} etex,z[3])withcolor rose;
 label.llft(btex {$-{2\pi \over 3}$} etex,z[5])withcolor rose;
 label.lrt(btex {$-{\pi \over 3}$} etex,z[6])withcolor rose;
 label.llft(btex ${\sqrt{3} \over 2}$ etex,(0,sqrt(3)*u/2))withcolor rose;
 label.ulft(btex $-{\sqrt{3} \over 2}$ etex,(0,-sqrt(3)*u/2))withcolor rose;

%  drawoptions(dashed evenly);
%  path p[] ;
%  p[1]=(0,u)--(cosd(30)*u,sind(30)*u)--(0,0);
%  draw p[1] withcolor  orange;
%  for k=2 upto 6 : p[k]=p[1] rotatedaround ((0,0),60*(k-1));
%    draw p[k] withcolor orange;
%  endfor;
%  path s[] ;
%  s1 =(-cosd(30)*u,sind(30)*u)--(cosd(30)*u,sind(30)*u) ;
%  draw s1 dashed evenly withcolor  orange;
%  s2 = s1 shifted (0,-u) ;
%  draw s2 dashed evenly withcolor orange;

%  pair y[];
%  y[1]=(cosd(30)*u,sind(30)*u);
%  for l=2 upto 6:
%    y[l]=y[1] rotatedaround ((0,0),60(l-1));
%  endfor;
%  drawoptions();
%  label.urt(btex ${\pi \over 6}$ etex,y[1])withcolor orange;
%  dotlabel.urt(btex ${\pi \over 2}$ etex, y[2]);
%  label.ulft(btex ${5\pi \over 6}$ etex,y[3])withcolor orange;
%  label.llft(btex $-{5\pi \over 6}$ etex,y[4])withcolor orange;
%  label.llft(btex $-{\pi \over 2}$ etex,y[5])withcolor orange;
%  label.lrt(btex $-{\pi \over 6}$ etex,y[6])withcolor orange;
%  label.llft(btex ${\sqrt{3} \over 2}$ etex,(sqrt(3)*u/2,0))withcolor orange;
%  label.lrt(btex $-{\sqrt{3} \over 2}$ etex,(-sqrt(3)*u/2,0))withcolor orange;
%  label.llft(btex ${1 \over 2}$ etex,(0,u/2))withcolor orange;
%  label.llft(btex $-{1 \over 2}$ etex,(0,-u/2))withcolor orange;

%  drawoptions(dashed evenly);

%  path r[] ;
%  r[1]=(cosd(45)*u,-sind(45)*u)--(cosd(45)*u,sind(45)*u)--(0,0);
%  draw r[1] withcolor ciel;
%  for k=2 upto 4 : r[k]=r[1] rotatedaround ((0,0),90*(k-1));
%    draw r[k] withcolor ciel;
%  endfor;

%  pair w[];
%  w[1]=(u,0);
%  for n=2 upto 8:
%    w[n]=w[1] rotatedaround ((0,0),45(n-1));
%  endfor;
%  drawoptions();
%  label.urt(btex ${\pi \over 4}$ etex, w[2])withcolor ciel;
%  dotlabel.urt(btex ${\pi \over 2}$ etex,w[3]);
%  label.ulft(btex ${3\pi \over 4}$ etex,w[4])withcolor ciel;
% dotlabel.llft(btex ${\pi}$ etex,w[5]);
%  label.llft(btex $-{3\pi \over 4}$ etex,w[6])withcolor ciel;
%  label.llft(btex $-{\pi \over 2}$ etex,w[7]);
%  label.lrt(btex $-{\pi \over 4}$ etex,w[8])withcolor ciel;
%  label.ulft(btex ${\sqrt{2} \over 2}$ etex,(sqrt(2)*u/2,0))withcolor ciel;
%  label.urt(btex $-{\sqrt{2} \over 2}$ etex,(-sqrt(2)*u/2,0))withcolor ciel;
%  label.lrt(btex ${\sqrt{2} \over 2}$ etex,(0,sqrt(2)*u/2))withcolor ciel ;
%  label.urt(btex $-{\sqrt{2} \over 2}$ etex,(0,-sqrt(2)*u/2))withcolor ciel;

 endfig;








 beginfig(2)



 numeric u ;
 u=5.5cm;
 drawarrow (-1.2*u,0)--(1.2*u,0) withcolor white;
 drawarrow (0,-1.2*u)--(0,1.2*u) withcolor white;
 draw fullcircle scaled 9cm withpen pencircle scaled 1.3bp withcolor rose;
 drawoptions(dashed evenly);
 % path t[] ;
%  t[1]=(u,0)--(cosd(60)*u,sind(60)*u)--(0,0);
%  draw t[1] withcolor rose;
%  for k=2 upto 6 : t[k]=t[1] rotatedaround ((0,0),60*(k-1));
%    draw t[k] withcolor rose;
%  endfor;
 % path c[] ;
%  c1 =(cosd(60)*u,-sind(60)*u)--(cosd(60)*u,sind(60)*u) ;
%  draw c1 dashed evenly withcolor rose;
%  c2 = c1 shifted (-u,0) ;
%  draw c2 dashed evenly withcolor rose;
%  z[1]=(u,0);
%  for l=2 upto 6:
%    z[l]=z[1] rotatedaround ((0,0),60(l-1));
%  endfor;
%  drawoptions();
%  dotlabel.lrt(btex $0$ etex,(u,0));
%  label.lrt(btex $1 \over2$ etex,(u/2,0))withcolor rose;
%  label.lrt(btex $- {1 \over 2}$ etex,(-u/2,0))withcolor rose;
%  dotlabel.llft(btex $\pi$ etex,(-u,0));

%  label.urt(btex {${\pi \over 3}$} etex, z[2])withcolor rose;
%  label.ulft(btex {${2\pi \over 3}$} etex,z[3])withcolor rose;
%  label.llft(btex {$-{2\pi \over 3}$} etex,z[5])withcolor rose;
%  label.lrt(btex {$-{\pi \over 3}$} etex,z[6])withcolor rose;
%  label.llft(btex ${\sqrt{3} \over 2}$ etex,(0,sqrt(3)*u/2))withcolor rose;
%  label.ulft(btex $-{\sqrt{3} \over 2}$ etex,(0,-sqrt(3)*u/2))withcolor rose;

  drawoptions(dashed evenly);
  path p[] ;
  p[1]=(0,u)--(cosd(30)*u,sind(30)*u)--(0,0);
  draw p[1] withcolor  orange;
  for k=2 upto 6 : p[k]=p[1] rotatedaround ((0,0),60*(k-1));
    draw p[k] withcolor orange;
  endfor;
  path s[] ;
  s1 =(-cosd(30)*u,sind(30)*u)--(cosd(30)*u,sind(30)*u) ;
  draw s1 dashed evenly withcolor  orange;
  s2 = s1 shifted (0,-u) ;
  draw s2 dashed evenly withcolor orange;

  pair y[];
  y[1]=(cosd(30)*u,sind(30)*u);
  for l=2 upto 6:
    y[l]=y[1] rotatedaround ((0,0),60(l-1));
  endfor;
  drawoptions();
  label.urt(btex ${\pi \over 6}$ etex,y[1])withcolor orange;
  dotlabel.urt(btex ${\pi \over 2}$ etex, y[2]) withcolor white;
  label.ulft(btex ${5\pi \over 6}$ etex,y[3])withcolor orange;
  label.llft(btex $-{5\pi \over 6}$ etex,y[4])withcolor orange;
  label.llft(btex $-{\pi \over 2}$ etex,y[5])withcolor orange;
  label.lrt(btex $-{\pi \over 6}$ etex,y[6])withcolor orange;
  label.llft(btex ${\sqrt{3} \over 2}$ etex,(sqrt(3)*u/2,0))withcolor orange;
  label.lrt(btex $-{\sqrt{3} \over 2}$ etex,(-sqrt(3)*u/2,0))withcolor orange;
  label.llft(btex ${1 \over 2}$ etex,(0,u/2))withcolor orange;
  label.llft(btex $-{1 \over 2}$ etex,(0,-u/2))withcolor orange;

%  drawoptions(dashed evenly);

%  path r[] ;
%  r[1]=(cosd(45)*u,-sind(45)*u)--(cosd(45)*u,sind(45)*u)--(0,0);
%  draw r[1] withcolor ciel;
%  for k=2 upto 4 : r[k]=r[1] rotatedaround ((0,0),90*(k-1));
%    draw r[k] withcolor ciel;
%  endfor;

%  pair w[];
%  w[1]=(u,0);
%  for n=2 upto 8:
%    w[n]=w[1] rotatedaround ((0,0),45(n-1));
%  endfor;
%  drawoptions();
%  label.urt(btex ${\pi \over 4}$ etex, w[2])withcolor ciel;
%  dotlabel.urt(btex ${\pi \over 2}$ etex,w[3]);
%  label.ulft(btex ${3\pi \over 4}$ etex,w[4])withcolor ciel;
% dotlabel.llft(btex ${\pi}$ etex,w[5]);
%  label.llft(btex $-{3\pi \over 4}$ etex,w[6])withcolor ciel;
%  label.llft(btex $-{\pi \over 2}$ etex,w[7]);
%  label.lrt(btex $-{\pi \over 4}$ etex,w[8])withcolor ciel;
%  label.ulft(btex ${\sqrt{2} \over 2}$ etex,(sqrt(2)*u/2,0))withcolor ciel;
%  label.urt(btex $-{\sqrt{2} \over 2}$ etex,(-sqrt(2)*u/2,0))withcolor ciel;
%  label.lrt(btex ${\sqrt{2} \over 2}$ etex,(0,sqrt(2)*u/2))withcolor ciel ;
%  label.urt(btex $-{\sqrt{2} \over 2}$ etex,(0,-sqrt(2)*u/2))withcolor ciel;

 endfig;








 beginfig(3)



 numeric u ;
 u=5.5cm;
 drawarrow (-1.2*u,0)--(1.2*u,0) withcolor white;
 drawarrow (0,-1.2*u)--(0,1.2*u) withcolor white;
 draw fullcircle scaled 9cm withpen pencircle scaled 1.3bp withcolor rose;
 drawoptions(dashed evenly);
 % path t[] ;
%  t[1]=(u,0)--(cosd(60)*u,sind(60)*u)--(0,0);
%  draw t[1] withcolor rose;
%  for k=2 upto 6 : t[k]=t[1] rotatedaround ((0,0),60*(k-1));
%    draw t[k] withcolor rose;
%  endfor;
 % path c[] ;
%  c1 =(cosd(60)*u,-sind(60)*u)--(cosd(60)*u,sind(60)*u) ;
%  draw c1 dashed evenly withcolor rose;
%  c2 = c1 shifted (-u,0) ;
%  draw c2 dashed evenly withcolor rose;
%  z[1]=(u,0);
%  for l=2 upto 6:
%    z[l]=z[1] rotatedaround ((0,0),60(l-1));
%  endfor;
%  drawoptions();
%  dotlabel.lrt(btex $0$ etex,(u,0));
%  label.lrt(btex $1 \over2$ etex,(u/2,0))withcolor rose;
%  label.lrt(btex $- {1 \over 2}$ etex,(-u/2,0))withcolor rose;
%  dotlabel.llft(btex $\pi$ etex,(-u,0));

%  label.urt(btex {${\pi \over 3}$} etex, z[2])withcolor rose;
%  label.ulft(btex {${2\pi \over 3}$} etex,z[3])withcolor rose;
%  label.llft(btex {$-{2\pi \over 3}$} etex,z[5])withcolor rose;
%  label.lrt(btex {$-{\pi \over 3}$} etex,z[6])withcolor rose;
%  label.llft(btex ${\sqrt{3} \over 2}$ etex,(0,sqrt(3)*u/2))withcolor rose;
%  label.ulft(btex $-{\sqrt{3} \over 2}$ etex,(0,-sqrt(3)*u/2))withcolor rose;

%   drawoptions(dashed evenly);
%   path p[] ;
%   p[1]=(0,u)--(cosd(30)*u,sind(30)*u)--(0,0);
%   draw p[1] withcolor  orange;
%   for k=2 upto 6 : p[k]=p[1] rotatedaround ((0,0),60*(k-1));
%     draw p[k] withcolor orange;
%   endfor;
%   path s[] ;
%   s1 =(-cosd(30)*u,sind(30)*u)--(cosd(30)*u,sind(30)*u) ;
%   draw s1 dashed evenly withcolor  orange;
%   s2 = s1 shifted (0,-u) ;
%   draw s2 dashed evenly withcolor orange;

%   pair y[];
%   y[1]=(cosd(30)*u,sind(30)*u);
%   for l=2 upto 6:
%     y[l]=y[1] rotatedaround ((0,0),60(l-1));
%   endfor;
%   drawoptions();
%   label.urt(btex ${\pi \over 6}$ etex,y[1])withcolor orange;
%   dotlabel.urt(btex ${\pi \over 2}$ etex, y[2])withcolor orange;
%   label.ulft(btex ${5\pi \over 6}$ etex,y[3])withcolor orange;
%   label.llft(btex $-{5\pi \over 6}$ etex,y[4])withcolor orange;
%   label.llft(btex $-{\pi \over 2}$ etex,y[5])withcolor orange;
%   label.lrt(btex $-{\pi \over 6}$ etex,y[6])withcolor orange;
%   label.llft(btex ${\sqrt{3} \over 2}$ etex,(sqrt(3)*u/2,0))withcolor orange;
%   label.lrt(btex $-{\sqrt{3} \over 2}$ etex,(-sqrt(3)*u/2,0))withcolor orange;
%   label.llft(btex ${1 \over 2}$ etex,(0,u/2))withcolor orange;
%   label.llft(btex $-{1 \over 2}$ etex,(0,-u/2))withcolor orange;

  drawoptions(dashed evenly);

  path r[] ;
  r[1]=(cosd(45)*u,-sind(45)*u)--(cosd(45)*u,sind(45)*u)--(0,0);
  draw r[1] withcolor ciel;
  for k=2 upto 4 : r[k]=r[1] rotatedaround ((0,0),90*(k-1));
    draw r[k] withcolor ciel;
  endfor;

  pair w[];
  w[1]=(u,0);
  for n=2 upto 8:
    w[n]=w[1] rotatedaround ((0,0),45(n-1));
  endfor;
  drawoptions();
  label.urt(btex ${\pi \over 4}$ etex, w[2])withcolor ciel;
  dotlabel.urt(btex ${\pi \over 2}$ etex,w[3])withcolor white;
  label.ulft(btex ${3\pi \over 4}$ etex,w[4])withcolor ciel;
 dotlabel.llft(btex ${\pi}$ etex,w[5])withcolor white;
  label.llft(btex $-{3\pi \over 4}$ etex,w[6])withcolor ciel;
  label.llft(btex $-{\pi \over 2}$ etex,w[7])withcolor white;
  label.lrt(btex $-{\pi \over 4}$ etex,w[8])withcolor ciel;
  label.ulft(btex ${\sqrt{2} \over 2}$ etex,(sqrt(2)*u/2,0))withcolor ciel;
  label.urt(btex $-{\sqrt{2} \over 2}$ etex,(-sqrt(2)*u/2,0))withcolor ciel;
  label.lrt(btex ${\sqrt{2} \over 2}$ etex,(0,sqrt(2)*u/2))withcolor ciel ;
  label.urt(btex $-{\sqrt{2} \over 2}$ etex,(0,-sqrt(2)*u/2))withcolor ciel;

 endfig;






beginfig(4)



numeric u ;
u=7.5cm;
drawarrow (-1.2*u,0)--(1.2*u,0) withcolor white;
drawarrow (0,-1.2*u)--(0,1.2*u) withcolor white;
draw fullcircle scaled 15cm withpen pencircle scaled 1.3bp withcolor rose;
drawoptions(dashed evenly);
path t[] ;
t[1]=(u,0)--(cosd(60)*u,sind(60)*u)--(0,0);
draw t[1] withcolor rose;
for k=2 upto 6 : t[k]=t[1] rotatedaround ((0,0),60*(k-1));
  draw t[k] withcolor rose;
endfor;
path c[] ;
c1 =(cosd(60)*u,-sind(60)*u)--(cosd(60)*u,sind(60)*u) ;
draw c1 dashed evenly withcolor rose;
c2 = c1 shifted (-u,0) ;
draw c2 dashed evenly withcolor rose;
z[1]=(u,0);
for l=2 upto 6:
  z[l]=z[1] rotatedaround ((0,0),60(l-1));
endfor;
drawoptions();
dotlabel.lrt(btex $0$ etex,(u,0)) withcolor white;
label.lrt(btex $1 \over2$ etex,(u/2,0))withcolor rose;
label.lrt(btex $- {1 \over 2}$ etex,(-u/2,0))withcolor rose;
dotlabel.llft(btex $\pi$ etex,(-u,0)) withcolor white;

label.urt(btex {${\pi \over 3}$} etex, z[2])withcolor rose;
label.ulft(btex {${2\pi \over 3}$} etex,z[3])withcolor rose;
label.llft(btex {$-{2\pi \over 3}$} etex,z[5])withcolor rose;
label.lrt(btex {$-{\pi \over 3}$} etex,z[6])withcolor rose;
label.llft(btex ${\sqrt{3} \over 2}$ etex,(0,sqrt(3)*u/2))withcolor rose;
label.ulft(btex $-{\sqrt{3} \over 2}$ etex,(0,-sqrt(3)*u/2))withcolor rose;

drawoptions(dashed evenly);
path p[] ;
p[1]=(0,u)--(cosd(30)*u,sind(30)*u)--(0,0);
draw p[1] withcolor  orange;
for k=2 upto 6 : p[k]=p[1] rotatedaround ((0,0),60*(k-1));
  draw p[k] withcolor orange;
endfor;
path s[] ;
s1 =(-cosd(30)*u,sind(30)*u)--(cosd(30)*u,sind(30)*u) ;
draw s1 dashed evenly withcolor  orange;
s2 = s1 shifted (0,-u) ;
draw s2 dashed evenly withcolor orange;

pair y[];
y[1]=(cosd(30)*u,sind(30)*u);
for l=2 upto 6:
  y[l]=y[1] rotatedaround ((0,0),60(l-1));
endfor;
drawoptions();
label.urt(btex ${\pi \over 6}$ etex,y[1])withcolor orange;
dotlabel.urt(btex ${\pi \over 2}$ etex, y[2]) withcolor white;
label.ulft(btex ${5\pi \over 6}$ etex,y[3])withcolor orange;
label.llft(btex $-{5\pi \over 6}$ etex,y[4])withcolor orange;
label.llft(btex $-{\pi \over 2}$ etex,y[5])withcolor orange;
label.lrt(btex $-{\pi \over 6}$ etex,y[6])withcolor orange;
label.llft(btex ${\sqrt{3} \over 2}$ etex,(sqrt(3)*u/2,0))withcolor orange;
label.lrt(btex $-{\sqrt{3} \over 2}$ etex,(-sqrt(3)*u/2,0))withcolor orange;
label.llft(btex ${1 \over 2}$ etex,(0,u/2))withcolor orange;
label.llft(btex $-{1 \over 2}$ etex,(0,-u/2))withcolor orange;

drawoptions(dashed evenly);

path r[] ;
r[1]=(cosd(45)*u,-sind(45)*u)--(cosd(45)*u,sind(45)*u)--(0,0);
draw r[1] withcolor ciel;
for k=2 upto 4 : r[k]=r[1] rotatedaround ((0,0),90*(k-1));
  draw r[k] withcolor ciel;
endfor;

pair w[];
w[1]=(u,0);
for n=2 upto 8:
  w[n]=w[1] rotatedaround ((0,0),45(n-1));
endfor;
drawoptions();
label.urt(btex ${\pi \over 4}$ etex, w[2])withcolor ciel;
dotlabel.urt(btex ${\pi \over 2}$ etex,w[3]) withcolor white;
label.ulft(btex ${3\pi \over 4}$ etex,w[4])withcolor ciel;
dotlabel.llft(btex ${\pi}$ etex,w[5]) withcolor white;
label.llft(btex $-{3\pi \over 4}$ etex,w[6])withcolor ciel;
label.llft(btex $-{\pi \over 2}$ etex,w[7]) withcolor white;
label.lrt(btex $-{\pi \over 4}$ etex,w[8])withcolor ciel;
label.ulft(btex ${\sqrt{2} \over 2}$ etex,(sqrt(2)*u/2,0))withcolor ciel;
label.urt(btex $-{\sqrt{2} \over 2}$ etex,(-sqrt(2)*u/2,0))withcolor ciel;
label.lrt(btex ${\sqrt{2} \over 2}$ etex,(0,sqrt(2)*u/2))withcolor ciel ;
label.urt(btex $-{\sqrt{2} \over 2}$ etex,(0,-sqrt(2)*u/2))withcolor ciel;

endfig;
















%avant la spirale





beginfig(5 )

  numeric u;
  u:=1cm;
%%
%%%%%%%%%%%%%%%%%%%%%
repere(0,0,-3,3,-2.5,2.5,1cm,1cm);
r_axes;
r_origine;
%r_unites;
r_labelxy;


draw (2.05u,0)--(2.05u,4u) withpen pencircle scaled 1.5bp withcolor rose;
drawarrow (2.05u,4u)--(2.05u,5u ) withpen pencircle scaled 1.5bp withcolor rose dashed evenly;

draw (2.05u ,0)--(2.05u ,-3.75u ) withpen pencircle scaled 1.5bp withcolor ciel;

draw (2.05u ,-3.75u )--(2.05u ,-5u ) withpen pencircle scaled 1.5bp withcolor ciel dashed evenly;

%le cercle
draw fullcircle scaled 2.05cm withcolor white;


label.urt(btex $0$ etex,(2.05u ,0) )withcolor white;
dotlabel.rt(btex $-1$ etex,(2.05u ,-2.05u ) ) withcolor white;
dotlabel.rt(btex $1$ etex,(2.05u ,2.05u ) ) withcolor white;
dotlabel.rt(btex $0,5$ etex,(2.05u,1.025u) ) withcolor white;
dotlabel.rt(btex $\sqrt{2}$ etex,(2.05u,2.9u) ) withcolor white;
label.lrt(btex $\bbr$ etex,(2.05u,4.75u) )withcolor rose;
r_fin;

endfig;



%spirale


beginfig(6 )


%%%%%%%%%%%%%%%%%%%%%%%
vardef fx(expr t)=
        t*cos(t)/(2*Pi)
enddef;

vardef fy(expr t)=
         t*sin(t)/(2*Pi)                      % spirale passant par (1,0)
enddef;
%%%%%%%%%%%%%%%%%%%%%
repere(0,0,-3,3,-2.5,2.5,2cm,2cm);
r_axes;
r_origine;
%r_unites;
r_labelxy;



%On se débrouille pour que le cercle unite soit le cercle osculateur de la spirale :
%On fait une translation de (0,-1/(2Pi)) suivi d'une rotation de -Arctan(1/(2*pi)) autour de  (0,1/(2Pi))
path s,ss,S,sp,Sp,ssp;
s:=(f_courbe(fx,fy,2*Pi,13*Pi/3,1000) shifted r_p(0,-1/(2*Pi))) rotatedaround(r_p(0,1/(2*Pi)),9.043061);
draw s withpen pencircle scaled 1.5bp withcolor rose;
sp:=(f_courbe(fx,fy,13*Pi/3,13*Pi/3+Pi/6,1000) shifted r_p(0,-1/(2*Pi))) rotatedaround(r_p(0,1/(2*Pi)),9.043061);
drawarrow ((f_point(fx,fy,13*Pi/3+Pi/6-0.05)-- f_point(fx,fy,13*Pi/3+Pi/6)) shifted r_p(0,-1/(2*Pi))) rotatedaround(r_p(0,1/(2*Pi)),9.043061)withcolor rose dashed evenly;
label.top(btex $\bbr$ etex,(f_point(fx,fy,13*Pi/3+Pi/6) shifted r_p(0,-1/(2*Pi)))rotatedaround(r_p(0,1/(2*Pi)),9.043061))withcolor rose;
draw sp withpen pencircle scaled 1.5bp withcolor rose dashed evenly;
% vers les négatifs
ss:=(f_courbe(fx,fy,2*Pi,8*Pi/3,1000) shifted r_p(0,-1/(2*Pi))) rotatedaround(r_p(0,1/(2*Pi)),9.043061);
S:=ss reflectedabout(r_p(0,0),r_p(1,0));
draw S withpen pencircle scaled 1.5bp withcolor ciel;
ssp:=(f_courbe(fx,fy,8*Pi/3,8*Pi/3+Pi/6,1000) shifted r_p(0,-1/(2*Pi))) rotatedaround(r_p(0,1/(2*Pi)),9.043061);
Sp:=ssp reflectedabout(r_p(0,0),r_p(1,0));
draw Sp withpen pencircle scaled 1.5bp withcolor ciel dashed evenly;
%le cercle
draw fullcircle scaled 4.1cm withcolor orange;

pair a[];



a[1/2]:=(f_point(fx,fy,2*Pi+0.48) shifted r_p(0,-1/(2*Pi))) rotatedaround(r_p(0,1/(2*Pi)),9.043061);
dotlabel.rt(btex 0.5 etex,a[1/2] ) withcolor white;


a[1.414]:=(f_point(fx,fy,2*Pi+1.27) shifted r_p(0,-1/(2*Pi))) rotatedaround(r_p(0,1/(2*Pi)),9.043061);
dotlabel.top(btex $\sqrt{2}$ etex,a[1.414] ) withcolor white;



a[1]:=(f_point(fx,fy,2*Pi+0.9) shifted r_p(0,-1/(2*Pi))) rotatedaround(r_p(0,1/(2*Pi)),9.043061);
dotlabel.urt(btex $1$ etex,a[1] ) withcolor white;



a[5/2]:=(f_point(fx,fy,2*Pi+2.15) shifted r_p(0,-1/(2*Pi))) rotatedaround(r_p(0,1/(2*Pi)),9.043061);
dotlabel.ulft(btex $\fr{5}{2}$ etex,a[5/2] ) withcolor white;



a[3.14]:=(f_point(fx,fy,2*Pi+2.6) shifted r_p(0,-1/(2*Pi))) rotatedaround(r_p(0,1/(2*Pi)),9.043061);
dotlabel.ulft(btex $\pi$ etex,a[3.14] ) withcolor white;



a[6.28]:=(f_point(fx,fy,2*Pi+4.6) shifted r_p(0,-1/(2*Pi))) rotatedaround(r_p(0,1/(2*Pi)),9.043061);
dotlabel.lrt(btex $2\pi$ etex,a[6.28] ) withcolor white;


a[7.28]:=(f_point(fx,fy,2*Pi+5.14) shifted r_p(0,-1/(2*Pi))) rotatedaround(r_p(0,1/(2*Pi)),9.043061);
dotlabel.lrt(btex $2\pi+1$ etex,a[7.28] ) withcolor white;




drawarrow a[5/2]{dir -85}..(-1.61cm,1.203cm){dir -45} dashed evenly withcolor white;

drawarrow a[3.14]{dir -85}..(-2.05cm,0){dir -25} dashed evenly withcolor white;



drawarrow a[6.28]{dir 20}..(2.05cm,0){dir 135} dashed evenly withcolor white;

drawarrow a[7.28]{dir 50}..a[1]{dir 185} dashed evenly withcolor white;

label.urt(btex $0$ etex,(2.05cm,0) ) withcolor white;
dotlabel.lrt(btex $-1$ etex,(1.086cm,-1.75cm) ) withcolor white;



r_fin;
endfig;






%la galette des rois





beginfig(7)



numeric u ;
u=3.5cm;
drawarrow (-1.2*u,0)--(1.2*u,0) withcolor white;
drawarrow (0,-1.2*u)--(0,1.2*u) withcolor white;
draw fullcircle scaled 2u withpen pencircle scaled 1.3bp withcolor rose;
drawoptions(dashed evenly);
path t[] ;
t[1]=(cosd(60)*u,sind(60)*u)--(0,0);
draw t[1] withcolor rose;
for k=2 upto 6 : t[k]=t[1] rotatedaround ((0,0),60*(k-1));
  draw t[k] withcolor rose;
endfor;
path c[] ;
c1 =(cosd(60)*u,-sind(60)*u)--(cosd(60)*u,sind(60)*u) ;
%draw c1 dashed evenly withcolor 0.5rose;
c2 = c1 shifted (-u,0) ;
%draw c2 dashed evenly withcolor rose;
z[1]=(u,0);
for l=2 upto 6:
  z[l]=z[1] rotatedaround ((0,0),60(l-1));
endfor;
drawoptions();
dotlabel.lrt(btex $0$ etex,(u,0)) withcolor white;
%label.lrt(btex $1 \over2$ etex,(u/2,0))withcolor rose;
%label.lrt(btex $- {1 \over 2}$ etex,(-u/2,0))withcolor rose;
dotlabel.llft(btex $\pi$ etex,(-u,0)) withcolor white;

label.urt(btex {${\pi \over 3}$} etex, z[2])withcolor rose;
label.ulft(btex {${2\pi \over 3}$} etex,z[3])withcolor rose;
label.llft(btex {$-{2\pi \over 3}$} etex,z[5])withcolor rose;
label.lrt(btex {$-{\pi \over 3}$} etex,z[6])withcolor rose;
%label.llft(btex ${\sqrt{3} \over 2}$ etex,(0,sqrt(3)*u/2))withcolor rose;
%label.ulft(btex $-{\sqrt{3} \over 2}$ etex,(0,-sqrt(3)*u/2))withcolor rose;

drawoptions(dashed evenly);
path p[] ;
p[1]=(cosd(30)*u,sind(30)*u)--(0,0);
draw p[1] withcolor  orange;
for k=2 upto 6 : p[k]=p[1] rotatedaround ((0,0),60*(k-1));
  draw p[k] withcolor orange;
endfor;
path s[] ;
s1 =(-cosd(30)*u,sind(30)*u)--(cosd(30)*u,sind(30)*u) ;
%draw s1 dashed evenly withcolor  orange;
s2 = s1 shifted (0,-u) ;
%draw s2 dashed evenly withcolor orange;

pair y[];
y[1]=(cosd(30)*u,sind(30)*u);
for l=2 upto 6:
  y[l]=y[1] rotatedaround ((0,0),60(l-1));
endfor;
drawoptions();
label.urt(btex ${\pi \over 6}$ etex,y[1])withcolor orange;
dotlabel.urt(btex ${\pi \over 2}$ etex, y[2]) withcolor white;
label.ulft(btex ${5\pi \over 6}$ etex,y[3])withcolor orange;
label.llft(btex $-{5\pi \over 6}$ etex,y[4])withcolor orange;
label.llft(btex $-{\pi \over 2}$ etex,y[5])withcolor orange;
label.lrt(btex $-{\pi \over 6}$ etex,y[6])withcolor orange;
%label.llft(btex ${\sqrt{3} \over 2}$ etex,(sqrt(3)*u/2,0))withcolor orange;
%label.lrt(btex $-{\sqrt{3} \over 2}$ etex,(-sqrt(3)*u/2,0))withcolor orange;
%label.llft(btex ${1 \over 2}$ etex,(0,u/2))withcolor orange;
%label.llft(btex $-{1 \over 2}$ etex,(0,-u/2))withcolor orange;

drawoptions(dashed evenly);

path r[] ;
r[1]=(cosd(45)*u,sind(45)*u)--(0,0);
draw r[1] withcolor ciel;
for k=2 upto 4 : r[k]=r[1] rotatedaround ((0,0),90*(k-1));
  draw r[k] withcolor ciel;
endfor;

pair w[];
w[1]=(u,0);
for n=2 upto 8:
  w[n]=w[1] rotatedaround ((0,0),45(n-1));
endfor;
drawoptions();
label.urt(btex ${\pi \over 4}$ etex, w[2])withcolor ciel;
dotlabel.urt(btex ${\pi \over 2}$ etex,w[3]) withcolor white;
label.ulft(btex ${3\pi \over 4}$ etex,w[4])withcolor ciel;
dotlabel.llft(btex ${\pi}$ etex,w[5]) withcolor white;
label.llft(btex $-{3\pi \over 4}$ etex,w[6])withcolor ciel;
label.llft(btex $-{\pi \over 2}$ etex,w[7]) withcolor white;
label.lrt(btex $-{\pi \over 4}$ etex,w[8])withcolor ciel;
%label.ulft(btex ${\sqrt{2} \over 2}$ etex,(sqrt(2)*u/2,0))withcolor ciel;
%label.urt(btex $-{\sqrt{2} \over 2}$ etex,(-sqrt(2)*u/2,0))withcolor ciel;
%label.lrt(btex ${\sqrt{2} \over 2}$ etex,(0,sqrt(2)*u/2))withcolor ciel ;
%label.urt(btex $-{\sqrt{2} \over 2}$ etex,(0,-sqrt(2)*u/2))withcolor ciel;

endfig;












%% Sin, Cos, Tan

beginfig(8);
numeric u;
u=3.5cm ;
drawarrow (-1.2*u,0)--(1.2*u,0) withcolor white;
drawarrow (0,-1.2*u)--(0,1.2*u) withcolor white;
draw fullcircle scaled 7cm withcolor bleu;
draw (0,0)--(cosd(40)*u,sind(40)*u) withpen pencircle scaled 1.2bp withcolor white;
draw (0,sind(40)*u)--(cosd(40)*u,sind(40)*u) dashed evenly withpen pencircle scaled 1.2bp withcolor rose;
draw (cosd(40)*u,0)--(cosd(40)*u,sind(40)*u) dashed evenly withpen pencircle scaled 1.2bp withcolor orange;
%draw (u,-1.3*u)--(u,1.3*u)withpen pencircle scaled 1.2bp withcolor rose;
drawarrow (0.2*u,0){dir 90}..(0.2*cosd(40)*u,0.2*sind(40)*u) withcolor white;
dotlabel.llft(btex $0$ etex, (0,0)) withcolor white;
dotlabel.lrt(btex $I$ etex, (u,0)) withcolor white;
dotlabel.ulft(btex $J$ etex, (0,u)) withcolor white;
label.lft(btex $\sin(x)$ etex, (0,sind(40)*u))withcolor rose;
label.bot(btex $\cos(x)$ etex, (cosd(40)*u,0))withcolor  orange;
%label.rt(btex $\tan(x)$ etex , (u,(sind(40)/cosd(40))*u)) withcolor rose;
dotlabel.top(btex $x$ etex,(cosd(40)*u,sind(40)*u)) withcolor white;
endfig;


% lien triangle 3eme
_nfig:=8;
numeric u;
u=5cm ;
figure(-.25u,-.25u,1.5u,1.5u);
pair O,I,J,M,C;
drawarrow (-1.2*u,0)--(1.2*u,0)dashed evenly withcolor white;
drawarrow (0,-1.2*u)--(0,1.2*u)dashed evenly withcolor white;
draw cercle(origin, u) withcolor ciel dashed evenly;
O=origin;
I=(u,0);
J=(0,u);
M=(cosd(40)*u,sind(40)*u);C=(cosd(40)*u,0);
trace segment(O,M)withpen pencircle scaled 1.2bp withcolor white;
trace segment(M,C) withcolor orange withpen pencircle scaled 1.2bp withcolor white;
trace segment(O,C) withcolor rose withpen pencircle scaled 1.2bp withcolor white;
%trace Codeangle(O,C,M,1,btex x etex );
drawarrow (0.2*u,0){dir 90}..(0.2*cosd(40)*u,0.2*sind(40)*u) withcolor white;
trace codeperp(O,C,M,5);

label.rt(btex $x$ etex,(0.2*cosd(40)*u,0.2*sind(20)*u) ) withcolor white;
dotlabel.llft(btex $0$ etex, (0,0)) withcolor white;
dotlabel.lrt(btex $I$ etex, (u,0)) withcolor white;
dotlabel.ulft(btex $J$ etex, (0,u)) withcolor white;
%label.lft(btex $\sin(x)$ etex, (0,sind(40)*u))withcolor rose;
label.bot(btex $C$ etex, (cosd(40)*u,0))withcolor  rose;

dotlabel.urt(btex $M$ etex,(cosd(40)*u,sind(40)*u)) withcolor white;

trace appelation(O,C,-2mm,btex \footnotesize \color{rose}$\cos(x)$ etex ) withcolor white;

trace appelation(C,M,-2mm,btex \footnotesize \color{orange}$\sin(x)$ etex ) withcolor white;

trace appelation(O,M,2mm,btex \small 1 etex ) withcolor white;
fin;








% fig 10 triangle equi

numeric u;
u=5cm ;
figure(-.25u,-.25u,1.5u,1.5u);
pair O,I,J,M,C;
drawarrow (-1.2*u,0)--(1.2*u,0)dashed evenly withcolor white;
drawarrow (0,-1.2*u)--(0,1.2*u)dashed evenly withcolor white;
draw cercle(origin,u) withcolor ciel dashed evenly withcolor white;
O=origin;
I=(u,0);
J=(0,u);
M=(cosd(60)*u,sind(60)*u);C=(cosd(60)*u,0);
trace segment(O,M)withpen pencircle scaled 1.2bp withcolor white;
trace segment(M,C) withcolor orange withpen pencircle scaled 1.2bp withcolor white;
trace segment(O,C) withcolor rose withpen pencircle scaled 1.2bp withcolor white;
trace segment(M,I) withcolor white;
%trace Codeangle(O,C,M,1,btex x etex );
drawarrow (0.2*u,0){dir 90}..(0.2*cosd(60)*u,0.2*sind(60)*u) withcolor white;
drawarrow ((0.2*cosd(60)*u,0.2*sind(60)*u){dir -30}..(0.2*u,0){dir -90}) reflectedabout(M,C) withcolor white;
trace codeperp(O,C,M,5) withcolor white;

label.rt(btex $\small\ofr{\pi}{3}$ etex,(0.3*cosd(60)*u,0.3*sind(30)*u) ) withcolor white;
label.lft(btex $\small \alpha$ etex,(0.3*cosd(60)*u,0.3*sind(30)*u)  reflectedabout(M,C)) withcolor white; 
dotlabel.llft(btex $0$ etex, (0,0)) withcolor white;
dotlabel.lrt(btex $I$ etex, (u,0)) withcolor white;
dotlabel.ulft(btex $J$ etex, (0,u)) withcolor white;
%label.lft(btex $\sin\pa{\ofr{\pi}{3}}$ etex, (0,sind(60)*u))withcolor rose;
label.bot(btex $C$ etex, (cosd(60)*u,0))withcolor  rose;

dotlabel.urt(btex $M$ etex,(cosd(60)*u,sind(60)*u)) withcolor white;

trace appelation(O,C,-2mm,btex \footnotesize \color{rose}$\cos\pa{\ofr{\pi}{3}}$ etex );

trace appelation(C,M,-2mm,btex \footnotesize \color{orange}$\sin\pa{\ofr{\pi}{3}}$ etex );

trace appelation(O,M,2mm,btex \small 1 etex )  withcolor white;
fin;















%fig 11 cercle trigo paire impaire
%%%%%%%%%%%%%%%%%%%%%%%%%%%%%%%%%%%%%%%%%%%%%%%%%%%%%%%


figure(-1.25u,-1.25u,1.25u,1.25u);
numeric u, r;
u=4cm ;
r=8cm;
drawarrow (-1.2*u,0)--(1.2*u,0) withcolor white;
drawarrow (0,-1.2*u)--(0,1.2*u) withcolor white;
draw fullcircle scaled r withcolor ciel;
draw (0,0)--(u,(cosd(45)/sind(45))*u) withcolor rose;
draw (0,0)--(u,-(cosd(45)/sind(45))*u)withcolor vert_e;
draw (cosd(45)*u,-sind(45)*u)--(cosd(45)*u,sind(45)*u) dashed evenly withcolor white;
draw (0,-sind(45)*u)--(cosd(45)*u,-sind(45)*u) dashed evenly withcolor white;
draw (0,sind(45)*u)--(cosd(45)*u,sind(45)*u) dashed evenly withcolor white;
draw (u,-1.3*u)--(u,1.3*u) withcolor white;
drawarrow (0.2*u,0){dir 90}..(0.2*cosd(45)*u,0.2*sind(45)*u) withcolor white;
drawarrow (0.2*u,0){dir -90}..(0.2*cosd(45)*u,-0.2*sind(45)*u) withcolor white;
dotlabel.ulft(btex $0$ etex, (0,0)) withcolor white;
dotlabel.lrt(btex $I$ etex, (u,0)) withcolor white;
dotlabel.ulft(btex $J$ etex, (0,u)) withcolor white;
dotlabel.lft(btex   \footnotesize $\sin(x)$ etex, (0,sind(45)*u)) withcolor white;
dotlabel.lft(btex \footnotesize $-\sin(x)$ etex, (0,-sind(45)*u)) withcolor white;
dotlabel.urt(btex  \footnotesize $\cos(x)$ etex, (cosd(45)*u,0)) withcolor white;
dotlabel.rt(btex $\tan(x)$ etex , (u,(sind(45)/cosd(45))*u)) withcolor white;
dotlabel.rt(btex $-\tan(x)$ etex , (u,-(sind(45)/cosd(45))*u))withcolor white;
label.top(btex $x$ etex,(cosd(45)*u,sind(45)*u)) withcolor white;
label.bot(btex $-x$ etex,(cosd(45)*u,(-sind(45)-0.05)*u)) withcolor white;
endfig;














% fig 12
%parite
%%%%%%%%%%%%%%%%%%%%%%%%%%%%%%%%%%%%%%%%

figure(-3u,-2u,3u,2u);
numeric u;
u=3cm ;



%%%%%%%%%%%%%%%%%%%%%%%
vardef fx(expr t)=
t
enddef;

vardef fy(expr t)=
           t*t*t*t-2*t*t -1                  % c'est la seule ligne à changer
enddef;
%%%%%%%%%%%%%%%%%%%%%
repere(0,0,-2,2,-2,2,3cm,2cm);

fillcolor:=orange;
transparence r_p(-3,-3)--r_p(0,-3)--r_p(0,3)--r_p(-3,3)--cycle;

r_axes;
r_origine;

r_labelxy;


draw f_courbe(fx,fy,0,2,500)withpen pencircle scaled 1.5bp withcolor rose;
draw f_courbe(fx,fy,-2,0,500)withpen pencircle scaled 1.5bp withcolor rose dashed withdots scaled 0.5;

pair X,mX,fX,fmX,Y;
numeric a;
a:=.5;
mX=r_p(-a,0); X=r_p(a,0); fX=f_point(fx,fy,a); fmX=r_p(fx(-a),fy(-a)); Y=r_p(0,fy(a));

drawarrow mX--fmX withcolor white; drawarrow fmX--Y withcolor white; drawarrow fX--Y withcolor white; drawarrow X--fX withcolor white;

dotlabel.top(btex $-x$ etex,mX ) withcolor white;
dotlabel.top(btex $x$ etex,X ) withcolor white;
dotlabel.llft(btex $f(-x)$ etex,Y ) withcolor white;
dotlabel.lrt(btex $f(x)$ etex,Y ) withcolor white;




r_fin;
endfig;













% fig 13
%  imparite
%%%%%%%%%%%%%%%%%%%%%%%%%%%%%%%%%%%%%%%%

figure(-3u,-2u,3u,2u);
numeric u;
u=3cm ;



%%%%%%%%%%%%%%%%%%%%%%%
vardef fx(expr t)=
t
enddef;

vardef fy(expr t)=
           0.25*t*t*t                  % c'est la seule ligne à changer
enddef;
%%%%%%%%%%%%%%%%%%%%%
repere(0,0,-2,2,-2,2,3cm,2cm);

fillcolor:= orange;
transparence r_p(-3,-3)--r_p(0,-3)--r_p(0,3)--r_p(-3,3)--cycle;

r_axes;
%r_origine;

r_labelxy;


draw f_courbe(fx,fy,0,2,500)withpen pencircle scaled 1.5bp withcolor rose;
draw f_courbe(fx,fy,-2,0,500)withpen pencircle scaled 1.5bp withcolor rose dashed withdots scaled 0.5;

pair X,mX,fX,fmX,Y,mY;
numeric a;
a:=1.5;
mX=r_p(-a,0); X=r_p(a,0); fX=f_point(fx,fy,a); fmX=r_p(fx(-a),fy(-a)); Y=r_p(0,fy(a)); mY=r_p(0,fy(-a));

drawarrow mX--fmX withcolor white; drawarrow fmX--mY withcolor white; drawarrow fX--Y withcolor white; drawarrow X--fX withcolor white;

trace segment(fX,fmX) withcolor white;
trace codesegments(fmX,r_p(0,0),r_p(0,0),fX,2) withcolor white;

dotlabel.top(btex $-x$ etex,mX ) withcolor white;
dotlabel.bot(btex $x$ etex,X ) withcolor white;
dotlabel.lrt(btex $f(-x)$ etex,mY ) withcolor white;
dotlabel.llft(btex $f(x)$ etex,Y ) withcolor white;
label.lrt(btex O etex,origin ) withcolor white;



r_fin;
endfig;













% fig 14
%cosinus
%%%%%%%%%%%%%%%%%%%%%%%%%%%%%%%%%%%%%%%%
  numeric u;
u=3cm ;
figure(-3.5u,-1.25u,3.5u,1.25u);



%%%%%%%%%%%%%%%%%%%%%%%
vardef fx(expr t)=
t
enddef;

vardef fy(expr t)=
           cos(t)                  % c'est la seule ligne à changer
enddef;
%%%%%%%%%%%%%%%%%%%%%
repere(0,0,-3.5,3.5,-1.25,1.25,2cm,2cm);

fillcolor:=orange;
transparence r_p(-4,-3)--r_p(0,-3)--r_p(0,3)--r_p(-4,3)--cycle;

r_axes;
r_origine;
%r_unites;
r_labelxy;


draw f_courbe(fx,fy,0,Pi,500)withpen pencircle scaled 1.5bp withcolor rose;
draw f_courbe(fx,fy,-Pi,0,500)withpen pencircle scaled 1.5bp withcolor rose dashed withdots scaled 0.5;

pair X,mX,fX,fmX,Y;
numeric a;
a:=Pi;
mX:=r_p(-Pi,0); X:=r_p(a,0); fX:=f_point(fx,fy,a); fmX:=r_p(-a,fy(-a)); Y:=r_p(0,fy(a)); mY:=r_p(0,fy(-a));

drawarrow mX--fmX withcolor white; drawarrow fmX--Y withcolor white; drawarrow fX--Y withcolor white; drawarrow X--fX withcolor white;

dotlabel.top(btex $-\pi$ etex,mX ) withcolor white;
dotlabel.top(btex $\pi$ etex,X ) withcolor white;
dotlabel.llft(btex $-1$ etex,mY ) withcolor white;
dotlabel.urt(btex $1$ etex,r_p(0,1) ) withcolor white;
label.urt(btex $\ofr{\pi}{2}$ etex,r_p(Pi/2,0) ) withcolor white;
label.ulft(btex $-\ofr{\pi}{2}$ etex,r_p(-Pi/2,0) ) withcolor white;


r_fin;
endfig;







% fig 15
%
%sinus
%%%%%%%%%%%%%%%%%%%%%%%%%%%%%%%%%%%%%%%%
   numeric u;
u=3cm ;
figure(-3.5u,-1.25u,3.5u,1.25u);




%%%%%%%%%%%%%%%%%%%%%%%
vardef fx(expr t)=
t
enddef;

vardef fy(expr t)=
          sin(t)                  % c'est la seule ligne à changer
enddef;
%%%%%%%%%%%%%%%%%%%%%
repere(0,0,-3.5,3.5,-1.25,1.25,2cm,2cm);

fillcolor:=orange;
transparence r_p(-4,-3)--r_p(0,-3)--r_p(0,3)--r_p(-4,3)--cycle;

r_axes;
%r_origine;

r_labelxy;


draw f_courbe(fx,fy,0,Pi,500)withpen pencircle scaled 1.5bp withcolor rose;
draw f_courbe(fx,fy,-Pi,0,500)withpen pencircle scaled 1.5bp withcolor rose dashed withdots scaled 0.5;

pair X,mX,fX,fmX,Y,mY;
numeric a;
a:=Pi/2;
mX=r_p(-a,0); X=r_p(a,0); fX=f_point(fx,fy,a); fmX=r_p(fx(-a),fy(-a)); Y=r_p(0,fy(a)); mY=r_p(0,fy(-a));

drawarrow mX--fmX withcolor white; drawarrow fmX--mY withcolor white; drawarrow fX--Y withcolor white; drawarrow X--fX withcolor white;

%trace segment(fX,fmX);
%trace codesegments(fmX,r_p(0,0),r_p(0,0),fX,2);

dotlabel.top(btex $-\ofr{\pi}{2}$ etex,mX ) withcolor white;
dotlabel.bot(btex $\ofr{\pi}{2}$ etex,X ) withcolor white;
dotlabel.lrt(btex $-1$ etex,mY ) withcolor white;
dotlabel.llft(btex $1$ etex,Y ) withcolor white;
label.lrt(btex O etex,origin ) withcolor white;

dotlabel.top(btex $-\pi$ etex,r_p(-Pi,0) ) withcolor white;
dotlabel.bot(btex $\pi$ etex,r_p(Pi,0) ) withcolor white;

r_fin;
endfig;













% FIG 16 : p É RIO DI CI Té
%
%

 numeric u;
u=3.5cm ;
figure(-3.5u,-1.25u,3.5u,1.25u);




%%%%%%%%%%%%%%%%%%%%%%%
vardef fx(expr t)=
t
enddef;

vardef fy(expr t)=
          sin(t-1)                  % c'est la seule ligne à changer
enddef;
%%%%%%%%%%%%%%%%%%%%%
repere(0,0,-14,14,-1.25,1.25,0.75cm,2.5cm);

fillcolor:=orange;
transparence r_p(-Pi,-3)--r_p(Pi,-3)--r_p(Pi,3)--r_p(-Pi,3)--cycle;

r_axes;
%r_origine;

r_labelxy;


draw f_courbe(fx,fy,-Pi,Pi,500)withpen pencircle scaled 1.5bp withcolor rose;
draw f_courbe(fx,fy,-3*Pi,-Pi,500)withpen pencircle scaled 1.5bp withcolor ciel dashed withdots scaled 0.5;
draw f_courbe(fx,fy,Pi,3*Pi,500)withpen pencircle scaled 1.5bp withcolor 0.8white dashed evenly scaled 0.5;
draw f_courbe(fx,fy,-5*Pi,-3*Pi,500)withpen pencircle scaled 1.5bp withcolor vert_e dashed evenly;
draw f_courbe(fx,fy,3*Pi,5*Pi,500)withpen pencircle scaled 1.5bp withcolor orange dashed withdots scaled 0.25;

% dotlabel.urt(btex $\pi$ etex,r_p(Pi,0) );
%  dotlabel.urt(btex $3\pi$ etex,r_p(3*Pi,0) );
% dotlabel.urt(btex $-3\pi$ etex,r_p(-3*Pi,0) );
% dotlabel.urt(btex $-\pi$ etex,r_p(-Pi,0) );
% dotlabel.urt(btex $5\pi$ etex,r_p(5*Pi,0) );


drawarrow origin--r_p(1,0)withpen pencircle scaled 1.3bp withcolor white;
drawarrow origin--r_p(0,1)withpen pencircle scaled 1.3bp withcolor white;

label.lft(btex $\ve{j}$ etex,r_p(0,0.5) ) withcolor white;

label.bot(btex $\ve{i}$ etex,r_p(0.5,0) ) withcolor white;


drawarrow r_p(fx(Pi/4),fy(Pi/4))--r_p(fx(Pi/4+2*Pi),fy(Pi/4+2*Pi)) withcolor ciel;
label.top(btex $T\ve{i}$ etex, 0.5[r_p(fx(Pi/4),fy(Pi/4)),r_p(fx(Pi/4+2*Pi),fy(Pi/4+2*Pi))] ) withcolor ciel;


drawarrow r_p(fx(-Pi/6),fy(-Pi/6))--r_p(fx(-Pi/6+2*Pi),fy(-Pi/6+2*Pi)) withcolor ciel;
label.top(btex $T\ve{i}$ etex, 0.5[r_p(fx(-Pi/6),fy(-Pi/6)),r_p(fx(-Pi/6+2*Pi),fy(-Pi/6+2*Pi))] ) withcolor ciel;


drawarrow r_p(fx(-37*Pi/12),fy(-37*Pi/12))--r_p(fx(-37*Pi/12+2*Pi),fy(-37*Pi/12+2*Pi)) withcolor ciel;
label.top(btex $T\ve{i}$ etex, 0.5[r_p(fx(-37*Pi/12),fy(-37*Pi/12)),r_p(fx(-37*Pi/12+2*Pi),fy(-37*Pi/12+2*Pi))] ) withcolor ciel;


drawarrow r_p(fx(-5*Pi/2),fy(-5*Pi/2))--r_p(fx(-5*Pi/2+2*Pi),fy(-5*Pi/2+2*Pi)) withcolor ciel;
label.top(btex $T\ve{i}$ etex, 0.5[r_p(fx(-5*Pi/2),fy(-5*Pi/2)),r_p(fx(-5*Pi/2+2*Pi),fy(-5*Pi/2+2*Pi))] ) withcolor ciel;


fin;






%%%%%%%%% fig 17 cercle trigo

 numeric u;
 u = 3cm ;
 figure(-3.5u,-5.5u,3.5u,3.5u);

  pickup pencircle scaled 0.2mm ;
  draw (-1u,0)--(1u,0) withcolor white;
  draw (0,-u)--(0,u) withcolor white;
  drawarrow (0,0)--(0.97u,0)     withcolor white       withpen pencircle scaled 1bp;
  drawarrow (0,0)--(0,0.97u)      withcolor white      withpen pencircle scaled 1bp;
  draw fullcircle scaled 2u withcolor white;
  pair M;
  M:=(1,0)*u rotated 60 ;
  %draw origin--M withpen pencircle scaled 0.2bp;
label.bot   (btex $\vi$ etex,(0.45,0)*u) withcolor white;
   label.lft   (btex $\vj$ etex,(-0.1,0.5)*u) withcolor white;
    dotlabel.llft(btex $O$ etex, (0,0)) withcolor white;
  %dotlabel.urt(btex $M$ etex, M);
  label.lft   (btex $C$ etex,(-0.7,-0.8)*u) withcolor white;
label.rt   (btex $I$ etex,(1,0)*u) withcolor white;
label.lft   (btex $I'$ etex,(-1,0)*u) withcolor white;
label.top   (btex $J$ etex,(0,1)*u) withcolor white;
label.bot   (btex $J'$ etex,(0,-1)*u) withcolor white;
label.urt   (btex $+$ etex,(1,0.7)*u) withcolor white;
  path p;
  p = (0,0)..(-u,u)..(u,u);
  p:= quartercircle scaled 2.5u;
  drawarrow p withcolor 0.6white;


  
endfig;

%%% fig 18 def radian

  
 numeric u, ud;
 u = 3cm ;
 ud := 0.3*u;
 figure(-3.5u,-5.5u,5.5u,3.5u);


  numeric c;
  c := 0.5*1.732;

  draw fullcircle scaled 2u withcolor white;

  pair O, A, M, S, R, T, RR, TT, v;
  O := origin;
  A := (c, 0.5)*u;
  M := (c, -0.5)*u;
  R := (c, 0.5)*2*u;
  T := (c, -0.5)*1.5*u;
  RR := (c, 0.5)*2.3*u;
  TT := (c, -0.5)*1.8*u;
  v := (1.75,-1.75)*u;

  path a, aa;
  a := RR--O--TT;
  aa := a shifted v;

  draw a withcolor white;
  draw aa withcolor white;

  dotlabel.lft(btex $O$ etex, O) withcolor white;
  dotlabel.top(btex $A$ etex, A) withcolor white;
  dotlabel.top(btex $R'$ etex, R) withcolor white;
  dotlabel.bot(btex $M$ etex, M) withcolor white;
  dotlabel.bot(btex $T'$ etex, T) withcolor white;
  dotlabel.lft(btex $S$ etex, O shifted v) withcolor white;
  dotlabel.top(btex $R$ etex, R shifted v) withcolor white;
  dotlabel.rt(btex $T$ etex, T shifted v) withcolor white;

  path m, mm;
  m :=  ud * dir (-30) {dir (60)} .. ud * dir 30 {dir(120)};
  mm :=  u * dir (-30) {dir (60)} .. u * dir 30 {dir(120)};
  draw m withcolor ciel withpen pencircle scaled 1.3bp;
  draw mm withcolor rose withpen pencircle scaled 1.3bp dashed evenly;
  draw m shifted v withcolor ciel withpen pencircle scaled 1.3bp;
  




endfig;





%%% fig 19 angles associés pi


figure(0,0,10cm,10cm);
pair A,B,C,D,O;
path cc;
numeric ang, r;

ang := 30;

r := 5cm;

O:=(r,r);

drawarrow (r,0)--(r,2*r) withcolor white;
drawarrow (0,r)--(2*r,r) withcolor white;

cc:=cercles(O,0.8*r);
%trace grille(0.5) withcolor .5white;

trace cc withpen pencircle scaled 1.1bp withcolor white;


A:=pointarc(cc, ang);
B:=pointarc(cc, 180 - ang);
C:=pointarc(cc, 180 + ang);
D:=pointarc(cc, - ang);

dotlabel.urt(btex $x$ etex,A ) withcolor white;
dotlabel.ulft(btex $\pi - x$ etex,B ) withcolor white;
dotlabel.llft(btex $\pi +x$ etex,C ) withcolor white;
dotlabel.lrt(btex $-x$ etex,D ) withcolor white;

draw A--B--C--D--cycle dashed evenly withpen pencircle scaled 1.2bp withcolor rose;

fin;



%%% fig 20 angles associés pi/2


figure(0,0,12cm,12cm);
pair M,N,P,C,S,CC,SS,O;
path cc;
numeric ang, u;

ang:= 30;
u:=4cm;

O:=1.3*(u,u);
C:=O+(cosd(30)*u,0);
S:=O+(0,sind(30)*u);
CC:=(sind(30)*u,0);
SS:=O+(0,cosd(30)*u);

drawarrow (1.3*u,0)--(1.3*u,2.6*u) withcolor white;
drawarrow (0,1.3*u)--(2.6*u,1.3*u) withcolor white;

cc:=cercles(O,u);
%trace grille(0.5) withcolor .5white;

trace cc withpen pencircle scaled 1.1bp withcolor white;


M:=pointarc(cc, ang);
N:=pointarc(cc, 90 - ang);
P:=pointarc(cc, 90 + ang);
%D:=pointarc(cc, - ang);

fillcolor:=ciel;
%transparence O--C--M--S--cycle;


dotlabel.urt(btex $x$ etex,M ) withcolor white;
dotlabel.urt(btex $\frac{\pi}{2} - x$ etex,N ) withcolor white;
dotlabel.ulft(btex $\frac{\pi}{2} +x$ etex,P ) withcolor white;


draw C--M--S dashed evenly withpen pencircle scaled 1.2bp withcolor ciel;
draw (O+CC)--N--SS dashed evenly withpen pencircle scaled 1.2bp withcolor rose;
draw (O-CC)--P--SS dashed evenly withpen pencircle scaled 1.2bp withcolor green;

draw O--(O+(1.3*u,1.3*u)) withcolor white;

fin;





% fig 21 cos a+b

numeric u, aM, aN;
aM := 25;
aN := 55;
u=5cm ;
figure(-.25u,-.25u,1.5u,1.5u);
pair O,I,J,M,C,N,D;
drawarrow (-1.2*u,0)--(1.2*u,0)dashed evenly withcolor white;
drawarrow (0,-1.2*u)--(0,1.2*u)dashed evenly withcolor white;
draw cercle(origin, u) withcolor ciel dashed evenly;
O=origin;
I=(u,0);
J=(0,u);
M=(cosd(aM)*u,sind(aM)*u);C=(cosd(aM)*u,0);
N=(cosd(aN)*u,sind(aN)*u);D=(cosd(aN)*u,0);
trace segment(O,M)withpen pencircle scaled 1.2bp withcolor white;
trace segment(M,C) withcolor orange withpen pencircle scaled 1.2bp withcolor white;
trace segment(O,C) withcolor rose withpen pencircle scaled 1.2bp withcolor white;
%trace Codeangle(O,C,M,1,btex x etex );
drawarrow (0.2*u,0){dir 90}..(0.2*cosd(aM)*u,0.2*sind(aM)*u) withcolor white;
trace codeperp(O,C,M,5) withcolor white;

trace segment(O,N)withpen pencircle scaled 1.2bp withcolor white;
trace segment(N,D) withcolor orange withpen pencircle scaled 1.2bp withcolor white;
trace segment(O,D) withcolor rose withpen pencircle scaled 1.2bp withcolor white;
%trace Codeangle(O,C,M,1,btex x etex );
drawarrow (0.3*u,0){dir 90}..(0.3*cosd(aN)*u,0.3*sind(aN)*u) withcolor white;
trace codeperp(O,D,N,5) withcolor white;



label.rt(btex $a$ etex,(0.2*cosd(aM)*u,0.2*sind(0.5*aM)*u) ) withcolor white;

label.rt(btex $b$ etex,(0.35*cosd(aN)*u,0.35*sind(0.75*aN)*u) ) withcolor white;

dotlabel.llft(btex $0$ etex, (0,0)) withcolor white;
dotlabel.lrt(btex $I$ etex, (u,0)) withcolor white;
dotlabel.ulft(btex $J$ etex, (0,u)) withcolor white;
%label.lft(btex $\sin(x)$ etex, (0,sind(40)*u))withcolor rose;
label.bot(btex $C$ etex, (cosd(aM)*u,0))withcolor  rose;
label.bot(btex $D$ etex, (cosd(aN)*u,0))withcolor  rose;


dotlabel.urt(btex $A$ etex,(cosd(aM)*u,sind(aM)*u)) withcolor white;
dotlabel.urt(btex $B$ etex,(cosd(aN)*u,sind(aN)*u)) withcolor white;


fin;





%fig 22 sin x = sin a
%%%%%%%%%%%%%%%%%%%%%%%%%%%%%%%%%%%%%%%%%%%%%%%%%%%%%%%


figure(-1.25u,-1.25u,1.25u,1.25u);
numeric u, r;
u=4cm ;
r=8cm;
drawarrow (-1.2*u,0)--(1.2*u,0) withcolor white;
drawarrow (0,-1.2*u)--(0,1.2*u) withcolor white;
draw fullcircle scaled r withcolor ciel;
draw (0,0)--(u,(cosd(45)/sind(45))*u) withcolor rose;
draw (0,0)--(-u,(cosd(45)/sind(45))*u)withcolor vert_e;
draw (cosd(45)*u,sind(45)*u)--(-cosd(45)*u,sind(45)*u) dashed evenly withcolor white;
draw (cosd(45),0)--(cosd(45)*u,sind(45)*u) dashed evenly withcolor white;
draw (-cosd(45),0)--(-cosd(45)*u,sind(45)*u) dashed evenly withcolor white;
%draw (u,-1.3*u)--(u,1.3*u);
drawarrow (0.2*u,0){dir 90}..(0.2*cosd(45)*u,0.2*sind(45)*u) withcolor white;
drawarrow (0.3*u,0){dir 90}..(-0.3*cosd(45)*u,0.3*sind(45)*u) withcolor white;
dotlabel.ulft(btex $0$ etex, (0,0)) withcolor white;
dotlabel.lrt(btex $I$ etex, (u,0)) withcolor white;
dotlabel.ulft(btex $J$ etex, (0,u)) withcolor white;
dotlabel.ulft(btex   \footnotesize $\sin(x)$ etex, (0,(sind(45))*u)) withcolor white;
%dotlabel.lft(btex \footnotesize $-\cos(x)$ etex, (-cosd(45)*u,0)) withcolor white;
%dotlabel.urt(btex  \footnotesize $\cos(x)$ etex, (cosd(45)*u,0)) withcolor white;
%dotlabel.rt(btex $\tan(x)$ etex , (u,(sind(45)/cosd(45))*u));
%dotlabel.rt(btex $-\tan(x)$ etex , (u,-(sind(45)/cosd(45))*u));
label.top(btex $x$ etex,(cosd(45)*u,sind(45)*u)) withcolor white;
label.llft(btex $\pi-x$ etex,((-cosd(45)-0.05)*u,(sind(45))*u)) withcolor white;
endfig;





%fig 23 tan x = tan a
%%%%%%%%%%%%%%%%%%%%%%%%%%%%%%%%%%%%%%%%%%%%%%%%%%%%%%%


figure(-1.25u,-1.25u,1.45u,1.25u);
numeric u, r;
u=4cm ;
r=8cm;
drawarrow (-1.2*u,0)--(1.2*u,0) withcolor white;
drawarrow (0,-1.2*u)--(0,1.2*u) withcolor white;
draw fullcircle scaled r withcolor ciel;
draw (0,0)--(u,(cosd(45)/sind(45))*u) withcolor rose;
draw (0,0)--(-u,-(cosd(45)/sind(45))*u)withcolor vert_e;
% draw (cosd(45)*u,sind(45)*u)--(-cosd(45)*u,sind(45)*u) dashed evenly withcolor white;
% draw (cosd(45),0)--(cosd(45)*u,sind(45)*u) dashed evenly withcolor white;
% draw (-cosd(45),0)--(-cosd(45)*u,sind(45)*u) dashed evenly withcolor white;
draw (u,-1.3*u)--(u,1.3*u) withcolor white;
drawarrow (0.2*u,0){dir 90}..(0.2*cosd(45)*u,0.2*sind(45)*u) withcolor white;
drawarrow (0.3*u,0){dir 90}..(-0.3*cosd(45)*u,-0.3*sind(45)*u) withcolor white;
dotlabel.ulft(btex $0$ etex, (0,0)) withcolor white;
dotlabel.lrt(btex $I$ etex, (u,0)) withcolor white;
dotlabel.ulft(btex $J$ etex, (0,u)) withcolor white;
% dotlabel.lft(btex   \footnotesize $\sin(x)$ etex, (0,sind(45)*u)) withcolor white;
% dotlabel.lft(btex \footnotesize $-\cos(x)$ etex, (-cosd(45)*u,0)) withcolor white;
% dotlabel.urt(btex  \footnotesize $\cos(x)$ etex, (cosd(45)*u,0)) withcolor white;
dotlabel.rt(btex $\tan(x)$ etex , (u,(sind(45)/cosd(45))*u)) withcolor white;
%dotlabel.rt(btex $-\tan(x)$ etex , (u,-(sind(45)/cosd(45))*u));
label.top(btex $x$ etex,(cosd(45)*u,sind(45)*u)) withcolor white;
label.bot(btex $\pi+x$ etex,(-cosd(45)*u,(-sind(45)-0.05)*u)) withcolor white;
endfig;







%fig 24 cos x = cos a
%%%%%%%%%%%%%%%%%%%%%%%%%%%%%%%%%%%%%%%%%%%%%%%%%%%%%%%


figure(-1.25u,-1.25u,1.25u,1.25u);
numeric u, r;
u=4cm ;
r=8cm;
drawarrow (-1.2*u,0)--(1.2*u,0) withcolor white;
drawarrow (0,-1.2*u)--(0,1.2*u) withcolor white;
draw fullcircle scaled r withcolor ciel;
draw (0,0)--(u,(cosd(45)/sind(45))*u) withcolor rose;
draw (0,0)--(u,-(cosd(45)/sind(45))*u)withcolor vert_e;
draw (cosd(45)*u,-sind(45)*u)--(cosd(45)*u,sind(45)*u) dashed evenly withcolor white;
%draw (0,-sind(45)*u)--(cosd(45)*u,-sind(45)*u) dashed evenly withcolor white;
%draw (0,sind(45)*u)--(cosd(45)*u,sind(45)*u) dashed evenly withcolor white;
%draw (u,-1.3*u)--(u,1.3*u) withcolor white;
drawarrow (0.2*u,0){dir 90}..(0.2*cosd(45)*u,0.2*sind(45)*u) withcolor white;
drawarrow (0.2*u,0){dir -90}..(0.2*cosd(45)*u,-0.2*sind(45)*u) withcolor white;
dotlabel.ulft(btex $0$ etex, (0,0)) withcolor white;
dotlabel.lrt(btex $I$ etex, (u,0)) withcolor white;
dotlabel.ulft(btex $J$ etex, (0,u)) withcolor white;
%dotlabel.lft(btex   \footnotesize $\sin(x)$ etex, (0,sind(45)*u)) withcolor white;
%dotlabel.lft(btex \footnotesize $-\sin(x)$ etex, (0,-sind(45)*u)) withcolor white;
dotlabel.urt(btex  \footnotesize $\cos(x)$ etex, (cosd(45)*u,0)) withcolor white;
%dotlabel.rt(btex $\tan(x)$ etex , (u,(sind(45)/cosd(45))*u)) withcolor white;
%dotlabel.rt(btex $-\tan(x)$ etex , (u,-(sind(45)/cosd(45))*u))withcolor white;
label.top(btex $x$ etex,(cosd(45)*u,sind(45)*u)) withcolor white;
label.bot(btex $-x$ etex,(cosd(45)*u,(-sind(45)-0.05)*u)) withcolor white;
endfig;


































end

















 end


