\relax 
\providecommand\hyper@newdestlabel[2]{}
\providecommand\zref@newlabel[2]{}
\@writefile{toc}{\contentsline {chapter}{\numberline {1}G\IeC {\'e}n\IeC {\'e}ralit\IeC {\'e}s sur les fonctions}{3}{chapter.1}\protected@file@percent }
\@writefile{lof}{\addvspace {10\p@ }}
\@writefile{lot}{\addvspace {10\p@ }}
\@writefile{lof}{\contentsline {xchapter}{G\IeC {\'e}n\IeC {\'e}ralit\IeC {\'e}s sur les fonctions}{4}{chapter.1}\protected@file@percent }
\@writefile{lot}{\contentsline {xchapter}{G\IeC {\'e}n\IeC {\'e}ralit\IeC {\'e}s sur les fonctions}{4}{chapter.1}\protected@file@percent }
\@writefile{toc}{\contentsline {section}{\numberline {1.1}Cours de 2nde}{4}{section.2}\protected@file@percent }
\@writefile{toc}{\contentsline {subsection}{\numberline {1.1.1}Teaser...}{4}{subsection.3}\protected@file@percent }
\@writefile{toc}{\contentsline {subsubsection}{\numberline {1.1.1.1}Suivez la fl\IeC {\`e}che}{4}{subsubsection.4}\protected@file@percent }
\@writefile{toc}{\contentsline {subsection}{\numberline {1.1.2}In English}{4}{subsection.6}\protected@file@percent }
\@writefile{toc}{\contentsline {subsubsection}{\numberline {1.1.2.1}Les fonctions en informatique}{4}{subsubsection.7}\protected@file@percent }
\@writefile{toc}{\contentsline {subsubsection}{\numberline {1.1.2.2}Une fonction qui existe d\IeC {\'e}j\IeC {\`a}}{4}{subsubsection.8}\protected@file@percent }
\@writefile{toc}{\contentsline {subsubsection}{\numberline {1.1.2.3}Cr\IeC {\'e}ons une fonction simple}{5}{subsubsection.9}\protected@file@percent }
\@writefile{toc}{\contentsline {subsubsection}{\numberline {1.1.2.4}Cr\IeC {\'e}ons une fonction un peu plus compliqu\IeC {\'e}e}{5}{subsubsection.10}\protected@file@percent }
\@writefile{toc}{\contentsline {subsection}{\numberline {1.1.3}Qu'est-ce qu'une fonction?}{6}{subsection.11}\protected@file@percent }
\newlabel{1@xvr}{{}{6}}
\newlabel{1@vr}{{}{6}}
\newlabel{lagrange}{{1.1.3}{7}{Qu'est-ce qu'une fonction?}{definition.12}{}}
\newlabel{histoire}{{1.1.3}{9}{Qu'est-ce qu'une fonction?}{exemple.13}{}}
\newlabel{2@xvr}{{}{9}}
\newlabel{2@vr}{{}{9}}
\@writefile{toc}{\contentsline {subsection}{\numberline {1.1.4}Diff\IeC {\'e}rentes repr\IeC {\'e}sentations d'une fonction}{9}{subsection.15}\protected@file@percent }
\@writefile{toc}{\contentsline {subsubsection}{\numberline {1.1.4.1}Diagramme sagittal}{9}{subsubsection.16}\protected@file@percent }
\@writefile{toc}{\contentsline {subsubsection}{\numberline {1.1.4.2}Tableau de valeurs}{10}{subsubsection.17}\protected@file@percent }
\@writefile{toc}{\contentsline {subsubsection}{\numberline {1.1.4.3}Utilisation de Python}{10}{subsubsection.18}\protected@file@percent }
\@writefile{toc}{\contentsline {subsubsection}{\numberline {1.1.4.4}Repr\IeC {\'e}sentation graphique}{11}{subsubsection.19}\protected@file@percent }
\@writefile{toc}{\contentsline {paragraph}{\numberline {1.1.4.4.1}Lecture d'une courbe}{11}{paragraph.20}\protected@file@percent }
\@writefile{toc}{\contentsline {paragraph}{\numberline {1.1.4.4.2}Repr\IeC {\'e}sentation graphique d'une fonction: un exemple}{12}{paragraph.28}\protected@file@percent }
\@writefile{toc}{\contentsline {subsubsection}{\numberline {1.1.4.5}Repr\IeC {\'e}sentation graphique d'une fonction: le cours}{12}{subsubsection.33}\protected@file@percent }
\@writefile{toc}{\contentsline {subsection}{\numberline {1.1.5}R\IeC {\'e}solution d'\IeC {\'e}quations et d'in\IeC {\'e}quations}{13}{subsection.35}\protected@file@percent }
\@writefile{toc}{\contentsline {subsubsection}{\numberline {1.1.5.1}R\IeC {\'e}solution graphique d'\IeC {\'e}quations}{13}{subsubsection.36}\protected@file@percent }
\@writefile{toc}{\contentsline {subsubsection}{\numberline {1.1.5.2}R\IeC {\'e}solution graphique d'in\IeC {\'e}quations}{14}{subsubsection.37}\protected@file@percent }
\@writefile{toc}{\contentsline {section}{\numberline {1.2}En Terminale}{15}{section.38}\protected@file@percent }
\@writefile{toc}{\contentsline {subsection}{\numberline {1.2.1}Parit\IeC {\'e}}{15}{subsection.39}\protected@file@percent }
\@writefile{toc}{\contentsline {subsection}{\numberline {1.2.2}P\IeC {\'e}riodicit\IeC {\'e}}{16}{subsection.43}\protected@file@percent }
\@writefile{toc}{\contentsline {subsection}{\numberline {1.2.3}Bornes}{17}{subsection.45}\protected@file@percent }
\@writefile{toc}{\contentsline {subsection}{\numberline {1.2.4}Monotonie}{17}{subsection.48}\protected@file@percent }
\@writefile{toc}{\contentsline {subsection}{\numberline {1.2.5}Op\IeC {\'e}rations sur les fonctions}{19}{subsection.53}\protected@file@percent }
\@writefile{toc}{\contentsline {section}{\numberline {1.3}Premi\IeC {\`e}re s\IeC {\'e}rie de recettes}{19}{section.58}\protected@file@percent }
\@writefile{toc}{\contentsline {subsection}{\numberline {1.3.1} Comment montrer qu'une fonction est paire?}{19}{subsection.59}\protected@file@percent }
\@writefile{toc}{\contentsline {subsection}{\numberline {1.3.2} Comment montrer qu'une fonction est impaire?}{19}{subsection.60}\protected@file@percent }
\@writefile{toc}{\contentsline {subsection}{\numberline {1.3.3} Comment montrer qu'une courbe admet le point A(a,b) comme centre de sym\IeC {\'e}trie? }{19}{subsection.61}\protected@file@percent }
\@writefile{toc}{\contentsline {subsection}{\numberline {1.3.4} Comment montrer qu'une fonction est p\IeC {\'e}riodique?}{19}{subsection.62}\protected@file@percent }
\@writefile{toc}{\contentsline {subsection}{\numberline {1.3.5} Comment \IeC {\'e}tudier le signe d'une expression?}{20}{subsection.63}\protected@file@percent }
\@writefile{toc}{\contentsline {subsection}{\numberline {1.3.6}Qu'est-ce qu'une fonction croissante sur I?}{20}{subsection.64}\protected@file@percent }
\@writefile{toc}{\contentsline {section}{\numberline {1.4}Fonctions usuelles}{20}{section.65}\protected@file@percent }
\@writefile{toc}{\contentsline {subsection}{\numberline {1.4.1}Fonction tangente}{20}{subsection.66}\protected@file@percent }
\@writefile{toc}{\contentsline {subsection}{\numberline {1.4.2}Rappels sur exp et ln}{21}{subsection.70}\protected@file@percent }
\@writefile{toc}{\contentsline {section}{\numberline {1.5}Seconde s\'erie de recettes}{23}{section.79}\protected@file@percent }
\newlabel{met3:inegalite}{{1.5}{23}{Seconde s\'erie de recettes}{section.79}{}}
\newlabel{met3:valabs}{{1.5}{24}{Seconde s\'erie de recettes}{Item.81}{}}
\newlabel{met3:etude}{{1.5}{24}{Seconde s\'erie de recettes}{Item.81}{}}
\newlabel{met3:inegder}{{1.5}{25}{Seconde s\'erie de recettes}{Item.87}{}}
\newlabel{met3:bijprat}{{1.5}{25}{Seconde s\'erie de recettes}{Item.87}{}}
\@writefile{toc}{\contentsline {section}{\numberline {1.6}Quelques petits jeux}{26}{section.88}\protected@file@percent }
\@writefile{toc}{\contentsline {subsection}{\numberline {1.6.1}En 2nde}{26}{subsection.89}\protected@file@percent }
\@writefile{lof}{\contentsline {figure}{\numberline {1.1}{\ignorespaces \relax }}{26}{figure.caption.92}\protected@file@percent }
\providecommand*\caption@xref[2]{\@setref\relax\@undefined{#1}}
\newlabel{ex1}{{1.1}{26}{\relax }{figure.caption.92}{}}
\@writefile{lof}{\contentsline {figure}{\numberline {1.2}{\ignorespaces \relax }}{27}{figure.caption.128}\protected@file@percent }
\newlabel{ex1bis}{{1.2}{27}{\relax }{figure.caption.128}{}}
\@writefile{lof}{\contentsline {figure}{\numberline {1.3}{\ignorespaces \relax }}{28}{figure.caption.137}\protected@file@percent }
\newlabel{ex2}{{1.3}{28}{\relax }{figure.caption.137}{}}
\@writefile{lof}{\contentsline {figure}{\numberline {1.4}{\ignorespaces \relax }}{28}{figure.caption.148}\protected@file@percent }
\newlabel{ex3}{{1.4}{28}{\relax }{figure.caption.148}{}}
\@writefile{lof}{\contentsline {figure}{\numberline {1.5}{\ignorespaces \relax }}{29}{figure.caption.174}\protected@file@percent }
\newlabel{ex4}{{1.5}{29}{\relax }{figure.caption.174}{}}
\@writefile{lot}{\contentsline {table}{\numberline {1.1}{\ignorespaces L'\IeC {\^a}ge d'un Schritzz\^n\`otschh \IeC {\`a} poil vert ramen\IeC {\'e} \IeC {\`a} l'\IeC {\'e}chelle humaine\relax }}{30}{table.caption.204}\protected@file@percent }
\newlabel{3@xvr}{{}{31}}
\newlabel{3@vr}{{}{31}}
\@writefile{lof}{\contentsline {figure}{\numberline {1.6}{\ignorespaces \'Evolution de la population de Schritzz\^n\`otschhs \IeC {\`a} poil vert\relax }}{33}{figure.caption.255}\protected@file@percent }
\newlabel{pop}{{1.6}{33}{\'Evolution de la population de Schritzz\^n\`otschhs à poil vert\relax }{figure.caption.255}{}}
\newlabel{4@xvr}{{}{33}}
\newlabel{4@vr}{{}{33}}
\@writefile{lof}{\contentsline {figure}{\numberline {1.7}{\ignorespaces Concentration de Atchtzztscct en fonction du temps\relax }}{33}{figure.caption.262}\protected@file@percent }
\newlabel{chch}{{1.7}{33}{Concentration de Atchtzztscct en fonction du temps\relax }{figure.caption.262}{}}
\newlabel{5@xvr}{{}{34}}
\newlabel{5@vr}{{}{34}}
\@writefile{lof}{\contentsline {figure}{\numberline {1.8}{\ignorespaces R\IeC {\'e}sistance en fonction du temps\relax }}{34}{figure.caption.267}\protected@file@percent }
\newlabel{riri}{{1.8}{34}{Résistance en fonction du temps\relax }{figure.caption.267}{}}
\@writefile{toc}{\contentsline {subsection}{\numberline {1.6.2}En Terminale}{37}{subsection.325}\protected@file@percent }
\newlabel{ch}{{1.30}{38}{En Terminale}{recherche.354}{}}
\@setckpt{fonctions21}{
\setcounter{page}{42}
\setcounter{equation}{0}
\setcounter{enumi}{2}
\setcounter{enumii}{2}
\setcounter{enumiii}{4}
\setcounter{enumiv}{0}
\setcounter{footnote}{0}
\setcounter{mpfootnote}{0}
\setcounter{part}{0}
\setcounter{chapter}{1}
\setcounter{section}{6}
\setcounter{subsection}{2}
\setcounter{subsubsection}{0}
\setcounter{paragraph}{0}
\setcounter{subparagraph}{0}
\setcounter{figure}{8}
\setcounter{table}{1}
\setcounter{chapterstar}{0}
\setcounter{@stackindex}{0}
\setcounter{ROWcellindex@}{0}
\setcounter{tcbbreakpart}{0}
\setcounter{tcblayer}{0}
\setcounter{tcolorbox@number}{0}
\setcounter{parentequation}{0}
\setcounter{ifsymcnt}{0}
\setcounter{lstnumber}{1}
\setcounter{vrcnt}{5}
\setcounter{tw@hyphen@char@num}{0}
\setcounter{float@type}{64}
\setcounter{subfigure}{0}
\setcounter{lofdepth}{1}
\setcounter{subtable}{0}
\setcounter{lotdepth}{1}
\setcounter{Item}{236}
\setcounter{Hfootnote}{0}
\setcounter{bookmark@seq@number}{27}
\setcounter{mdf@globalstyle@cnt}{1}
\setcounter{mdfcountframes}{0}
\setcounter{mdf@env@i}{0}
\setcounter{mdf@env@ii}{0}
\setcounter{mdf@zref@counter}{0}
\setcounter{bclogocompteur}{0}
\setcounter{BAenumi}{0}
\setcounter{caption@flags}{0}
\setcounter{continuedfloat}{0}
\setcounter{tabularnote}{0}
\setcounter{num}{0}
\setcounter{qcm}{0}
\setcounter{FancyVerbLine}{8}
\setcounter{linenumber}{3}
\setcounter{LN@truepage}{41}
\setcounter{minted@FancyVerbLineTemp}{0}
\setcounter{listing}{0}
\setcounter{numquestion}{0}
\setcounter{qcm@numb}{0}
\setcounter{numprop}{0}
\setcounter{LT@tables}{0}
\setcounter{LT@chunks}{0}
\setcounter{@LCDdotx}{0}
\setcounter{@LCDdoty}{0}
\setcounter{@LCDchrx}{0}
\setcounter{@LCDlines}{0}
\setcounter{@LCDlower}{0}
\setcounter{nprt@mantissa@digitsbefore}{0}
\setcounter{nprt@mantissa@digitsafter}{0}
\setcounter{nprt@exponent@digitsbefore}{0}
\setcounter{nprt@exponent@digitsafter}{0}
\setcounter{nprt@digitsfirstblock}{0}
\setcounter{nprt@blockcnt}{0}
\setcounter{nprt@cntprint}{0}
\setcounter{mtc}{1}
\setcounter{minitocdepth}{2}
\setcounter{ptc}{0}
\setcounter{parttocdepth}{2}
\setcounter{tkz@gr@a}{0}
\setcounter{tkz@gr@b}{0}
\setcounter{tkz@gr@c}{0}
\setcounter{tkz@gr@e}{0}
\setcounter{tkz@gr@d}{0}
\setcounter{tkz@gr@p}{0}
\setcounter{tkz@gr@i}{0}
\setcounter{tkz@gr@n}{0}
\setcounter{tkz@gr@ta}{0}
\setcounter{tkz@gr@tb}{0}
\setcounter{tkz@cnt@line}{3}
\setcounter{tkz@cnt@lg}{2}
\setcounter{tkz@cnt@cl}{2}
\setcounter{tkz@cnt@pred}{1}
\setcounter{tkz@cnt@temp}{0}
\setcounter{tkz@cnt@arrow}{2}
\setcounter{tkz@cnt@zone}{0}
\setcounter{tkz@cnt@lgnext}{3}
\setcounter{tkz@cnt@clnext}{2}
\setcounter{tkz@cnt@pair}{2}
\setcounter{tkz@cnt@impair}{2}
\setcounter{tkz@cnt@aw}{2}
\setcounter{C@NumTab}{0}
\setcounter{C@NumGroup}{0}
\setcounter{C@NextNode}{0}
\setcounter{NumC@Node}{0}
\setcounter{NumC@Stop}{0}
\setcounter{C@CurrentStop}{0}
\setcounter{C@CurrentNode}{0}
\setcounter{C@CurrentGroup}{0}
\setcounter{r@tfl@t}{0}
\setcounter{c@imbrication}{-1}
\setcounter{c@indentation}{0}
\setcounter{c@instruction}{20}
\setcounter{c@algo}{2}
\setcounter{c@tabdim}{0}
\setcounter{c@chaineouverte}{0}
\setcounter{floatalgo}{0}
\setcounter{aide}{0}
\setcounter{sol}{0}
\setcounter{etoc@tocid}{0}
\setcounter{etoc@tocdepth}{0}
\setcounter{theoreme}{8}
\setcounter{lemme}{0}
\setcounter{corollaire}{0}
\setcounter{propriete}{0}
\setcounter{definition}{17}
\setcounter{exemple}{3}
\setcounter{remarque}{3}
\setcounter{recherche}{39}
\setcounter{exercicea}{0}
\setcounter{exerciceb}{0}
\setcounter{exercicec}{0}
\setcounter{pyquestions}{0}
\setcounter{pyxercice}{0}
\setcounter{lstlisting}{0}
\setcounter{section@level}{0}
\setcounter{tabularnotesi}{0}
\setcounter{tabularnotes*i}{0}
\setcounter{minilofdepth}{2}
\setcounter{minilotdepth}{2}
\setcounter{partlofdepth}{2}
\setcounter{partlotdepth}{2}
\setcounter{sectlofdepth}{2}
\setcounter{sectlotdepth}{2}
}
