\relax 
\providecommand \oddpage@label [2]{}
\@writefile{toc}{\contentsline {section}{\numberline {1}Finding areas by integration}{1}{}\protected@file@percent }
\@writefile{toc}{\contentsline {section}{\numberline {2}Contents}{1}{}\protected@file@percent }
\@writefile{toc}{\contentsline {section}{\numberline {3}Introduction}{1}{}\protected@file@percent }
\@writefile{toc}{\contentsline {section}{\numberline {4}The area between a curve and the $x$-axis}{2}{}\protected@file@percent }
\@writefile{toc}{\contentsline {section}{\numberline {5}Key Point}{4}{}\protected@file@percent }
\@writefile{toc}{\contentsline {section}{\numberline {6}Some examples}{5}{}\protected@file@percent }
\@writefile{toc}{\contentsline {section}{\numberline {7}Example}{5}{}\protected@file@percent }
\@writefile{toc}{\contentsline {section}{\numberline {8}Solution}{5}{}\protected@file@percent }
\@writefile{toc}{\contentsline {section}{\numberline {9}Example}{6}{}\protected@file@percent }
\@writefile{toc}{\contentsline {section}{\numberline {10}Solution}{6}{}\protected@file@percent }
\@writefile{toc}{\contentsline {section}{\numberline {11}Exercises}{7}{}\protected@file@percent }
\@writefile{toc}{\contentsline {section}{\numberline {12}The area between two curves}{8}{}\protected@file@percent }
\@writefile{toc}{\contentsline {section}{\numberline {13}Example}{8}{}\protected@file@percent }
\@writefile{toc}{\contentsline {section}{\numberline {14}Solution}{8}{}\protected@file@percent }
\@writefile{toc}{\contentsline {section}{\numberline {15}Example}{10}{}\protected@file@percent }
\@writefile{toc}{\contentsline {section}{\numberline {16}Solution}{10}{}\protected@file@percent }
\@writefile{toc}{\contentsline {section}{\numberline {17}Key Point}{12}{}\protected@file@percent }
\@writefile{toc}{\contentsline {section}{\numberline {18}Another way of finding the area between two curves}{12}{}\protected@file@percent }
\@writefile{toc}{\contentsline {section}{\numberline {19}Key Point}{14}{}\protected@file@percent }
\@writefile{toc}{\contentsline {section}{\numberline {20}Exercises}{14}{}\protected@file@percent }
\@writefile{toc}{\contentsline {section}{\numberline {21}Answers}{14}{}\protected@file@percent }
\gdef \@abspage@last{15}
